﻿<?xml version="1.0" encoding="utf-8"?>
<!DOCTYPE svg PUBLIC "-//W3C//DTD SVG 1.0//EN" "http://www.w3.org/TR/2001/REC-SVG-20010904/DTD/svg10.dtd"[
	<!ENTITY ns_flows "http://ns.adobe.com/Flows/1.0/">
	<!ENTITY ns_svg "http://www.w3.org/2000/svg">
	<!ENTITY ns_xlink "http://www.w3.org/1999/xlink">
	<!ENTITY st0 "font-size:7px;font-family:'MS-PGothic';adobe-font-script:japanese;">
	<!ENTITY st1 "font-size:6px;font-family:'ArialMT';">
	<!-- White fill  -->
	<!ENTITY st2 "fill:#FFFFFF;stroke:#000000; stroke-width:1.41;stroke-linecap:round;stroke-linejoin:round;">
	<!-- Yellow fill  -->
	<!ENTITY st3 "fill:#FFFFCC;stroke:#FFFFCC; stroke-width:0.1;stroke-linecap:round;stroke-linejoin:round;">
	<!-- Gray fill  -->
	<!ENTITY st4 "fill:#CCCCCC;stroke:#CCCCCC; stroke-width:0.1;stroke-linecap:round;stroke-linejoin:round;">
	<!-- Light-blue fill -->
	<!ENTITY st5 "fill:#CCECF4;stroke:#000000; stroke-width:1.133;stroke-linecap:round;stroke-linejoin:round;">
	<!ENTITY st6 "fill:none;stroke-linecap:butt; stroke-linejoin:round;">
	<!ENTITY st7 "fill:none;stroke:#000000;stroke-linecap:round;stroke-linejoin:round;">
	<!ENTITY st8 "enable-background:new    ;">
	<!-- Black fill -->
	<!ENTITY st9 "fill:#000000;stroke:#000000; stroke-linecap:round;stroke-linejoin:round;">
	<!-- SRS note   -->
	<!ENTITY st10 "font-size:9px;font-family:'ArialMT';">
	<!ENTITY st11 "font-size:9px;font-family:'Svg Symbol';">
	<!ENTITY st12 "font-size:6px;font-family:'Svg Symbol';">
	<!ENTITY st13 "fill:none;stroke:#ff0000;stroke-linecap:round;stroke-linejoin:round;">
	<!-- Yellow fill  -->
	<!ENTITY st14 "fill:#FFFF00;stroke:#FFFF00; stroke-width:0.1;stroke-linecap:round;stroke-linejoin:round;">
	<!ENTITY st15 "font-size:6px;font-family:'MS-PGothic';adobe-font-script:japanese;">
	<!ENTITY st16 "1.00 0.00 0.00 1.00">
	<!ENTITY st17 "0.00 -1.00 1.00 0.00">
	<!ENTITY st18 "font-size:6px;font-family:'Arial';">
	<!ENTITY st19 "font-size:9px;font-family:'Arial';">
	<!ENTITY st20 "font-size:6px;font-family:'MS-PGothic','MS PGothic';adobe-font-script:japanese;">
	<!ENTITY st21 "font-size:7px;font-family:'MS-PGothic','MS PGothic';adobe-font-script:japanese;">
	<!ATTLIST svg
		xmlns:ewd CDATA #FIXED "http://shcl.co.jp/ewd"
		xmlns:a CDATA #FIXED "http://ns.adobe.com/AdobeSVGViewerExtensions/3.0/"
		ewd:ver CDATA #IMPLIED
	>
	<!ATTLIST a
		ewd:lineID CDATA #IMPLIED
		ewd:groupID CDATA #IMPLIED
		ewd:figtype CDATA #IMPLIED
		ewd:code CDATA #IMPLIED
		ewd:figID CDATA #IMPLIED
		ewd:pinNo CDATA #IMPLIED
		ewd:comment CDATA #IMPLIED >
	<!ATTLIST g
		ewd:lineID CDATA #IMPLIED
		ewd:groupID CDATA #IMPLIED
		ewd:figtype CDATA #IMPLIED
		ewd:code CDATA #IMPLIED
		ewd:figID CDATA #IMPLIED
		ewd:pinNo CDATA #IMPLIED
		ewd:comment CDATA #IMPLIED >
	<!ATTLIST text
		ewd:textID CDATA #IMPLIED >
	<!ATTLIST title
		ewd:textID CDATA #IMPLIED >
]>
<!-- Generator: Shintec Hozumi YS   -->
<svg onload="call_execInitLoadProc_svg('system')" style="overflow:visible;  enable-background:new 0 0 7241.498 710.000" viewBox="0 0 7241.498 710.000" height="710.000" width="7241.498" xml:space="preserve" ewd:ver="L2.1.2.8" xmlns="&ns_svg;" xmlns:a="http://ns.adobe.com/AdobeSVGViewerExtensions/3.0/" xmlns:ewd="http://shcl.co.jp/ewd" xmlns:xlink="&ns_xlink;">
<path d=" M  399.43,  375.72  L  297.45,  375.72  L  297.45,  350.23  L  373.94,  350.23  L  373.94,  375.72 " style="stroke:#000000;stroke-width: 0.85 ;&st7;stroke-dasharray:3, 1.5;" /><path d=" M  416.43,  375.72  L  501.42,  375.72  L  501.42,  350.23  L  407.93,  350.23  L  407.93,  367.22 " style="stroke:#000000;stroke-width: 0.85 ;&st7;stroke-dasharray:3, 1.5;" /><path d=" M  322.95,  401.22  L  314.45,  401.22 " style="stroke-width: 1.42 ;&st7; " /><path d=" M  365.44,  401.22  L  356.94,  401.22 " style="stroke-width: 1.42 ;&st7; " /><path d=" M  257.08,  120.77  L  252.83,  120.77 " style="stroke-width: 1.42 ;&st7; " /><path d=" M  206.09,  120.77  L  201.84,  120.77 " style="stroke-width: 1.42 ;&st7; " /><path d=" M  206.09,  112.27  L  201.84,  112.27 " style="stroke-width: 1.42 ;&st7; " /><path d=" M  257.08,  112.27  L  252.83,  112.27 " style="stroke-width: 1.42 ;&st7; " /><path d=" M  254.96,   69.77  L  254.96,   78.27 " style="stroke-width: 0.85 ;&st7; " /><path d=" M  316.57,  112.27  L  312.32,  112.27 " style="stroke-width: 1.42 ;&st7; " /><path d=" M  316.57,  103.77  L  312.32,  103.77 " style="stroke-width: 1.42 ;&st7; " /><path d=" M  314.45,   69.77  L  314.45,   78.27 " style="stroke-width: 0.85 ;&st7; " /><path d=" M  401.56,  112.27  L  397.31,  112.27 " style="stroke-width: 1.42 ;&st7; " /><path d=" M  401.56,  103.77  L  397.31,  103.77 " style="stroke-width: 1.42 ;&st7; " /><path d=" M  399.43,   69.77  L  399.43,   78.27 " style="stroke-width: 0.85 ;&st7; " /><path d=" M  450.42,  401.22  L  441.93,  401.22 " style="stroke-width: 1.42 ;&st7; " /><path d=" M  492.92,  401.22  L  484.42,  401.22 " style="stroke-width: 1.42 ;&st7; " /><path d=" M  246.46,  163.26  L  254.96,  163.26 " style="stroke-width: 1.42 ;&st7; " /><path d=" M  390.93,  163.26  L  399.43,  163.26 " style="stroke-width: 1.42 ;&st7; " /><path d=" M  467.42,   69.77  L  467.42,  103.77 " style="stroke-width: 0.85 ;&st7; " /><path d=" M  469.55,  103.77  L  465.30,  103.77 " style="stroke-width: 1.42 ;&st7; " /><path d=" M  469.55,  112.27  L  465.30,  112.27 " style="stroke-width: 1.42 ;&st7; " /><path d=" M  203.97,   69.77  L  203.97,   78.27 " style="stroke-width: 0.85 ;&st7; " /><path d=" M   59.49,  396.97  L   59.49,  392.72 " style="stroke-width: 0.85 ;&st7; " /><path d=" M   59.49,  426.71  L   59.49,  422.46 " style="stroke-width: 0.85 ;&st7; " /><path d=" M   59.49,  419.63  L   65.16,  396.97 " style="stroke-width: 1.42 ;&st7; " /><path d=" M  118.98,  375.72  L  127.48,  375.72 " style="stroke-width: 1.42 ;&st7; " /><path d=" M  118.98,  443.71  L  127.48,  443.71 " style="stroke-width: 1.42 ;&st7; " /><path d=" M   67.99,  477.71  L   59.49,  477.71 " style="stroke-width: 1.42 ;&st7; " /><path d=" M   76.49,  231.25  L   67.99,  231.25 " style="stroke-width: 1.42 ;&st7; " /><path d=" M  186.97,  401.22  L  178.47,  401.22 " style="stroke-width: 1.42 ;&st7; " /><path d=" M  322.95,  202.22  L  317.97,  197.25 " style="stroke-width: 1.42 ;&st7; " /><path d=" M  305.95,  209.28  L  310.92,  214.25 " style="stroke-width: 1.42 ;&st7; " /><path d=" M  317.97,  214.25  L  322.95,  209.28 " style="stroke-width: 1.42 ;&st7; " /><path d=" M  310.92,  197.25  L  305.95,  202.22 " style="stroke-width: 1.42 ;&st7; " /><path d=" M  390.93,  610.16  L  385.96,  605.18 " style="stroke-width: 1.42 ;&st7; " /><path d=" M  373.94,  617.21  L  378.91,  622.18 " style="stroke-width: 1.42 ;&st7; " /><path d=" M  385.96,  622.18  L  390.93,  617.21 " style="stroke-width: 1.42 ;&st7; " /><path d=" M  378.91,  605.18  L  373.94,  610.16 " style="stroke-width: 1.42 ;&st7; " /><path d=" M  416.43,  372.20  L  411.46,  367.22 " style="stroke-width: 1.42 ;&st7; " /><path d=" M  399.43,  379.25  L  404.40,  384.22 " style="stroke-width: 1.42 ;&st7; " /><path d=" M  411.46,  384.22  L  416.43,  379.25 " style="stroke-width: 1.42 ;&st7; " /><path d=" M  404.40,  367.22  L  399.43,  372.20 " style="stroke-width: 1.42 ;&st7; " /><path d=" M  381.02,  710.00  L  383.85,  710.00 " style="stroke-width: 0.85 ;&st7; " /><path d=" M  379.60,  707.17  L  385.27,  707.17 " style="stroke-width: 0.85 ;&st7; " /><path d=" M  378.19,  704.33  L  386.69,  704.33 " style="stroke-width: 0.85 ;&st7; " /><path d=" M  373.94,  701.50  L  390.93,  701.50 " style="stroke-width: 0.85 ;&st7; " /><path d=" M  382.44,  697.25  L  382.44,  701.50 " style="stroke-width: 0.85 ;&st7; " /><path d=" M  279.04,  710.00  L  281.87,  710.00 " style="stroke-width: 0.85 ;&st7; " /><path d=" M  277.62,  707.17  L  283.29,  707.17 " style="stroke-width: 0.85 ;&st7; " /><path d=" M  276.20,  704.33  L  284.70,  704.33 " style="stroke-width: 0.85 ;&st7; " /><path d=" M  271.95,  701.50  L  288.95,  701.50 " style="stroke-width: 0.85 ;&st7; " /><path d=" M  280.45,  697.25  L  280.45,  701.50 " style="stroke-width: 0.85 ;&st7; " /><path d=" M  182.72,  406.88  L  178.47,  402.63  L  174.22,  406.88 " style="stroke-width: 1.42 ;&st7; " /><path d=" M  182.72,  410.28  L  178.47,  406.03  L  174.22,  410.28 " style="stroke-width: 1.42 ;&st7; " /><path d=" M   72.24,  240.31  L   67.99,  236.06  L   63.74,  240.31 " style="stroke-width: 1.42 ;&st7; " /><path d=" M   72.24,  236.91  L   67.99,  232.66  L   63.74,  236.91 " style="stroke-width: 1.42 ;&st7; " /><path d=" M  243.63,  707.17  L  249.29,  707.17 " style="stroke-width: 0.85 ;&st7; " /><path d=" M  245.04,  710.00  L  247.88,  710.00 " style="stroke-width: 0.85 ;&st7; " /><path d=" M  246.46,  697.25  L  246.46,  701.50 " style="stroke-width: 0.85 ;&st7; " /><path d=" M  237.96,  701.50  L  254.96,  701.50 " style="stroke-width: 0.85 ;&st7; " /><path d=" M  242.21,  704.33  L  250.71,  704.33 " style="stroke-width: 0.85 ;&st7; " /><path d=" M  209.63,  707.17  L  215.30,  707.17 " style="stroke-width: 0.85 ;&st7; " /><path d=" M  211.05,  710.00  L  213.88,  710.00 " style="stroke-width: 0.85 ;&st7; " /><path d=" M  212.46,  697.25  L  212.46,  701.50 " style="stroke-width: 0.85 ;&st7; " /><path d=" M  203.97,  701.50  L  220.96,  701.50 " style="stroke-width: 0.85 ;&st7; " /><path d=" M  208.22,  704.33  L  216.71,  704.33 " style="stroke-width: 0.85 ;&st7; " /><path d=" M  127.48,  214.25  L  127.48,  231.25 " style="stroke-width: 0.85 ;&st7; " /><path d=" M  118.98,  214.25  L  135.98,  214.25  L  135.98,  231.25  L  118.98,  231.25  L  118.98,  214.25 " style="stroke-width: 1.42 ;&st7; " /><path d=" M  372.74,  374.72  L  372.47,  375.19  L  372.38,  375.72  L  372.47,  376.26  L  372.74,  376.73  L  373.16,  377.07  L  373.67,  377.26  L  374.21,  377.26  L  374.72,  377.07  L  375.13,  376.73  L  375.40,  376.26  L  375.50,  375.72  L  375.40,  375.19  L  375.13,  374.72  L  374.72,  374.37  L  374.21,  374.19  L  373.67,  374.19  L  373.16,  374.37  L  372.74,  374.72  L  373.14,  375.43  L  373.14,  376.01  L  373.51,  376.46  L  374.08,  376.56  L  374.59,  376.27  L  374.79,  375.72  L  374.59,  375.18  L  374.08,  374.89  L  373.51,  374.99  L  373.94,  375.72 " style="stroke-width: 0.85 ;&st7; " /><path d=" M  454.67,   35.78  L  454.67,   78.27  L  480.17,   78.27  L  480.17,   35.78  L  454.67,   35.78 " style="stroke-width: 1.42 ;&st7; " /><path d=" M  467.42,   98.87  L  464.59,   96.04  L  464.59,  100.29  L  467.42,  103.12  L  470.25,  100.29  L  470.25,   96.04  L  467.42,   98.87 " style="stroke-width: 0.28 ;&st9;" /><path d=" M  403.68,  157.59  L  399.43,  161.84  L  395.18,  157.59 " style="stroke-width: 1.42 ;&st7; " /><path d=" M  395.18,  154.19  L  399.43,  158.44  L  403.68,  154.19 " style="stroke-width: 1.42 ;&st7; " /><path d=" M   63.74,  483.37  L   59.49,  479.12  L   55.24,  483.37 " style="stroke-width: 1.42 ;&st7; " /><path d=" M   63.74,  486.77  L   59.49,  482.52  L   55.24,  486.77 " style="stroke-width: 1.42 ;&st7; " /><path d=" M  131.73,  438.05  L  127.48,  442.29  L  123.23,  438.05 " style="stroke-width: 1.42 ;&st7; " /><path d=" M  123.23,  434.65  L  127.48,  438.90  L  131.73,  434.65 " style="stroke-width: 1.42 ;&st7; " /><path d=" M  250.71,  154.19  L  254.96,  158.44  L  259.21,  154.19 " style="stroke-width: 1.42 ;&st7; " /><path d=" M  259.21,  157.59  L  254.96,  161.84  L  250.71,  157.59 " style="stroke-width: 1.42 ;&st7; " /><path d=" M   50.99,  146.26  L   50.99,  180.26  L   84.99,  180.26  L   84.99,  146.26  L   50.99,  146.26 " style="stroke-width: 1.42 ;&st7; " /><path d=" M  195.47,  154.76  L  212.46,  154.76  L  212.46,  171.76  L  195.47,  171.76  L  195.47,  154.76 " style="stroke-width: 1.42 ;&st7; " /><path d=" M  195.47,  214.25  L  212.46,  214.25  L  212.46,  231.25  L  195.47,  231.25  L  195.47,  214.25 " style="stroke-width: 1.42 ;&st7; " /><path d=" M  203.97,  154.76  L  203.97,  171.76 " style="stroke-width: 0.85 ;&st7; " /><path d=" M  203.97,  214.25  L  203.97,  231.25 " style="stroke-width: 0.85 ;&st7; " /><path d=" M  424.93,  477.71  L  458.92,  477.71  L  458.92,  511.70  L  424.93,  511.70  L  424.93,  477.71 " style="stroke-width: 1.42 ;&st7; " /><path d=" M  488.67,  406.88  L  484.42,  402.63  L  480.17,  406.88 " style="stroke-width: 1.42 ;&st7; " /><path d=" M  488.67,  410.28  L  484.42,  406.03  L  480.17,  410.28 " style="stroke-width: 1.42 ;&st7; " /><path d=" M  446.18,  406.88  L  441.93,  402.63  L  437.68,  406.88 " style="stroke-width: 1.42 ;&st7; " /><path d=" M  446.18,  410.28  L  441.93,  406.03  L  437.68,  410.28 " style="stroke-width: 1.42 ;&st7; " /><path d=" M  386.69,   35.78  L  386.69,   78.27  L  412.18,   78.27  L  412.18,   35.78  L  386.69,   35.78 " style="stroke-width: 1.42 ;&st7; " /><path d=" M  399.43,   98.87  L  396.60,   96.04  L  396.60,  100.29  L  399.43,  103.12  L  402.27,  100.29  L  402.27,   96.04  L  399.43,   98.87 " style="stroke-width: 0.28 ;&st9;" /><path d=" M  399.43,   78.27  L  399.43,  103.77 " style="stroke-width: 0.85 ;&st7; " /><path d=" M  301.70,   35.78  L  301.70,   78.27  L  327.20,   78.27  L  327.20,   35.78  L  301.70,   35.78 " style="stroke-width: 1.42 ;&st7; " /><path d=" M  314.45,   98.87  L  311.61,   96.04  L  311.61,  100.29  L  314.45,  103.12  L  317.28,  100.29  L  317.28,   96.04  L  314.45,   98.87 " style="stroke-width: 0.28 ;&st9;" /><path d=" M  314.45,   78.27  L  314.45,  103.77 " style="stroke-width: 0.85 ;&st7; " /><path d=" M   50.99,  282.24  L   50.99,  333.23  L 1410.76,  333.23  L 1410.76,  282.24  L   50.99,  282.24 " style="stroke-width: 1.42 ;&st7; " /><path d=" M  175.64,  707.17  L  181.30,  707.17 " style="stroke-width: 0.85 ;&st7; " /><path d=" M  177.05,  710.00  L  179.89,  710.00 " style="stroke-width: 0.85 ;&st7; " /><path d=" M  178.47,  697.25  L  178.47,  701.50 " style="stroke-width: 0.85 ;&st7; " /><path d=" M  169.97,  701.50  L  186.97,  701.50 " style="stroke-width: 0.85 ;&st7; " /><path d=" M  174.22,  704.33  L  182.72,  704.33 " style="stroke-width: 0.85 ;&st7; " /><path d=" M  297.45,  477.71  L  331.44,  477.71  L  331.44,  511.70  L  297.45,  511.70  L  297.45,  477.71 " style="stroke-width: 1.42 ;&st7; " /><path d=" M  242.21,   35.78  L  242.21,   78.27  L  267.71,   78.27  L  267.71,   35.78  L  242.21,   35.78 " style="stroke-width: 1.42 ;&st7; " /><path d=" M  254.96,  107.37  L  252.12,  104.54  L  252.12,  108.79  L  254.96,  111.62  L  257.79,  108.79  L  257.79,  104.54  L  254.96,  107.37 " style="stroke-width: 0.28 ;&st9;" /><path d=" M  203.97,  107.37  L  201.13,  104.54  L  201.13,  108.79  L  203.97,  111.62  L  206.80,  108.79  L  206.80,  104.54  L  203.97,  107.37 " style="stroke-width: 0.28 ;&st9;" /><path d=" M  254.96,   78.27  L  254.96,  112.27 " style="stroke-width: 0.85 ;&st7; " /><path d=" M  361.19,  406.88  L  356.94,  402.63  L  352.69,  406.88 " style="stroke-width: 1.42 ;&st7; " /><path d=" M  361.19,  410.28  L  356.94,  406.03  L  352.69,  410.28 " style="stroke-width: 1.42 ;&st7; " /><path d=" M  318.70,  406.88  L  314.45,  402.63  L  310.20,  406.88 " style="stroke-width: 1.42 ;&st7; " /><path d=" M  318.70,  410.28  L  314.45,  406.03  L  310.20,  410.28 " style="stroke-width: 1.42 ;&st7; " /><path d=" M  123.23,  366.66  L  127.48,  370.91  L  131.73,  366.66 " style="stroke-width: 1.42 ;&st7; " /><path d=" M  131.73,  370.06  L  127.48,  374.31  L  123.23,  370.06 " style="stroke-width: 1.42 ;&st7; " /><path d=" M  126.06,  710.00  L  128.90,  710.00 " style="stroke-width: 0.85 ;&st7; " /><path d=" M  124.65,  707.17  L  130.31,  707.17 " style="stroke-width: 0.85 ;&st7; " /><path d=" M  123.23,  704.33  L  131.73,  704.33 " style="stroke-width: 0.85 ;&st7; " /><path d=" M  118.98,  701.50  L  135.98,  701.50 " style="stroke-width: 0.85 ;&st7; " /><path d=" M  127.48,  697.25  L  127.48,  701.50 " style="stroke-width: 0.85 ;&st7; " /><path d=" M   59.49,  392.72  L   84.99,  392.72  L   84.99,  426.71 " style="stroke-width: 0.85 ;&st7; " /><path d=" M   50.99,  605.18  L   67.99,  605.18  L   67.99,  622.18  L   50.99,  622.18  L   50.99,  605.18 " style="stroke-width: 1.42 ;&st7; " /><path d=" M   58.07,  710.00  L   60.91,  710.00 " style="stroke-width: 0.85 ;&st7; " /><path d=" M   56.66,  707.17  L   62.32,  707.17 " style="stroke-width: 0.85 ;&st7; " /><path d=" M   55.24,  704.33  L   63.74,  704.33 " style="stroke-width: 0.85 ;&st7; " /><path d=" M   50.99,  701.50  L   67.99,  701.50 " style="stroke-width: 0.85 ;&st7; " /><path d=" M   59.49,  697.25  L   59.49,  701.50 " style="stroke-width: 0.85 ;&st7; " /><path d=" M   50.99,  528.70  L   67.99,  528.70  L   67.99,  545.69  L   50.99,  545.69  L   50.99,  528.70 " style="stroke-width: 1.42 ;&st7; " /><path d=" M   59.49,  605.18  L   59.49,  622.18 " style="stroke-width: 0.85 ;&st7; " /><path d=" M   59.49,  528.70  L   59.49,  545.69 " style="stroke-width: 0.85 ;&st7; " /><path d=" M   93.48,  426.71  L   93.48,  384.22  L   42.49,  384.22  L   42.49,  426.71  L   93.48,  426.71 " style="stroke-width: 1.42 ;&st7; " /><path d=" M  191.22,   35.78  L  191.22,   78.27  L  216.71,   78.27  L  216.71,   35.78  L  191.22,   35.78 " style="stroke-width: 1.42 ;&st7; " /><path d=" M  203.97,   78.27  L  203.97,  112.27 " style="stroke-width: 0.85 ;&st7; " /><path d=" M  210.34,  116.52  C  210.34   114.17   208.44   112.27   206.09   112.27 " style="stroke-width: 1.42 ;&st7; " /><path d=" M  206.09,  120.77  C  208.44   120.77   210.34   118.86   210.34   116.52 " style="stroke-width: 1.42 ;&st7; " /><path d=" M  197.59,  116.52  C  197.59   118.86   199.49   120.77   201.84   120.77 " style="stroke-width: 1.42 ;&st7; " /><path d=" M  201.84,  112.27  C  199.49   112.27   197.59   114.17   197.59   116.52 " style="stroke-width: 1.42 ;&st7; " /><path d=" M  261.33,  116.52  C  261.33   114.17   259.43   112.27   257.08   112.27 " style="stroke-width: 1.42 ;&st7; " /><path d=" M  248.58,  116.52  C  248.58   118.86   250.49   120.77   252.83   120.77 " style="stroke-width: 1.42 ;&st7; " /><path d=" M  257.08,  120.77  C  259.43   120.77   261.33   118.86   261.33   116.52 " style="stroke-width: 1.42 ;&st7; " /><path d=" M  252.83,  112.27  C  250.49   112.27   248.58   114.17   248.58   116.52 " style="stroke-width: 1.42 ;&st7; " /><path d=" M  256.37,   45.69  C  256.37    44.91   255.74    44.28   254.96    44.28 " style="stroke-width: 0.85 ;&st7; " /><path d=" M  254.96,   44.28  C  254.18    44.28   253.54    44.91   253.54    45.69 " style="stroke-width: 0.85 ;&st7; " /><path d=" M  253.54,   45.69  C  253.54    46.48   254.18    47.11   254.96    47.11 " style="stroke-width: 0.85 ;&st7; " /><path d=" M  254.96,   47.11  C  255.74    47.11   256.37    46.48   256.37    45.69 " style="stroke-width: 0.85 ;&st7; " /><path d=" M  256.37,   68.36  C  256.37    67.57   255.74    66.94   254.96    66.94 " style="stroke-width: 0.85 ;&st7; " /><path d=" M  254.96,   66.94  C  254.18    66.94   253.54    67.57   253.54    68.36 " style="stroke-width: 0.85 ;&st7; " /><path d=" M  253.54,   68.36  C  253.54    69.14   254.18    69.77   254.96    69.77 " style="stroke-width: 0.85 ;&st7; " /><path d=" M  254.96,   69.77  C  255.74    69.77   256.37    69.14   256.37    68.36 " style="stroke-width: 0.85 ;&st7; " /><path d=" M  254.96,   66.94  C  257.70    65.33   258.61    61.80   256.99    59.06 " style="stroke-width: 1.42 ;&st7; " /><path d=" M  256.99,   59.06  C  256.47    58.18   255.84    57.55   254.96    57.03 " style="stroke-width: 1.42 ;&st7; " /><path d=" M  254.96,   47.11  C  252.22    48.72   251.31    52.25   252.92    54.99 " style="stroke-width: 1.42 ;&st7; " /><path d=" M  252.92,   54.99  C  253.44    55.87   254.08    56.51   254.96    57.03 " style="stroke-width: 1.42 ;&st7; " /><path d=" M  320.82,  108.02  C  320.82   105.67   318.92   103.77   316.57   103.77 " style="stroke-width: 1.42 ;&st7; " /><path d=" M  316.57,  112.27  C  318.92   112.27   320.82   110.36   320.82   108.02 " style="stroke-width: 1.42 ;&st7; " /><path d=" M  308.07,  108.02  C  308.07   110.36   309.98   112.27   312.32   112.27 " style="stroke-width: 1.42 ;&st7; " /><path d=" M  312.32,  103.77  C  309.98   103.77   308.07   105.67   308.07   108.02 " style="stroke-width: 1.42 ;&st7; " /><path d=" M  183.00,  337.76  C  183.00   335.26   180.97   333.23   178.47   333.23 " style="stroke-width: 1.42 ;&st7; " /><path d=" M  178.47,  333.23  C  175.97   333.23   173.94   335.26   173.94   337.76 " style="stroke-width: 1.42 ;&st7; " /><path d=" M  173.94,  337.76  C  173.94   340.27   175.97   342.29   178.47   342.29 " style="stroke-width: 1.42 ;&st7; " /><path d=" M  178.47,  342.29  C  180.97   342.29   183.00   340.27   183.00   337.76 " style="stroke-width: 1.42 ;&st7; " /><path d=" M  314.45,   66.94  C  315.30    64.02   314.64    61.13   312.61    58.87 " style="stroke-width: 1.42 ;&st7; " /><path d=" M  314.45,   66.94  C  316.62    63.92   316.62    60.05   314.45    57.03 " style="stroke-width: 1.42 ;&st7; " /><path d=" M  314.45,   66.94  C  318.16    64.17   318.98    58.96   316.29    55.19 " style="stroke-width: 1.42 ;&st7; " /><path d=" M  314.45,   47.11  C  310.73    49.88   309.91    55.10   312.61    58.87 " style="stroke-width: 1.42 ;&st7; " /><path d=" M  314.45,   47.11  C  312.28    50.13   312.28    54.00   314.45    57.03 " style="stroke-width: 1.42 ;&st7; " /><path d=" M  314.45,   47.11  C  313.59    50.03   314.25    52.92   316.29    55.18 " style="stroke-width: 1.42 ;&st7; " /><path d=" M  315.86,   68.36  C  315.86    67.57   315.23    66.94   314.45    66.94 " style="stroke-width: 0.85 ;&st7; " /><path d=" M  314.45,   66.94  C  313.67    66.94   313.03    67.57   313.03    68.36 " style="stroke-width: 0.85 ;&st7; " /><path d=" M  313.03,   68.36  C  313.03    69.14   313.67    69.77   314.45    69.77 " style="stroke-width: 0.85 ;&st7; " /><path d=" M  314.45,   69.77  C  315.23    69.77   315.86    69.14   315.86    68.36 " style="stroke-width: 0.85 ;&st7; " /><path d=" M  315.86,   45.69  C  315.86    44.91   315.23    44.28   314.45    44.28 " style="stroke-width: 0.85 ;&st7; " /><path d=" M  314.45,   44.28  C  313.67    44.28   313.03    44.91   313.03    45.69 " style="stroke-width: 0.85 ;&st7; " /><path d=" M  313.03,   45.69  C  313.03    46.48   313.67    47.11   314.45    47.11 " style="stroke-width: 0.85 ;&st7; " /><path d=" M  314.45,   47.11  C  315.23    47.11   315.86    46.48   315.86    45.69 " style="stroke-width: 0.85 ;&st7; " /><path d=" M  405.81,  108.02  C  405.81   105.67   403.90   103.77   401.56   103.77 " style="stroke-width: 1.42 ;&st7; " /><path d=" M  401.56,  112.27  C  403.90   112.27   405.81   110.36   405.81   108.02 " style="stroke-width: 1.42 ;&st7; " /><path d=" M  393.06,  108.02  C  393.06   110.36   394.96   112.27   397.31   112.27 " style="stroke-width: 1.42 ;&st7; " /><path d=" M  397.31,  103.77  C  394.96   103.77   393.06   105.67   393.06   108.02 " style="stroke-width: 1.42 ;&st7; " /><path d=" M  399.43,   66.94  C  400.29    64.02   399.63    61.13   397.59    58.87 " style="stroke-width: 1.42 ;&st7; " /><path d=" M  399.43,   66.94  C  401.60    63.92   401.60    60.05   399.43    57.03 " style="stroke-width: 1.42 ;&st7; " /><path d=" M  399.43,   66.94  C  403.15    64.17   403.97    58.96   401.27    55.19 " style="stroke-width: 1.42 ;&st7; " /><path d=" M  399.43,   47.11  C  395.72    49.88   394.90    55.10   397.59    58.87 " style="stroke-width: 1.42 ;&st7; " /><path d=" M  399.43,   47.11  C  397.26    50.13   397.26    54.00   399.43    57.03 " style="stroke-width: 1.42 ;&st7; " /><path d=" M  399.43,   47.11  C  398.58    50.03   399.24    52.92   401.28    55.18 " style="stroke-width: 1.42 ;&st7; " /><path d=" M  400.85,   68.36  C  400.85    67.57   400.22    66.94   399.43    66.94 " style="stroke-width: 0.85 ;&st7; " /><path d=" M  399.43,   66.94  C  398.65    66.94   398.02    67.57   398.02    68.36 " style="stroke-width: 0.85 ;&st7; " /><path d=" M  398.02,   68.36  C  398.02    69.14   398.65    69.77   399.43    69.77 " style="stroke-width: 0.85 ;&st7; " /><path d=" M  399.43,   69.77  C  400.22    69.77   400.85    69.14   400.85    68.36 " style="stroke-width: 0.85 ;&st7; " /><path d=" M  400.85,   45.69  C  400.85    44.91   400.22    44.28   399.43    44.28 " style="stroke-width: 0.85 ;&st7; " /><path d=" M  399.43,   44.28  C  398.65    44.28   398.02    44.91   398.02    45.69 " style="stroke-width: 0.85 ;&st7; " /><path d=" M  398.02,   45.69  C  398.02    46.48   398.65    47.11   399.43    47.11 " style="stroke-width: 0.85 ;&st7; " /><path d=" M  399.43,   47.11  C  400.22    47.11   400.85    46.48   400.85    45.69 " style="stroke-width: 0.85 ;&st7; " /><path d=" M  203.97,   47.11  C  201.23    48.72   200.32    52.25   201.93    54.99 " style="stroke-width: 1.42 ;&st7; " /><path d=" M  201.93,   54.99  C  202.45    55.87   203.08    56.51   203.97    57.03 " style="stroke-width: 1.42 ;&st7; " /><path d=" M  203.97,   66.94  C  206.70    65.33   207.62    61.80   206.00    59.06 " style="stroke-width: 1.42 ;&st7; " /><path d=" M  206.00,   59.06  C  205.48    58.18   204.85    57.55   203.97    57.03 " style="stroke-width: 1.42 ;&st7; " /><path d=" M  205.38,   68.36  C  205.38    67.57   204.75    66.94   203.97    66.94 " style="stroke-width: 0.85 ;&st7; " /><path d=" M  203.97,   66.94  C  203.18    66.94   202.55    67.57   202.55    68.36 " style="stroke-width: 0.85 ;&st7; " /><path d=" M  202.55,   68.36  C  202.55    69.14   203.18    69.77   203.97    69.77 " style="stroke-width: 0.85 ;&st7; " /><path d=" M  203.97,   69.77  C  204.75    69.77   205.38    69.14   205.38    68.36 " style="stroke-width: 0.85 ;&st7; " /><path d=" M  205.38,   45.69  C  205.38    44.91   204.75    44.28   203.97    44.28 " style="stroke-width: 0.85 ;&st7; " /><path d=" M  203.97,   44.28  C  203.18    44.28   202.55    44.91   202.55    45.69 " style="stroke-width: 0.85 ;&st7; " /><path d=" M  202.55,   45.69  C  202.55    46.48   203.18    47.11   203.97    47.11 " style="stroke-width: 0.85 ;&st7; " /><path d=" M  203.97,   47.11  C  204.75    47.11   205.38    46.48   205.38    45.69 " style="stroke-width: 0.85 ;&st7; " /><path d=" M   72.52,  277.71  C   72.52   275.20    70.49   273.17    67.99   273.17 " style="stroke-width: 1.42 ;&st7; " /><path d=" M   67.99,  273.17  C   65.49   273.17    63.46   275.20    63.46   277.71 " style="stroke-width: 1.42 ;&st7; " /><path d=" M   63.46,  277.71  C   63.46   280.21    65.49   282.24    67.99   282.24 " style="stroke-width: 1.42 ;&st7; " /><path d=" M   67.99,  282.24  C   70.49   282.24    72.52   280.21    72.52   277.71 " style="stroke-width: 1.42 ;&st7; " /><path d=" M  259.49,  277.71  C  259.49   275.20   257.46   273.17   254.96   273.17 " style="stroke-width: 1.42 ;&st7; " /><path d=" M  254.96,  273.17  C  252.45   273.17   250.42   275.20   250.42   277.71 " style="stroke-width: 1.42 ;&st7; " /><path d=" M  250.42,  277.71  C  250.42   280.21   252.45   282.24   254.96   282.24 " style="stroke-width: 1.42 ;&st7; " /><path d=" M  254.96,  282.24  C  257.46   282.24   259.49   280.21   259.49   277.71 " style="stroke-width: 1.42 ;&st7; " /><path d=" M  318.98,  277.71  C  318.98   275.20   316.95   273.17   314.45   273.17 " style="stroke-width: 1.42 ;&st7; " /><path d=" M  314.45,  273.17  C  311.94   273.17   309.91   275.20   309.91   277.71 " style="stroke-width: 1.42 ;&st7; " /><path d=" M  309.91,  277.71  C  309.91   280.21   311.94   282.24   314.45   282.24 " style="stroke-width: 1.42 ;&st7; " /><path d=" M  314.45,  282.24  C  316.95   282.24   318.98   280.21   318.98   277.71 " style="stroke-width: 1.42 ;&st7; " /><path d=" M  403.97,  277.71  C  403.97   275.20   401.94   273.17   399.43   273.17 " style="stroke-width: 1.42 ;&st7; " /><path d=" M  399.43,  273.17  C  396.93   273.17   394.90   275.20   394.90   277.71 " style="stroke-width: 1.42 ;&st7; " /><path d=" M  394.90,  277.71  C  394.90   280.21   396.93   282.24   399.43   282.24 " style="stroke-width: 1.42 ;&st7; " /><path d=" M  399.43,  282.24  C  401.94   282.24   403.97   280.21   403.97   277.71 " style="stroke-width: 1.42 ;&st7; " /><path d=" M  361.47,  277.71  C  361.47   275.20   359.44   273.17   356.94   273.17 " style="stroke-width: 1.42 ;&st7; " /><path d=" M  356.94,  273.17  C  354.44   273.17   352.41   275.20   352.41   277.71 " style="stroke-width: 1.42 ;&st7; " /><path d=" M  352.41,  277.71  C  352.41   280.21   354.44   282.24   356.94   282.24 " style="stroke-width: 1.42 ;&st7; " /><path d=" M  356.94,  282.24  C  359.44   282.24   361.47   280.21   361.47   277.71 " style="stroke-width: 1.42 ;&st7; " /><path d=" M  318.98,  337.76  C  318.98   335.26   316.95   333.23   314.45   333.23 " style="stroke-width: 1.42 ;&st7; " /><path d=" M  314.45,  333.23  C  311.94   333.23   309.91   335.26   309.91   337.76 " style="stroke-width: 1.42 ;&st7; " /><path d=" M  309.91,  337.76  C  309.91   340.27   311.94   342.29   314.45   342.29 " style="stroke-width: 1.42 ;&st7; " /><path d=" M  314.45,  342.29  C  316.95   342.29   318.98   340.27   318.98   337.76 " style="stroke-width: 1.42 ;&st7; " /><path d=" M  361.47,  337.76  C  361.47   335.26   359.44   333.23   356.94   333.23 " style="stroke-width: 1.42 ;&st7; " /><path d=" M  356.94,  333.23  C  354.44   333.23   352.41   335.26   352.41   337.76 " style="stroke-width: 1.42 ;&st7; " /><path d=" M  352.41,  337.76  C  352.41   340.27   354.44   342.29   356.94   342.29 " style="stroke-width: 1.42 ;&st7; " /><path d=" M  356.94,  342.29  C  359.44   342.29   361.47   340.27   361.47   337.76 " style="stroke-width: 1.42 ;&st7; " /><path d=" M  446.46,  337.76  C  446.46   335.26   444.43   333.23   441.93   333.23 " style="stroke-width: 1.42 ;&st7; " /><path d=" M  441.93,  333.23  C  439.42   333.23   437.39   335.26   437.39   337.76 " style="stroke-width: 1.42 ;&st7; " /><path d=" M  437.39,  337.76  C  437.39   340.27   439.42   342.29   441.93   342.29 " style="stroke-width: 1.42 ;&st7; " /><path d=" M  441.93,  342.29  C  444.43   342.29   446.46   340.27   446.46   337.76 " style="stroke-width: 1.42 ;&st7; " /><path d=" M  488.95,  337.76  C  488.95   335.26   486.92   333.23   484.42   333.23 " style="stroke-width: 1.42 ;&st7; " /><path d=" M  484.42,  333.23  C  481.92   333.23   479.89   335.26   479.89   337.76 " style="stroke-width: 1.42 ;&st7; " /><path d=" M  479.89,  337.76  C  479.89   340.27   481.92   342.29   484.42   342.29 " style="stroke-width: 1.42 ;&st7; " /><path d=" M  484.42,  342.29  C  486.92   342.29   488.95   340.27   488.95   337.76 " style="stroke-width: 1.42 ;&st7; " /><path d=" M  467.42,   47.11  C  464.68    48.72   463.77    52.25   465.39    54.99 " style="stroke-width: 1.42 ;&st7; " /><path d=" M  465.39,   54.99  C  465.90    55.87   466.54    56.51   467.42    57.03 " style="stroke-width: 1.42 ;&st7; " /><path d=" M  467.42,   66.94  C  470.16    65.33   471.07    61.80   469.46    59.06 " style="stroke-width: 1.42 ;&st7; " /><path d=" M  469.46,   59.06  C  468.94    58.18   468.30    57.55   467.42    57.03 " style="stroke-width: 1.42 ;&st7; " /><path d=" M  468.84,   45.69  C  468.84    44.91   468.20    44.28   467.42    44.28 " style="stroke-width: 0.85 ;&st7; " /><path d=" M  467.42,   44.28  C  466.64    44.28   466.01    44.91   466.01    45.69 " style="stroke-width: 0.85 ;&st7; " /><path d=" M  466.01,   45.69  C  466.01    46.48   466.64    47.11   467.42    47.11 " style="stroke-width: 0.85 ;&st7; " /><path d=" M  467.42,   47.11  C  468.20    47.11   468.84    46.48   468.84    45.69 " style="stroke-width: 0.85 ;&st7; " /><path d=" M  468.84,   68.36  C  468.84    67.57   468.20    66.94   467.42    66.94 " style="stroke-width: 0.85 ;&st7; " /><path d=" M  467.42,   66.94  C  466.64    66.94   466.01    67.57   466.01    68.36 " style="stroke-width: 0.85 ;&st7; " /><path d=" M  466.01,   68.36  C  466.01    69.14   466.64    69.77   467.42    69.77 " style="stroke-width: 0.85 ;&st7; " /><path d=" M  467.42,   69.77  C  468.20    69.77   468.84    69.14   468.84    68.36 " style="stroke-width: 0.85 ;&st7; " /><path d=" M  465.30,  103.77  C  462.95   103.77   461.05   105.67   461.05   108.02 " style="stroke-width: 1.42 ;&st7; " /><path d=" M  461.05,  108.02  C  461.05   110.36   462.95   112.27   465.30   112.27 " style="stroke-width: 1.42 ;&st7; " /><path d=" M  469.55,  112.27  C  471.89   112.27   473.80   110.36   473.80   108.02 " style="stroke-width: 1.42 ;&st7; " /><path d=" M  473.80,  108.02  C  473.80   105.67   471.89   103.77   469.55   103.77 " style="stroke-width: 1.42 ;&st7; " /><path d=" M  471.95,  277.71  C  471.95   275.20   469.93   273.17   467.42   273.17 " style="stroke-width: 1.42 ;&st7; " /><path d=" M  467.42,  273.17  C  464.92   273.17   462.89   275.20   462.89   277.71 " style="stroke-width: 1.42 ;&st7; " /><path d=" M  462.89,  277.71  C  462.89   280.21   464.92   282.24   467.42   282.24 " style="stroke-width: 1.42 ;&st7; " /><path d=" M  467.42,  282.24  C  469.93   282.24   471.95   280.21   471.95   277.71 " style="stroke-width: 1.42 ;&st7; " /><path d=" M  217.00,  337.76  C  217.00   335.26   214.97   333.23   212.46   333.23 " style="stroke-width: 1.42 ;&st7; " /><path d=" M  212.46,  333.23  C  209.96   333.23   207.93   335.26   207.93   337.76 " style="stroke-width: 1.42 ;&st7; " /><path d=" M  207.93,  337.76  C  207.93   340.27   209.96   342.29   212.46   342.29 " style="stroke-width: 1.42 ;&st7; " /><path d=" M  212.46,  342.29  C  214.97   342.29   217.00   340.27   217.00   337.76 " style="stroke-width: 1.42 ;&st7; " /><path d=" M  250.99,  337.76  C  250.99   335.26   248.96   333.23   246.46   333.23 " style="stroke-width: 1.42 ;&st7; " /><path d=" M  246.46,  333.23  C  243.96   333.23   241.93   335.26   241.93   337.76 " style="stroke-width: 1.42 ;&st7; " /><path d=" M  241.93,  337.76  C  241.93   340.27   243.96   342.29   246.46   342.29 " style="stroke-width: 1.42 ;&st7; " /><path d=" M  246.46,  342.29  C  248.96   342.29   250.99   340.27   250.99   337.76 " style="stroke-width: 1.42 ;&st7; " /><path d=" M  132.01,  337.76  C  132.01   335.26   129.98   333.23   127.48   333.23 " style="stroke-width: 1.42 ;&st7; " /><path d=" M  127.48,  333.23  C  124.98   333.23   122.95   335.26   122.95   337.76 " style="stroke-width: 1.42 ;&st7; " /><path d=" M  122.95,  337.76  C  122.95   340.27   124.98   342.29   127.48   342.29 " style="stroke-width: 1.42 ;&st7; " /><path d=" M  127.48,  342.29  C  129.98   342.29   132.01   340.27   132.01   337.76 " style="stroke-width: 1.42 ;&st7; " /><path d=" M   60.91,  398.39  C   60.91   397.60    60.27   396.97    59.49   396.97 " style="stroke-width: 0.85 ;&st7; " /><path d=" M   59.49,  396.97  C   58.71   396.97    58.07   397.60    58.07   398.39 " style="stroke-width: 0.85 ;&st7; " /><path d=" M   58.07,  398.39  C   58.07   399.17    58.71   399.80    59.49   399.80 " style="stroke-width: 0.85 ;&st7; " /><path d=" M   59.49,  399.80  C   60.27   399.80    60.91   399.17    60.91   398.39 " style="stroke-width: 0.85 ;&st7; " /><path d=" M   60.91,  421.05  C   60.91   420.27    60.27   419.63    59.49   419.63 " style="stroke-width: 0.85 ;&st7; " /><path d=" M   59.49,  419.63  C   58.71   419.63    58.07   420.27    58.07   421.05 " style="stroke-width: 0.85 ;&st7; " /><path d=" M   58.07,  421.05  C   58.07   421.83    58.71   422.46    59.49   422.46 " style="stroke-width: 0.85 ;&st7; " /><path d=" M   59.49,  422.46  C   60.27   422.46    60.91   421.83    60.91   421.05 " style="stroke-width: 0.85 ;&st7; " /><path d=" M   64.02,  431.25  C   64.02   428.74    61.99   426.71    59.49   426.71 " style="stroke-width: 1.42 ;&st7; " /><path d=" M   59.49,  426.71  C   56.99   426.71    54.96   428.74    54.96   431.25 " style="stroke-width: 1.42 ;&st7; " /><path d=" M   54.96,  431.25  C   54.96   433.75    56.99   435.78    59.49   435.78 " style="stroke-width: 1.42 ;&st7; " /><path d=" M   59.49,  435.78  C   61.99   435.78    64.02   433.75    64.02   431.25 " style="stroke-width: 1.42 ;&st7; " /><path d=" M   89.52,  431.25  C   89.52   428.74    87.49   426.71    84.99   426.71 " style="stroke-width: 1.42 ;&st7; " /><path d=" M   84.99,  426.71  C   82.48   426.71    80.45   428.74    80.45   431.25 " style="stroke-width: 1.42 ;&st7; " /><path d=" M   80.45,  431.25  C   80.45   433.75    82.48   435.78    84.99   435.78 " style="stroke-width: 1.42 ;&st7; " /><path d=" M   84.99,  435.78  C   87.49   435.78    89.52   433.75    89.52   431.25 " style="stroke-width: 1.42 ;&st7; " /><path d=" M  208.50,  209.72  C  208.50   207.21   206.47   205.18   203.97   205.18 " style="stroke-width: 1.42 ;&st7; " /><path d=" M  203.97,  205.18  C  201.46   205.18   199.43   207.21   199.43   209.72 " style="stroke-width: 1.42 ;&st7; " /><path d=" M  199.43,  209.72  C  199.43   212.22   201.46   214.25   203.97   214.25 " style="stroke-width: 1.42 ;&st7; " /><path d=" M  203.97,  214.25  C  206.47   214.25   208.50   212.22   208.50   209.72 " style="stroke-width: 1.42 ;&st7; " /><path d=" M  208.50,  235.78  C  208.50   233.28   206.47   231.25   203.97   231.25 " style="stroke-width: 1.42 ;&st7; " /><path d=" M  203.97,  231.25  C  201.46   231.25   199.43   233.28   199.43   235.78 " style="stroke-width: 1.42 ;&st7; " /><path d=" M  199.43,  235.78  C  199.43   238.28   201.46   240.31   203.97   240.31 " style="stroke-width: 1.42 ;&st7; " /><path d=" M  203.97,  240.31  C  206.47   240.31   208.50   238.28   208.50   235.78 " style="stroke-width: 1.42 ;&st7; " /><text style="&st18;" transform="matrix(&st16;  137.39  381.94 )">(LHD)</text><text style="&st18;" transform="matrix(&st16;  137.39  390.44 )">(RHD)</text><text style="&st18;" transform="matrix(&st17;  75.6  624.71 )">E62</text><text ewd:textID="39" style="&st18;" transform="matrix(&st17;  82.71  624.71 )">Junction <tspan dy="6" x="-0.01">Connector</tspan></text><text style="&st18;" transform="matrix(&st17;  55.8  655.38 )">W-B</text><text style="&st18;" transform="matrix(&st16;  48.75  553.89 )">20</text><text style="&st18;" transform="matrix(&st17;  123.78  357.23 )">G</text><text style="&st18;" transform="matrix(&st16;  119.32  329.53 )">CSW</text><text style="&st18;" transform="matrix(&st16;  52.7  525.01 )">9</text><text style="&st18;" transform="matrix(&st16;  116.6  339.73 )">9</text><text style="&st18;" transform="matrix(&st16;  49.52  601.49 )">13</text><text style="&st18;" transform="matrix(&st17;  55.8  459.91 )">W-B</text><text style="&st18;" transform="matrix(&st17;  55.8  591.64 )">W-B</text><text style="&st18;" transform="matrix(&st16;  53.48  630.37 )">1</text><text style="&st18;" transform="matrix(&st16;  125.15  339.73 )">A</text><text ewd:textID="39" style="&st18;" transform="matrix(&st17;  82.71  548.22 )">Junction <tspan dy="6" x="0">Connector</tspan></text><text style="&st18;" transform="matrix(&st17;  75.6  548.22 )">E59</text><text style="&st18;" transform="matrix(&st17;  67.13  513.63 )">(*9)</text><text style="&st18;" transform="matrix(&st17;  81.29  454.96 )">G</text><text style="&st18;" transform="matrix(&st17;  378.74  452.66 )">W-B(RHD)</text><text style="&st18;" transform="matrix(&st17;  390.07  674.42 )">(RHD)</text><text style="&st18;" transform="matrix(&st17;  378.74  672.37 )">W-B</text><text style="&st18;" transform="matrix(&st17;  288.09  500.2 )">(RHD)</text><text style="&st18;" transform="matrix(&st17;  276.76  498.15 )">W-B</text><text style="&st18;" transform="matrix(&st17;  254.1  499.71 )">(LHD)</text><text style="&st18;" transform="matrix(&st17;  174.78  366.43 )">W-B</text><text style="&st18;" transform="matrix(&st16;  164.43  398.94 )">1</text><text style="&st18;" transform="matrix(&st16;  49.22  228.97 )">24</text><text style="&st18;" transform="matrix(&st16;  49.22  220.47 )">40</text><text style="&st18;" transform="matrix(&st16;  77.9  220.47 )">(LHD)</text><text style="&st18;" transform="matrix(&st16;  77.9  228.97 )">(RHD)</text><text style="&st18;" transform="matrix(&st16;  197.63  339.73 )">32</text><text style="&st18;" transform="matrix(&st16;  235.58  339.73 )">4</text><text style="&st18;" transform="matrix(&st16;  244.13  339.73 )">B</text><text style="&st18;" transform="matrix(&st16;  236.78  329.53 )">GND3</text><text style="&st18;" transform="matrix(&st17;  242.76  498.15 )">W-B</text><text style="&st18;" transform="matrix(&st16;  210.13  339.73 )">A</text><text style="&st18;" transform="matrix(&st16;  202.79  329.53 )">GND2</text><text style="&st18;" transform="matrix(&st17;  208.77  498.15 )">W-B</text><text style="&st18;" transform="matrix(&st17;  123.78  195.76 )">G</text><text style="&st18;" transform="matrix(&st17;  143.59  233.77 )">E59</text><text ewd:textID="39" style="&st18;" transform="matrix(&st17;  150.69  233.77 )">Junction <tspan dy="6" x="0">Connector</tspan></text><text style="&st18;" transform="matrix(&st16;  116.73  210.56 )">34</text><text style="&st18;" transform="matrix(&st16;  116.73  239.44 )">44</text><text style="&st18;" transform="matrix(&st16;  461.7  289.87 )">IG2</text><text style="&st18;" transform="matrix(&st17;  463.73  140.09 )">B</text><text style="&st18;" transform="matrix(&st16;  465.09  279.67 )">B</text><text style="&st18;" transform="matrix(&st16;  457.32  279.67 )">1</text><text style="&st18;" transform="matrix(&st17;  404.24  452.17 )">W-B(LHD)</text><text style="&st18;" transform="matrix(&st17;  404.24  360.27 )">(*1)</text><text style="&st18;" transform="matrix(&st17;  293.75  368.77 )">(*1)</text><text style="&st18;" transform="matrix(&st16;  461.35  32.08 )">(IG)</text><text style="&st18;" transform="matrix(&st16;  460.63  86.47 )">2</text><text style="&st18;" transform="matrix(&st16;  465.83  109.99 )">1</text><text style="&st18;" transform="matrix(&st17;  489.22  70.31 )">10A IGN</text><text style="&st18;" transform="matrix(&st16;  482.09  339.73 )">A</text><text style="&st18;" transform="matrix(&st16;  470.36  339.73 )">17</text><text style="&st18;" transform="matrix(&st16;  439.59  339.73 )">A</text><text style="&st18;" transform="matrix(&st16;  431.05  339.73 )">3</text><text style="&st18;" transform="matrix(&st16;  354.61  339.73 )">A</text><text style="&st18;" transform="matrix(&st16;  346.06  339.73 )">4</text><text style="&st18;" transform="matrix(&st16;  312.12  339.73 )">A</text><text style="&st18;" transform="matrix(&st16;  300.39  339.73 )">18</text><text style="&st18;" transform="matrix(&st16;  176.14  339.73 )">A</text><text style="&st18;" transform="matrix(&st16;  168.37  339.73 )">1</text><text style="&st18;" transform="matrix(&st17;  395.74  141.12 )">W</text><text style="&st18;" transform="matrix(&st16;  384.62  169.48 )">2</text><text style="&st18;" transform="matrix(&st16;  347.72  289.87 )">+BM2</text><text style="&st18;" transform="matrix(&st17;  353.24  259.07 )">B</text><text style="&st18;" transform="matrix(&st17;  310.75  259.07 )">B</text><text style="&st18;" transform="matrix(&st16;  354.61  279.67 )">B</text><text style="&st18;" transform="matrix(&st16;  346.06  279.67 )">2</text><text style="&st18;" transform="matrix(&st16;  397.1  279.67 )">A</text><text style="&st18;" transform="matrix(&st16;  385.38  279.67 )">31</text><text style="&st18;" transform="matrix(&st16;  312.12  279.67 )">A</text><text style="&st18;" transform="matrix(&st16;  303.57  279.67 )">2</text><text style="&st18;" transform="matrix(&st16;  252.63  279.67 )">A</text><text style="&st18;" transform="matrix(&st16;  240.12  279.67 )">46</text><text style="&st18;" transform="matrix(&st16;  65.66  279.67 )">A</text><text style="&st18;" transform="matrix(&st16;  53.16  279.67 )">30</text><text style="&st18;" transform="matrix(&st16;  62.65  153.9 )">IG1</text><text style="&st18;" transform="matrix(&st17;  220.08  174.28 )">E61</text><text ewd:textID="39" style="&st18;" transform="matrix(&st17;  227.18  174.28 )">Junction <tspan dy="6" x="0">Connector</tspan></text><text style="&st18;" transform="matrix(&st17;  220.08  233.77 )">E60(A)</text><text ewd:textID="39" style="&st18;" transform="matrix(&st17;  227.18  233.77 )">Junction <tspan dy="6" x="0">Connector</tspan></text><text style="&st18;" transform="matrix(&st16;  63.54  176.56 )">BZ</text><text style="&st18;" transform="matrix(&st16;  162.97  261.54 )">G</text><text style="&st18;" transform="matrix(&st17;  64.29  127.77 )">G</text><text style="&st18;" transform="matrix(&st16;  193.22  151.07 )">44</text><text style="&st18;" transform="matrix(&st17;  200.27  195.76 )">G</text><text style="&st18;" transform="matrix(&st16;  63.54  289.87 )">BZ</text><text style="&st18;" transform="matrix(&st16;  61.2  142.57 )">2</text><text style="&st18;" transform="matrix(&st16;  61.98  188.45 )">1</text><text style="&st18;" transform="matrix(&st17;  64.29  206.23 )">LG</text><text style="&st18;" transform="matrix(&st17;  64.29  261.48 )">LG</text><text style="&st18;" transform="matrix(&st16;  240.14  169.48 )">5</text><text style="&st18;" transform="matrix(&st17;  200.27  140.52 )">G</text><text ewd:textID="51" style="&st18;" transform="matrix(&st17;  41.35  182.78 )">Skid Control <tspan dy="6" x="0">Buzzer Assembly</tspan></text><text style="&st18;" transform="matrix(&st17;  34.24  182.78 )">E5</text><text style="&st18;" transform="matrix(&st16;  308.34  485.34 )">FL+</text><text style="&st18;" transform="matrix(&st16;  435.32  485.34 )">FR+</text><text style="&st18;" transform="matrix(&st16;  435.32  508.0 )">FR-</text><text style="&st18;" transform="matrix(&st16;  308.34  508.0 )">FL-</text><text style="&st18;" transform="matrix(&st17;  480.72  437.54 )">B</text><text style="&st18;" transform="matrix(&st17;  438.23  438.57 )">W</text><text style="&st18;" transform="matrix(&st17;  466.53  514.22 )">z17</text><text ewd:textID="38" style="&st18;" transform="matrix(&st17;  473.64  514.22 )">Front Speed Sensor RH</text><text style="&st18;" transform="matrix(&st17;  480.72  364.95 )">L</text><text style="&st18;" transform="matrix(&st16;  477.81  329.53 )">FR-</text><text style="&st18;" transform="matrix(&st16;  435.14  474.02 )">2</text><text style="&st18;" transform="matrix(&st16;  435.91  519.89 )">1</text><text style="&st18;" transform="matrix(&st16;  470.38  398.94 )">1</text><text style="&st18;" transform="matrix(&st16;  427.11  398.94 )">5</text><text ewd:textID="52" style="&st18;" transform="matrix(&st16;  294.93  308.29 )">Skid Control ECU with Actuator Assembly</text><text style="&st18;" transform="matrix(&st16;  294.93  301.18 )">A24(A),A25(B)</text><text style="&st18;" transform="matrix(&st16;  397.84  109.99 )">1</text><text style="&st18;" transform="matrix(&st16;  392.64  86.47 )">2</text><text style="&st18;" transform="matrix(&st17;  421.24  73.45 )">30A ABS2</text><text style="&st18;" transform="matrix(&st16;  307.66  86.47 )">2</text><text style="&st18;" transform="matrix(&st17;  336.25  73.06 )">50A ABS1</text><text style="&st18;" transform="matrix(&st17;  438.23  365.31 )">B</text><text style="&st18;" transform="matrix(&st16;  435.32  329.53 )">FR+</text><text style="&st18;" transform="matrix(&st16;  392.76  289.87 )">+BS</text><text style="&st18;" transform="matrix(&st17;  395.74  200.61 )">W</text><text style="&st18;" transform="matrix(&st17;  353.24  437.54 )">B</text><text style="&st18;" transform="matrix(&st16;  312.86  109.99 )">1</text><text style="&st18;" transform="matrix(&st17;  310.75  438.57 )">W</text><text style="&st18;" transform="matrix(&st17;  339.06  514.22 )">z18</text><text ewd:textID="37" style="&st18;" transform="matrix(&st17;  346.16  514.22 )">Front Speed Sensor LH</text><text style="&st18;" transform="matrix(&st17;  353.24  367.71 )">LG</text><text style="&st18;" transform="matrix(&st16;  350.83  329.53 )">FL-</text><text style="&st18;" transform="matrix(&st16;  307.66  474.02 )">2</text><text style="&st18;" transform="matrix(&st16;  308.44  519.89 )">1</text><text style="&st18;" transform="matrix(&st16;  169.18  329.53 )">GND1</text><text style="&st18;" transform="matrix(&st17;  174.78  498.15 )">W-B</text><text ewd:textID="18" style="&st18;" transform="matrix(&st17;  276.76  70.06 )">10A <tspan dy="6" x="0">ECU-IG </tspan><tspan dy="6" x="0">No.2</tspan></text><text style="&st18;" transform="matrix(&st16;  248.88  32.08 )">(IG)</text><text style="&st18;" transform="matrix(&st16;  250.65  118.49 )">2B</text><text style="&st18;" transform="matrix(&st16;  239.09  118.49 )">12</text><text style="&st18;" transform="matrix(&st16;  187.32  118.49 )">56</text><text style="&st18;" transform="matrix(&st16;  199.52  118.49 )">2D</text><text style="&st18;" transform="matrix(&st16;  193.22  179.95 )">74</text><text style="&st18;" transform="matrix(&st17;  251.26  140.52 )">G</text><text style="&st18;" transform="matrix(&st16;  342.9  398.94 )">1</text><text style="&st18;" transform="matrix(&st17;  251.26  259.5 )">G</text><text style="&st18;" transform="matrix(&st16;  249.62  289.87 )">IG1</text><text style="&st18;" transform="matrix(&st16;  299.63  398.94 )">5</text><text style="&st18;" transform="matrix(&st17;  310.75  365.31 )">V</text><text style="&st18;" transform="matrix(&st16;  308.34  329.53 )">FL+</text><text style="&st18;" transform="matrix(&st16;  305.62  289.87 )">+BM1</text><text style="&st18;" transform="matrix(&st17;  310.75  140.09 )">B</text><text style="&st18;" transform="matrix(&st16;  305.33  32.08 )">(BAT)</text><text style="&st18;" transform="matrix(&st16;  390.32  32.08 )">(BAT)</text><text style="&st18;" transform="matrix(&st16;  476.72  609.99 )">W-B</text><text style="&st18;" transform="matrix(&st16;  476.72  635.48 )">W-B</text><text ewd:textID="19" style="&st18;" transform="matrix(&st17;  225.77  70.06 )">5A <tspan dy="6" x="0">ECU-IG </tspan><tspan dy="6" x="0">No.1</tspan></text><text style="&st18;" transform="matrix(&st16;  197.89  32.08 )">(IG)</text><text style="&st18;" transform="matrix(&st16;  109.49  390.44 )">17</text><text style="&st18;" transform="matrix(&st16;  109.49  381.94 )">18</text><text style="&st18;" transform="matrix(&st17;  67.13  598.21 )">(LHD *9)</text><text style="&st18;" transform="matrix(&st17;  67.13  661.95 )">(LHD *9)</text><text style="&st18;" transform="matrix(&st17;  135.11  360.66 )">(*9)</text><text style="&st18;" transform="matrix(&st17;  67.13  458.39 )">(*9)</text><text style="&st18;" transform="matrix(&st17;  52.96  425.01 )">VSC OFF</text><text ewd:textID="64" style="&st18;" transform="matrix(&st16;  39.97  380.52 )">VSC Off Switch</text><text style="&st18;" transform="matrix(&st16;  39.97  373.42 )">G13(B)</text><text style="&st18;" transform="matrix(&st16;  57.16  433.22 )">B</text><text style="&st18;" transform="matrix(&st16;  48.61  433.22 )">3</text><text style="&st18;" transform="matrix(&st16;  82.65  433.22 )">B</text><text style="&st18;" transform="matrix(&st16;  74.11  433.22 )">6</text><text style="&st18;" transform="matrix(&st17;  92.62  458.39 )">(*9)</text><text style="&st18;" transform="matrix(&st17;  123.78  416.72 )">G</text><text style="&st18;" transform="matrix(&st17;  135.11  420.15 )">(*9)</text><text style="&st18;" transform="matrix(&st16;  112.66  449.93 )">5</text><text style="&st18;" transform="matrix(&st16;  45.45  475.43 )">1</text><text style="&st18;" transform="matrix(&st17;  55.8  515.15 )">W-B</text><text style="&st18;" transform="matrix(&st16;  85.78  660.98 )">W-B</text><text style="&st18;" transform="matrix(&st17;  123.78  621.38 )">W-B</text><text style="&st18;" transform="matrix(&st17;  135.12  628.45 )">(RHD *9)</text><text style="&st18;" transform="matrix(&st16;  189.13  211.69 )">42</text><text style="&st18;" transform="matrix(&st16;  201.63  211.69 )">A</text><text style="&st18;" transform="matrix(&st16;  189.13  237.75 )">62</text><text style="&st18;" transform="matrix(&st16;  201.63  237.75 )">A</text><text style="&st18;" transform="matrix(&st16;  87.3  672.31 )">(*9)</text><text style="&st18;" transform="matrix(&st16;  475.16  646.81 )">(LHD)</text><text style="&st18;" transform="matrix(&st16;  474.67  621.32 )">(RHD)</text></svg>