﻿<?xml version="1.0" encoding="utf-8"?>
<!DOCTYPE svg PUBLIC "-//W3C//DTD SVG 1.0//EN" "http://www.w3.org/TR/2001/REC-SVG-20010904/DTD/svg10.dtd"[
	<!ENTITY ns_flows "http://ns.adobe.com/Flows/1.0/">
	<!ENTITY ns_svg "http://www.w3.org/2000/svg">
	<!ENTITY ns_xlink "http://www.w3.org/1999/xlink">
	<!ENTITY st0 "font-size:7px;font-family:'MS-PGothic';adobe-font-script:japanese;">
	<!ENTITY st1 "font-size:6px;font-family:'ArialMT';">
	<!-- White fill  -->
	<!ENTITY st2 "fill:#FFFFFF;stroke:#000000; stroke-width:1.41;stroke-linecap:round;stroke-linejoin:round;">
	<!-- Yellow fill  -->
	<!ENTITY st3 "fill:#FFFFCC;stroke:#FFFFCC; stroke-width:0.1;stroke-linecap:round;stroke-linejoin:round;">
	<!-- Gray fill  -->
	<!ENTITY st4 "fill:#CCCCCC;stroke:#CCCCCC; stroke-width:0.1;stroke-linecap:round;stroke-linejoin:round;">
	<!-- Light-blue fill -->
	<!ENTITY st5 "fill:#CCECF4;stroke:#000000; stroke-width:1.133;stroke-linecap:round;stroke-linejoin:round;">
	<!ENTITY st6 "fill:none;stroke-linecap:butt; stroke-linejoin:round;">
	<!ENTITY st7 "fill:none;stroke:#000000;stroke-linecap:round;stroke-linejoin:round;">
	<!ENTITY st8 "enable-background:new    ;">
	<!-- Black fill -->
	<!ENTITY st9 "fill:#000000;stroke:#000000; stroke-linecap:round;stroke-linejoin:round;">
	<!-- SRS note   -->
	<!ENTITY st10 "font-size:9px;font-family:'ArialMT';">
	<!ENTITY st11 "font-size:9px;font-family:'Svg Symbol';">
	<!ENTITY st12 "font-size:6px;font-family:'Svg Symbol';">
	<!ENTITY st13 "fill:none;stroke:#ff0000;stroke-linecap:round;stroke-linejoin:round;">
	<!-- Yellow fill  -->
	<!ENTITY st14 "fill:#FFFF00;stroke:#FFFF00; stroke-width:0.1;stroke-linecap:round;stroke-linejoin:round;">
	<!ENTITY st15 "font-size:6px;font-family:'MS-PGothic';adobe-font-script:japanese;">
	<!ENTITY st16 "1.00 0.00 0.00 1.00">
	<!ENTITY st17 "0.00 -1.00 1.00 0.00">
	<!ENTITY st18 "font-size:6px;font-family:'Arial';">
	<!ENTITY st19 "font-size:9px;font-family:'Arial';">
	<!ENTITY st20 "font-size:6px;font-family:'MS-PGothic','MS PGothic';adobe-font-script:japanese;">
	<!ENTITY st21 "font-size:7px;font-family:'MS-PGothic','MS PGothic';adobe-font-script:japanese;">
	<!ATTLIST svg
		xmlns:ewd CDATA #FIXED "http://shcl.co.jp/ewd"
		xmlns:a CDATA #FIXED "http://ns.adobe.com/AdobeSVGViewerExtensions/3.0/"
		ewd:ver CDATA #IMPLIED
	>
	<!ATTLIST a
		ewd:lineID CDATA #IMPLIED
		ewd:groupID CDATA #IMPLIED
		ewd:figtype CDATA #IMPLIED
		ewd:code CDATA #IMPLIED
		ewd:figID CDATA #IMPLIED
		ewd:pinNo CDATA #IMPLIED
		ewd:comment CDATA #IMPLIED >
	<!ATTLIST g
		ewd:lineID CDATA #IMPLIED
		ewd:groupID CDATA #IMPLIED
		ewd:figtype CDATA #IMPLIED
		ewd:code CDATA #IMPLIED
		ewd:figID CDATA #IMPLIED
		ewd:pinNo CDATA #IMPLIED
		ewd:comment CDATA #IMPLIED >
	<!ATTLIST text
		ewd:textID CDATA #IMPLIED >
	<!ATTLIST title
		ewd:textID CDATA #IMPLIED >
]>
<!-- Generator: Shintec Hozumi YS   -->
<svg onload="call_execInitLoadProc_svg('system')" style="overflow:visible;  enable-background:new 0 0 7751.458 710.000" viewBox="0 0 7751.458 710.000" height="710.000" width="7751.458" xml:space="preserve" ewd:ver="L2.1.2.8" xmlns="&ns_svg;" xmlns:a="http://ns.adobe.com/AdobeSVGViewerExtensions/3.0/" xmlns:ewd="http://shcl.co.jp/ewd" xmlns:xlink="&ns_xlink;">
<path d=" M 3781.87,  265.24  L 3781.87,  222.75 " style="stroke:#000000;stroke-width: 5.10 ;&st6;" /><path d=" M 3781.87,  265.24  L 3781.87,  222.75 " style="stroke:#FFFFFF;stroke-width: 4.53 ;&st6;" /><path d=" M 3747.87,  256.74  L 3747.87,  222.75 " style="stroke:#00A0C6;stroke-width: 5.10 ;&st6;" /><path d=" M 3705.38,  222.75  L 3705.38,  256.74 " style="stroke:#FF7F00;stroke-width: 5.10 ;&st6;" /><path d=" M 3747.87,  299.24  L 3747.87,  341.73 " style="stroke:#00A0C6;stroke-width: 5.10 ;&st6;" /><path d=" M 3705.38,  299.24  L 3705.38,  341.73 " style="stroke:#FF7F00;stroke-width: 5.10 ;&st6;" /><path d=" M 3943.34,  265.24  L 3943.34,  222.75 " style="stroke:#7FC97F;stroke-width: 5.10 ;&st6;" /><path d=" M 3943.34,  299.24  L 3943.34,  324.73  L 3968.84,  324.73  L 3968.84,  222.75 " style="stroke:#992903;stroke-width: 5.10 ;&st6;" /><path d=" M 3883.85,  265.24  L 3883.85,  222.75 " style="stroke:#008837;stroke-width: 5.10 ;&st6;" /><path d=" M 3883.85,  299.24  L 3883.85,  324.73  L 3909.35,  324.73  L 3909.35,  222.75 " style="stroke:#999999;stroke-width: 5.10 ;&st6;" /><path d=" M 3849.86,  265.24  L 3849.86,  222.75 " style="stroke:#99D9E8;stroke-width: 5.10 ;&st6;" /><path d=" M 3815.86,  265.24  L 3815.86,  222.75 " style="stroke:#000000;stroke-width: 5.10 ;&st6;" /><path d=" M 3849.86,  265.24  L 3849.86,  273.74 " style="stroke-width: 0.85 ;&st7; " /><path d=" M 3849.86,  290.74  L 3849.86,  299.24 " style="stroke-width: 0.85 ;&st7; " /><path d=" M 3815.86,  290.74  L 3815.86,  299.24 " style="stroke-width: 0.85 ;&st7; " /><path d=" M 3815.86,  265.24  L 3815.86,  273.74 " style="stroke-width: 0.85 ;&st7; " /><path d=" M 3781.87,  290.74  L 3781.87,  299.24 " style="stroke-width: 0.85 ;&st7; " /><path d=" M 3781.87,  265.24  L 3781.87,  273.74 " style="stroke-width: 0.85 ;&st7; " /><path d=" M 3705.38,  299.24  L 3705.38,  286.49 " style="stroke-width: 0.85 ;&st7; " /><path d=" M 3708.21,  282.24  L 3702.55,  285.07 " style="stroke-width: 0.85 ;&st7; " /><path d=" M 3702.55,  279.41  L 3708.21,  282.24 " style="stroke-width: 0.85 ;&st7; " /><path d=" M 3708.21,  276.57  L 3702.55,  279.41 " style="stroke-width: 0.85 ;&st7; " /><path d=" M 3702.55,  273.74  L 3708.21,  276.57 " style="stroke-width: 0.85 ;&st7; " /><path d=" M 3708.21,  270.91  L 3702.55,  273.74 " style="stroke-width: 0.85 ;&st7; " /><path d=" M 3705.38,  269.49  L 3708.21,  270.91 " style="stroke-width: 0.85 ;&st7; " /><path d=" M 3702.55,  285.07  L 3705.38,  286.49 " style="stroke-width: 0.85 ;&st7; " /><path d=" M 3705.38,  269.49  L 3705.38,  256.74 " style="stroke-width: 0.85 ;&st7; " /><path d=" M 3696.88,  269.49  L 3696.88,  286.49 " style="stroke-width: 0.85 ;&st7; " /><path d=" M 3713.88,  269.49  L 3713.88,  286.49 " style="stroke-width: 0.85 ;&st7; " /><path d=" M 3747.87,  299.24  L 3747.87,  286.49 " style="stroke-width: 0.85 ;&st7; " /><path d=" M 3750.71,  282.24  L 3745.04,  285.07 " style="stroke-width: 0.85 ;&st7; " /><path d=" M 3745.04,  279.41  L 3750.71,  282.24 " style="stroke-width: 0.85 ;&st7; " /><path d=" M 3750.71,  276.57  L 3745.04,  279.41 " style="stroke-width: 0.85 ;&st7; " /><path d=" M 3745.04,  273.74  L 3750.71,  276.57 " style="stroke-width: 0.85 ;&st7; " /><path d=" M 3750.71,  270.91  L 3745.04,  273.74 " style="stroke-width: 0.85 ;&st7; " /><path d=" M 3747.87,  269.49  L 3750.71,  270.91 " style="stroke-width: 0.85 ;&st7; " /><path d=" M 3745.04,  285.07  L 3747.87,  286.49 " style="stroke-width: 0.85 ;&st7; " /><path d=" M 3747.87,  269.49  L 3747.87,  256.74 " style="stroke-width: 0.85 ;&st7; " /><path d=" M 3739.38,  269.49  L 3739.38,  286.49 " style="stroke-width: 0.85 ;&st7; " /><path d=" M 3756.37,  269.49  L 3756.37,  286.49 " style="stroke-width: 0.85 ;&st7; " /><path d=" M 3943.34,  290.74  L 3943.34,  299.24 " style="stroke-width: 0.85 ;&st7; " /><path d=" M 3943.34,  265.24  L 3943.34,  273.74 " style="stroke-width: 0.85 ;&st7; " /><path d=" M 3883.85,  265.24  L 3883.85,  273.74 " style="stroke-width: 0.85 ;&st7; " /><path d=" M 3883.85,  290.74  L 3883.85,  299.24 " style="stroke-width: 0.85 ;&st7; " /><path d=" M 3713.88,  584.66  L 3708.91,  579.69 " style="stroke-width: 1.42 ;&st7; " /><path d=" M 3696.88,  591.72  L 3701.85,  596.69 " style="stroke-width: 1.42 ;&st7; " /><path d=" M 3708.91,  596.69  L 3713.88,  591.72 " style="stroke-width: 1.42 ;&st7; " /><path d=" M 3701.85,  579.69  L 3696.88,  584.66 " style="stroke-width: 1.42 ;&st7; " /><path d=" M 3552.40,  134.36  L 3560.90,  134.36 " style="stroke-width: 0.85 ;&st7;stroke-dasharray:3, 1.5;" /><path d=" M 3552.40,  125.30  L 3560.90,  125.30 " style="stroke-width: 0.85 ;&st7;stroke-dasharray:3, 1.5;" /><path d=" M 3518.41,  134.36  L 3526.91,  134.36 " style="stroke-width: 0.85 ;&st7;stroke-dasharray:3, 1.5;" /><path d=" M 3518.41,  125.30  L 3526.91,  125.30 " style="stroke-width: 0.85 ;&st7;stroke-dasharray:3, 1.5;" /><path d=" M 3518.41,  143.43  L 3526.91,  143.43 " style="stroke-width: 0.85 ;&st7;stroke-dasharray:3, 1.5;" /><path d=" M 3552.40,  143.43  L 3560.90,  143.43 " style="stroke-width: 0.85 ;&st7;stroke-dasharray:3, 1.5;" /><path d=" M 4011.33,  299.24  L 4011.33,  265.24  L 3994.33,  265.24  L 3994.33,  299.24  L 4011.33,  299.24 " style="stroke-width: 1.42 ;&st7; " /><path d=" M 3951.84,  299.24  L 3951.84,  265.24  L 3934.84,  265.24  L 3934.84,  299.24  L 3951.84,  299.24 " style="stroke-width: 1.42 ;&st7; " /><path d=" M 3892.35,  299.24  L 3892.35,  265.24  L 3875.35,  265.24  L 3875.35,  299.24  L 3892.35,  299.24 " style="stroke-width: 1.42 ;&st7; " /><path d=" M 3848.44,  316.23  L 3851.27,  316.23 " style="stroke-width: 0.85 ;&st7; " /><path d=" M 3847.02,  313.40  L 3852.69,  313.40 " style="stroke-width: 0.85 ;&st7; " /><path d=" M 3845.61,  310.57  L 3854.10,  310.57 " style="stroke-width: 0.85 ;&st7; " /><path d=" M 3841.36,  307.73  L 3858.35,  307.73 " style="stroke-width: 0.85 ;&st7; " /><path d=" M 3849.86,  299.24  L 3849.86,  307.73 " style="stroke-width: 0.85 ;&st7; " /><path d=" M 3858.35,  299.24  L 3858.35,  265.24  L 3841.36,  265.24  L 3841.36,  299.24  L 3858.35,  299.24 " style="stroke-width: 1.42 ;&st7; " /><path d=" M 3814.44,  316.23  L 3817.28,  316.23 " style="stroke-width: 0.85 ;&st7; " /><path d=" M 3813.03,  313.40  L 3818.69,  313.40 " style="stroke-width: 0.85 ;&st7; " /><path d=" M 3811.61,  310.57  L 3820.11,  310.57 " style="stroke-width: 0.85 ;&st7; " /><path d=" M 3807.36,  307.73  L 3824.36,  307.73 " style="stroke-width: 0.85 ;&st7; " /><path d=" M 3815.86,  299.24  L 3815.86,  307.73 " style="stroke-width: 0.85 ;&st7; " /><path d=" M 3824.36,  299.24  L 3824.36,  265.24  L 3807.36,  265.24  L 3807.36,  299.24  L 3824.36,  299.24 " style="stroke-width: 1.42 ;&st7; " /><path d=" M 3780.45,  316.23  L 3783.28,  316.23 " style="stroke-width: 0.85 ;&st7; " /><path d=" M 3779.03,  313.40  L 3784.70,  313.40 " style="stroke-width: 0.85 ;&st7; " /><path d=" M 3777.62,  310.57  L 3786.12,  310.57 " style="stroke-width: 0.85 ;&st7; " /><path d=" M 3773.37,  307.73  L 3790.37,  307.73 " style="stroke-width: 0.85 ;&st7; " /><path d=" M 3781.87,  299.24  L 3781.87,  307.73 " style="stroke-width: 0.85 ;&st7; " /><path d=" M 3790.37,  299.24  L 3790.37,  265.24  L 3773.37,  265.24  L 3773.37,  299.24  L 3790.37,  299.24 " style="stroke-width: 1.42 ;&st7; " /><path d=" M 3679.88,  222.75  L 3679.88,  341.73  L 4113.31,  341.73  L 4113.31,  222.75  L 3679.88,  222.75 " style="stroke-width: 1.42 ;&st7; " /><path d=" M 3692.63,  299.24  L 3692.63,  256.74  L 3718.13,  256.74  L 3718.13,  299.24  L 3692.63,  299.24 " style="stroke-width: 1.42 ;&st7; " /><path d=" M 3735.12,  299.24  L 3735.12,  256.74  L 3760.62,  256.74  L 3760.62,  299.24  L 3735.12,  299.24 " style="stroke-width: 1.42 ;&st7; " /><path d=" M 3977.33,  125.30  L 3985.83,  125.30 " style="stroke-width: 0.85 ;&st7;stroke-dasharray:3, 1.5;" /><path d=" M 3917.84,  125.30  L 3926.34,  125.30 " style="stroke-width: 0.85 ;&st7;stroke-dasharray:3, 1.5;" /><path d=" M 3858.35,  125.30  L 3871.10,  125.30 " style="stroke-width: 0.85 ;&st7;stroke-dasharray:3, 1.5;" /><path d=" M 3824.36,  125.30  L 3837.11,  125.30 " style="stroke-width: 0.85 ;&st7;stroke-dasharray:3, 1.5;" /><path d=" M 3790.37,  125.30  L 3803.11,  125.30 " style="stroke-width: 0.85 ;&st7;stroke-dasharray:3, 1.5;" /><path d=" M 3756.37,  125.30  L 3769.12,  125.30 " style="stroke-width: 0.85 ;&st7;stroke-dasharray:3, 1.5;" /><path d=" M 3713.88,  125.30  L 3730.88,  125.30 " style="stroke-width: 0.85 ;&st7;stroke-dasharray:3, 1.5;" /><path d=" M 3518.41,  152.49  L 3526.91,  152.49 " style="stroke-width: 0.85 ;&st7;stroke-dasharray:3, 1.5;" /><path d=" M 3552.40,  152.49  L 3560.90,  152.49 " style="stroke-width: 0.85 ;&st7;stroke-dasharray:3, 1.5;" /><path d=" M 3977.33,  134.36  L 3985.83,  134.36 " style="stroke-width: 0.85 ;&st7;stroke-dasharray:3, 1.5;" /><path d=" M 3917.84,  134.36  L 3926.34,  134.36 " style="stroke-width: 0.85 ;&st7;stroke-dasharray:3, 1.5;" /><path d=" M 3858.35,  134.36  L 3871.10,  134.36 " style="stroke-width: 0.85 ;&st7;stroke-dasharray:3, 1.5;" /><path d=" M 3824.36,  134.36  L 3837.11,  134.36 " style="stroke-width: 0.85 ;&st7;stroke-dasharray:3, 1.5;" /><path d=" M 3790.37,  134.36  L 3803.11,  134.36 " style="stroke-width: 0.85 ;&st7;stroke-dasharray:3, 1.5;" /><path d=" M 3756.37,  134.36  L 3769.12,  134.36 " style="stroke-width: 0.85 ;&st7;stroke-dasharray:3, 1.5;" /><path d=" M 3713.88,  134.36  L 3730.88,  134.36 " style="stroke-width: 0.85 ;&st7;stroke-dasharray:3, 1.5;" /><path d=" M 3739.38,  286.49  C 3739.38   291.18  3743.18   294.99  3747.87   294.99 " style="stroke-width: 0.85 ;&st7; " /><path d=" M 3747.87,  294.99  C 3752.57   294.99  3756.37   291.18  3756.37   286.49 " style="stroke-width: 0.85 ;&st7; " /><path d=" M 3756.37,  269.49  C 3756.37   264.80  3752.57   260.99  3747.87   260.99 " style="stroke-width: 0.85 ;&st7; " /><path d=" M 3747.87,  260.99  C 3743.18   260.99  3739.38   264.80  3739.38   269.49 " style="stroke-width: 0.85 ;&st7; " /><path d=" M 3696.88,  286.49  C 3696.88   291.18  3700.69   294.99  3705.38   294.99 " style="stroke-width: 0.85 ;&st7; " /><path d=" M 3705.38,  294.99  C 3710.07   294.99  3713.88   291.18  3713.88   286.49 " style="stroke-width: 0.85 ;&st7; " /><path d=" M 3713.88,  269.49  C 3713.88   264.80  3710.07   260.99  3705.38   260.99 " style="stroke-width: 0.85 ;&st7; " /><path d=" M 3705.38,  260.99  C 3700.69   260.99  3696.88   264.80  3696.88   269.49 " style="stroke-width: 0.85 ;&st7; " /><path d=" M 3752.41,  125.30  C 3752.41   122.79  3750.38   120.77  3747.87   120.77 " style="stroke-width: 1.42 ;&st7; " /><path d=" M 3747.87,  120.77  C 3745.37   120.77  3743.34   122.79  3743.34   125.30 " style="stroke-width: 1.42 ;&st7; " /><path d=" M 3743.34,  125.30  C 3743.34   127.80  3745.37   129.83  3747.87   129.83 " style="stroke-width: 1.42 ;&st7; " /><path d=" M 3747.87,  129.83  C 3750.38   129.83  3752.41   127.80  3752.41   125.30 " style="stroke-width: 1.42 ;&st7; " /><path d=" M 3709.91,  125.30  C 3709.91   122.79  3707.88   120.77  3705.38   120.77 " style="stroke-width: 1.42 ;&st7; " /><path d=" M 3705.38,  120.77  C 3702.88   120.77  3700.85   122.79  3700.85   125.30 " style="stroke-width: 1.42 ;&st7; " /><path d=" M 3700.85,  125.30  C 3700.85   127.80  3702.88   129.83  3705.38   129.83 " style="stroke-width: 1.42 ;&st7; " /><path d=" M 3705.38,  129.83  C 3707.88   129.83  3709.91   127.80  3709.91   125.30 " style="stroke-width: 1.42 ;&st7; " /><path d=" M 3998.30,  125.30  C 3998.30   127.80  4000.33   129.83  4002.83   129.83 " style="stroke-width: 1.42 ;&st7; " /><path d=" M 3973.37,  125.30  C 3973.37   122.79  3971.34   120.77  3968.84   120.77 " style="stroke-width: 1.42 ;&st7; " /><path d=" M 3968.84,  120.77  C 3966.33   120.77  3964.30   122.79  3964.30   125.30 " style="stroke-width: 1.42 ;&st7; " /><path d=" M 3964.30,  125.30  C 3964.30   127.80  3966.33   129.83  3968.84   129.83 " style="stroke-width: 1.42 ;&st7; " /><path d=" M 3968.84,  129.83  C 3971.34   129.83  3973.37   127.80  3973.37   125.30 " style="stroke-width: 1.42 ;&st7; " /><path d=" M 3947.87,  125.30  C 3947.87   122.79  3945.84   120.77  3943.34   120.77 " style="stroke-width: 1.42 ;&st7; " /><path d=" M 3943.34,  120.77  C 3940.84   120.77  3938.81   122.79  3938.81   125.30 " style="stroke-width: 1.42 ;&st7; " /><path d=" M 3938.81,  125.30  C 3938.81   127.80  3940.84   129.83  3943.34   129.83 " style="stroke-width: 1.42 ;&st7; " /><path d=" M 3943.34,  129.83  C 3945.84   129.83  3947.87   127.80  3947.87   125.30 " style="stroke-width: 1.42 ;&st7; " /><path d=" M 3913.88,  125.30  C 3913.88   122.79  3911.85   120.77  3909.35   120.77 " style="stroke-width: 1.42 ;&st7; " /><path d=" M 3909.35,  120.77  C 3906.84   120.77  3904.81   122.79  3904.81   125.30 " style="stroke-width: 1.42 ;&st7; " /><path d=" M 3904.81,  125.30  C 3904.81   127.80  3906.84   129.83  3909.35   129.83 " style="stroke-width: 1.42 ;&st7; " /><path d=" M 3909.35,  129.83  C 3911.85   129.83  3913.88   127.80  3913.88   125.30 " style="stroke-width: 1.42 ;&st7; " /><path d=" M 3888.38,  125.30  C 3888.38   122.79  3886.35   120.77  3883.85   120.77 " style="stroke-width: 1.42 ;&st7; " /><path d=" M 3883.85,  120.77  C 3881.35   120.77  3879.32   122.79  3879.32   125.30 " style="stroke-width: 1.42 ;&st7; " /><path d=" M 3879.32,  125.30  C 3879.32   127.80  3881.35   129.83  3883.85   129.83 " style="stroke-width: 1.42 ;&st7; " /><path d=" M 3883.85,  129.83  C 3886.35   129.83  3888.38   127.80  3888.38   125.30 " style="stroke-width: 1.42 ;&st7; " /><path d=" M 3943.34,  290.74  C 3945.30   290.74  3946.88   289.15  3946.88   287.20 " style="stroke-width: 0.85 ;&st7; " /><path d=" M 3946.88,  287.20  C 3946.88   285.24  3945.30   283.65  3943.34   283.65 " style="stroke-width: 0.85 ;&st7; " /><path d=" M 3943.34,  283.65  C 3942.35   283.65  3941.51   284.01  3940.81   284.72 " style="stroke-width: 0.85 ;&st7; " /><path d=" M 3940.81,  284.72  C 3942.18   286.11  3944.42   286.14  3945.82   284.77 " style="stroke-width: 0.85 ;&st7; " /><path d=" M 3945.82,  284.77  C 3947.22   283.40  3947.24   281.16  3945.87   279.76 " style="stroke-width: 0.85 ;&st7; " /><path d=" M 3945.87,  279.76  C 3944.50   278.36  3942.26   278.34  3940.86   279.71 " style="stroke-width: 0.85 ;&st7; " /><path d=" M 3940.86,  279.71  C 3940.84   279.73  3940.83   279.74  3940.81   279.76 " style="stroke-width: 0.85 ;&st7; " /><path d=" M 3940.81,  279.76  C 3942.18   281.16  3944.42   281.18  3945.82   279.81 " style="stroke-width: 0.85 ;&st7; " /><path d=" M 3945.82,  279.81  C 3947.22   278.44  3947.24   276.20  3945.87   274.80 " style="stroke-width: 0.85 ;&st7; " /><path d=" M 3945.87,  274.80  C 3945.18   274.09  3944.33   273.74  3943.34   273.74 " style="stroke-width: 0.85 ;&st7; " /><path d=" M 3883.85,  290.74  C 3885.81   290.74  3887.39   289.15  3887.39   287.20 " style="stroke-width: 0.85 ;&st7; " /><path d=" M 3887.39,  287.20  C 3887.39   285.24  3885.81   283.65  3883.85   283.65 " style="stroke-width: 0.85 ;&st7; " /><path d=" M 3883.85,  283.65  C 3882.86   283.65  3882.02   284.01  3881.32   284.72 " style="stroke-width: 0.85 ;&st7; " /><path d=" M 3881.32,  284.72  C 3882.69   286.11  3884.93   286.14  3886.33   284.77 " style="stroke-width: 0.85 ;&st7; " /><path d=" M 3886.33,  284.77  C 3887.73   283.40  3887.75   281.16  3886.38   279.76 " style="stroke-width: 0.85 ;&st7; " /><path d=" M 3886.38,  279.76  C 3885.01   278.36  3882.77   278.34  3881.37   279.71 " style="stroke-width: 0.85 ;&st7; " /><path d=" M 3881.37,  279.71  C 3881.35   279.73  3881.34   279.74  3881.32   279.76 " style="stroke-width: 0.85 ;&st7; " /><path d=" M 3881.32,  279.76  C 3882.69   281.16  3884.93   281.18  3886.33   279.81 " style="stroke-width: 0.85 ;&st7; " /><path d=" M 3886.33,  279.81  C 3887.73   278.44  3887.75   276.20  3886.38   274.80 " style="stroke-width: 0.85 ;&st7; " /><path d=" M 3886.38,  274.80  C 3885.69   274.09  3884.84   273.74  3883.85   273.74 " style="stroke-width: 0.85 ;&st7; " /><path d=" M 3849.86,  290.74  C 3851.81   290.74  3853.40   289.15  3853.40   287.20 " style="stroke-width: 0.85 ;&st7; " /><path d=" M 3853.40,  287.20  C 3853.40   285.24  3851.81   283.65  3849.86   283.65 " style="stroke-width: 0.85 ;&st7; " /><path d=" M 3849.86,  283.65  C 3848.87   283.65  3848.02   284.01  3847.33   284.72 " style="stroke-width: 0.85 ;&st7; " /><path d=" M 3847.33,  284.72  C 3848.70   286.11  3850.94   286.14  3852.34   284.77 " style="stroke-width: 0.85 ;&st7; " /><path d=" M 3852.34,  284.77  C 3853.73   283.40  3853.76   281.16  3852.39   279.76 " style="stroke-width: 0.85 ;&st7; " /><path d=" M 3852.39,  279.76  C 3851.02   278.36  3848.78   278.34  3847.38   279.71 " style="stroke-width: 0.85 ;&st7; " /><path d=" M 3847.38,  279.71  C 3847.36   279.73  3847.34   279.74  3847.33   279.76 " style="stroke-width: 0.85 ;&st7; " /><path d=" M 3847.33,  279.76  C 3848.70   281.16  3850.94   281.18  3852.34   279.81 " style="stroke-width: 0.85 ;&st7; " /><path d=" M 3852.34,  279.81  C 3853.73   278.44  3853.76   276.20  3852.39   274.80 " style="stroke-width: 0.85 ;&st7; " /><path d=" M 3852.39,  274.80  C 3851.69   274.09  3850.85   273.74  3849.86   273.74 " style="stroke-width: 0.85 ;&st7; " /><path d=" M 3815.86,  290.74  C 3817.82   290.74  3819.40   289.15  3819.40   287.20 " style="stroke-width: 0.85 ;&st7; " /><path d=" M 3819.40,  287.20  C 3819.40   285.24  3817.82   283.65  3815.86   283.65 " style="stroke-width: 0.85 ;&st7; " /><path d=" M 3815.86,  283.65  C 3814.87   283.65  3814.03   284.01  3813.33   284.72 " style="stroke-width: 0.85 ;&st7; " /><path d=" M 3813.33,  284.72  C 3814.70   286.11  3816.94   286.14  3818.34   284.77 " style="stroke-width: 0.85 ;&st7; " /><path d=" M 3818.34,  284.77  C 3819.74   283.40  3819.76   281.16  3818.39   279.76 " style="stroke-width: 0.85 ;&st7; " /><path d=" M 3818.39,  279.76  C 3817.02   278.36  3814.78   278.34  3813.38   279.71 " style="stroke-width: 0.85 ;&st7; " /><path d=" M 3813.38,  279.71  C 3813.37   279.73  3813.35   279.74  3813.33   279.76 " style="stroke-width: 0.85 ;&st7; " /><path d=" M 3813.33,  279.76  C 3814.70   281.16  3816.94   281.18  3818.34   279.81 " style="stroke-width: 0.85 ;&st7; " /><path d=" M 3818.34,  279.81  C 3819.74   278.44  3819.76   276.20  3818.39   274.80 " style="stroke-width: 0.85 ;&st7; " /><path d=" M 3818.39,  274.80  C 3817.70   274.09  3816.85   273.74  3815.86   273.74 " style="stroke-width: 0.85 ;&st7; " /><path d=" M 3781.87,  290.74  C 3783.82   290.74  3785.41   289.15  3785.41   287.20 " style="stroke-width: 0.85 ;&st7; " /><path d=" M 3785.41,  287.20  C 3785.41   285.24  3783.82   283.65  3781.87   283.65 " style="stroke-width: 0.85 ;&st7; " /><path d=" M 3781.87,  283.65  C 3780.88   283.65  3780.03   284.01  3779.34   284.72 " style="stroke-width: 0.85 ;&st7; " /><path d=" M 3779.34,  284.72  C 3780.71   286.11  3782.95   286.14  3784.35   284.77 " style="stroke-width: 0.85 ;&st7; " /><path d=" M 3784.35,  284.77  C 3785.74   283.40  3785.77   281.16  3784.40   279.76 " style="stroke-width: 0.85 ;&st7; " /><path d=" M 3784.40,  279.76  C 3783.03   278.36  3780.79   278.34  3779.39   279.71 " style="stroke-width: 0.85 ;&st7; " /><path d=" M 3779.39,  279.71  C 3779.37   279.73  3779.36   279.74  3779.34   279.76 " style="stroke-width: 0.85 ;&st7; " /><path d=" M 3779.34,  279.76  C 3780.71   281.16  3782.95   281.18  3784.35   279.81 " style="stroke-width: 0.85 ;&st7; " /><path d=" M 3784.35,  279.81  C 3785.74   278.44  3785.77   276.20  3784.40   274.80 " style="stroke-width: 0.85 ;&st7; " /><path d=" M 3784.40,  274.80  C 3783.70   274.09  3782.86   273.74  3781.87   273.74 " style="stroke-width: 0.85 ;&st7; " /><path d=" M 3786.40,  125.30  C 3786.40   122.79  3784.37   120.77  3781.87   120.77 " style="stroke-width: 1.42 ;&st7; " /><path d=" M 3781.87,  120.77  C 3779.36   120.77  3777.34   122.79  3777.34   125.30 " style="stroke-width: 1.42 ;&st7; " /><path d=" M 3777.34,  125.30  C 3777.34   127.80  3779.36   129.83  3781.87   129.83 " style="stroke-width: 1.42 ;&st7; " /><path d=" M 3781.87,  129.83  C 3784.37   129.83  3786.40   127.80  3786.40   125.30 " style="stroke-width: 1.42 ;&st7; " /><path d=" M 3820.39,  125.30  C 3820.39   122.79  3818.37   120.77  3815.86   120.77 " style="stroke-width: 1.42 ;&st7; " /><path d=" M 3815.86,  120.77  C 3813.36   120.77  3811.33   122.79  3811.33   125.30 " style="stroke-width: 1.42 ;&st7; " /><path d=" M 3811.33,  125.30  C 3811.33   127.80  3813.36   129.83  3815.86   129.83 " style="stroke-width: 1.42 ;&st7; " /><path d=" M 3815.86,  129.83  C 3818.37   129.83  3820.39   127.80  3820.39   125.30 " style="stroke-width: 1.42 ;&st7; " /><path d=" M 3854.39,  125.30  C 3854.39   122.79  3852.36   120.77  3849.86   120.77 " style="stroke-width: 1.42 ;&st7; " /><path d=" M 3849.86,  120.77  C 3847.35   120.77  3845.32   122.79  3845.32   125.30 " style="stroke-width: 1.42 ;&st7; " /><path d=" M 3845.32,  125.30  C 3845.32   127.80  3847.35   129.83  3849.86   129.83 " style="stroke-width: 1.42 ;&st7; " /><path d=" M 3849.86,  129.83  C 3852.36   129.83  3854.39   127.80  3854.39   125.30 " style="stroke-width: 1.42 ;&st7; " /><path d=" M 3947.87,  218.22  C 3947.87   215.71  3945.84   213.68  3943.34   213.68 " style="stroke-width: 1.42 ;&st7; " /><path d=" M 3943.34,  213.68  C 3940.84   213.68  3938.81   215.71  3938.81   218.22 " style="stroke-width: 1.42 ;&st7; " /><path d=" M 3938.81,  218.22  C 3938.81   220.72  3940.84   222.75  3943.34   222.75 " style="stroke-width: 1.42 ;&st7; " /><path d=" M 3943.34,  222.75  C 3945.84   222.75  3947.87   220.72  3947.87   218.22 " style="stroke-width: 1.42 ;&st7; " /><path d=" M 3514.45,  134.36  C 3514.45   131.86  3512.42   129.83  3509.91   129.83 " style="stroke-width: 1.42 ;&st7; " /><path d=" M 3509.91,  129.83  C 3507.41   129.83  3505.38   131.86  3505.38   134.36 " style="stroke-width: 1.42 ;&st7; " /><path d=" M 3505.38,  134.36  C 3505.38   136.87  3507.41   138.90  3509.91   138.90 " style="stroke-width: 1.42 ;&st7; " /><path d=" M 3509.91,  138.90  C 3512.42   138.90  3514.45   136.87  3514.45   134.36 " style="stroke-width: 1.42 ;&st7; " /><path d=" M 3514.45,  125.30  C 3514.45   122.79  3512.42   120.77  3509.91   120.77 " style="stroke-width: 1.42 ;&st7; " /><path d=" M 3509.91,  120.77  C 3507.41   120.77  3505.38   122.79  3505.38   125.30 " style="stroke-width: 1.42 ;&st7; " /><path d=" M 3505.38,  125.30  C 3505.38   127.80  3507.41   129.83  3509.91   129.83 " style="stroke-width: 1.42 ;&st7; " /><path d=" M 3509.91,  129.83  C 3512.42   129.83  3514.45   127.80  3514.45   125.30 " style="stroke-width: 1.42 ;&st7; " /><path d=" M 3548.44,  134.36  C 3548.44   131.86  3546.41   129.83  3543.91   129.83 " style="stroke-width: 1.42 ;&st7; " /><path d=" M 3543.91,  129.83  C 3541.40   129.83  3539.38   131.86  3539.38   134.36 " style="stroke-width: 1.42 ;&st7; " /><path d=" M 3539.38,  134.36  C 3539.38   136.87  3541.40   138.90  3543.91   138.90 " style="stroke-width: 1.42 ;&st7; " /><path d=" M 3543.91,  138.90  C 3546.41   138.90  3548.44   136.87  3548.44   134.36 " style="stroke-width: 1.42 ;&st7; " /><path d=" M 3548.44,  125.30  C 3548.44   122.79  3546.41   120.77  3543.91   120.77 " style="stroke-width: 1.42 ;&st7; " /><path d=" M 3543.91,  120.77  C 3541.40   120.77  3539.38   122.79  3539.38   125.30 " style="stroke-width: 1.42 ;&st7; " /><path d=" M 3539.38,  125.30  C 3539.38   127.80  3541.40   129.83  3543.91   129.83 " style="stroke-width: 1.42 ;&st7; " /><path d=" M 3543.91,  129.83  C 3546.41   129.83  3548.44   127.80  3548.44   125.30 " style="stroke-width: 1.42 ;&st7; " /><path d=" M 3582.43,  134.36  C 3582.43   131.86  3580.41   129.83  3577.90   129.83 " style="stroke-width: 1.42 ;&st7; " /><path d=" M 3577.90,  129.83  C 3575.40   129.83  3573.37   131.86  3573.37   134.36 " style="stroke-width: 1.42 ;&st7; " /><path d=" M 3573.37,  134.36  C 3573.37   136.87  3575.40   138.90  3577.90   138.90 " style="stroke-width: 1.42 ;&st7; " /><path d=" M 3577.90,  138.90  C 3580.41   138.90  3582.43   136.87  3582.43   134.36 " style="stroke-width: 1.42 ;&st7; " /><path d=" M 3582.43,  125.30  C 3582.43   122.79  3580.41   120.77  3577.90   120.77 " style="stroke-width: 1.42 ;&st7; " /><path d=" M 3577.90,  120.77  C 3575.40   120.77  3573.37   122.79  3573.37   125.30 " style="stroke-width: 1.42 ;&st7; " /><path d=" M 3573.37,  125.30  C 3573.37   127.80  3575.40   129.83  3577.90   129.83 " style="stroke-width: 1.42 ;&st7; " /><path d=" M 3577.90,  129.83  C 3580.41   129.83  3582.43   127.80  3582.43   125.30 " style="stroke-width: 1.42 ;&st7; " /><path d=" M 3709.91,  346.26  C 3709.91   343.76  3707.88   341.73  3705.38   341.73 " style="stroke-width: 1.42 ;&st7; " /><path d=" M 3705.38,  341.73  C 3702.88   341.73  3700.85   343.76  3700.85   346.26 " style="stroke-width: 1.42 ;&st7; " /><path d=" M 3700.85,  346.26  C 3700.85   348.76  3702.88   350.79  3705.38   350.79 " style="stroke-width: 1.42 ;&st7; " /><path d=" M 3705.38,  350.79  C 3707.88   350.79  3709.91   348.76  3709.91   346.26 " style="stroke-width: 1.42 ;&st7; " /><path d=" M 3709.91,  218.22  C 3709.91   215.71  3707.88   213.68  3705.38   213.68 " style="stroke-width: 1.42 ;&st7; " /><path d=" M 3705.38,  213.68  C 3702.88   213.68  3700.85   215.71  3700.85   218.22 " style="stroke-width: 1.42 ;&st7; " /><path d=" M 3700.85,  218.22  C 3700.85   220.72  3702.88   222.75  3705.38   222.75 " style="stroke-width: 1.42 ;&st7; " /><path d=" M 3705.38,  222.75  C 3707.88   222.75  3709.91   220.72  3709.91   218.22 " style="stroke-width: 1.42 ;&st7; " /><path d=" M 3752.41,  346.26  C 3752.41   343.76  3750.38   341.73  3747.87   341.73 " style="stroke-width: 1.42 ;&st7; " /><path d=" M 3747.87,  341.73  C 3745.37   341.73  3743.34   343.76  3743.34   346.26 " style="stroke-width: 1.42 ;&st7; " /><path d=" M 3743.34,  346.26  C 3743.34   348.76  3745.37   350.79  3747.87   350.79 " style="stroke-width: 1.42 ;&st7; " /><path d=" M 3747.87,  350.79  C 3750.38   350.79  3752.41   348.76  3752.41   346.26 " style="stroke-width: 1.42 ;&st7; " /><path d=" M 3752.41,  218.22  C 3752.41   215.71  3750.38   213.68  3747.87   213.68 " style="stroke-width: 1.42 ;&st7; " /><path d=" M 3747.87,  213.68  C 3745.37   213.68  3743.34   215.71  3743.34   218.22 " style="stroke-width: 1.42 ;&st7; " /><path d=" M 3743.34,  218.22  C 3743.34   220.72  3745.37   222.75  3747.87   222.75 " style="stroke-width: 1.42 ;&st7; " /><path d=" M 3747.87,  222.75  C 3750.38   222.75  3752.41   220.72  3752.41   218.22 " style="stroke-width: 1.42 ;&st7; " /><path d=" M 3786.40,  218.22  C 3786.40   215.71  3784.37   213.68  3781.87   213.68 " style="stroke-width: 1.42 ;&st7; " /><path d=" M 3781.87,  213.68  C 3779.36   213.68  3777.34   215.71  3777.34   218.22 " style="stroke-width: 1.42 ;&st7; " /><path d=" M 3777.34,  218.22  C 3777.34   220.72  3779.36   222.75  3781.87   222.75 " style="stroke-width: 1.42 ;&st7; " /><path d=" M 3781.87,  222.75  C 3784.37   222.75  3786.40   220.72  3786.40   218.22 " style="stroke-width: 1.42 ;&st7; " /><path d=" M 3820.39,  218.22  C 3820.39   215.71  3818.37   213.68  3815.86   213.68 " style="stroke-width: 1.42 ;&st7; " /><path d=" M 3815.86,  213.68  C 3813.36   213.68  3811.33   215.71  3811.33   218.22 " style="stroke-width: 1.42 ;&st7; " /><path d=" M 3811.33,  218.22  C 3811.33   220.72  3813.36   222.75  3815.86   222.75 " style="stroke-width: 1.42 ;&st7; " /><path d=" M 3815.86,  222.75  C 3818.37   222.75  3820.39   220.72  3820.39   218.22 " style="stroke-width: 1.42 ;&st7; " /><path d=" M 3998.30,  218.22  C 3998.30   220.72  4000.33   222.75  4002.83   222.75 " style="stroke-width: 1.42 ;&st7; " /><path d=" M 3854.39,  218.22  C 3854.39   215.71  3852.36   213.68  3849.86   213.68 " style="stroke-width: 1.42 ;&st7; " /><path d=" M 3849.86,  213.68  C 3847.35   213.68  3845.32   215.71  3845.32   218.22 " style="stroke-width: 1.42 ;&st7; " /><path d=" M 3845.32,  218.22  C 3845.32   220.72  3847.35   222.75  3849.86   222.75 " style="stroke-width: 1.42 ;&st7; " /><path d=" M 3849.86,  222.75  C 3852.36   222.75  3854.39   220.72  3854.39   218.22 " style="stroke-width: 1.42 ;&st7; " /><path d=" M 3973.37,  218.22  C 3973.37   215.71  3971.34   213.68  3968.84   213.68 " style="stroke-width: 1.42 ;&st7; " /><path d=" M 3968.84,  213.68  C 3966.33   213.68  3964.30   215.71  3964.30   218.22 " style="stroke-width: 1.42 ;&st7; " /><path d=" M 3964.30,  218.22  C 3964.30   220.72  3966.33   222.75  3968.84   222.75 " style="stroke-width: 1.42 ;&st7; " /><path d=" M 3968.84,  222.75  C 3971.34   222.75  3973.37   220.72  3973.37   218.22 " style="stroke-width: 1.42 ;&st7; " /><path d=" M 3888.38,  218.22  C 3888.38   215.71  3886.35   213.68  3883.85   213.68 " style="stroke-width: 1.42 ;&st7; " /><path d=" M 3883.85,  213.68  C 3881.35   213.68  3879.32   215.71  3879.32   218.22 " style="stroke-width: 1.42 ;&st7; " /><path d=" M 3879.32,  218.22  C 3879.32   220.72  3881.35   222.75  3883.85   222.75 " style="stroke-width: 1.42 ;&st7; " /><path d=" M 3883.85,  222.75  C 3886.35   222.75  3888.38   220.72  3888.38   218.22 " style="stroke-width: 1.42 ;&st7; " /><path d=" M 3913.88,  218.22  C 3913.88   215.71  3911.85   213.68  3909.35   213.68 " style="stroke-width: 1.42 ;&st7; " /><path d=" M 3909.35,  213.68  C 3906.84   213.68  3904.81   215.71  3904.81   218.22 " style="stroke-width: 1.42 ;&st7; " /><path d=" M 3904.81,  218.22  C 3904.81   220.72  3906.84   222.75  3909.35   222.75 " style="stroke-width: 1.42 ;&st7; " /><path d=" M 3909.35,  222.75  C 3911.85   222.75  3913.88   220.72  3913.88   218.22 " style="stroke-width: 1.42 ;&st7; " /><path d=" M 3582.43,  152.49  C 3582.43   149.99  3580.41   147.96  3577.90   147.96 " style="stroke-width: 1.42 ;&st7; " /><path d=" M 3577.90,  147.96  C 3575.40   147.96  3573.37   149.99  3573.37   152.49 " style="stroke-width: 1.42 ;&st7; " /><path d=" M 3573.37,  152.49  C 3573.37   155.00  3575.40   157.03  3577.90   157.03 " style="stroke-width: 1.42 ;&st7; " /><path d=" M 3577.90,  157.03  C 3580.41   157.03  3582.43   155.00  3582.43   152.49 " style="stroke-width: 1.42 ;&st7; " /><path d=" M 3548.44,  152.49  C 3548.44   149.99  3546.41   147.96  3543.91   147.96 " style="stroke-width: 1.42 ;&st7; " /><path d=" M 3543.91,  147.96  C 3541.40   147.96  3539.38   149.99  3539.38   152.49 " style="stroke-width: 1.42 ;&st7; " /><path d=" M 3539.38,  152.49  C 3539.38   155.00  3541.40   157.03  3543.91   157.03 " style="stroke-width: 1.42 ;&st7; " /><path d=" M 3543.91,  157.03  C 3546.41   157.03  3548.44   155.00  3548.44   152.49 " style="stroke-width: 1.42 ;&st7; " /><path d=" M 3514.45,  152.49  C 3514.45   149.99  3512.42   147.96  3509.91   147.96 " style="stroke-width: 1.42 ;&st7; " /><path d=" M 3509.91,  147.96  C 3507.41   147.96  3505.38   149.99  3505.38   152.49 " style="stroke-width: 1.42 ;&st7; " /><path d=" M 3505.38,  152.49  C 3505.38   155.00  3507.41   157.03  3509.91   157.03 " style="stroke-width: 1.42 ;&st7; " /><path d=" M 3509.91,  157.03  C 3512.42   157.03  3514.45   155.00  3514.45   152.49 " style="stroke-width: 1.42 ;&st7; " /><path d=" M 3709.91,  134.36  C 3709.91   131.86  3707.88   129.83  3705.38   129.83 " style="stroke-width: 1.42 ;&st7; " /><path d=" M 3705.38,  129.83  C 3702.88   129.83  3700.85   131.86  3700.85   134.36 " style="stroke-width: 1.42 ;&st7; " /><path d=" M 3700.85,  134.36  C 3700.85   136.87  3702.88   138.90  3705.38   138.90 " style="stroke-width: 1.42 ;&st7; " /><path d=" M 3705.38,  138.90  C 3707.88   138.90  3709.91   136.87  3709.91   134.36 " style="stroke-width: 1.42 ;&st7; " /><path d=" M 3752.41,  134.36  C 3752.41   131.86  3750.38   129.83  3747.87   129.83 " style="stroke-width: 1.42 ;&st7; " /><path d=" M 3747.87,  129.83  C 3745.37   129.83  3743.34   131.86  3743.34   134.36 " style="stroke-width: 1.42 ;&st7; " /><path d=" M 3743.34,  134.36  C 3743.34   136.87  3745.37   138.90  3747.87   138.90 " style="stroke-width: 1.42 ;&st7; " /><path d=" M 3747.87,  138.90  C 3750.38   138.90  3752.41   136.87  3752.41   134.36 " style="stroke-width: 1.42 ;&st7; " /><path d=" M 3786.40,  134.36  C 3786.40   131.86  3784.37   129.83  3781.87   129.83 " style="stroke-width: 1.42 ;&st7; " /><path d=" M 3781.87,  129.83  C 3779.36   129.83  3777.34   131.86  3777.34   134.36 " style="stroke-width: 1.42 ;&st7; " /><path d=" M 3777.34,  134.36  C 3777.34   136.87  3779.36   138.90  3781.87   138.90 " style="stroke-width: 1.42 ;&st7; " /><path d=" M 3781.87,  138.90  C 3784.37   138.90  3786.40   136.87  3786.40   134.36 " style="stroke-width: 1.42 ;&st7; " /><path d=" M 3820.39,  134.36  C 3820.39   131.86  3818.37   129.83  3815.86   129.83 " style="stroke-width: 1.42 ;&st7; " /><path d=" M 3815.86,  129.83  C 3813.36   129.83  3811.33   131.86  3811.33   134.36 " style="stroke-width: 1.42 ;&st7; " /><path d=" M 3811.33,  134.36  C 3811.33   136.87  3813.36   138.90  3815.86   138.90 " style="stroke-width: 1.42 ;&st7; " /><path d=" M 3815.86,  138.90  C 3818.37   138.90  3820.39   136.87  3820.39   134.36 " style="stroke-width: 1.42 ;&st7; " /><path d=" M 3854.39,  134.36  C 3854.39   131.86  3852.36   129.83  3849.86   129.83 " style="stroke-width: 1.42 ;&st7; " /><path d=" M 3849.86,  129.83  C 3847.35   129.83  3845.32   131.86  3845.32   134.36 " style="stroke-width: 1.42 ;&st7; " /><path d=" M 3845.32,  134.36  C 3845.32   136.87  3847.35   138.90  3849.86   138.90 " style="stroke-width: 1.42 ;&st7; " /><path d=" M 3849.86,  138.90  C 3852.36   138.90  3854.39   136.87  3854.39   134.36 " style="stroke-width: 1.42 ;&st7; " /><path d=" M 3888.38,  134.36  C 3888.38   131.86  3886.35   129.83  3883.85   129.83 " style="stroke-width: 1.42 ;&st7; " /><path d=" M 3883.85,  129.83  C 3881.35   129.83  3879.32   131.86  3879.32   134.36 " style="stroke-width: 1.42 ;&st7; " /><path d=" M 3879.32,  134.36  C 3879.32   136.87  3881.35   138.90  3883.85   138.90 " style="stroke-width: 1.42 ;&st7; " /><path d=" M 3883.85,  138.90  C 3886.35   138.90  3888.38   136.87  3888.38   134.36 " style="stroke-width: 1.42 ;&st7; " /><path d=" M 3913.88,  134.36  C 3913.88   131.86  3911.85   129.83  3909.35   129.83 " style="stroke-width: 1.42 ;&st7; " /><path d=" M 3909.35,  129.83  C 3906.84   129.83  3904.81   131.86  3904.81   134.36 " style="stroke-width: 1.42 ;&st7; " /><path d=" M 3904.81,  134.36  C 3904.81   136.87  3906.84   138.90  3909.35   138.90 " style="stroke-width: 1.42 ;&st7; " /><path d=" M 3909.35,  138.90  C 3911.85   138.90  3913.88   136.87  3913.88   134.36 " style="stroke-width: 1.42 ;&st7; " /><path d=" M 3947.87,  134.36  C 3947.87   131.86  3945.84   129.83  3943.34   129.83 " style="stroke-width: 1.42 ;&st7; " /><path d=" M 3943.34,  129.83  C 3940.84   129.83  3938.81   131.86  3938.81   134.36 " style="stroke-width: 1.42 ;&st7; " /><path d=" M 3938.81,  134.36  C 3938.81   136.87  3940.84   138.90  3943.34   138.90 " style="stroke-width: 1.42 ;&st7; " /><path d=" M 3943.34,  138.90  C 3945.84   138.90  3947.87   136.87  3947.87   134.36 " style="stroke-width: 1.42 ;&st7; " /><path d=" M 3973.37,  134.36  C 3973.37   131.86  3971.34   129.83  3968.84   129.83 " style="stroke-width: 1.42 ;&st7; " /><path d=" M 3968.84,  129.83  C 3966.33   129.83  3964.30   131.86  3964.30   134.36 " style="stroke-width: 1.42 ;&st7; " /><path d=" M 3964.30,  134.36  C 3964.30   136.87  3966.33   138.90  3968.84   138.90 " style="stroke-width: 1.42 ;&st7; " /><path d=" M 3968.84,  138.90  C 3971.34   138.90  3973.37   136.87  3973.37   134.36 " style="stroke-width: 1.42 ;&st7; " /><path d=" M 3998.30,  134.36  C 3998.30   136.87  4000.33   138.90  4002.83   138.90 " style="stroke-width: 1.42 ;&st7; " /><path d=" M 3514.45,  143.43  C 3514.45   140.92  3512.42   138.90  3509.91   138.90 " style="stroke-width: 1.42 ;&st7; " /><path d=" M 3509.91,  138.90  C 3507.41   138.90  3505.38   140.92  3505.38   143.43 " style="stroke-width: 1.42 ;&st7; " /><path d=" M 3505.38,  143.43  C 3505.38   145.93  3507.41   147.96  3509.91   147.96 " style="stroke-width: 1.42 ;&st7; " /><path d=" M 3509.91,  147.96  C 3512.42   147.96  3514.45   145.93  3514.45   143.43 " style="stroke-width: 1.42 ;&st7; " /><path d=" M 3548.44,  143.43  C 3548.44   140.92  3546.41   138.90  3543.91   138.90 " style="stroke-width: 1.42 ;&st7; " /><path d=" M 3543.91,  138.90  C 3541.40   138.90  3539.38   140.92  3539.38   143.43 " style="stroke-width: 1.42 ;&st7; " /><path d=" M 3539.38,  143.43  C 3539.38   145.93  3541.40   147.96  3543.91   147.96 " style="stroke-width: 1.42 ;&st7; " /><path d=" M 3543.91,  147.96  C 3546.41   147.96  3548.44   145.93  3548.44   143.43 " style="stroke-width: 1.42 ;&st7; " /><path d=" M 3582.43,  143.43  C 3582.43   140.92  3580.41   138.90  3577.90   138.90 " style="stroke-width: 1.42 ;&st7; " /><path d=" M 3577.90,  138.90  C 3575.40   138.90  3573.37   140.92  3573.37   143.43 " style="stroke-width: 1.42 ;&st7; " /><path d=" M 3573.37,  143.43  C 3573.37   145.93  3575.40   147.96  3577.90   147.96 " style="stroke-width: 1.42 ;&st7; " /><path d=" M 3577.90,  147.96  C 3580.41   147.96  3582.43   145.93  3582.43   143.43 " style="stroke-width: 1.42 ;&st7; " /><text style="&st18;" transform="matrix(&st16;  3847.53  220.18 )">A</text><text style="&st18;" transform="matrix(&st16;  3838.98  220.18 )">7</text><text style="&st18;" transform="matrix(&st16;  3813.53  220.18 )">A</text><text style="&st18;" transform="matrix(&st16;  3801.81  220.18 )">15</text><text style="&st18;" transform="matrix(&st16;  3988.78  220.18 )">12</text><text style="&st18;" transform="matrix(&st16;  3770.99  220.18 )">8</text><text style="&st18;" transform="matrix(&st16;  3779.54  220.18 )">A</text><text style="&st18;" transform="matrix(&st16;  3745.54  220.18 )">A</text><text style="&st18;" transform="matrix(&st16;  3737.0  220.18 )">9</text><text style="&st18;" transform="matrix(&st16;  3745.54  348.23 )">A</text><text style="&st18;" transform="matrix(&st16;  3737.77  348.23 )">1</text><text style="&st18;" transform="matrix(&st16;  3691.33  220.18 )">10</text><text style="&st18;" transform="matrix(&st16;  3703.05  348.23 )">A</text><text style="&st18;" transform="matrix(&st16;  3694.5  348.23 )">2</text><text style="&st18;" transform="matrix(&st16;  3703.05  220.18 )">A</text><text style="&st18;" transform="matrix(&st16;  3568.93  323.87 )">EPA2</text><text style="&st18;" transform="matrix(&st16;  3571.11  312.54 )">2</text><text style="&st18;" transform="matrix(&st16;  3536.91  323.87 )">EPA</text><text style="&st18;" transform="matrix(&st16;  3537.12  312.54 )">5</text><text style="&st18;" transform="matrix(&st16;  3500.8  323.87 )">VCP2</text><text style="&st18;" transform="matrix(&st16;  3503.9  312.54 )">1</text><text style="&st18;" transform="matrix(&st16;  3568.93  117.07 )">EPA2</text><text style="&st18;" transform="matrix(&st16;  3536.91  117.07 )">EPA</text><text style="&st18;" transform="matrix(&st16;  3500.8  117.07 )">VCP2</text><text style="&st18;" transform="matrix(&st16;  3575.57  127.27 )">A</text><text style="&st18;" transform="matrix(&st16;  3563.07  127.27 )">60</text><text style="&st18;" transform="matrix(&st16;  3583.88  127.27 )">(LHD *16,*23)</text><text style="&st18;" transform="matrix(&st16;  3575.57  136.33 )">A</text><text style="&st18;" transform="matrix(&st16;  3563.07  136.33 )">58</text><text style="&st18;" transform="matrix(&st16;  3583.88  136.33 )">(LHD *17)</text><text style="&st18;" transform="matrix(&st16;  3541.58  127.27 )">A</text><text style="&st18;" transform="matrix(&st16;  3529.08  127.27 )">58</text><text style="&st18;" transform="matrix(&st16;  3541.58  136.33 )">A</text><text style="&st18;" transform="matrix(&st16;  3529.08  136.33 )">57</text><text style="&st18;" transform="matrix(&st16;  3507.58  127.27 )">A</text><text style="&st18;" transform="matrix(&st16;  3507.58  136.33 )">A</text><text style="&st18;" transform="matrix(&st16;  3649.59  618.48 )">BR</text><text style="&st18;" transform="matrix(&st16;  3639.77  629.82 )">(*17,*23)</text><text style="&st18;" transform="matrix(&st16;  3974.81  411.69 )">*17 :1VD-FTV</text><text style="&st18;" transform="matrix(&st16;  3974.81  403.19 )">*16 :2UZ-FE</text><text style="&st18;" transform="matrix(&st16;  3541.44  145.4 )">D</text><text style="&st18;" transform="matrix(&st16;  3529.1  145.4 )">58</text><text style="&st18;" transform="matrix(&st16;  3575.43  145.4 )">D</text><text style="&st18;" transform="matrix(&st16;  3563.1  145.4 )">60</text><text style="&st18;" transform="matrix(&st16;  3507.44  145.4 )">D</text><text style="&st18;" transform="matrix(&st16;  3583.88  145.4 )">(RHD *16)</text><text ewd:textID="3" style="&st18;" transform="matrix(&st16;  3974.81  394.69 )">* 1 :Shielded</text><text style="&st18;" transform="matrix(&st17;  3585.54  277.83 )">(*16,*17,*23)</text><text style="&st18;" transform="matrix(&st17;  3551.55  277.83 )">(*16,*17,*23)</text><text style="&st18;" transform="matrix(&st17;  3517.55  277.83 )">(*16,*17,*23)</text><text style="&st18;" transform="matrix(&st17;  3976.47  188.03 )">(*16)</text><text style="&st18;" transform="matrix(&st17;  3950.98  188.03 )">(*16)</text><text style="&st18;" transform="matrix(&st17;  3916.98  188.03 )">(*16)</text><text style="&st18;" transform="matrix(&st17;  3891.49  188.03 )">(*16)</text><text style="&st18;" transform="matrix(&st17;  3857.49  188.03 )">(*16)</text><text style="&st18;" transform="matrix(&st17;  3823.5  188.03 )">(*16)</text><text style="&st18;" transform="matrix(&st17;  3789.5  188.03 )">(*16)</text><text style="&st18;" transform="matrix(&st17;  3755.51  188.03 )">(*16)</text><text style="&st18;" transform="matrix(&st17;  3713.02  188.03 )">(*16)</text><text style="&st18;" transform="matrix(&st17;  3755.51  400.49 )">(*16)</text><text style="&st18;" transform="matrix(&st17;  3713.02  400.49 )">(*16)</text><text style="&st18;" transform="matrix(&st16;  3646.62  595.82 )">(*16)</text><text style="&st18;" transform="matrix(&st16;  3652.06  643.98 )">B</text><text style="&st18;" transform="matrix(&st16;  3652.06  669.48 )">V</text><text style="&st18;" transform="matrix(&st16;  3941.01  220.18 )">A</text><text style="&st18;" transform="matrix(&st16;  3929.29  220.18 )">13</text><text style="&st18;" transform="matrix(&st16;  3779.54  127.27 )">B</text><text style="&st18;" transform="matrix(&st16;  3771.02  127.27 )">7</text><text style="&st18;" transform="matrix(&st16;  3813.53  127.27 )">B</text><text style="&st18;" transform="matrix(&st16;  3805.01  127.27 )">4</text><text style="&st18;" transform="matrix(&st16;  3847.53  127.27 )">B</text><text style="&st18;" transform="matrix(&st16;  3839.01  127.27 )">6</text><text style="&st18;" transform="matrix(&st16;  3881.52  127.27 )">B</text><text style="&st18;" transform="matrix(&st16;  3873.0  127.27 )">9</text><text style="&st18;" transform="matrix(&st16;  3907.02  127.27 )">B</text><text style="&st18;" transform="matrix(&st16;  3898.5  127.27 )">8</text><text style="&st18;" transform="matrix(&st16;  3941.01  127.27 )">B</text><text style="&st18;" transform="matrix(&st16;  3929.31  127.27 )">10</text><text style="&st18;" transform="matrix(&st16;  3966.51  127.27 )">B</text><text style="&st18;" transform="matrix(&st16;  3955.59  127.27 )">11</text><text style="&st18;" transform="matrix(&st16;  3988.8  127.27 )">14</text><text style="&st18;" transform="matrix(&st16;  3703.05  127.27 )">B</text><text style="&st18;" transform="matrix(&st16;  3687.4  127.27 )">122</text><text style="&st18;" transform="matrix(&st16;  3745.54  127.27 )">B</text><text style="&st18;" transform="matrix(&st16;  3733.07  127.27 )">99</text><text style="&st18;" transform="matrix(&st17;  3778.17  182.73 )">R</text><text style="&st18;" transform="matrix(&st17;  3812.17  183.61 )">W</text><text style="&st18;" transform="matrix(&st17;  3846.16  183.01 )">G</text><text style="&st18;" transform="matrix(&st17;  3880.16  182.59 )">B</text><text style="&st18;" transform="matrix(&st17;  3905.65  187.35 )">G-B</text><text style="&st18;" transform="matrix(&st17;  3939.65  186.58 )">L-Y</text><text style="&st18;" transform="matrix(&st17;  3965.14  186.72 )">L-R</text><text style="&st18;" transform="matrix(&st17;  3999.14  182.59 )">Y</text><text style="&st18;" transform="matrix(&st17;  3701.69  187.35 )">G-Y</text><text style="&st18;" transform="matrix(&st17;  3744.18  182.23 )">L</text><text style="&st18;" transform="matrix(&st16;  3777.95  117.07 )">S1</text><text style="&st18;" transform="matrix(&st16;  3811.55  117.07 )">S2</text><text style="&st18;" transform="matrix(&st16;  3845.05  117.07 )">SR</text><text style="&st18;" transform="matrix(&st16;  3875.41  117.07 )">SLT+</text><text style="&st18;" transform="matrix(&st16;  3900.9  117.07 )">SLT-</text><text style="&st18;" transform="matrix(&st16;  3934.55  117.07 )">SLU+</text><text style="&st18;" transform="matrix(&st16;  3960.04  117.07 )">SLU-</text><text style="&st18;" transform="matrix(&st16;  3994.92  117.07 )">SL1+</text><text style="&st18;" transform="matrix(&st16;  3696.44  117.07 )">THO1</text><text style="&st18;" transform="matrix(&st16;  3738.55  117.07 )">THO2</text><text style="&st18;" transform="matrix(&st16;  3779.34  349.34 )">C34(A)</text><text style="&st18;" transform="matrix(&st17;  3778.17  247.35 )">W</text><text style="&st18;" transform="matrix(&st17;  3812.17  246.33 )">B</text><text style="&st18;" transform="matrix(&st17;  3846.16  248.66 )">SB</text><text style="&st18;" transform="matrix(&st17;  3880.16  246.75 )">G</text><text style="&st18;" transform="matrix(&st17;  3905.65  249.22 )">GR</text><text style="&st18;" transform="matrix(&st17;  3939.65  248.73 )">LG</text><text style="&st18;" transform="matrix(&st17;  3965.14  248.8 )">BR</text><text style="&st18;" transform="matrix(&st17;  3999.14  246.47 )">R</text><text style="&st18;" transform="matrix(&st17;  3701.68  246.75 )">O</text><text style="&st18;" transform="matrix(&st17;  3744.18  245.97 )">L</text><text style="&st18;" transform="matrix(&st17;  3701.68  323.24 )">O</text><text style="&st18;" transform="matrix(&st17;  3744.18  322.46 )">L</text><text ewd:textID="39" style="&st18;" transform="matrix(&st16;  3779.34  356.45 )">Electronically Controlled Transmission Solenoid</text><text style="&st18;" transform="matrix(&st16;  3750.71  338.04 )">OT2-</text><text style="&st18;" transform="matrix(&st16;  3708.21  338.04 )">OT-</text><text style="&st18;" transform="matrix(&st16;  3750.71  230.94 )">OT2+</text><text style="&st18;" transform="matrix(&st16;  3708.21  230.94 )">OT+</text><text style="&st18;" transform="matrix(&st16;  3971.67  230.94 )">SLU-</text><text style="&st18;" transform="matrix(&st16;  3946.17  230.94 )">SLU+</text><text style="&st18;" transform="matrix(&st16;  3912.18  230.94 )">SLT-</text><text style="&st18;" transform="matrix(&st16;  3886.68  230.94 )">SLT+</text><text style="&st18;" transform="matrix(&st16;  3852.69  230.94 )">SR</text><text style="&st18;" transform="matrix(&st16;  3818.7  230.94 )">S2</text><text style="&st18;" transform="matrix(&st16;  3784.7  230.94 )">S1</text><text style="&st18;" transform="matrix(&st17;  3701.69  397.52 )">BR</text><text style="&st18;" transform="matrix(&st17;  3744.18  397.52 )">BR</text><text style="&st18;" transform="matrix(&st16;  3649.59  584.49 )">BR</text><text style="&st18;" transform="matrix(&st17;  3574.21  261.55 )">BR</text><text style="&st18;" transform="matrix(&st17;  3540.21  264.09 )">W-L</text><text style="&st18;" transform="matrix(&st17;  3506.22  259.07 )">V</text><text style="&st18;" transform="matrix(&st16;  3588.77  629.82 )">(*17,*23)</text><text style="&st18;" transform="matrix(&st16;  3838.83  57.58 )">ECM</text><text style="&st18;" transform="matrix(&st16;  3838.83  50.47 )">A38(A),A52(D),C45(B),C46(C)</text><text style="&st18;" transform="matrix(&st16;  3957.96  220.18 )">5</text><text style="&st18;" transform="matrix(&st16;  3966.51  220.18 )">A</text><text style="&st18;" transform="matrix(&st16;  3869.8  220.18 )">14</text><text style="&st18;" transform="matrix(&st16;  3881.52  220.18 )">A</text><text style="&st18;" transform="matrix(&st16;  3898.47  220.18 )">6</text><text style="&st18;" transform="matrix(&st16;  3907.02  220.18 )">A</text><text style="&st18;" transform="matrix(&st16;  3595.63  595.82 )">(*16)</text><text style="&st18;" transform="matrix(&st16;  3601.07  643.98 )">B</text><text style="&st18;" transform="matrix(&st16;  3601.07  669.48 )">V</text><text style="&st18;" transform="matrix(&st16;  3598.59  584.49 )">BR</text><text style="&st18;" transform="matrix(&st16;  3598.59  618.48 )">BR</text><text style="&st18;" transform="matrix(&st16;  3974.81  420.18 )">*23 :3UR-FE</text><text style="&st18;" transform="matrix(&st16;  3583.88  154.46 )">(RHD *17)</text><text style="&st18;" transform="matrix(&st16;  3575.43  154.46 )">D</text><text style="&st18;" transform="matrix(&st16;  3563.07  154.46 )">58</text><text style="&st18;" transform="matrix(&st16;  3541.44  154.46 )">D</text><text style="&st18;" transform="matrix(&st16;  3529.08  154.46 )">57</text><text style="&st18;" transform="matrix(&st16;  3507.44  154.46 )">D</text><text style="&st18;" transform="matrix(&st16;  3702.91  136.33 )">C</text><text style="&st18;" transform="matrix(&st16;  3687.37  136.33 )">122</text><text style="&st18;" transform="matrix(&st16;  3745.4  136.33 )">C</text><text style="&st18;" transform="matrix(&st16;  3733.04  136.33 )">99</text><text style="&st18;" transform="matrix(&st16;  3779.4  136.33 )">C</text><text style="&st18;" transform="matrix(&st16;  3770.99  136.33 )">7</text><text style="&st18;" transform="matrix(&st16;  3813.39  136.33 )">C</text><text style="&st18;" transform="matrix(&st16;  3804.99  136.33 )">4</text><text style="&st18;" transform="matrix(&st16;  3847.38  136.33 )">C</text><text style="&st18;" transform="matrix(&st16;  3838.98  136.33 )">6</text><text style="&st18;" transform="matrix(&st16;  3881.38  136.33 )">C</text><text style="&st18;" transform="matrix(&st16;  3872.97  136.33 )">9</text><text style="&st18;" transform="matrix(&st16;  3906.87  136.33 )">C</text><text style="&st18;" transform="matrix(&st16;  3898.47  136.33 )">8</text><text style="&st18;" transform="matrix(&st16;  3940.87  136.33 )">C</text><text style="&st18;" transform="matrix(&st16;  3929.29  136.33 )">10</text><text style="&st18;" transform="matrix(&st16;  3966.36  136.33 )">C</text><text style="&st18;" transform="matrix(&st16;  3955.56  136.33 )">11</text><text style="&st18;" transform="matrix(&st16;  3988.78  136.33 )">14</text></svg>