﻿<?xml version="1.0" encoding="utf-8"?>
<!DOCTYPE svg PUBLIC "-//W3C//DTD SVG 1.0//EN" "http://www.w3.org/TR/2001/REC-SVG-20010904/DTD/svg10.dtd"[
	<!ENTITY ns_flows "http://ns.adobe.com/Flows/1.0/">
	<!ENTITY ns_svg "http://www.w3.org/2000/svg">
	<!ENTITY ns_xlink "http://www.w3.org/1999/xlink">
	<!ENTITY st0 "font-size:7px;font-family:'MS-PGothic';adobe-font-script:japanese;">
	<!ENTITY st1 "font-size:6px;font-family:'ArialMT';">
	<!-- White fill  -->
	<!ENTITY st2 "fill:#FFFFFF;stroke:#000000; stroke-width:1.41;stroke-linecap:round;stroke-linejoin:round;">
	<!-- Yellow fill  -->
	<!ENTITY st3 "fill:#FFFFCC;stroke:#FFFFCC; stroke-width:0.1;stroke-linecap:round;stroke-linejoin:round;">
	<!-- Gray fill  -->
	<!ENTITY st4 "fill:#CCCCCC;stroke:#CCCCCC; stroke-width:0.1;stroke-linecap:round;stroke-linejoin:round;">
	<!-- Light-blue fill -->
	<!ENTITY st5 "fill:#CCECF4;stroke:#000000; stroke-width:1.133;stroke-linecap:round;stroke-linejoin:round;">
	<!ENTITY st6 "fill:none;stroke-linecap:butt; stroke-linejoin:round;">
	<!ENTITY st7 "fill:none;stroke:#000000;stroke-linecap:round;stroke-linejoin:round;">
	<!ENTITY st8 "enable-background:new    ;">
	<!-- Black fill -->
	<!ENTITY st9 "fill:#000000;stroke:#000000; stroke-linecap:round;stroke-linejoin:round;">
	<!-- SRS note   -->
	<!ENTITY st10 "font-size:9px;font-family:'ArialMT';">
	<!ENTITY st11 "font-size:9px;font-family:'Svg Symbol';">
	<!ENTITY st12 "font-size:6px;font-family:'Svg Symbol';">
	<!ENTITY st13 "fill:none;stroke:#ff0000;stroke-linecap:round;stroke-linejoin:round;">
	<!-- Yellow fill  -->
	<!ENTITY st14 "fill:#FFFF00;stroke:#FFFF00; stroke-width:0.1;stroke-linecap:round;stroke-linejoin:round;">
	<!ENTITY st15 "font-size:6px;font-family:'MS-PGothic';adobe-font-script:japanese;">
	<!ENTITY st16 "1.00 0.00 0.00 1.00">
	<!ENTITY st17 "0.00 -1.00 1.00 0.00">
	<!ENTITY st18 "font-size:6px;font-family:'Arial';">
	<!ENTITY st19 "font-size:9px;font-family:'Arial';">
	<!ENTITY st20 "font-size:6px;font-family:'MS-PGothic','MS PGothic';adobe-font-script:japanese;">
	<!ENTITY st21 "font-size:7px;font-family:'MS-PGothic','MS PGothic';adobe-font-script:japanese;">
	<!ATTLIST svg
		xmlns:ewd CDATA #FIXED "http://shcl.co.jp/ewd"
		xmlns:a CDATA #FIXED "http://ns.adobe.com/AdobeSVGViewerExtensions/3.0/"
		ewd:ver CDATA #IMPLIED
	>
	<!ATTLIST a
		ewd:lineID CDATA #IMPLIED
		ewd:groupID CDATA #IMPLIED
		ewd:figtype CDATA #IMPLIED
		ewd:code CDATA #IMPLIED
		ewd:figID CDATA #IMPLIED
		ewd:pinNo CDATA #IMPLIED
		ewd:comment CDATA #IMPLIED >
	<!ATTLIST g
		ewd:lineID CDATA #IMPLIED
		ewd:groupID CDATA #IMPLIED
		ewd:figtype CDATA #IMPLIED
		ewd:code CDATA #IMPLIED
		ewd:figID CDATA #IMPLIED
		ewd:pinNo CDATA #IMPLIED
		ewd:comment CDATA #IMPLIED >
	<!ATTLIST text
		ewd:textID CDATA #IMPLIED >
	<!ATTLIST title
		ewd:textID CDATA #IMPLIED >
]>
<!-- Generator: Shintec Hozumi YS   -->
<svg onload="call_execInitLoadProc_svg('system')" style="overflow:visible;  enable-background:new 0 0 6207.335 710.000" viewBox="0 0 6207.335 710.000" height="710.000" width="6207.335" xml:space="preserve" ewd:ver="L2.1.2.8" xmlns="&ns_svg;" xmlns:a="http://ns.adobe.com/AdobeSVGViewerExtensions/3.0/" xmlns:ewd="http://shcl.co.jp/ewd" xmlns:xlink="&ns_xlink;">
<path d=" M  926.35,  367.22  L 1011.33,  367.22  L 1011.33,  333.23  L  917.85,  333.23  L  917.85,  358.73 " style="stroke:#000000;stroke-width: 0.85 ;&st7;stroke-dasharray:3, 1.5;" /><path d=" M  858.36,  367.22  L  773.37,  367.22  L  773.37,  333.23  L  866.86,  333.23  L  866.86,  358.73 " style="stroke:#000000;stroke-width: 0.85 ;&st7;stroke-dasharray:3, 1.5;" /><path d=" M  577.90,  185.23  L  572.93,  180.26 " style="stroke-width: 1.42 ;&st7; " /><path d=" M  560.91,  192.28  L  565.88,  197.25 " style="stroke-width: 1.42 ;&st7; " /><path d=" M  572.93,  197.25  L  577.90,  192.28 " style="stroke-width: 1.42 ;&st7; " /><path d=" M  565.88,  180.26  L  560.91,  185.23 " style="stroke-width: 1.42 ;&st7; " /><path d=" M  875.35,  363.70  L  870.38,  358.73 " style="stroke-width: 1.42 ;&st7; " /><path d=" M  858.36,  370.75  L  863.33,  375.72 " style="stroke-width: 1.42 ;&st7; " /><path d=" M  870.38,  375.72  L  875.35,  370.75 " style="stroke-width: 1.42 ;&st7; " /><path d=" M  863.33,  358.73  L  858.36,  363.70 " style="stroke-width: 1.42 ;&st7; " /><path d=" M  926.35,  363.70  L  921.37,  358.73 " style="stroke-width: 1.42 ;&st7; " /><path d=" M  909.35,  370.75  L  914.32,  375.72 " style="stroke-width: 1.42 ;&st7; " /><path d=" M  921.37,  375.72  L  926.35,  370.75 " style="stroke-width: 1.42 ;&st7; " /><path d=" M  914.32,  358.73  L  909.35,  363.70 " style="stroke-width: 1.42 ;&st7; " /><path d=" M  798.87,  392.72  L  790.37,  392.72 " style="stroke-width: 1.42 ;&st7; " /><path d=" M  841.36,  392.72  L  832.86,  392.72 " style="stroke-width: 1.42 ;&st7; " /><path d=" M  571.53,  112.27  L  567.28,  112.27 " style="stroke-width: 1.42 ;&st7; " /><path d=" M  571.53,  103.77  L  567.28,  103.77 " style="stroke-width: 1.42 ;&st7; " /><path d=" M  569.40,   69.77  L  569.40,   78.27 " style="stroke-width: 0.85 ;&st7; " /><path d=" M  656.52,  112.27  L  652.27,  112.27 " style="stroke-width: 1.42 ;&st7; " /><path d=" M  656.52,  103.77  L  652.27,  103.77 " style="stroke-width: 1.42 ;&st7; " /><path d=" M  654.39,   69.77  L  654.39,   78.27 " style="stroke-width: 0.85 ;&st7; " /><path d=" M  960.34,  392.72  L  951.84,  392.72 " style="stroke-width: 1.42 ;&st7; " /><path d=" M 1002.83,  392.72  L  994.33,  392.72 " style="stroke-width: 1.42 ;&st7; " /><path d=" M  645.89,  154.76  L  654.39,  154.76 " style="stroke-width: 1.42 ;&st7; " /><path d=" M  722.38,   69.77  L  722.38,  103.77 " style="stroke-width: 0.85 ;&st7; " /><path d=" M  724.50,  112.27  L  720.25,  112.27 " style="stroke-width: 1.42 ;&st7; " /><path d=" M  724.50,  103.77  L  720.25,  103.77 " style="stroke-width: 1.42 ;&st7; " /><path d=" M  679.89,  384.22  L  671.39,  384.22 " style="stroke-width: 1.42 ;&st7; " /><path d=" M  794.62,  401.78  L  790.37,  397.54  L  786.12,  401.78 " style="stroke-width: 1.42 ;&st7; " /><path d=" M  794.62,  398.39  L  790.37,  394.14  L  786.12,  398.39 " style="stroke-width: 1.42 ;&st7; " /><path d=" M  837.11,  401.78  L  832.86,  397.54  L  828.61,  401.78 " style="stroke-width: 1.42 ;&st7; " /><path d=" M  837.11,  398.39  L  832.86,  394.14  L  828.61,  398.39 " style="stroke-width: 1.42 ;&st7; " /><path d=" M  773.37,  469.21  L  807.36,  469.21  L  807.36,  503.20  L  773.37,  503.20  L  773.37,  469.21 " style="stroke-width: 1.42 ;&st7; " /><path d=" M  667.14,  704.33  L  675.64,  704.33 " style="stroke-width: 0.85 ;&st7; " /><path d=" M  662.89,  701.50  L  679.89,  701.50 " style="stroke-width: 0.85 ;&st7; " /><path d=" M  671.39,  697.25  L  671.39,  701.50 " style="stroke-width: 0.85 ;&st7; " /><path d=" M  669.97,  710.00  L  672.80,  710.00 " style="stroke-width: 0.85 ;&st7; " /><path d=" M  668.55,  707.17  L  674.22,  707.17 " style="stroke-width: 0.85 ;&st7; " /><path d=" M  552.41,  265.24  L  552.41,  316.23  L 1929.18,  316.23  L 1929.18,  265.24  L  552.41,  265.24 " style="stroke-width: 1.42 ;&st7; " /><path d=" M  569.40,   78.27  L  569.40,  103.77 " style="stroke-width: 0.85 ;&st7; " /><path d=" M  569.40,   98.87  L  566.57,   96.04  L  566.57,  100.29  L  569.40,  103.12  L  572.24,  100.29  L  572.24,   96.04  L  569.40,   98.87 " style="stroke-width: 0.28 ;&st9;" /><path d=" M  556.66,   35.78  L  556.66,   78.27  L  582.15,   78.27  L  582.15,   35.78  L  556.66,   35.78 " style="stroke-width: 1.42 ;&st7; " /><path d=" M  654.39,   78.27  L  654.39,  103.77 " style="stroke-width: 0.85 ;&st7; " /><path d=" M  654.39,   98.87  L  651.56,   96.04  L  651.56,  100.29  L  654.39,  103.12  L  657.22,  100.29  L  657.22,   96.04  L  654.39,   98.87 " style="stroke-width: 0.28 ;&st9;" /><path d=" M  641.64,   35.78  L  641.64,   78.27  L  667.14,   78.27  L  667.14,   35.78  L  641.64,   35.78 " style="stroke-width: 1.42 ;&st7; " /><path d=" M  956.09,  401.78  L  951.84,  397.54  L  947.59,  401.78 " style="stroke-width: 1.42 ;&st7; " /><path d=" M  956.09,  398.39  L  951.84,  394.14  L  947.59,  398.39 " style="stroke-width: 1.42 ;&st7; " /><path d=" M  998.58,  401.78  L  994.33,  397.54  L  990.08,  401.78 " style="stroke-width: 1.42 ;&st7; " /><path d=" M  998.58,  398.39  L  994.33,  394.14  L  990.08,  398.39 " style="stroke-width: 1.42 ;&st7; " /><path d=" M  934.84,  469.21  L  968.84,  469.21  L  968.84,  503.20  L  934.84,  503.20  L  934.84,  469.21 " style="stroke-width: 1.42 ;&st7; " /><path d=" M  722.38,   98.87  L  719.55,   96.04  L  719.55,  100.29  L  722.38,  103.12  L  725.21,  100.29  L  725.21,   96.04  L  722.38,   98.87 " style="stroke-width: 0.28 ;&st9;" /><path d=" M  650.14,  145.69  L  654.39,  149.94  L  658.64,  145.69 " style="stroke-width: 1.42 ;&st7; " /><path d=" M  658.64,  149.09  L  654.39,  153.34  L  650.14,  149.09 " style="stroke-width: 1.42 ;&st7; " /><path d=" M  709.63,   35.78  L  709.63,   78.27  L  735.13,   78.27  L  735.13,   35.78  L  709.63,   35.78 " style="stroke-width: 1.42 ;&st7; " /><path d=" M  701.13,  704.33  L  709.63,  704.33 " style="stroke-width: 0.85 ;&st7; " /><path d=" M  696.88,  701.50  L  713.88,  701.50 " style="stroke-width: 0.85 ;&st7; " /><path d=" M  705.38,  697.25  L  705.38,  701.50 " style="stroke-width: 0.85 ;&st7; " /><path d=" M  703.97,  710.00  L  706.80,  710.00 " style="stroke-width: 0.85 ;&st7; " /><path d=" M  702.55,  707.17  L  708.21,  707.17 " style="stroke-width: 0.85 ;&st7; " /><path d=" M  735.13,  704.33  L  743.63,  704.33 " style="stroke-width: 0.85 ;&st7; " /><path d=" M  730.88,  701.50  L  747.87,  701.50 " style="stroke-width: 0.85 ;&st7; " /><path d=" M  739.38,  697.25  L  739.38,  701.50 " style="stroke-width: 0.85 ;&st7; " /><path d=" M  737.96,  710.00  L  740.79,  710.00 " style="stroke-width: 0.85 ;&st7; " /><path d=" M  736.54,  707.17  L  742.21,  707.17 " style="stroke-width: 0.85 ;&st7; " /><path d=" M  675.64,  393.29  L  671.39,  389.04  L  667.14,  393.29 " style="stroke-width: 1.42 ;&st7; " /><path d=" M  675.64,  389.89  L  671.39,  385.64  L  667.14,  389.89 " style="stroke-width: 1.42 ;&st7; " /><path d=" M  934.84,  171.76  L  951.84,  171.76  L  951.84,  188.75  L  934.84,  188.75  L  934.84,  171.76 " style="stroke-width: 1.42 ;&st7; " /><path d=" M  943.34,  171.76  L  943.34,  188.75 " style="stroke-width: 0.85 ;&st7; " /><path d=" M  926.34,   86.77  L  926.34,  120.77  L  994.33,  120.77  L  994.33,   86.77  L  926.34,   86.77 " style="stroke-width: 1.42 ;&st7; " /><path d=" M  709.91,  320.77  C  709.91   318.26   707.89   316.23   705.38   316.23 " style="stroke-width: 1.42 ;&st7; " /><path d=" M  705.38,  316.23  C  702.88   316.23   700.85   318.26   700.85   320.77 " style="stroke-width: 1.42 ;&st7; " /><path d=" M  700.85,  320.77  C  700.85   323.27   702.88   325.30   705.38   325.30 " style="stroke-width: 1.42 ;&st7; " /><path d=" M  705.38,  325.30  C  707.89   325.30   709.91   323.27   709.91   320.77 " style="stroke-width: 1.42 ;&st7; " /><path d=" M  743.91,  320.77  C  743.91   318.26   741.88   316.23   739.38   316.23 " style="stroke-width: 1.42 ;&st7; " /><path d=" M  739.38,  316.23  C  736.87   316.23   734.84   318.26   734.84   320.77 " style="stroke-width: 1.42 ;&st7; " /><path d=" M  734.84,  320.77  C  734.84   323.27   736.87   325.30   739.38   325.30 " style="stroke-width: 1.42 ;&st7; " /><path d=" M  739.38,  325.30  C  741.88   325.30   743.91   323.27   743.91   320.77 " style="stroke-width: 1.42 ;&st7; " /><path d=" M  981.87,  260.71  C  981.87   258.21   979.84   256.18   977.34   256.18 " style="stroke-width: 1.42 ;&st7; " /><path d=" M  977.34,  256.18  C  974.83   256.18   972.80   258.21   972.80   260.71 " style="stroke-width: 1.42 ;&st7; " /><path d=" M  972.80,  260.71  C  972.80   263.21   974.83   265.24   977.34   265.24 " style="stroke-width: 1.42 ;&st7; " /><path d=" M  977.34,  265.24  C  979.84   265.24   981.87   263.21   981.87   260.71 " style="stroke-width: 1.42 ;&st7; " /><path d=" M  794.90,  464.67  C  794.90   462.17   792.87   460.14   790.37   460.14 " style="stroke-width: 1.42 ;&st7; " /><path d=" M  790.37,  460.14  C  787.86   460.14   785.84   462.17   785.84   464.67 " style="stroke-width: 1.42 ;&st7; " /><path d=" M  785.84,  464.67  C  785.84   467.18   787.86   469.21   790.37   469.21 " style="stroke-width: 1.42 ;&st7; " /><path d=" M  790.37,  469.21  C  792.87   469.21   794.90   467.18   794.90   464.67 " style="stroke-width: 1.42 ;&st7; " /><path d=" M  794.90,  455.61  C  794.90   453.11   792.87   451.08   790.37   451.08 " style="stroke-width: 1.42 ;&st7; " /><path d=" M  790.37,  451.08  C  787.86   451.08   785.84   453.11   785.84   455.61 " style="stroke-width: 1.42 ;&st7; " /><path d=" M  785.84,  455.61  C  785.84   458.11   787.86   460.14   790.37   460.14 " style="stroke-width: 1.42 ;&st7; " /><path d=" M  790.37,  460.14  C  792.87   460.14   794.90   458.11   794.90   455.61 " style="stroke-width: 1.42 ;&st7; " /><path d=" M  956.37,  464.67  C  956.37   462.17   954.34   460.14   951.84   460.14 " style="stroke-width: 1.42 ;&st7; " /><path d=" M  951.84,  460.14  C  949.34   460.14   947.31   462.17   947.31   464.67 " style="stroke-width: 1.42 ;&st7; " /><path d=" M  947.31,  464.67  C  947.31   467.18   949.34   469.21   951.84   469.21 " style="stroke-width: 1.42 ;&st7; " /><path d=" M  951.84,  469.21  C  954.34   469.21   956.37   467.18   956.37   464.67 " style="stroke-width: 1.42 ;&st7; " /><path d=" M  956.37,  455.61  C  956.37   453.11   954.34   451.08   951.84   451.08 " style="stroke-width: 1.42 ;&st7; " /><path d=" M  951.84,  451.08  C  949.34   451.08   947.31   453.11   947.31   455.61 " style="stroke-width: 1.42 ;&st7; " /><path d=" M  947.31,  455.61  C  947.31   458.11   949.34   460.14   951.84   460.14 " style="stroke-width: 1.42 ;&st7; " /><path d=" M  951.84,  460.14  C  954.34   460.14   956.37   458.11   956.37   455.61 " style="stroke-width: 1.42 ;&st7; " /><path d=" M  794.90,  516.80  C  794.90   514.30   792.87   512.27   790.37   512.27 " style="stroke-width: 1.42 ;&st7; " /><path d=" M  790.37,  512.27  C  787.86   512.27   785.84   514.30   785.84   516.80 " style="stroke-width: 1.42 ;&st7; " /><path d=" M  785.84,  516.80  C  785.84   519.30   787.86   521.33   790.37   521.33 " style="stroke-width: 1.42 ;&st7; " /><path d=" M  790.37,  521.33  C  792.87   521.33   794.90   519.30   794.90   516.80 " style="stroke-width: 1.42 ;&st7; " /><path d=" M  794.90,  507.73  C  794.90   505.23   792.87   503.20   790.37   503.20 " style="stroke-width: 1.42 ;&st7; " /><path d=" M  790.37,  503.20  C  787.86   503.20   785.84   505.23   785.84   507.73 " style="stroke-width: 1.42 ;&st7; " /><path d=" M  785.84,  507.73  C  785.84   510.24   787.86   512.27   790.37   512.27 " style="stroke-width: 1.42 ;&st7; " /><path d=" M  790.37,  512.27  C  792.87   512.27   794.90   510.24   794.90   507.73 " style="stroke-width: 1.42 ;&st7; " /><path d=" M  956.37,  516.80  C  956.37   514.30   954.34   512.27   951.84   512.27 " style="stroke-width: 1.42 ;&st7; " /><path d=" M  951.84,  512.27  C  949.34   512.27   947.31   514.30   947.31   516.80 " style="stroke-width: 1.42 ;&st7; " /><path d=" M  947.31,  516.80  C  947.31   519.30   949.34   521.33   951.84   521.33 " style="stroke-width: 1.42 ;&st7; " /><path d=" M  951.84,  521.33  C  954.34   521.33   956.37   519.30   956.37   516.80 " style="stroke-width: 1.42 ;&st7; " /><path d=" M  956.37,  507.73  C  956.37   505.23   954.34   503.20   951.84   503.20 " style="stroke-width: 1.42 ;&st7; " /><path d=" M  951.84,  503.20  C  949.34   503.20   947.31   505.23   947.31   507.73 " style="stroke-width: 1.42 ;&st7; " /><path d=" M  947.31,  507.73  C  947.31   510.24   949.34   512.27   951.84   512.27 " style="stroke-width: 1.42 ;&st7; " /><path d=" M  951.84,  512.27  C  954.34   512.27   956.37   510.24   956.37   507.73 " style="stroke-width: 1.42 ;&st7; " /><path d=" M  947.87,  125.30  C  947.87   122.79   945.85   120.77   943.34   120.77 " style="stroke-width: 1.42 ;&st7; " /><path d=" M  943.34,  120.77  C  940.84   120.77   938.81   122.79   938.81   125.30 " style="stroke-width: 1.42 ;&st7; " /><path d=" M  938.81,  125.30  C  938.81   127.80   940.84   129.83   943.34   129.83 " style="stroke-width: 1.42 ;&st7; " /><path d=" M  943.34,  129.83  C  945.85   129.83   947.87   127.80   947.87   125.30 " style="stroke-width: 1.42 ;&st7; " /><path d=" M  981.87,  125.30  C  981.87   122.79   979.84   120.77   977.34   120.77 " style="stroke-width: 1.42 ;&st7; " /><path d=" M  977.34,  120.77  C  974.83   120.77   972.80   122.79   972.80   125.30 " style="stroke-width: 1.42 ;&st7; " /><path d=" M  972.80,  125.30  C  972.80   127.80   974.83   129.83   977.34   129.83 " style="stroke-width: 1.42 ;&st7; " /><path d=" M  977.34,  129.83  C  979.84   129.83   981.87   127.80   981.87   125.30 " style="stroke-width: 1.42 ;&st7; " /><path d=" M  573.94,  320.77  C  573.94   318.26   571.91   316.23   569.40   316.23 " style="stroke-width: 1.42 ;&st7; " /><path d=" M  569.40,  316.23  C  566.90   316.23   564.87   318.26   564.87   320.77 " style="stroke-width: 1.42 ;&st7; " /><path d=" M  564.87,  320.77  C  564.87   323.27   566.90   325.30   569.40   325.30 " style="stroke-width: 1.42 ;&st7; " /><path d=" M  569.40,  325.30  C  571.91   325.30   573.94   323.27   573.94   320.77 " style="stroke-width: 1.42 ;&st7; " /><path d=" M  607.93,  320.77  C  607.93   318.26   605.90   316.23   603.40   316.23 " style="stroke-width: 1.42 ;&st7; " /><path d=" M  603.40,  316.23  C  600.90   316.23   598.87   318.26   598.87   320.77 " style="stroke-width: 1.42 ;&st7; " /><path d=" M  598.87,  320.77  C  598.87   323.27   600.90   325.30   603.40   325.30 " style="stroke-width: 1.42 ;&st7; " /><path d=" M  603.40,  325.30  C  605.90   325.30   607.93   323.27   607.93   320.77 " style="stroke-width: 1.42 ;&st7; " /><path d=" M  641.93,  320.77  C  641.93   318.26   639.90   316.23   637.39   316.23 " style="stroke-width: 1.42 ;&st7; " /><path d=" M  637.39,  316.23  C  634.89   316.23   632.86   318.26   632.86   320.77 " style="stroke-width: 1.42 ;&st7; " /><path d=" M  632.86,  320.77  C  632.86   323.27   634.89   325.30   637.39   325.30 " style="stroke-width: 1.42 ;&st7; " /><path d=" M  637.39,  325.30  C  639.90   325.30   641.93   323.27   641.93   320.77 " style="stroke-width: 1.42 ;&st7; " /><path d=" M  947.87,  260.71  C  947.87   258.21   945.85   256.18   943.34   256.18 " style="stroke-width: 1.42 ;&st7; " /><path d=" M  943.34,  256.18  C  940.84   256.18   938.81   258.21   938.81   260.71 " style="stroke-width: 1.42 ;&st7; " /><path d=" M  938.81,  260.71  C  938.81   263.21   940.84   265.24   943.34   265.24 " style="stroke-width: 1.42 ;&st7; " /><path d=" M  943.34,  265.24  C  945.85   265.24   947.87   263.21   947.87   260.71 " style="stroke-width: 1.42 ;&st7; " /><path d=" M  575.78,  108.02  C  575.78   105.67   573.88   103.77   571.53   103.77 " style="stroke-width: 1.42 ;&st7; " /><path d=" M  571.53,  112.27  C  573.88   112.27   575.78   110.36   575.78   108.02 " style="stroke-width: 1.42 ;&st7; " /><path d=" M  563.03,  108.02  C  563.03   110.36   564.93   112.27   567.28   112.27 " style="stroke-width: 1.42 ;&st7; " /><path d=" M  567.28,  103.77  C  564.93   103.77   563.03   105.67   563.03   108.02 " style="stroke-width: 1.42 ;&st7; " /><path d=" M  675.92,  320.77  C  675.92   318.26   673.89   316.23   671.39   316.23 " style="stroke-width: 1.42 ;&st7; " /><path d=" M  671.39,  316.23  C  668.88   316.23   666.86   318.26   666.86   320.77 " style="stroke-width: 1.42 ;&st7; " /><path d=" M  666.86,  320.77  C  666.86   323.27   668.88   325.30   671.39   325.30 " style="stroke-width: 1.42 ;&st7; " /><path d=" M  671.39,  325.30  C  673.89   325.30   675.92   323.27   675.92   320.77 " style="stroke-width: 1.42 ;&st7; " /><path d=" M  569.40,   66.94  C  570.26    64.02   569.60    61.13   567.56    58.87 " style="stroke-width: 1.42 ;&st7; " /><path d=" M  569.40,   66.94  C  571.58    63.92   571.58    60.05   569.40    57.03 " style="stroke-width: 1.42 ;&st7; " /><path d=" M  569.40,   66.94  C  573.12    64.17   573.94    58.96   571.24    55.19 " style="stroke-width: 1.42 ;&st7; " /><path d=" M  569.40,   47.11  C  565.69    49.88   564.87    55.10   567.56    58.87 " style="stroke-width: 1.42 ;&st7; " /><path d=" M  569.40,   47.11  C  567.23    50.13   567.23    54.00   569.40    57.03 " style="stroke-width: 1.42 ;&st7; " /><path d=" M  569.40,   47.11  C  568.55    50.03   569.21    52.92   571.25    55.18 " style="stroke-width: 1.42 ;&st7; " /><path d=" M  570.82,   68.36  C  570.82    67.57   570.19    66.94   569.40    66.94 " style="stroke-width: 0.85 ;&st7; " /><path d=" M  569.40,   66.94  C  568.62    66.94   567.99    67.57   567.99    68.36 " style="stroke-width: 0.85 ;&st7; " /><path d=" M  567.99,   68.36  C  567.99    69.14   568.62    69.77   569.40    69.77 " style="stroke-width: 0.85 ;&st7; " /><path d=" M  569.40,   69.77  C  570.19    69.77   570.82    69.14   570.82    68.36 " style="stroke-width: 0.85 ;&st7; " /><path d=" M  570.82,   45.69  C  570.82    44.91   570.19    44.28   569.40    44.28 " style="stroke-width: 0.85 ;&st7; " /><path d=" M  569.40,   44.28  C  568.62    44.28   567.99    44.91   567.99    45.69 " style="stroke-width: 0.85 ;&st7; " /><path d=" M  567.99,   45.69  C  567.99    46.48   568.62    47.11   569.40    47.11 " style="stroke-width: 0.85 ;&st7; " /><path d=" M  569.40,   47.11  C  570.19    47.11   570.82    46.48   570.82    45.69 " style="stroke-width: 0.85 ;&st7; " /><path d=" M  660.76,  108.02  C  660.76   105.67   658.86   103.77   656.52   103.77 " style="stroke-width: 1.42 ;&st7; " /><path d=" M  656.52,  112.27  C  658.86   112.27   660.76   110.36   660.76   108.02 " style="stroke-width: 1.42 ;&st7; " /><path d=" M  648.02,  108.02  C  648.02   110.36   649.92   112.27   652.27   112.27 " style="stroke-width: 1.42 ;&st7; " /><path d=" M  652.27,  103.77  C  649.92   103.77   648.02   105.67   648.02   108.02 " style="stroke-width: 1.42 ;&st7; " /><path d=" M  654.39,   66.94  C  655.24    64.02   654.58    61.13   652.55    58.87 " style="stroke-width: 1.42 ;&st7; " /><path d=" M  654.39,   66.94  C  656.56    63.92   656.56    60.05   654.39    57.03 " style="stroke-width: 1.42 ;&st7; " /><path d=" M  654.39,   66.94  C  658.11    64.17   658.92    58.96   656.23    55.19 " style="stroke-width: 1.42 ;&st7; " /><path d=" M  654.39,   47.11  C  650.67    49.88   649.86    55.10   652.55    58.87 " style="stroke-width: 1.42 ;&st7; " /><path d=" M  654.39,   47.11  C  652.22    50.13   652.22    54.00   654.39    57.03 " style="stroke-width: 1.42 ;&st7; " /><path d=" M  654.39,   47.11  C  653.54    50.03   654.20    52.92   656.23    55.18 " style="stroke-width: 1.42 ;&st7; " /><path d=" M  655.81,   68.36  C  655.81    67.57   655.17    66.94   654.39    66.94 " style="stroke-width: 0.85 ;&st7; " /><path d=" M  654.39,   66.94  C  653.61    66.94   652.97    67.57   652.97    68.36 " style="stroke-width: 0.85 ;&st7; " /><path d=" M  652.97,   68.36  C  652.97    69.14   653.61    69.77   654.39    69.77 " style="stroke-width: 0.85 ;&st7; " /><path d=" M  654.39,   69.77  C  655.17    69.77   655.81    69.14   655.81    68.36 " style="stroke-width: 0.85 ;&st7; " /><path d=" M  655.81,   45.69  C  655.81    44.91   655.17    44.28   654.39    44.28 " style="stroke-width: 0.85 ;&st7; " /><path d=" M  654.39,   44.28  C  653.61    44.28   652.97    44.91   652.97    45.69 " style="stroke-width: 0.85 ;&st7; " /><path d=" M  652.97,   45.69  C  652.97    46.48   653.61    47.11   654.39    47.11 " style="stroke-width: 0.85 ;&st7; " /><path d=" M  654.39,   47.11  C  655.17    47.11   655.81    46.48   655.81    45.69 " style="stroke-width: 0.85 ;&st7; " /><path d=" M  728.75,  108.02  C  728.75   105.67   726.85   103.77   724.50   103.77 " style="stroke-width: 1.42 ;&st7; " /><path d=" M  724.50,  112.27  C  726.85   112.27   728.75   110.36   728.75   108.02 " style="stroke-width: 1.42 ;&st7; " /><path d=" M  573.94,  260.71  C  573.94   258.21   571.91   256.18   569.40   256.18 " style="stroke-width: 1.42 ;&st7; " /><path d=" M  569.40,  256.18  C  566.90   256.18   564.87   258.21   564.87   260.71 " style="stroke-width: 1.42 ;&st7; " /><path d=" M  564.87,  260.71  C  564.87   263.21   566.90   265.24   569.40   265.24 " style="stroke-width: 1.42 ;&st7; " /><path d=" M  569.40,  265.24  C  571.91   265.24   573.94   263.21   573.94   260.71 " style="stroke-width: 1.42 ;&st7; " /><path d=" M  658.92,  260.71  C  658.92   258.21   656.89   256.18   654.39   256.18 " style="stroke-width: 1.42 ;&st7; " /><path d=" M  654.39,  256.18  C  651.89   256.18   649.86   258.21   649.86   260.71 " style="stroke-width: 1.42 ;&st7; " /><path d=" M  649.86,  260.71  C  649.86   263.21   651.89   265.24   654.39   265.24 " style="stroke-width: 1.42 ;&st7; " /><path d=" M  654.39,  265.24  C  656.89   265.24   658.92   263.21   658.92   260.71 " style="stroke-width: 1.42 ;&st7; " /><path d=" M  616.43,  260.71  C  616.43   258.21   614.40   256.18   611.90   256.18 " style="stroke-width: 1.42 ;&st7; " /><path d=" M  611.90,  256.18  C  609.39   256.18   607.37   258.21   607.37   260.71 " style="stroke-width: 1.42 ;&st7; " /><path d=" M  607.37,  260.71  C  607.37   263.21   609.39   265.24   611.90   265.24 " style="stroke-width: 1.42 ;&st7; " /><path d=" M  611.90,  265.24  C  614.40   265.24   616.43   263.21   616.43   260.71 " style="stroke-width: 1.42 ;&st7; " /><path d=" M  794.90,  320.77  C  794.90   318.26   792.87   316.23   790.37   316.23 " style="stroke-width: 1.42 ;&st7; " /><path d=" M  790.37,  316.23  C  787.86   316.23   785.84   318.26   785.84   320.77 " style="stroke-width: 1.42 ;&st7; " /><path d=" M  785.84,  320.77  C  785.84   323.27   787.86   325.30   790.37   325.30 " style="stroke-width: 1.42 ;&st7; " /><path d=" M  790.37,  325.30  C  792.87   325.30   794.90   323.27   794.90   320.77 " style="stroke-width: 1.42 ;&st7; " /><path d=" M  837.39,  320.77  C  837.39   318.26   835.36   316.23   832.86   316.23 " style="stroke-width: 1.42 ;&st7; " /><path d=" M  832.86,  316.23  C  830.36   316.23   828.33   318.26   828.33   320.77 " style="stroke-width: 1.42 ;&st7; " /><path d=" M  828.33,  320.77  C  828.33   323.27   830.36   325.30   832.86   325.30 " style="stroke-width: 1.42 ;&st7; " /><path d=" M  832.86,  325.30  C  835.36   325.30   837.39   323.27   837.39   320.77 " style="stroke-width: 1.42 ;&st7; " /><path d=" M  956.37,  320.77  C  956.37   318.26   954.34   316.23   951.84   316.23 " style="stroke-width: 1.42 ;&st7; " /><path d=" M  951.84,  316.23  C  949.34   316.23   947.31   318.26   947.31   320.77 " style="stroke-width: 1.42 ;&st7; " /><path d=" M  947.31,  320.77  C  947.31   323.27   949.34   325.30   951.84   325.30 " style="stroke-width: 1.42 ;&st7; " /><path d=" M  951.84,  325.30  C  954.34   325.30   956.37   323.27   956.37   320.77 " style="stroke-width: 1.42 ;&st7; " /><path d=" M  998.87,  320.77  C  998.87   318.26   996.84   316.23   994.33   316.23 " style="stroke-width: 1.42 ;&st7; " /><path d=" M  994.33,  316.23  C  991.83   316.23   989.80   318.26   989.80   320.77 " style="stroke-width: 1.42 ;&st7; " /><path d=" M  989.80,  320.77  C  989.80   323.27   991.83   325.30   994.33   325.30 " style="stroke-width: 1.42 ;&st7; " /><path d=" M  994.33,  325.30  C  996.84   325.30   998.87   323.27   998.87   320.77 " style="stroke-width: 1.42 ;&st7; " /><path d=" M  722.38,   47.11  C  719.64    48.72   718.73    52.25   720.34    54.99 " style="stroke-width: 1.42 ;&st7; " /><path d=" M  720.34,   54.99  C  720.86    55.87   721.50    56.51   722.38    57.03 " style="stroke-width: 1.42 ;&st7; " /><path d=" M  722.38,   66.94  C  725.12    65.33   726.03    61.80   724.42    59.06 " style="stroke-width: 1.42 ;&st7; " /><path d=" M  724.42,   59.06  C  723.90    58.18   723.26    57.55   722.38    57.03 " style="stroke-width: 1.42 ;&st7; " /><path d=" M  723.80,   45.69  C  723.80    44.91   723.16    44.28   722.38    44.28 " style="stroke-width: 0.85 ;&st7; " /><path d=" M  722.38,   44.28  C  721.60    44.28   720.96    44.91   720.96    45.69 " style="stroke-width: 0.85 ;&st7; " /><path d=" M  720.96,   45.69  C  720.96    46.48   721.60    47.11   722.38    47.11 " style="stroke-width: 0.85 ;&st7; " /><path d=" M  722.38,   47.11  C  723.16    47.11   723.80    46.48   723.80    45.69 " style="stroke-width: 0.85 ;&st7; " /><path d=" M  723.80,   68.36  C  723.80    67.57   723.16    66.94   722.38    66.94 " style="stroke-width: 0.85 ;&st7; " /><path d=" M  722.38,   66.94  C  721.60    66.94   720.96    67.57   720.96    68.36 " style="stroke-width: 0.85 ;&st7; " /><path d=" M  720.96,   68.36  C  720.96    69.14   721.60    69.77   722.38    69.77 " style="stroke-width: 0.85 ;&st7; " /><path d=" M  722.38,   69.77  C  723.16    69.77   723.80    69.14   723.80    68.36 " style="stroke-width: 0.85 ;&st7; " /><path d=" M  726.91,  260.71  C  726.91   258.21   724.88   256.18   722.38   256.18 " style="stroke-width: 1.42 ;&st7; " /><path d=" M  722.38,  256.18  C  719.88   256.18   717.85   258.21   717.85   260.71 " style="stroke-width: 1.42 ;&st7; " /><path d=" M  717.85,  260.71  C  717.85   263.21   719.88   265.24   722.38   265.24 " style="stroke-width: 1.42 ;&st7; " /><path d=" M  722.38,  265.24  C  724.88   265.24   726.91   263.21   726.91   260.71 " style="stroke-width: 1.42 ;&st7; " /><path d=" M  716.01,  108.02  C  716.01   110.36   717.91   112.27   720.25   112.27 " style="stroke-width: 1.42 ;&st7; " /><path d=" M  720.25,  103.77  C  717.91   103.77   716.01   105.67   716.01   108.02 " style="stroke-width: 1.42 ;&st7; " /><text style="&st18;" transform="matrix(&st16;  635.06  322.73 )">A</text><text style="&st18;" transform="matrix(&st16;  645.28  32.08 )">(BAT)</text><text style="&st18;" transform="matrix(&st16;  560.29  32.08 )">(BAT)</text><text style="&st18;" transform="matrix(&st17;  565.71  131.59 )">B</text><text style="&st18;" transform="matrix(&st16;  560.57  272.88 )">+BM1</text><text style="&st18;" transform="matrix(&st16;  784.26  312.54 )">FL+</text><text style="&st18;" transform="matrix(&st17;  786.67  352.56 )">V</text><text style="&st18;" transform="matrix(&st16;  928.51  262.68 )">27</text><text style="&st18;" transform="matrix(&st16;  941.01  262.68 )">A</text><text style="&st18;" transform="matrix(&st16;  937.69  272.88 )">EXI</text><text style="&st18;" transform="matrix(&st17;  939.65  227.48 )">LG</text><text style="&st18;" transform="matrix(&st16;  775.55  390.44 )">5</text><text style="&st18;" transform="matrix(&st16;  818.82  390.44 )">1</text><text style="&st18;" transform="matrix(&st17;  667.69  481.16 )">W-B</text><text style="&st18;" transform="matrix(&st16;  662.1  312.54 )">GND1</text><text style="&st18;" transform="matrix(&st16;  826.75  312.54 )">FL-</text><text style="&st18;" transform="matrix(&st17;  829.17  354.96 )">LG</text><text ewd:textID="32" style="&st18;" transform="matrix(&st17;  822.08  505.73 )">Front Speed Sensor LH</text><text style="&st18;" transform="matrix(&st17;  814.98  505.73 )">z18(A)</text><text style="&st18;" transform="matrix(&st17;  786.67  430.07 )">W</text><text style="&st18;" transform="matrix(&st16;  567.82  109.99 )">1</text><text style="&st18;" transform="matrix(&st17;  829.16  429.04 )">B</text><text style="&st18;" transform="matrix(&st17;  650.69  192.11 )">W</text><text style="&st18;" transform="matrix(&st16;  647.71  272.88 )">+BS</text><text style="&st18;" transform="matrix(&st16;  945.24  312.54 )">FR+</text><text style="&st18;" transform="matrix(&st17;  948.14  352.56 )">B</text><text style="&st18;" transform="matrix(&st17;  591.21  71.47 )">50A ABS <tspan dy="6" x="0">NO.1</tspan></text><text style="&st18;" transform="matrix(&st17;  676.19  71.47 )">30A ABS <tspan dy="6" x="0">NO.2</tspan></text><text style="&st18;" transform="matrix(&st16;  652.8  109.99 )">1</text><text style="&st18;" transform="matrix(&st16;  694.36  284.18 )">A24(A),A25(B)</text><text ewd:textID="47" style="&st18;" transform="matrix(&st16;  694.36  291.29 )">Skid Control ECU with Actuator Assembly</text><text style="&st18;" transform="matrix(&st16;  937.03  390.44 )">5</text><text style="&st18;" transform="matrix(&st16;  980.3  390.44 )">1</text><text style="&st18;" transform="matrix(&st16;  987.73  312.54 )">FR-</text><text style="&st18;" transform="matrix(&st17;  990.64  352.2 )">L</text><text ewd:textID="33" style="&st18;" transform="matrix(&st17;  983.56  505.73 )">Front Speed Sensor RH</text><text style="&st18;" transform="matrix(&st17;  976.45  505.73 )">z17(A)</text><text style="&st18;" transform="matrix(&st17;  948.15  430.07 )">W</text><text style="&st18;" transform="matrix(&st17;  990.64  429.04 )">B</text><text style="&st18;" transform="matrix(&st16;  784.26  499.5 )">FL-</text><text style="&st18;" transform="matrix(&st16;  945.24  499.5 )">FR-</text><text style="&st18;" transform="matrix(&st16;  945.24  476.84 )">FR+</text><text style="&st18;" transform="matrix(&st16;  784.26  476.84 )">FL+</text><text style="&st18;" transform="matrix(&st16;  705.73  109.99 )">22</text><text style="&st18;" transform="matrix(&st16;  717.93  109.99 )">2H</text><text style="&st18;" transform="matrix(&st16;  558.53  262.68 )">2</text><text style="&st18;" transform="matrix(&st16;  567.07  262.68 )">A</text><text style="&st18;" transform="matrix(&st16;  640.34  262.68 )">31</text><text style="&st18;" transform="matrix(&st16;  652.06  262.68 )">A</text><text style="&st18;" transform="matrix(&st16;  601.02  262.68 )">2</text><text style="&st18;" transform="matrix(&st16;  609.57  262.68 )">B</text><text style="&st18;" transform="matrix(&st17;  565.71  225.08 )">B</text><text style="&st18;" transform="matrix(&st17;  608.2  225.08 )">B</text><text style="&st18;" transform="matrix(&st16;  602.68  272.88 )">+BM2</text><text style="&st18;" transform="matrix(&st16;  639.58  160.98 )">2</text><text style="&st18;" transform="matrix(&st17;  650.69  132.62 )">W</text><text style="&st18;" transform="matrix(&st16;  661.29  322.73 )">1</text><text style="&st18;" transform="matrix(&st16;  669.06  322.73 )">A</text><text style="&st18;" transform="matrix(&st16;  776.31  322.73 )">18</text><text style="&st18;" transform="matrix(&st16;  788.04  322.73 )">A</text><text style="&st18;" transform="matrix(&st16;  821.98  322.73 )">4</text><text style="&st18;" transform="matrix(&st16;  830.53  322.73 )">A</text><text style="&st18;" transform="matrix(&st16;  940.96  322.73 )">3</text><text style="&st18;" transform="matrix(&st16;  949.51  322.73 )">A</text><text style="&st18;" transform="matrix(&st16;  980.28  322.73 )">17</text><text style="&st18;" transform="matrix(&st16;  992.0  322.73 )">A</text><text style="&st18;" transform="matrix(&st17;  744.18  69.81 )">10A IG2 <tspan dy="6" x="0">NO.1</tspan></text><text style="&st18;" transform="matrix(&st16;  716.3  32.08 )">(IG)</text><text style="&st18;" transform="matrix(&st17;  769.68  356.02 )">(*1)</text><text style="&st18;" transform="matrix(&st17;  914.15  356.02 )">(*1)</text><text style="&st18;" transform="matrix(&st17;  914.15  434.41 )">W-B</text><text style="&st18;" transform="matrix(&st16;  712.28  262.68 )">1</text><text style="&st18;" transform="matrix(&st16;  720.05  262.68 )">B</text><text style="&st18;" transform="matrix(&st17;  718.68  131.59 )">B</text><text style="&st18;" transform="matrix(&st16;  716.66  272.88 )">IG2</text><text style="&st18;" transform="matrix(&st17;  701.69  481.16 )">W-B</text><text style="&st18;" transform="matrix(&st16;  695.7  312.54 )">GND2</text><text style="&st18;" transform="matrix(&st16;  703.05  322.73 )">A</text><text style="&st18;" transform="matrix(&st17;  735.68  481.16 )">W-B</text><text style="&st18;" transform="matrix(&st16;  729.7  312.54 )">GND3</text><text style="&st18;" transform="matrix(&st16;  737.05  322.73 )">B</text><text style="&st18;" transform="matrix(&st16;  728.5  322.73 )">4</text><text style="&st18;" transform="matrix(&st16;  690.55  322.73 )">32</text><text style="&st18;" transform="matrix(&st16;  657.35  381.94 )">1</text><text style="&st18;" transform="matrix(&st17;  667.69  353.68 )">W-B</text><text ewd:textID="2" style="&st18;" transform="matrix(&st16;  821.84  37.75 )">* 1 :Shielded</text><text style="&st18;" transform="matrix(&st17;  863.16  434.41 )">W-B</text><text style="&st18;" transform="matrix(&st16;  963.28  262.68 )">14</text><text style="&st18;" transform="matrix(&st16;  975.01  262.68 )">A</text><text style="&st18;" transform="matrix(&st17;  973.64  225.08 )">B</text><text style="&st18;" transform="matrix(&st16;  975.01  272.88 )">P</text><text style="&st18;" transform="matrix(&st16;  796.34  466.64 )">(*14)</text><text style="&st18;" transform="matrix(&st16;  788.04  466.64 )">A</text><text style="&st18;" transform="matrix(&st16;  779.49  466.64 )">2</text><text style="&st18;" transform="matrix(&st16;  796.34  457.58 )">(*15)</text><text style="&st18;" transform="matrix(&st16;  788.04  457.58 )">A</text><text style="&st18;" transform="matrix(&st16;  780.27  457.58 )">1</text><text style="&st18;" transform="matrix(&st16;  957.81  466.64 )">(*14)</text><text style="&st18;" transform="matrix(&st16;  949.51  466.64 )">A</text><text style="&st18;" transform="matrix(&st16;  940.96  466.64 )">2</text><text style="&st18;" transform="matrix(&st16;  957.81  457.58 )">(*15)</text><text style="&st18;" transform="matrix(&st16;  949.51  457.58 )">A</text><text style="&st18;" transform="matrix(&st16;  941.74  457.58 )">1</text><text style="&st18;" transform="matrix(&st16;  796.34  518.77 )">(*14)</text><text style="&st18;" transform="matrix(&st16;  788.04  518.77 )">A</text><text style="&st18;" transform="matrix(&st16;  780.27  518.77 )">1</text><text style="&st18;" transform="matrix(&st16;  796.34  509.7 )">(*15)</text><text style="&st18;" transform="matrix(&st16;  788.04  509.7 )">A</text><text style="&st18;" transform="matrix(&st16;  779.49  509.7 )">2</text><text style="&st18;" transform="matrix(&st16;  957.81  518.77 )">(*14)</text><text style="&st18;" transform="matrix(&st16;  949.51  518.77 )">A</text><text style="&st18;" transform="matrix(&st16;  941.74  518.77 )">1</text><text style="&st18;" transform="matrix(&st16;  957.81  509.7 )">(*15)</text><text style="&st18;" transform="matrix(&st16;  949.51  509.7 )">A</text><text style="&st18;" transform="matrix(&st16;  940.96  509.7 )">2</text><text ewd:textID="9" style="&st18;" transform="matrix(&st16;  821.84  54.75 )">*15 :Except China</text><text ewd:textID="8" style="&st18;" transform="matrix(&st16;  821.84  46.25 )">*14 :China</text><text style="&st18;" transform="matrix(&st16;  933.37  196.95 )">10</text><text style="&st18;" transform="matrix(&st16;  936.55  168.07 )">8</text><text style="&st18;" transform="matrix(&st16;  970.55  117.07 )">RLP</text><text style="&st18;" transform="matrix(&st16;  939.42  117.07 )">P1</text><text style="&st18;" transform="matrix(&st16;  933.24  127.27 )">1</text><text style="&st18;" transform="matrix(&st16;  941.01  127.27 )">A</text><text style="&st18;" transform="matrix(&st16;  963.28  127.27 )">12</text><text style="&st18;" transform="matrix(&st16;  975.01  127.27 )">A</text><text ewd:textID="34" style="&st18;" transform="matrix(&st17;  966.56  191.28 )">Junction <tspan dy="6" x="0">Connector</tspan></text><text style="&st18;" transform="matrix(&st17;  959.73  191.28 )">A34</text><text style="&st18;" transform="matrix(&st17;  939.65  150.99 )">LG</text><text ewd:textID="31" style="&st18;" transform="matrix(&st16;  923.82  77.13 )">Four Wheel Drive <tspan dy="6" x="0">Control ECU</tspan></text><text style="&st18;" transform="matrix(&st16;  923.82  70.3 )">A27(A)</text><text style="&st18;" transform="matrix(&st16;  626.52  322.73 )">7</text><text style="&st18;" transform="matrix(&st16;  594.64  312.54 )">STP2</text><text style="&st18;" transform="matrix(&st16;  601.07  322.73 )">A</text><text style="&st18;" transform="matrix(&st16;  588.57  322.73 )">45</text><text style="&st18;" transform="matrix(&st16;  630.61  312.54 )">STP</text><text style="&st18;" transform="matrix(&st16;  559.87  312.54 )">STPO</text><text style="&st18;" transform="matrix(&st16;  567.07  322.73 )">A</text><text style="&st18;" transform="matrix(&st16;  555.35  322.73 )">16</text><text style="&st18;" transform="matrix(&st16;  539.25  397.52 )">SB</text><text style="&st18;" transform="matrix(&st16;  541.44  414.52 )">R</text><text style="&st18;" transform="matrix(&st16;  541.44  431.52 )">R</text></svg>