﻿<?xml version="1.0" encoding="utf-8"?>
<!DOCTYPE svg PUBLIC "-//W3C//DTD SVG 1.0//EN" "http://www.w3.org/TR/2001/REC-SVG-20010904/DTD/svg10.dtd"[
	<!ENTITY ns_flows "http://ns.adobe.com/Flows/1.0/">
	<!ENTITY ns_svg "http://www.w3.org/2000/svg">
	<!ENTITY ns_xlink "http://www.w3.org/1999/xlink">
	<!ENTITY st0 "font-size:7px;font-family:'MS-PGothic';adobe-font-script:japanese;">
	<!ENTITY st1 "font-size:6px;font-family:'ArialMT';">
	<!-- White fill  -->
	<!ENTITY st2 "fill:#FFFFFF;stroke:#000000; stroke-width:1.41;stroke-linecap:round;stroke-linejoin:round;">
	<!-- Yellow fill  -->
	<!ENTITY st3 "fill:#FFFFCC;stroke:#FFFFCC; stroke-width:0.1;stroke-linecap:round;stroke-linejoin:round;">
	<!-- Gray fill  -->
	<!ENTITY st4 "fill:#CCCCCC;stroke:#CCCCCC; stroke-width:0.1;stroke-linecap:round;stroke-linejoin:round;">
	<!-- Light-blue fill -->
	<!ENTITY st5 "fill:#CCECF4;stroke:#000000; stroke-width:1.133;stroke-linecap:round;stroke-linejoin:round;">
	<!ENTITY st6 "fill:none;stroke-linecap:butt; stroke-linejoin:round;">
	<!ENTITY st7 "fill:none;stroke:#000000;stroke-linecap:round;stroke-linejoin:round;">
	<!ENTITY st8 "enable-background:new    ;">
	<!-- Black fill -->
	<!ENTITY st9 "fill:#000000;stroke:#000000; stroke-linecap:round;stroke-linejoin:round;">
	<!-- SRS note   -->
	<!ENTITY st10 "font-size:9px;font-family:'ArialMT';">
	<!ENTITY st11 "font-size:9px;font-family:'Svg Symbol';">
	<!ENTITY st12 "font-size:6px;font-family:'Svg Symbol';">
	<!ENTITY st13 "fill:none;stroke:#ff0000;stroke-linecap:round;stroke-linejoin:round;">
	<!-- Yellow fill  -->
	<!ENTITY st14 "fill:#FFFF00;stroke:#FFFF00; stroke-width:0.1;stroke-linecap:round;stroke-linejoin:round;">
	<!ENTITY st15 "font-size:6px;font-family:'MS-PGothic';adobe-font-script:japanese;">
	<!ENTITY st16 "1.00 0.00 0.00 1.00">
	<!ENTITY st17 "0.00 -1.00 1.00 0.00">
	<!ENTITY st18 "font-size:6px;font-family:'Arial';">
	<!ENTITY st19 "font-size:9px;font-family:'Arial';">
	<!ENTITY st20 "font-size:6px;font-family:'MS-PGothic','MS PGothic';adobe-font-script:japanese;">
	<!ENTITY st21 "font-size:7px;font-family:'MS-PGothic','MS PGothic';adobe-font-script:japanese;">
	<!ATTLIST svg
		xmlns:ewd CDATA #FIXED "http://shcl.co.jp/ewd"
		xmlns:a CDATA #FIXED "http://ns.adobe.com/AdobeSVGViewerExtensions/3.0/"
		ewd:ver CDATA #IMPLIED
	>
	<!ATTLIST a
		ewd:lineID CDATA #IMPLIED
		ewd:groupID CDATA #IMPLIED
		ewd:figtype CDATA #IMPLIED
		ewd:code CDATA #IMPLIED
		ewd:figID CDATA #IMPLIED
		ewd:pinNo CDATA #IMPLIED
		ewd:comment CDATA #IMPLIED >
	<!ATTLIST g
		ewd:lineID CDATA #IMPLIED
		ewd:groupID CDATA #IMPLIED
		ewd:figtype CDATA #IMPLIED
		ewd:code CDATA #IMPLIED
		ewd:figID CDATA #IMPLIED
		ewd:pinNo CDATA #IMPLIED
		ewd:comment CDATA #IMPLIED >
	<!ATTLIST text
		ewd:textID CDATA #IMPLIED >
	<!ATTLIST title
		ewd:textID CDATA #IMPLIED >
]>
<!-- Generator: Shintec Hozumi YS   -->
<svg onload="call_execInitLoadProc_svg('system')" style="overflow:visible;  enable-background:new 0 0 11397.121 710.000" viewBox="0 0 11397.121 710.000" height="710.000" width="11397.121" xml:space="preserve" ewd:ver="L2.1.2.8" xmlns="&ns_svg;" xmlns:a="http://ns.adobe.com/AdobeSVGViewerExtensions/3.0/" xmlns:ewd="http://shcl.co.jp/ewd" xmlns:xlink="&ns_xlink;">
<path d=" M 2031.16,  409.72  L 2039.66,  409.72 " style="stroke-width: 1.42 ;&st7; " /><path d=" M 2311.61,  456.46  L 2311.61,  452.21 " style="stroke-width: 0.85 ;&st7; " /><path d=" M 2311.61,  486.20  L 2311.61,  481.95 " style="stroke-width: 0.85 ;&st7; " /><path d=" M 2311.61,  479.12  L 2317.28,  456.46 " style="stroke-width: 1.42 ;&st7; " /><path d=" M 2286.12,  456.46  L 2286.12,  452.21 " style="stroke-width: 0.85 ;&st7; " /><path d=" M 2286.12,  486.20  L 2286.12,  481.95 " style="stroke-width: 0.85 ;&st7; " /><path d=" M 2286.12,  479.12  L 2284.42,  455.01 " style="stroke-width: 1.42 ;&st7; " /><path d=" M 2260.62,  479.12  L 2258.93,  455.01 " style="stroke-width: 1.42 ;&st7; " /><path d=" M 2201.13,  430.96  L 2201.13,  447.96 " style="stroke-width: 0.85 ;&st7; " /><path d=" M 2184.14,  430.96  L 2184.14,  447.96 " style="stroke-width: 0.85 ;&st7; " /><path d=" M 2192.63,  430.96  L 2192.63,  418.22 " style="stroke-width: 0.85 ;&st7; " /><path d=" M 2189.80,  446.54  L 2192.63,  447.96 " style="stroke-width: 0.85 ;&st7; " /><path d=" M 2192.63,  430.96  L 2195.47,  432.38 " style="stroke-width: 0.85 ;&st7; " /><path d=" M 2195.47,  432.38  L 2189.80,  435.21 " style="stroke-width: 0.85 ;&st7; " /><path d=" M 2189.80,  435.21  L 2195.47,  438.05 " style="stroke-width: 0.85 ;&st7; " /><path d=" M 2195.47,  438.05  L 2189.80,  440.88 " style="stroke-width: 0.85 ;&st7; " /><path d=" M 2189.80,  440.88  L 2195.47,  443.71 " style="stroke-width: 0.85 ;&st7; " /><path d=" M 2195.47,  443.71  L 2189.80,  446.54 " style="stroke-width: 0.85 ;&st7; " /><path d=" M 2192.63,  460.71  L 2192.63,  447.96 " style="stroke-width: 0.85 ;&st7; " /><path d=" M 2413.60,  479.12  L 2411.90,  455.01 " style="stroke-width: 1.42 ;&st7; " /><path d=" M 2464.59,  456.46  L 2464.59,  452.21 " style="stroke-width: 0.85 ;&st7; " /><path d=" M 2464.59,  486.20  L 2464.59,  481.95 " style="stroke-width: 0.85 ;&st7; " /><path d=" M 2439.09,  479.12  L 2437.40,  455.01 " style="stroke-width: 1.42 ;&st7; " /><path d=" M 2439.09,  456.46  L 2439.09,  452.21 " style="stroke-width: 0.85 ;&st7; " /><path d=" M 2439.09,  486.20  L 2439.09,  481.95 " style="stroke-width: 0.85 ;&st7; " /><path d=" M 2464.59,  479.12  L 2470.25,  456.46 " style="stroke-width: 1.42 ;&st7; " /><path d=" M 2035.41,  400.65  L 2039.66,  404.90  L 2043.91,  400.65 " style="stroke-width: 1.42 ;&st7; " /><path d=" M 2043.91,  404.05  L 2039.66,  408.30  L 2035.41,  404.05 " style="stroke-width: 1.42 ;&st7; " /><path d=" M 2179.88,  460.71  L 2179.88,  418.22  L 2205.38,  418.22  L 2205.38,  460.71  L 2179.88,  460.71 " style="stroke-width: 1.42 ;&st7; " /><path d=" M 2192.63,  350.79  L 2192.63,  418.22 " style="stroke-width: 0.85 ;&st7; " /><path d=" M 2192.63,  460.71  L 2192.63,  503.20  L 2141.64,  503.20  L 2141.64,  350.79 " style="stroke-width: 0.85 ;&st7; " /><path d=" M 2286.12,  503.20  L 2285.69,  502.46  L 2286.26,  502.37  L 2286.77,  502.65  L 2286.97,  503.20  L 2286.77,  503.75  L 2286.26,  504.04  L 2285.69,  503.94  L 2285.32,  503.49  L 2285.32,  502.91  L 2284.92,  502.20  L 2285.34,  501.85  L 2285.85,  501.67  L 2286.39,  501.67  L 2286.90,  501.85  L 2287.31,  502.20  L 2287.58,  502.67  L 2287.68,  503.20  L 2287.58,  503.73  L 2287.31,  504.20  L 2286.90,  504.55  L 2286.39,  504.74  L 2285.85,  504.74  L 2285.34,  504.55  L 2284.92,  504.20  L 2284.65,  503.73  L 2284.56,  503.20  L 2284.65,  502.67  L 2284.92,  502.20 " style="stroke-width: 0.85 ;&st7; " /><path d=" M 2243.62,  435.21  L 2379.60,  435.21 " style="stroke-width: 1.42 ;&st7; " /><path d=" M 2243.62,  418.22  L 2243.62,  520.20  L 2379.60,  520.20  L 2379.60,  418.22  L 2243.62,  418.22 " style="stroke-width: 1.42 ;&st7; " /><path d=" M 2286.12,  503.20  L 2286.12,  486.20 " style="stroke-width: 0.85 ;&st7; " /><path d=" M 2260.62,  481.95  L 2260.62,  503.20  L 2311.61,  503.20  L 2311.61,  486.20 " style="stroke-width: 0.85 ;&st7; " /><path d=" M 2337.11,  480.54  L 2337.11,  503.20  L 2362.60,  503.20  L 2362.60,  435.21 " style="stroke-width: 0.85 ;&st7; " /><path d=" M 2311.61,  435.21  L 2311.61,  452.21 " style="stroke-width: 0.85 ;&st7; " /><path d=" M 2286.12,  435.21  L 2286.12,  452.21 " style="stroke-width: 0.85 ;&st7; " /><path d=" M 2337.11,  435.21  L 2337.11,  457.88 " style="stroke-width: 0.85 ;&st7; " /><path d=" M 2341.36,  476.57  L 2341.36,  480.54  L 2332.86,  480.54  L 2332.86,  476.57 " style="stroke-width: 1.42 ;&st7; " /><path d=" M 2341.36,  461.84  L 2341.36,  457.88  L 2332.86,  457.88  L 2332.86,  461.84 " style="stroke-width: 1.42 ;&st7; " /><path d=" M 2260.62,  401.22  L 2260.20,  400.48  L 2260.77,  400.38  L 2261.27,  400.67  L 2261.47,  401.22  L 2261.27,  401.77  L 2260.77,  402.05  L 2260.20,  401.95  L 2259.82,  401.51  L 2259.82,  400.93  L 2259.43,  400.22  L 2259.84,  399.87  L 2260.35,  399.68  L 2260.89,  399.68  L 2261.40,  399.87  L 2261.81,  400.22  L 2262.09,  400.69  L 2262.18,  401.22  L 2262.09,  401.75  L 2261.81,  402.22  L 2261.40,  402.57  L 2260.89,  402.75  L 2260.35,  402.75  L 2259.84,  402.57  L 2259.43,  402.22  L 2259.16,  401.75  L 2259.06,  401.22  L 2259.16,  400.69  L 2259.43,  400.22 " style="stroke-width: 0.85 ;&st7; " /><path d=" M 2311.61,  384.22  L 2311.19,  383.48  L 2311.76,  383.39  L 2312.26,  383.67  L 2312.46,  384.22  L 2312.26,  384.77  L 2311.76,  385.06  L 2311.19,  384.96  L 2310.81,  384.51  L 2310.81,  383.93  L 2310.42,  383.22  L 2310.83,  382.87  L 2311.34,  382.69  L 2311.88,  382.69  L 2312.39,  382.87  L 2312.81,  383.22  L 2313.08,  383.69  L 2313.17,  384.22  L 2313.08,  384.75  L 2312.81,  385.22  L 2312.39,  385.57  L 2311.88,  385.76  L 2311.34,  385.76  L 2310.83,  385.57  L 2310.42,  385.22  L 2310.15,  384.75  L 2310.05,  384.22  L 2310.15,  383.69  L 2310.42,  383.22 " style="stroke-width: 0.85 ;&st7; " /><path d=" M 2362.60,  367.22  L 2362.18,  366.49  L 2362.75,  366.39  L 2363.26,  366.68  L 2363.45,  367.22  L 2363.26,  367.77  L 2362.75,  368.06  L 2362.18,  367.96  L 2361.81,  367.52  L 2361.81,  366.93  L 2361.41,  366.22  L 2361.83,  365.88  L 2362.33,  365.69  L 2362.88,  365.69  L 2363.38,  365.88  L 2363.80,  366.22  L 2364.07,  366.69  L 2364.16,  367.22  L 2364.07,  367.76  L 2363.80,  368.23  L 2363.38,  368.57  L 2362.88,  368.76  L 2362.33,  368.76  L 2361.83,  368.57  L 2361.41,  368.23  L 2361.14,  367.76  L 2361.05,  367.22  L 2361.14,  366.69  L 2361.41,  366.22 " style="stroke-width: 0.85 ;&st7; " /><path d=" M 2260.62,  401.22  L 2966.00,  401.22  L 2966.00,  418.22 " style="stroke-width: 0.85 ;&st7; " /><path d=" M 2311.61,  418.22  L 2311.61,  350.79 " style="stroke-width: 0.85 ;&st7; " /><path d=" M 2362.60,  418.22  L 2362.60,  350.79 " style="stroke-width: 0.85 ;&st7; " /><path d=" M 2260.62,  350.79  L 2260.62,  418.22 " style="stroke-width: 0.85 ;&st7; " /><path d=" M 2260.62,  435.21  L 2260.62,  456.46 " style="stroke-width: 0.85 ;&st7; " /><path d=" M 2259.92,  469.21  L 2328.61,  469.21 " style="stroke-width: 0.85 ;&st7;stroke-dasharray:3, 1.5;" /><path d=" M 2362.60,  367.22  L 3067.99,  367.22  L 3067.99,  418.22 " style="stroke-width: 0.85 ;&st7; " /><path d=" M 2311.61,  384.22  L 3016.99,  384.22  L 3016.99,  418.22 " style="stroke-width: 0.85 ;&st7; " /><path d=" M 4002.83,  350.79  L 2124.64,  350.79  L 2124.64,  571.19  L 4002.83,  571.19  L 4002.83,  350.79 " style="stroke-width: 1.42 ;&st7; " /><path d=" M 2413.60,  435.21  L 2413.60,  456.46 " style="stroke-width: 0.85 ;&st7; " /><path d=" M 2494.33,  461.84  L 2494.33,  457.88  L 2485.83,  457.88  L 2485.83,  461.84 " style="stroke-width: 1.42 ;&st7; " /><path d=" M 2494.33,  476.57  L 2494.33,  480.54  L 2485.83,  480.54  L 2485.83,  476.57 " style="stroke-width: 1.42 ;&st7; " /><path d=" M 2490.08,  435.21  L 2490.08,  457.88 " style="stroke-width: 0.85 ;&st7; " /><path d=" M 2439.09,  435.21  L 2439.09,  452.21 " style="stroke-width: 0.85 ;&st7; " /><path d=" M 2464.59,  435.21  L 2464.59,  452.21 " style="stroke-width: 0.85 ;&st7; " /><path d=" M 2490.08,  480.54  L 2490.08,  503.20  L 2515.58,  503.20  L 2515.58,  435.21 " style="stroke-width: 0.85 ;&st7; " /><path d=" M 2413.60,  481.95  L 2413.60,  503.20  L 2464.59,  503.20  L 2464.59,  486.20 " style="stroke-width: 0.85 ;&st7; " /><path d=" M 2413.60,  401.22  L 2413.17,  400.48  L 2413.74,  400.38  L 2414.25,  400.67  L 2414.45,  401.22  L 2414.25,  401.77  L 2413.74,  402.05  L 2413.17,  401.95  L 2412.80,  401.51  L 2412.80,  400.93  L 2412.40,  400.22  L 2412.82,  399.87  L 2413.32,  399.68  L 2413.87,  399.68  L 2414.37,  399.87  L 2414.79,  400.22  L 2415.06,  400.69  L 2415.15,  401.22  L 2415.06,  401.75  L 2414.79,  402.22  L 2414.37,  402.57  L 2413.87,  402.75  L 2413.32,  402.75  L 2412.82,  402.57  L 2412.40,  402.22  L 2412.13,  401.75  L 2412.04,  401.22  L 2412.13,  400.69  L 2412.40,  400.22 " style="stroke-width: 0.85 ;&st7; " /><path d=" M 2464.59,  384.22  L 2464.16,  383.48  L 2464.73,  383.39  L 2465.24,  383.67  L 2465.44,  384.22  L 2465.24,  384.77  L 2464.73,  385.06  L 2464.16,  384.96  L 2463.79,  384.51  L 2463.79,  383.93  L 2463.39,  383.22  L 2463.81,  382.87  L 2464.32,  382.69  L 2464.86,  382.69  L 2465.37,  382.87  L 2465.78,  383.22  L 2466.05,  383.69  L 2466.15,  384.22  L 2466.05,  384.75  L 2465.78,  385.22  L 2465.37,  385.57  L 2464.86,  385.76  L 2464.32,  385.76  L 2463.81,  385.57  L 2463.39,  385.22  L 2463.12,  384.75  L 2463.03,  384.22  L 2463.12,  383.69  L 2463.39,  383.22 " style="stroke-width: 0.85 ;&st7; " /><path d=" M 2464.59,  418.22  L 2464.59,  384.22 " style="stroke-width: 0.85 ;&st7; " /><path d=" M 2413.60,  401.22  L 2413.60,  418.22 " style="stroke-width: 0.85 ;&st7; " /><path d=" M 2439.09,  503.20  L 2439.09,  486.20 " style="stroke-width: 0.85 ;&st7; " /><path d=" M 2396.60,  418.22  L 2396.60,  520.20  L 2532.58,  520.20  L 2532.58,  418.22  L 2396.60,  418.22 " style="stroke-width: 1.42 ;&st7; " /><path d=" M 2396.60,  435.21  L 2532.58,  435.21 " style="stroke-width: 1.42 ;&st7; " /><path d=" M 2439.09,  503.20  L 2438.67,  502.46  L 2439.24,  502.37  L 2439.74,  502.65  L 2439.94,  503.20  L 2439.74,  503.75  L 2439.24,  504.04  L 2438.67,  503.94  L 2438.29,  503.49  L 2438.29,  502.91  L 2437.90,  502.20  L 2438.31,  501.85  L 2438.82,  501.67  L 2439.36,  501.67  L 2439.87,  501.85  L 2440.28,  502.20  L 2440.56,  502.67  L 2440.65,  503.20  L 2440.56,  503.73  L 2440.28,  504.20  L 2439.87,  504.55  L 2439.36,  504.74  L 2438.82,  504.74  L 2438.31,  504.55  L 2437.90,  504.20  L 2437.63,  503.73  L 2437.53,  503.20  L 2437.63,  502.67  L 2437.90,  502.20 " style="stroke-width: 0.85 ;&st7; " /><path d=" M 2412.90,  469.21  L 2481.58,  469.21 " style="stroke-width: 0.85 ;&st7;stroke-dasharray:3, 1.5;" /><path d=" M 2150.11,  346.26  L 2179.88,  346.26 " style="stroke-width: 0.85 ;&st7;stroke-dasharray:3, 1.5;" /><path d=" M 2201.10,  346.26  L 2247.87,  346.26 " style="stroke-width: 0.85 ;&st7;stroke-dasharray:3, 1.5;" /><path d=" M 2269.09,  346.26  L 2298.86,  346.26 " style="stroke-width: 0.85 ;&st7;stroke-dasharray:3, 1.5;" /><path d=" M 2320.08,  346.26  L 2349.86,  346.26 " style="stroke-width: 0.85 ;&st7;stroke-dasharray:3, 1.5;" /><path d=" M 2044.19,  346.26  C 2044.19   343.76  2042.16   341.73  2039.66   341.73 " style="stroke-width: 1.42 ;&st7; " /><path d=" M 2039.66,  341.73  C 2037.16   341.73  2035.13   343.76  2035.13   346.26 " style="stroke-width: 1.42 ;&st7; " /><path d=" M 2035.13,  346.26  C 2035.13   348.76  2037.16   350.79  2039.66   350.79 " style="stroke-width: 1.42 ;&st7; " /><path d=" M 2039.66,  350.79  C 2042.16   350.79  2044.19   348.76  2044.19   346.26 " style="stroke-width: 1.42 ;&st7; " /><path d=" M 2044.19,  355.33  C 2044.19   352.82  2042.16   350.79  2039.66   350.79 " style="stroke-width: 1.42 ;&st7; " /><path d=" M 2039.66,  350.79  C 2037.16   350.79  2035.13   352.82  2035.13   355.33 " style="stroke-width: 1.42 ;&st7; " /><path d=" M 2035.13,  355.33  C 2035.13   357.83  2037.16   359.86  2039.66   359.86 " style="stroke-width: 1.42 ;&st7; " /><path d=" M 2039.66,  359.86  C 2042.16   359.86  2044.19   357.83  2044.19   355.33 " style="stroke-width: 1.42 ;&st7; " /><path d=" M 2313.03,  457.88  C 2313.03   457.09  2312.40   456.46  2311.61   456.46 " style="stroke-width: 0.85 ;&st7; " /><path d=" M 2311.61,  456.46  C 2310.83   456.46  2310.20   457.09  2310.20   457.88 " style="stroke-width: 0.85 ;&st7; " /><path d=" M 2310.20,  457.88  C 2310.20   458.66  2310.83   459.29  2311.61   459.29 " style="stroke-width: 0.85 ;&st7; " /><path d=" M 2311.61,  459.29  C 2312.40   459.29  2313.03   458.66  2313.03   457.88 " style="stroke-width: 0.85 ;&st7; " /><path d=" M 2313.03,  480.54  C 2313.03   479.76  2312.40   479.12  2311.61   479.12 " style="stroke-width: 0.85 ;&st7; " /><path d=" M 2311.61,  479.12  C 2310.83   479.12  2310.20   479.76  2310.20   480.54 " style="stroke-width: 0.85 ;&st7; " /><path d=" M 2310.20,  480.54  C 2310.20   481.32  2310.83   481.95  2311.61   481.95 " style="stroke-width: 0.85 ;&st7; " /><path d=" M 2311.61,  481.95  C 2312.40   481.95  2313.03   481.32  2313.03   480.54 " style="stroke-width: 0.85 ;&st7; " /><path d=" M 2287.53,  457.88  C 2287.53   457.09  2286.90   456.46  2286.12   456.46 " style="stroke-width: 0.85 ;&st7; " /><path d=" M 2286.12,  456.46  C 2285.34   456.46  2284.70   457.09  2284.70   457.88 " style="stroke-width: 0.85 ;&st7; " /><path d=" M 2284.70,  457.88  C 2284.70   458.66  2285.34   459.29  2286.12   459.29 " style="stroke-width: 0.85 ;&st7; " /><path d=" M 2286.12,  459.29  C 2286.90   459.29  2287.53   458.66  2287.53   457.88 " style="stroke-width: 0.85 ;&st7; " /><path d=" M 2287.53,  480.54  C 2287.53   479.76  2286.90   479.12  2286.12   479.12 " style="stroke-width: 0.85 ;&st7; " /><path d=" M 2286.12,  479.12  C 2285.34   479.12  2284.70   479.76  2284.70   480.54 " style="stroke-width: 0.85 ;&st7; " /><path d=" M 2284.70,  480.54  C 2284.70   481.32  2285.34   481.95  2286.12   481.95 " style="stroke-width: 0.85 ;&st7; " /><path d=" M 2286.12,  481.95  C 2286.90   481.95  2287.53   481.32  2287.53   480.54 " style="stroke-width: 0.85 ;&st7; " /><path d=" M 2345.61,  469.21  C 2345.61   464.51  2341.80   460.71  2337.11   460.71 " style="stroke-width: 1.42 ;&st7; " /><path d=" M 2337.11,  460.71  C 2332.42   460.71  2328.61   464.51  2328.61   469.21 " style="stroke-width: 1.42 ;&st7; " /><path d=" M 2328.61,  469.21  C 2328.61   473.90  2332.42   477.71  2337.11   477.71 " style="stroke-width: 1.42 ;&st7; " /><path d=" M 2337.11,  477.71  C 2341.80   477.71  2345.61   473.90  2345.61   469.21 " style="stroke-width: 1.42 ;&st7; " /><path d=" M 2262.04,  480.54  C 2262.04   479.76  2261.40   479.12  2260.62   479.12 " style="stroke-width: 0.85 ;&st7; " /><path d=" M 2260.62,  479.12  C 2259.84   479.12  2259.21   479.76  2259.21   480.54 " style="stroke-width: 0.85 ;&st7; " /><path d=" M 2259.21,  480.54  C 2259.21   481.32  2259.84   481.95  2260.62   481.95 " style="stroke-width: 0.85 ;&st7; " /><path d=" M 2260.62,  481.95  C 2261.40   481.95  2262.04   481.32  2262.04   480.54 " style="stroke-width: 0.85 ;&st7; " /><path d=" M 2262.04,  457.88  C 2262.04   457.09  2261.40   456.46  2260.62   456.46 " style="stroke-width: 0.85 ;&st7; " /><path d=" M 2260.62,  456.46  C 2259.84   456.46  2259.21   457.09  2259.21   457.88 " style="stroke-width: 0.85 ;&st7; " /><path d=" M 2259.21,  457.88  C 2259.21   458.66  2259.84   459.29  2260.62   459.29 " style="stroke-width: 0.85 ;&st7; " /><path d=" M 2260.62,  459.29  C 2261.40   459.29  2262.04   458.66  2262.04   457.88 " style="stroke-width: 0.85 ;&st7; " /><path d=" M 2265.15,  346.26  C 2265.15   343.76  2263.13   341.73  2260.62   341.73 " style="stroke-width: 1.42 ;&st7; " /><path d=" M 2260.62,  341.73  C 2258.12   341.73  2256.09   343.76  2256.09   346.26 " style="stroke-width: 1.42 ;&st7; " /><path d=" M 2256.09,  346.26  C 2256.09   348.76  2258.12   350.79  2260.62   350.79 " style="stroke-width: 1.42 ;&st7; " /><path d=" M 2260.62,  350.79  C 2263.13   350.79  2265.15   348.76  2265.15   346.26 " style="stroke-width: 1.42 ;&st7; " /><path d=" M 2316.15,  346.26  C 2316.15   343.76  2314.12   341.73  2311.61   341.73 " style="stroke-width: 1.42 ;&st7; " /><path d=" M 2311.61,  341.73  C 2309.11   341.73  2307.08   343.76  2307.08   346.26 " style="stroke-width: 1.42 ;&st7; " /><path d=" M 2307.08,  346.26  C 2307.08   348.76  2309.11   350.79  2311.61   350.79 " style="stroke-width: 1.42 ;&st7; " /><path d=" M 2311.61,  350.79  C 2314.12   350.79  2316.15   348.76  2316.15   346.26 " style="stroke-width: 1.42 ;&st7; " /><path d=" M 2367.14,  346.26  C 2367.14   343.76  2365.11   341.73  2362.61   341.73 " style="stroke-width: 1.42 ;&st7; " /><path d=" M 2362.61,  341.73  C 2360.10   341.73  2358.07   343.76  2358.07   346.26 " style="stroke-width: 1.42 ;&st7; " /><path d=" M 2358.07,  346.26  C 2358.07   348.76  2360.10   350.79  2362.61   350.79 " style="stroke-width: 1.42 ;&st7; " /><path d=" M 2362.61,  350.79  C 2365.11   350.79  2367.14   348.76  2367.14   346.26 " style="stroke-width: 1.42 ;&st7; " /><path d=" M 2184.14,  447.96  C 2184.14   452.65  2187.94   456.46  2192.63   456.46 " style="stroke-width: 0.85 ;&st7; " /><path d=" M 2192.63,  456.46  C 2197.33   456.46  2201.13   452.65  2201.13   447.96 " style="stroke-width: 0.85 ;&st7; " /><path d=" M 2201.13,  430.96  C 2201.13   426.27  2197.33   422.46  2192.63   422.46 " style="stroke-width: 0.85 ;&st7; " /><path d=" M 2192.63,  422.46  C 2187.94   422.46  2184.14   426.27  2184.14   430.96 " style="stroke-width: 0.85 ;&st7; " /><path d=" M 2197.17,  346.26  C 2197.17   343.76  2195.14   341.73  2192.63   341.73 " style="stroke-width: 1.42 ;&st7; " /><path d=" M 2192.63,  341.73  C 2190.13   341.73  2188.10   343.76  2188.10   346.26 " style="stroke-width: 1.42 ;&st7; " /><path d=" M 2188.10,  346.26  C 2188.10   348.76  2190.13   350.79  2192.63   350.79 " style="stroke-width: 1.42 ;&st7; " /><path d=" M 2192.63,  350.79  C 2195.14   350.79  2197.17   348.76  2197.17   346.26 " style="stroke-width: 1.42 ;&st7; " /><path d=" M 2146.17,  346.26  C 2146.17   343.76  2144.15   341.73  2141.64   341.73 " style="stroke-width: 1.42 ;&st7; " /><path d=" M 2141.64,  341.73  C 2139.14   341.73  2137.11   343.76  2137.11   346.26 " style="stroke-width: 1.42 ;&st7; " /><path d=" M 2137.11,  346.26  C 2137.11   348.76  2139.14   350.79  2141.64   350.79 " style="stroke-width: 1.42 ;&st7; " /><path d=" M 2141.64,  350.79  C 2144.15   350.79  2146.17   348.76  2146.17   346.26 " style="stroke-width: 1.42 ;&st7; " /><path d=" M 2415.01,  457.88  C 2415.01   457.09  2414.38   456.46  2413.60   456.46 " style="stroke-width: 0.85 ;&st7; " /><path d=" M 2413.60,  456.46  C 2412.81   456.46  2412.18   457.09  2412.18   457.88 " style="stroke-width: 0.85 ;&st7; " /><path d=" M 2412.18,  457.88  C 2412.18   458.66  2412.81   459.29  2413.60   459.29 " style="stroke-width: 0.85 ;&st7; " /><path d=" M 2413.60,  459.29  C 2414.38   459.29  2415.01   458.66  2415.01   457.88 " style="stroke-width: 0.85 ;&st7; " /><path d=" M 2415.01,  480.54  C 2415.01   479.76  2414.38   479.12  2413.60   479.12 " style="stroke-width: 0.85 ;&st7; " /><path d=" M 2413.60,  479.12  C 2412.81   479.12  2412.18   479.76  2412.18   480.54 " style="stroke-width: 0.85 ;&st7; " /><path d=" M 2412.18,  480.54  C 2412.18   481.32  2412.81   481.95  2413.60   481.95 " style="stroke-width: 0.85 ;&st7; " /><path d=" M 2413.60,  481.95  C 2414.38   481.95  2415.01   481.32  2415.01   480.54 " style="stroke-width: 0.85 ;&st7; " /><path d=" M 2498.58,  469.21  C 2498.58   464.51  2494.78   460.71  2490.08   460.71 " style="stroke-width: 1.42 ;&st7; " /><path d=" M 2490.08,  460.71  C 2485.39   460.71  2481.59   464.51  2481.59   469.21 " style="stroke-width: 1.42 ;&st7; " /><path d=" M 2481.59,  469.21  C 2481.59   473.90  2485.39   477.71  2490.08   477.71 " style="stroke-width: 1.42 ;&st7; " /><path d=" M 2490.08,  477.71  C 2494.78   477.71  2498.58   473.90  2498.58   469.21 " style="stroke-width: 1.42 ;&st7; " /><path d=" M 2440.51,  480.54  C 2440.51   479.76  2439.87   479.12  2439.09   479.12 " style="stroke-width: 0.85 ;&st7; " /><path d=" M 2439.09,  479.12  C 2438.31   479.12  2437.68   479.76  2437.68   480.54 " style="stroke-width: 0.85 ;&st7; " /><path d=" M 2437.68,  480.54  C 2437.68   481.32  2438.31   481.95  2439.09   481.95 " style="stroke-width: 0.85 ;&st7; " /><path d=" M 2439.09,  481.95  C 2439.87   481.95  2440.51   481.32  2440.51   480.54 " style="stroke-width: 0.85 ;&st7; " /><path d=" M 2440.51,  457.88  C 2440.51   457.09  2439.87   456.46  2439.09   456.46 " style="stroke-width: 0.85 ;&st7; " /><path d=" M 2439.09,  456.46  C 2438.31   456.46  2437.68   457.09  2437.68   457.88 " style="stroke-width: 0.85 ;&st7; " /><path d=" M 2437.68,  457.88  C 2437.68   458.66  2438.31   459.29  2439.09   459.29 " style="stroke-width: 0.85 ;&st7; " /><path d=" M 2439.09,  459.29  C 2439.87   459.29  2440.51   458.66  2440.51   457.88 " style="stroke-width: 0.85 ;&st7; " /><path d=" M 2466.00,  480.54  C 2466.00   479.76  2465.37   479.12  2464.59   479.12 " style="stroke-width: 0.85 ;&st7; " /><path d=" M 2464.59,  479.12  C 2463.81   479.12  2463.17   479.76  2463.17   480.54 " style="stroke-width: 0.85 ;&st7; " /><path d=" M 2463.17,  480.54  C 2463.17   481.32  2463.81   481.95  2464.59   481.95 " style="stroke-width: 0.85 ;&st7; " /><path d=" M 2464.59,  481.95  C 2465.37   481.95  2466.00   481.32  2466.00   480.54 " style="stroke-width: 0.85 ;&st7; " /><path d=" M 2466.00,  457.88  C 2466.00   457.09  2465.37   456.46  2464.59   456.46 " style="stroke-width: 0.85 ;&st7; " /><path d=" M 2464.59,  456.46  C 2463.81   456.46  2463.17   457.09  2463.17   457.88 " style="stroke-width: 0.85 ;&st7; " /><path d=" M 2463.17,  457.88  C 2463.17   458.66  2463.81   459.29  2464.59   459.29 " style="stroke-width: 0.85 ;&st7; " /><path d=" M 2464.59,  459.29  C 2465.37   459.29  2466.00   458.66  2466.00   457.88 " style="stroke-width: 0.85 ;&st7; " /><text style="&st18;" transform="matrix(&st16;  2045.63  357.3 )">(*2)</text><text style="&st18;" transform="matrix(&st16;  2045.63  348.23 )">(*1)</text><text style="&st18;" transform="matrix(&st16;  2028.78  348.23 )">7</text><text style="&st18;" transform="matrix(&st16;  2037.33  348.23 )">A</text><text ewd:textID="35" style="&st18;" transform="matrix(&st16;  2283.59  325.28 )">A/C Amplifier Assembly</text><text style="&st18;" transform="matrix(&st16;  2021.67  415.94 )">19</text><text style="&st18;" transform="matrix(&st16;  2283.59  318.18 )">E35(A),E36(B),E81(C),z53(D),z54(E)</text><text style="&st18;" transform="matrix(&st16;  2024.83  357.3 )">33</text><text style="&st18;" transform="matrix(&st16;  2037.19  357.3 )">C</text><text style="&st18;" transform="matrix(&st17;  2035.96  384.7 )">LG</text><text style="&st18;" transform="matrix(&st17;  2035.96  444.19 )">LG</text><text style="&st18;" transform="matrix(&st16;  2032.74  338.03 )">TSD</text><text ewd:textID="40" style="&st18;" transform="matrix(&st17;  2170.54  472.21 )">A/C Evaporator <tspan dy="6" x="-0.01">Temperature Sensor</tspan></text><text style="&st18;" transform="matrix(&st16;  2181.76  348.23 )">6</text><text style="&st18;" transform="matrix(&st16;  2130.77  348.23 )">7</text><text style="&st18;" transform="matrix(&st16;  2134.86  338.03 )">TEA</text><text style="&st18;" transform="matrix(&st16;  2139.17  348.23 )">D</text><text style="&st18;" transform="matrix(&st16;  2190.16  348.23 )">D</text><text style="&st18;" transform="matrix(&st16;  2185.22  338.03 )">SGA</text><text style="&st18;" transform="matrix(&st16;  2156.11  578.8 )">z53(D)</text><text ewd:textID="82" style="&st18;" transform="matrix(&st16;  2273.11  527.83 )">Damper Servo Motor <tspan dy="6" x="0">(Rear Air Mix RH) (LHD) </tspan><tspan dy="5.9" x="0">Damper Servo Motor </tspan><tspan dy="6" x="0">(Rear Air Mix LH) (RHD)</tspan></text><text style="&st18;" transform="matrix(&st16;  2258.15  348.23 )">D</text><text style="&st18;" transform="matrix(&st16;  2309.14  348.23 )">D</text><text style="&st18;" transform="matrix(&st16;  2360.13  348.23 )">D</text><text style="&st18;" transform="matrix(&st16;  2250.52  348.23 )">1</text><text style="&st18;" transform="matrix(&st16;  2249.57  338.03 )">BUS G</text><text style="&st18;" transform="matrix(&st16;  2304.48  338.03 )">BUS</text><text style="&st18;" transform="matrix(&st16;  2351.97  338.03 )">B BUS</text><text style="&st18;" transform="matrix(&st16;  2334.21  471.18 )">M</text><text style="&st18;" transform="matrix(&st16;  2300.74  348.23 )">2</text><text style="&st18;" transform="matrix(&st16;  2351.73  348.23 )">3</text><text ewd:textID="55" style="&st18;" transform="matrix(&st16;  2274.42  425.86 )">Connector <tspan dy="6" x="0">Housing Color (Natural)</tspan></text><text style="&st18;" transform="matrix(&st16;  2487.19  471.18 )">M</text><text ewd:textID="72" style="&st18;" transform="matrix(&st16;  2425.45  527.83 )">Damper Servo Motor <tspan dy="6" x="0">(Front Air Mix RH) (LHD) </tspan><tspan dy="5.9" x="0">Damper Servo Motor </tspan><tspan dy="6" x="0">(Front Air Mix LH) (RHD)</tspan></text><text ewd:textID="56" style="&st18;" transform="matrix(&st16;  2432.27  425.86 )">Connector <tspan dy="6" x="0">Housing Color (Red)</tspan></text><text ewd:textID="37" style="&st18;" transform="matrix(&st16;  2156.11  585.91 )">A/C Blower Assembly</text><text style="&st18;" transform="matrix(&st16;  2368.55  348.23 )">(*1)</text><text style="&st18;" transform="matrix(&st17;  2047.3  388.13 )">(*20)</text><text style="&st18;" transform="matrix(&st17;  2047.3  447.62 )">(*20)</text><text style="&st18;" transform="matrix(&st16;  2040.39  34.92 )">(*19)</text><text style="&st18;" transform="matrix(&st16;  2045.4  23.58 )">G</text><text style="&st18;" transform="matrix(&st16;  2096.39  23.58 )">G</text><text style="&st18;" transform="matrix(&st16;  2091.38  34.92 )">(*19)</text></svg>