﻿<?xml version="1.0" encoding="utf-8"?>
<!DOCTYPE svg PUBLIC "-//W3C//DTD SVG 1.0//EN" "http://www.w3.org/TR/2001/REC-SVG-20010904/DTD/svg10.dtd"[
	<!ENTITY ns_flows "http://ns.adobe.com/Flows/1.0/">
	<!ENTITY ns_svg "http://www.w3.org/2000/svg">
	<!ENTITY ns_xlink "http://www.w3.org/1999/xlink">
	<!ENTITY st0 "font-size:7px;font-family:'MS-PGothic';adobe-font-script:japanese;">
	<!ENTITY st1 "font-size:6px;font-family:'ArialMT';">
	<!-- White fill  -->
	<!ENTITY st2 "fill:#FFFFFF;stroke:#000000; stroke-width:1.41;stroke-linecap:round;stroke-linejoin:round;">
	<!-- Yellow fill  -->
	<!ENTITY st3 "fill:#FFFFCC;stroke:#FFFFCC; stroke-width:0.1;stroke-linecap:round;stroke-linejoin:round;">
	<!-- Gray fill  -->
	<!ENTITY st4 "fill:#CCCCCC;stroke:#CCCCCC; stroke-width:0.1;stroke-linecap:round;stroke-linejoin:round;">
	<!-- Light-blue fill -->
	<!ENTITY st5 "fill:#CCECF4;stroke:#000000; stroke-width:1.133;stroke-linecap:round;stroke-linejoin:round;">
	<!ENTITY st6 "fill:none;stroke-linecap:butt; stroke-linejoin:round;">
	<!ENTITY st7 "fill:none;stroke:#000000;stroke-linecap:round;stroke-linejoin:round;">
	<!ENTITY st8 "enable-background:new    ;">
	<!-- Black fill -->
	<!ENTITY st9 "fill:#000000;stroke:#000000; stroke-linecap:round;stroke-linejoin:round;">
	<!-- SRS note   -->
	<!ENTITY st10 "font-size:9px;font-family:'ArialMT';">
	<!ENTITY st11 "font-size:9px;font-family:'Svg Symbol';">
	<!ENTITY st12 "font-size:6px;font-family:'Svg Symbol';">
	<!ENTITY st13 "fill:none;stroke:#ff0000;stroke-linecap:round;stroke-linejoin:round;">
	<!-- Yellow fill  -->
	<!ENTITY st14 "fill:#FFFF00;stroke:#FFFF00; stroke-width:0.1;stroke-linecap:round;stroke-linejoin:round;">
	<!ENTITY st15 "font-size:6px;font-family:'MS-PGothic';adobe-font-script:japanese;">
	<!ENTITY st16 "1.00 0.00 0.00 1.00">
	<!ENTITY st17 "0.00 -1.00 1.00 0.00">
	<!ENTITY st18 "font-size:6px;font-family:'Arial';">
	<!ENTITY st19 "font-size:9px;font-family:'Arial';">
	<!ENTITY st20 "font-size:6px;font-family:'MS-PGothic','MS PGothic';adobe-font-script:japanese;">
	<!ENTITY st21 "font-size:7px;font-family:'MS-PGothic','MS PGothic';adobe-font-script:japanese;">
	<!ATTLIST svg
		xmlns:ewd CDATA #FIXED "http://shcl.co.jp/ewd"
		xmlns:a CDATA #FIXED "http://ns.adobe.com/AdobeSVGViewerExtensions/3.0/"
		ewd:ver CDATA #IMPLIED
	>
	<!ATTLIST a
		ewd:lineID CDATA #IMPLIED
		ewd:groupID CDATA #IMPLIED
		ewd:figtype CDATA #IMPLIED
		ewd:code CDATA #IMPLIED
		ewd:figID CDATA #IMPLIED
		ewd:pinNo CDATA #IMPLIED
		ewd:comment CDATA #IMPLIED >
	<!ATTLIST g
		ewd:lineID CDATA #IMPLIED
		ewd:groupID CDATA #IMPLIED
		ewd:figtype CDATA #IMPLIED
		ewd:code CDATA #IMPLIED
		ewd:figID CDATA #IMPLIED
		ewd:pinNo CDATA #IMPLIED
		ewd:comment CDATA #IMPLIED >
	<!ATTLIST text
		ewd:textID CDATA #IMPLIED >
	<!ATTLIST title
		ewd:textID CDATA #IMPLIED >
]>
<!-- Generator: Shintec Hozumi YS   -->
<svg onload="call_execInitLoadProc_svg('system')" style="overflow:visible;  enable-background:new 0 0 3417.137 710.000" viewBox="0 0 3417.137 710.000" height="710.000" width="3417.137" xml:space="preserve" ewd:ver="L2.1.2.8" xmlns="&ns_svg;" xmlns:a="http://ns.adobe.com/AdobeSVGViewerExtensions/3.0/" xmlns:ewd="http://shcl.co.jp/ewd" xmlns:xlink="&ns_xlink;">
<path d=" M   25.50,   69.77  L   25.50,   95.27 " style="stroke-width: 0.85 ;&st7; " /><path d=" M   27.62,   95.27  L   23.37,   95.27 " style="stroke-width: 1.42 ;&st7; " /><path d=" M   27.62,  103.77  L   23.37,  103.77 " style="stroke-width: 1.42 ;&st7; " /><path d=" M   17.00,  222.75  L   25.50,  222.75 " style="stroke-width: 1.42 ;&st7; " /><path d=" M   17.00,  282.24  L   25.50,  282.24 " style="stroke-width: 1.42 ;&st7; " /><path d=" M   84.99,   69.77  L   84.99,   95.27 " style="stroke-width: 0.85 ;&st7; " /><path d=" M   87.11,  103.77  L   82.86,  103.77 " style="stroke-width: 1.42 ;&st7; " /><path d=" M  146.60,   95.27  L  142.35,   95.27 " style="stroke-width: 1.42 ;&st7; " /><path d=" M  212.46,  231.25  L  203.97,  231.25 " style="stroke-width: 1.42 ;&st7; " /><path d=" M  212.46,  290.74  L  203.97,  290.74 " style="stroke-width: 1.42 ;&st7; " /><path d=" M   87.11,   95.27  L   82.86,   95.27 " style="stroke-width: 1.42 ;&st7; " /><path d=" M  144.48,   69.77  L  144.48,   95.27 " style="stroke-width: 0.85 ;&st7; " /><path d=" M  146.60,  103.77  L  142.35,  103.77 " style="stroke-width: 1.42 ;&st7; " /><path d=" M   76.49,  282.24  L   84.99,  282.24 " style="stroke-width: 1.42 ;&st7; " /><path d=" M  407.93,  248.24  L  399.43,  248.24 " style="stroke-width: 1.42 ;&st7; " /><path d=" M   84.99,   90.37  L   82.15,   87.54  L   82.15,   91.79  L   84.99,   94.62  L   87.82,   91.79  L   87.82,   87.54  L   84.99,   90.37 " style="stroke-width: 0.28 ;&st9;" /><path d=" M   72.24,   35.78  L   72.24,   78.27  L   97.73,   78.27  L   97.73,   35.78  L   72.24,   35.78 " style="stroke-width: 1.42 ;&st7; " /><path d=" M  144.48,   90.37  L  141.64,   87.54  L  141.64,   91.79  L  144.48,   94.62  L  147.31,   91.79  L  147.31,   87.54  L  144.48,   90.37 " style="stroke-width: 0.28 ;&st9;" /><path d=" M  131.73,   35.78  L  131.73,   78.27  L  157.22,   78.27  L  157.22,   35.78  L  131.73,   35.78 " style="stroke-width: 1.42 ;&st7; " /><path d=" M  186.97,  103.77  L 3416.43,  103.77  L 3416.43,   69.77  L  186.97,   69.77  L  186.97,  103.77 " style="stroke-width: 1.42 ;&st7; " /><path d=" M  195.47,  163.26  L  212.46,  163.26  L  212.46,  180.26  L  195.47,  180.26  L  195.47,  163.26 " style="stroke-width: 1.42 ;&st7; " /><path d=" M  203.97,  163.26  L  203.97,  180.26 " style="stroke-width: 0.85 ;&st7; " /><path d=" M  208.22,  240.31  L  203.97,  236.06  L  199.72,  240.31 " style="stroke-width: 1.42 ;&st7; " /><path d=" M  208.22,  236.91  L  203.97,  232.66  L  199.72,  236.91 " style="stroke-width: 1.42 ;&st7; " /><path d=" M  208.22,  299.80  L  203.97,  295.55  L  199.72,  299.80 " style="stroke-width: 1.42 ;&st7; " /><path d=" M  208.22,  296.40  L  203.97,  292.15  L  199.72,  296.40 " style="stroke-width: 1.42 ;&st7; " /><path d=" M  305.95,  622.18  L 2762.04,  622.18  L 2762.04,  588.19  L  305.95,  588.19  L  305.95,  622.18 " style="stroke-width: 1.42 ;&st7; " /><path d=" M   25.50,   90.37  L   22.66,   87.54  L   22.66,   91.79  L   25.50,   94.62  L   28.33,   91.79  L   28.33,   87.54  L   25.50,   90.37 " style="stroke-width: 0.28 ;&st9;" /><path d=" M   12.75,   35.78  L   12.75,   78.27  L   38.24,   78.27  L   38.24,   35.78  L   12.75,   35.78 " style="stroke-width: 1.42 ;&st7; " /><path d=" M   21.25,  213.68  L   25.50,  217.93  L   29.75,  213.68 " style="stroke-width: 1.42 ;&st7; " /><path d=" M   29.75,  217.08  L   25.50,  221.33  L   21.25,  217.08 " style="stroke-width: 1.42 ;&st7; " /><path d=" M   21.25,  273.17  L   25.50,  277.42  L   29.75,  273.17 " style="stroke-width: 1.42 ;&st7; " /><path d=" M   29.75,  276.57  L   25.50,  280.82  L   21.25,  276.57 " style="stroke-width: 1.42 ;&st7; " /><path d=" M  263.46,  697.25  L  263.46,  701.50 " style="stroke-width: 0.85 ;&st7; " /><path d=" M  254.96,  701.50  L  271.95,  701.50 " style="stroke-width: 0.85 ;&st7; " /><path d=" M  259.21,  704.33  L  267.71,  704.33 " style="stroke-width: 0.85 ;&st7; " /><path d=" M   76.49,  443.71  L   76.49,  460.71  L   93.48,  460.71  L   93.48,  443.71  L   76.49,  443.71 " style="stroke-width: 1.42 ;&st7; " /><path d=" M   84.99,  443.71  L   84.99,  460.71 " style="stroke-width: 0.85 ;&st7; " /><path d=" M   83.79,  451.21  L   83.52,  451.68  L   83.43,  452.21  L   83.52,  452.74  L   83.79,  453.21  L   84.21,  453.56  L   84.71,  453.75  L   85.26,  453.75  L   85.76,  453.56  L   86.18,  453.21  L   86.45,  452.74  L   86.54,  452.21  L   86.45,  451.68  L   86.18,  451.21  L   85.76,  450.86  L   85.26,  450.67  L   84.71,  450.67  L   84.21,  450.86  L   83.79,  451.21  L   84.19,  451.92  L   84.19,  452.50  L   84.56,  452.95  L   85.13,  453.05  L   85.64,  452.76  L   85.84,  452.21  L   85.64,  451.66  L   85.13,  451.37  L   84.56,  451.47  L   84.99,  452.21 " style="stroke-width: 0.85 ;&st7; " /><path d=" M  203.97,  163.26  L  203.97,  180.26 " style="stroke-width: 0.85 ;&st7; " /><path d=" M   84.99,  452.21  L   93.48,  452.21 " style="stroke-width: 0.85 ;&st7; " /><path d=" M  262.04,  710.00  L  264.87,  710.00 " style="stroke-width: 0.85 ;&st7; " /><path d=" M  260.62,  707.17  L  266.29,  707.17 " style="stroke-width: 0.85 ;&st7; " /><path d=" M  399.43,  180.26  L  399.43,  197.25 " style="stroke-width: 0.85 ;&st7; " /><path d=" M  390.93,  180.26  L  407.93,  180.26  L  407.93,  197.25  L  390.93,  197.25  L  390.93,  180.26 " style="stroke-width: 1.42 ;&st7; " /><path d=" M   80.74,  273.17  L   84.99,  277.42  L   89.24,  273.17 " style="stroke-width: 1.42 ;&st7; " /><path d=" M   89.24,  276.57  L   84.99,  280.82  L   80.74,  276.57 " style="stroke-width: 1.42 ;&st7; " /><path d=" M  297.45,  137.76  L  297.45,  163.26 " style="stroke-width: 1.42 ;&st7; " /><path d=" M  322.95,  180.26  L  322.95,  214.25  L  356.94,  214.25  L  356.94,  180.26  L  322.95,  180.26 " style="stroke-width: 1.42 ;&st7; " /><path d=" M  280.45,  137.76  L  297.45,  163.26  L  314.45,  137.76  L  280.45,  137.76 " style="stroke-width: 1.42 ;&st7; " /><path d=" M  297.45,  163.26  L  297.45,  239.75  L  339.94,  239.75  L  339.94,  214.25 " style="stroke-width: 0.85 ;&st7; " /><path d=" M  403.68,  253.91  L  399.43,  249.66  L  395.18,  253.91 " style="stroke-width: 1.42 ;&st7; " /><path d=" M  403.68,  257.31  L  399.43,  253.06  L  395.18,  257.31 " style="stroke-width: 1.42 ;&st7; " /><path d=" M  382.44,  299.24  L  382.44,  333.23  L  416.43,  333.23  L  416.43,  299.24  L  382.44,  299.24 " style="stroke-width: 1.42 ;&st7; " /><path d=" M   91.36,   99.52  C   91.36    97.17    89.46    95.27    87.11    95.27 " style="stroke-width: 1.42 ;&st7; " /><path d=" M  144.48,   47.11  C  141.74    48.72   140.83    52.25   142.44    54.99 " style="stroke-width: 1.42 ;&st7; " /><path d=" M  142.44,   54.99  C  142.96    55.87   143.59    56.51   144.48    57.03 " style="stroke-width: 1.42 ;&st7; " /><path d=" M  144.48,   66.94  C  147.21    65.33   148.13    61.80   146.51    59.06 " style="stroke-width: 1.42 ;&st7; " /><path d=" M  146.51,   59.06  C  145.99    58.18   145.36    57.55   144.48    57.03 " style="stroke-width: 1.42 ;&st7; " /><path d=" M  145.89,   45.69  C  145.89    44.91   145.26    44.28   144.48    44.28 " style="stroke-width: 0.85 ;&st7; " /><path d=" M  144.48,   44.28  C  143.69    44.28   143.06    44.91   143.06    45.69 " style="stroke-width: 0.85 ;&st7; " /><path d=" M  143.06,   45.69  C  143.06    46.48   143.69    47.11   144.48    47.11 " style="stroke-width: 0.85 ;&st7; " /><path d=" M  144.48,   47.11  C  145.26    47.11   145.89    46.48   145.89    45.69 " style="stroke-width: 0.85 ;&st7; " /><path d=" M  145.89,   68.36  C  145.89    67.57   145.26    66.94   144.48    66.94 " style="stroke-width: 0.85 ;&st7; " /><path d=" M  144.48,   66.94  C  143.69    66.94   143.06    67.57   143.06    68.36 " style="stroke-width: 0.85 ;&st7; " /><path d=" M  143.06,   68.36  C  143.06    69.14   143.69    69.77   144.48    69.77 " style="stroke-width: 0.85 ;&st7; " /><path d=" M  144.48,   69.77  C  145.26    69.77   145.89    69.14   145.89    68.36 " style="stroke-width: 0.85 ;&st7; " /><path d=" M  142.35,   95.27  C  140.00    95.27   138.10    97.17   138.10    99.52 " style="stroke-width: 1.42 ;&st7; " /><path d=" M  138.10,   99.52  C  138.10   101.87   140.00   103.77   142.35   103.77 " style="stroke-width: 1.42 ;&st7; " /><path d=" M  146.60,  103.77  C  148.95   103.77   150.85   101.87   150.85    99.52 " style="stroke-width: 1.42 ;&st7; " /><path d=" M  150.85,   99.52  C  150.85    97.17   148.95    95.27   146.60    95.27 " style="stroke-width: 1.42 ;&st7; " /><path d=" M   25.50,   47.11  C   22.76    48.72    21.85    52.25    23.46    54.99 " style="stroke-width: 1.42 ;&st7; " /><path d=" M   23.46,   54.99  C   23.98    55.87    24.61    56.51    25.50    57.03 " style="stroke-width: 1.42 ;&st7; " /><path d=" M   25.50,   66.94  C   28.23    65.33    29.15    61.80    27.53    59.06 " style="stroke-width: 1.42 ;&st7; " /><path d=" M   27.53,   59.06  C   27.01    58.18    26.38    57.55    25.50    57.03 " style="stroke-width: 1.42 ;&st7; " /><path d=" M   26.91,   45.69  C   26.91    44.91    26.28    44.28    25.50    44.28 " style="stroke-width: 0.85 ;&st7; " /><path d=" M   25.50,   44.28  C   24.71    44.28    24.08    44.91    24.08    45.69 " style="stroke-width: 0.85 ;&st7; " /><path d=" M   24.08,   45.69  C   24.08    46.48    24.71    47.11    25.50    47.11 " style="stroke-width: 0.85 ;&st7; " /><path d=" M   25.50,   47.11  C   26.28    47.11    26.91    46.48    26.91    45.69 " style="stroke-width: 0.85 ;&st7; " /><path d=" M   26.91,   68.36  C   26.91    67.57    26.28    66.94    25.50    66.94 " style="stroke-width: 0.85 ;&st7; " /><path d=" M   25.50,   66.94  C   24.71    66.94    24.08    67.57    24.08    68.36 " style="stroke-width: 0.85 ;&st7; " /><path d=" M   24.08,   68.36  C   24.08    69.14    24.71    69.77    25.50    69.77 " style="stroke-width: 0.85 ;&st7; " /><path d=" M   25.50,   69.77  C   26.28    69.77    26.91    69.14    26.91    68.36 " style="stroke-width: 0.85 ;&st7; " /><path d=" M   23.37,   95.27  C   21.02    95.27    19.12    97.17    19.12    99.52 " style="stroke-width: 1.42 ;&st7; " /><path d=" M   19.12,   99.52  C   19.12   101.87    21.02   103.77    23.37   103.77 " style="stroke-width: 1.42 ;&st7; " /><path d=" M   27.62,  103.77  C   29.97   103.77    31.87   101.87    31.87    99.52 " style="stroke-width: 1.42 ;&st7; " /><path d=" M   31.87,   99.52  C   31.87    97.17    29.97    95.27    27.62    95.27 " style="stroke-width: 1.42 ;&st7; " /><path d=" M  352.97,  583.65  C  352.97   581.15   350.95   579.12   348.44   579.12 " style="stroke-width: 1.42 ;&st7; " /><path d=" M  348.44,  579.12  C  345.94   579.12   343.91   581.15   343.91   583.65 " style="stroke-width: 1.42 ;&st7; " /><path d=" M  343.91,  583.65  C  343.91   586.16   345.94   588.19   348.44   588.19 " style="stroke-width: 1.42 ;&st7; " /><path d=" M  348.44,  588.19  C  350.95   588.19   352.97   586.16   352.97   583.65 " style="stroke-width: 1.42 ;&st7; " /><path d=" M   87.11,  103.77  C   89.46   103.77    91.36   101.87    91.36    99.52 " style="stroke-width: 1.42 ;&st7; " /><path d=" M  208.50,  108.30  C  208.50   105.80   206.47   103.77   203.97   103.77 " style="stroke-width: 1.42 ;&st7; " /><path d=" M  203.97,  103.77  C  201.46   103.77   199.43   105.80   199.43   108.30 " style="stroke-width: 1.42 ;&st7; " /><path d=" M  199.43,  108.30  C  199.43   110.80   201.46   112.83   203.97   112.83 " style="stroke-width: 1.42 ;&st7; " /><path d=" M  203.97,  112.83  C  206.47   112.83   208.50   110.80   208.50   108.30 " style="stroke-width: 1.42 ;&st7; " /><path d=" M  446.46,  108.30  C  446.46   105.80   444.43   103.77   441.93   103.77 " style="stroke-width: 1.42 ;&st7; " /><path d=" M  441.93,  103.77  C  439.42   103.77   437.39   105.80   437.39   108.30 " style="stroke-width: 1.42 ;&st7; " /><path d=" M  437.39,  108.30  C  437.39   110.80   439.42   112.83   441.93   112.83 " style="stroke-width: 1.42 ;&st7; " /><path d=" M  441.93,  112.83  C  444.43   112.83   446.46   110.80   446.46   108.30 " style="stroke-width: 1.42 ;&st7; " /><path d=" M   82.86,   95.27  C   80.51    95.27    78.61    97.17    78.61    99.52 " style="stroke-width: 1.42 ;&st7; " /><path d=" M   86.40,   68.36  C   86.40    67.57    85.77    66.94    84.99    66.94 " style="stroke-width: 0.85 ;&st7; " /><path d=" M   84.99,   66.94  C   84.20    66.94    83.57    67.57    83.57    68.36 " style="stroke-width: 0.85 ;&st7; " /><path d=" M   83.57,   68.36  C   83.57    69.14    84.20    69.77    84.99    69.77 " style="stroke-width: 0.85 ;&st7; " /><path d=" M   84.99,   69.77  C   85.77    69.77    86.40    69.14    86.40    68.36 " style="stroke-width: 0.85 ;&st7; " /><path d=" M   86.40,   45.69  C   86.40    44.91    85.77    44.28    84.99    44.28 " style="stroke-width: 0.85 ;&st7; " /><path d=" M   84.99,   44.28  C   84.20    44.28    83.57    44.91    83.57    45.69 " style="stroke-width: 0.85 ;&st7; " /><path d=" M   83.57,   45.69  C   83.57    46.48    84.20    47.11    84.99    47.11 " style="stroke-width: 0.85 ;&st7; " /><path d=" M   84.99,   47.11  C   85.77    47.11    86.40    46.48    86.40    45.69 " style="stroke-width: 0.85 ;&st7; " /><path d=" M   84.99,   66.94  C   87.72    65.33    88.64    61.80    87.02    59.06 " style="stroke-width: 1.42 ;&st7; " /><path d=" M   87.02,   59.06  C   86.50    58.18    85.87    57.55    84.99    57.03 " style="stroke-width: 1.42 ;&st7; " /><path d=" M   84.99,   47.11  C   82.25    48.72    81.34    52.25    82.95    54.99 " style="stroke-width: 1.42 ;&st7; " /><path d=" M   82.95,   54.99  C   83.47    55.87    84.10    56.51    84.99    57.03 " style="stroke-width: 1.42 ;&st7; " /><path d=" M   78.61,   99.52  C   78.61   101.87    80.51   103.77    82.86   103.77 " style="stroke-width: 1.42 ;&st7; " /><path d=" M  471.95,  108.30  C  471.95   105.80   469.93   103.77   467.42   103.77 " style="stroke-width: 1.42 ;&st7; " /><path d=" M  467.42,  103.77  C  464.92   103.77   462.89   105.80   462.89   108.30 " style="stroke-width: 1.42 ;&st7; " /><path d=" M  462.89,  108.30  C  462.89   110.80   464.92   112.83   467.42   112.83 " style="stroke-width: 1.42 ;&st7; " /><path d=" M  467.42,  112.83  C  469.93   112.83   471.95   110.80   471.95   108.30 " style="stroke-width: 1.42 ;&st7; " /><path d=" M  327.48,  583.65  C  327.48   581.15   325.45   579.12   322.95   579.12 " style="stroke-width: 1.42 ;&st7; " /><path d=" M  322.95,  579.12  C  320.44   579.12   318.41   581.15   318.41   583.65 " style="stroke-width: 1.42 ;&st7; " /><path d=" M  318.41,  583.65  C  318.41   586.16   320.44   588.19   322.95   588.19 " style="stroke-width: 1.42 ;&st7; " /><path d=" M  322.95,  588.19  C  325.45   588.19   327.48   586.16   327.48   583.65 " style="stroke-width: 1.42 ;&st7; " /><path d=" M  242.49,  108.30  C  242.49   105.80   240.46   103.77   237.96   103.77 " style="stroke-width: 1.42 ;&st7; " /><path d=" M  237.96,  103.77  C  235.46   103.77   233.43   105.80   233.43   108.30 " style="stroke-width: 1.42 ;&st7; " /><path d=" M  233.43,  108.30  C  233.43   110.80   235.46   112.83   237.96   112.83 " style="stroke-width: 1.42 ;&st7; " /><path d=" M  237.96,  112.83  C  240.46   112.83   242.49   110.80   242.49   108.30 " style="stroke-width: 1.42 ;&st7; " /><path d=" M  267.99,  108.30  C  267.99   105.80   265.96   103.77   263.46   103.77 " style="stroke-width: 1.42 ;&st7; " /><path d=" M  263.46,  103.77  C  260.95   103.77   258.92   105.80   258.92   108.30 " style="stroke-width: 1.42 ;&st7; " /><path d=" M  258.92,  108.30  C  258.92   110.80   260.95   112.83   263.46   112.83 " style="stroke-width: 1.42 ;&st7; " /><path d=" M  263.46,  112.83  C  265.96   112.83   267.99   110.80   267.99   108.30 " style="stroke-width: 1.42 ;&st7; " /><path d=" M  412.46,  583.65  C  412.46   581.15   410.44   579.12   407.93   579.12 " style="stroke-width: 1.42 ;&st7; " /><path d=" M  407.93,  579.12  C  405.43   579.12   403.40   581.15   403.40   583.65 " style="stroke-width: 1.42 ;&st7; " /><path d=" M  403.40,  583.65  C  403.40   586.16   405.43   588.19   407.93   588.19 " style="stroke-width: 1.42 ;&st7; " /><path d=" M  407.93,  588.19  C  410.44   588.19   412.46   586.16   412.46   583.65 " style="stroke-width: 1.42 ;&st7; " /><path d=" M  378.47,  583.65  C  378.47   581.15   376.44   579.12   373.94   579.12 " style="stroke-width: 1.42 ;&st7; " /><path d=" M  373.94,  579.12  C  371.43   579.12   369.40   581.15   369.40   583.65 " style="stroke-width: 1.42 ;&st7; " /><path d=" M  369.40,  583.65  C  369.40   586.16   371.43   588.19   373.94   588.19 " style="stroke-width: 1.42 ;&st7; " /><path d=" M  373.94,  588.19  C  376.44   588.19   378.47   586.16   378.47   583.65 " style="stroke-width: 1.42 ;&st7; " /><path d=" M  446.46,  583.65  C  446.46   581.15   444.43   579.12   441.93   579.12 " style="stroke-width: 1.42 ;&st7; " /><path d=" M  441.93,  579.12  C  439.42   579.12   437.39   581.15   437.39   583.65 " style="stroke-width: 1.42 ;&st7; " /><path d=" M  437.39,  583.65  C  437.39   586.16   439.42   588.19   441.93   588.19 " style="stroke-width: 1.42 ;&st7; " /><path d=" M  441.93,  588.19  C  444.43   588.19   446.46   586.16   446.46   583.65 " style="stroke-width: 1.42 ;&st7; " /><path d=" M  471.95,  583.65  C  471.95   581.15   469.93   579.12   467.42   579.12 " style="stroke-width: 1.42 ;&st7; " /><path d=" M  467.42,  579.12  C  464.92   579.12   462.89   581.15   462.89   583.65 " style="stroke-width: 1.42 ;&st7; " /><path d=" M  462.89,  583.65  C  462.89   586.16   464.92   588.19   467.42   588.19 " style="stroke-width: 1.42 ;&st7; " /><path d=" M  467.42,  588.19  C  469.93   588.19   471.95   586.16   471.95   583.65 " style="stroke-width: 1.42 ;&st7; " /><path d=" M  497.45,  108.30  C  497.45   105.80   495.42   103.77   492.92   103.77 " style="stroke-width: 1.42 ;&st7; " /><path d=" M  492.92,  103.77  C  490.41   103.77   488.39   105.80   488.39   108.30 " style="stroke-width: 1.42 ;&st7; " /><path d=" M  488.39,  108.30  C  488.39   110.80   490.41   112.83   492.92   112.83 " style="stroke-width: 1.42 ;&st7; " /><path d=" M  492.92,  112.83  C  495.42   112.83   497.45   110.80   497.45   108.30 " style="stroke-width: 1.42 ;&st7; " /><path d=" M  497.45,  583.65  C  497.45   581.15   495.42   579.12   492.92   579.12 " style="stroke-width: 1.42 ;&st7; " /><path d=" M  492.92,  579.12  C  490.41   579.12   488.39   581.15   488.39   583.65 " style="stroke-width: 1.42 ;&st7; " /><path d=" M  488.39,  583.65  C  488.39   586.16   490.41   588.19   492.92   588.19 " style="stroke-width: 1.42 ;&st7; " /><path d=" M  492.92,  588.19  C  495.42   588.19   497.45   586.16   497.45   583.65 " style="stroke-width: 1.42 ;&st7; " /><path d=" M  344.48,  108.30  C  344.48   105.80   342.45   103.77   339.94   103.77 " style="stroke-width: 1.42 ;&st7; " /><path d=" M  339.94,  103.77  C  337.44   103.77   335.41   105.80   335.41   108.30 " style="stroke-width: 1.42 ;&st7; " /><path d=" M  335.41,  108.30  C  335.41   110.80   337.44   112.83   339.94   112.83 " style="stroke-width: 1.42 ;&st7; " /><path d=" M  339.94,  112.83  C  342.45   112.83   344.48   110.80   344.48   108.30 " style="stroke-width: 1.42 ;&st7; " /><path d=" M  403.97,  108.30  C  403.97   105.80   401.94   103.77   399.43   103.77 " style="stroke-width: 1.42 ;&st7; " /><path d=" M  399.43,  103.77  C  396.93   103.77   394.90   105.80   394.90   108.30 " style="stroke-width: 1.42 ;&st7; " /><path d=" M  394.90,  108.30  C  394.90   110.80   396.93   112.83   399.43   112.83 " style="stroke-width: 1.42 ;&st7; " /><path d=" M  399.43,  112.83  C  401.94   112.83   403.97   110.80   403.97   108.30 " style="stroke-width: 1.42 ;&st7; " /><path d=" M  403.97,  294.70  C  403.97   292.20   401.94   290.17   399.43   290.17 " style="stroke-width: 1.42 ;&st7; " /><path d=" M  399.43,  290.17  C  396.93   290.17   394.90   292.20   394.90   294.70 " style="stroke-width: 1.42 ;&st7; " /><path d=" M  394.90,  294.70  C  394.90   297.21   396.93   299.24   399.43   299.24 " style="stroke-width: 1.42 ;&st7; " /><path d=" M  399.43,  299.24  C  401.94   299.24   403.97   297.21   403.97   294.70 " style="stroke-width: 1.42 ;&st7; " /><text style="&st18;" transform="matrix(&st17;  438.23  132.62 )">W</text><text style="&st18;" transform="matrix(&st17;  438.23  540.55 )">W</text><text style="&st18;" transform="matrix(&st16;  102.29  56.17 )">7.5A <tspan dy="6" x="0">ACC</tspan></text><text style="&st18;" transform="matrix(&st16;  75.38  32.08 )">(ACC)</text><text style="&st18;" transform="matrix(&st16;  137.69  86.47 )">2</text><text style="&st18;" transform="matrix(&st16;  189.15  228.97 )">3</text><text style="&st18;" transform="matrix(&st16;  197.18  159.57 )">2</text><text style="&st18;" transform="matrix(&st16;  201.63  110.27 )">A</text><text style="&st18;" transform="matrix(&st16;  142.89  101.49 )">1</text><text style="&st18;" transform="matrix(&st16;  73.07  101.49 )">1</text><text style="&st18;" transform="matrix(&st16;  193.87  110.27 )">1</text><text style="&st18;" transform="matrix(&st16;  80.68  101.49 )">2E</text><text style="&st18;" transform="matrix(&st16;  161.78  53.34 )">10A <tspan dy="6" x="0">RAD </tspan><tspan dy="6" x="0">NO.1</tspan></text><text style="&st18;" transform="matrix(&st16;  135.36  32.08 )">(BAT)</text><text style="&st18;" transform="matrix(&st16;  197.95  188.45 )">1</text><text style="&st18;" transform="matrix(&st16;  312.07  585.62 )">6</text><text style="&st18;" transform="matrix(&st17;  200.27  258.72 )">L</text><text style="&st18;" transform="matrix(&st17;  140.78  152.58 )">L-B</text><text style="&st18;" transform="matrix(&st16;  427.87  110.27 )">15</text><text style="&st18;" transform="matrix(&st16;  23.91  101.49 )">1</text><text style="&st18;" transform="matrix(&st16;  18.71  86.47 )">2</text><text style="&st18;" transform="matrix(&st16;  16.38  32.08 )">(BAT)</text><text style="&st18;" transform="matrix(&st16;  6.73  228.97 )">30</text><text style="&st18;" transform="matrix(&st16;  10.68  288.46 )">8</text><text style="&st18;" transform="matrix(&st17;  319.25  570.39 )">W-B</text><text style="&st18;" transform="matrix(&st17;  234.26  134.07 )">BR</text><text style="&st18;" transform="matrix(&st17;  21.8  152.58 )">L-B</text><text style="&st18;" transform="matrix(&st17;  344.75  570.39 )">W-B</text><text style="&st18;" transform="matrix(&st17;  21.8  258.72 )">L</text><text style="&st18;" transform="matrix(&st17;  81.29  151.49 )">GR</text><text style="&st18;" transform="matrix(&st17;  404.24  567.92 )">GR</text><text style="&st18;" transform="matrix(&st16;  337.57  585.62 )">2</text><text style="&st18;" transform="matrix(&st16;  439.59  110.27 )">A</text><text style="&st18;" transform="matrix(&st16;  483.1  595.82 )">MUTE</text><text style="&st18;" transform="matrix(&st17;  200.27  131.24 )">L</text><text style="&st18;" transform="matrix(&st16;  185.2  288.46 )">35</text><text style="&st18;" transform="matrix(&st17;  200.27  207.73 )">L</text><text style="&st18;" transform="matrix(&st16;  320.61  585.62 )">A</text><text style="&st18;" transform="matrix(&st16;  75.02  440.02 )">12</text><text style="&st18;" transform="matrix(&st16;  75.02  468.9 )">13</text><text ewd:textID="15" style="&st18;" transform="matrix(&st16;  96.63  469.76 )">Junction Connector</text><text style="&st18;" transform="matrix(&st16;  96.63  462.65 )">F20</text><text style="&st18;" transform="matrix(&st16;  113.75  448.51 )">GR</text><text style="&st18;" transform="matrix(&st16;  113.75  491.01 )">GR</text><text style="&st18;" transform="matrix(&st17;  81.29  329.96 )">GR</text><text style="&st18;" transform="matrix(&st17;  234.26  643.98 )">BR</text><text style="&st18;" transform="matrix(&st17;  463.73  131.74 )">R</text><text style="&st18;" transform="matrix(&st16;  223.13  110.27 )">20</text><text style="&st18;" transform="matrix(&st16;  235.63  110.27 )">A</text><text style="&st18;" transform="matrix(&st16;  250.18  110.27 )">11</text><text style="&st18;" transform="matrix(&st16;  261.12  110.27 )">A</text><text style="&st18;" transform="matrix(&st16;  456.55  110.27 )">5</text><text style="&st18;" transform="matrix(&st16;  465.09  110.27 )">A</text><text style="&st18;" transform="matrix(&st16;  346.11  585.62 )">A</text><text style="&st18;" transform="matrix(&st16;  393.88  585.62 )">12</text><text style="&st18;" transform="matrix(&st16;  405.46  585.62 )">D</text><text style="&st18;" transform="matrix(&st16;  363.06  585.62 )">3</text><text style="&st18;" transform="matrix(&st16;  371.61  585.62 )">A</text><text style="&st18;" transform="matrix(&st16;  431.05  585.62 )">7</text><text style="&st18;" transform="matrix(&st16;  439.45  585.62 )">D</text><text style="&st18;" transform="matrix(&st16;  456.55  585.62 )">8</text><text style="&st18;" transform="matrix(&st16;  464.95  585.62 )">D</text><text style="&st18;" transform="matrix(&st16;  367.61  595.82 )">+B2</text><text style="&st18;" transform="matrix(&st16;  482.04  110.27 )">7</text><text style="&st18;" transform="matrix(&st16;  490.59  110.27 )">A</text><text style="&st18;" transform="matrix(&st16;  482.82  585.62 )">1</text><text style="&st18;" transform="matrix(&st16;  490.45  585.62 )">D</text><text style="&st18;" transform="matrix(&st16;  313.27  595.82 )">GND2</text><text style="&st18;" transform="matrix(&st16;  400.66  595.82 )">ACC</text><text style="&st18;" transform="matrix(&st16;  340.74  595.82 )">GND</text><text style="&st18;" transform="matrix(&st16;  460.96  595.82 )">TX+</text><text style="&st18;" transform="matrix(&st16;  435.46  595.82 )">TX-</text><text style="&st18;" transform="matrix(&st17;  463.73  539.67 )">R</text><text style="&st18;" transform="matrix(&st16;  96.32  448.52 )">20</text><text style="&st18;" transform="matrix(&st17;  259.76  134.49 )">GR</text><text style="&st18;" transform="matrix(&st16;  201.63  100.07 )">B</text><text style="&st18;" transform="matrix(&st16;  230.26  100.07 )">GND</text><text style="&st18;" transform="matrix(&st16;  256.18  100.07 )">ACC</text><text style="&st18;" transform="matrix(&st16;  483.1  100.07 )">MUTE</text><text style="&st18;" transform="matrix(&st16;  458.63  100.07 )">ATX+</text><text style="&st18;" transform="matrix(&st16;  433.13  100.07 )">ATX-</text><text ewd:textID="23" style="&st18;" transform="matrix(&st16;  269.43  66.08 )">Radio Receiver Assembly</text><text style="&st18;" transform="matrix(&st16;  269.43  58.97 )">F1(A),F19(B),F54(C),F55(D)</text><text ewd:textID="36" style="&st18;" transform="matrix(&st16;  337.42  636.9 )">Stereo Component Amplifier Assembly</text><text style="&st18;" transform="matrix(&st16;  337.42  629.79 )">F2(A),F3(F),F18(D),F52(G)</text><text style="&st18;" transform="matrix(&st17;  259.76  646.88 )">W-B</text><text style="&st18;" transform="matrix(&st17;  285.26  646.88 )">W-B</text><text style="&st18;" transform="matrix(&st17;  489.22  131.59 )">B</text><text style="&st18;" transform="matrix(&st17;  489.22  539.53 )">B</text><text style="&st18;" transform="matrix(&st16;  325.89  110.27 )">13</text><text style="&st18;" transform="matrix(&st17;  336.25  131.59 )">P</text><text ewd:textID="5" style="&st18;" transform="matrix(&st16;  284.24  134.35 )">Antenna</text><text style="&st18;" transform="matrix(&st16;  70.17  288.46 )">4</text><text style="&st18;" transform="matrix(&st16;  337.61  110.27 )">A</text><text style="&st18;" transform="matrix(&st16;  333.02  100.07 )">ANT</text><text style="&st18;" transform="matrix(&st17;  364.55  216.77 )">F5</text><text ewd:textID="4" style="&st18;" transform="matrix(&st17;  371.66  216.77 )">Amplifier Antenna <tspan dy="6" x="0">Assembly</tspan></text><text style="&st18;" transform="matrix(&st16;  384.6  110.27 )">20</text><text style="&st18;" transform="matrix(&st17;  395.74  131.24 )">L</text><text style="&st18;" transform="matrix(&st16;  397.1  110.27 )">B</text><text style="&st18;" transform="matrix(&st16;  390.74  100.07 )">ADIM</text><text style="&st18;" transform="matrix(&st16;  337.61  187.89 )">B</text><text style="&st18;" transform="matrix(&st16;  333.93  176.57 )">1</text><text style="&st18;" transform="matrix(&st16;  392.64  205.45 )">4</text><text style="&st18;" transform="matrix(&st16;  389.47  176.57 )">12</text><text style="&st18;" transform="matrix(&st16;  384.62  245.96 )">4</text><text ewd:textID="16" style="&st18;" transform="matrix(&st17;  431.15  335.75 )">Main Body ECU</text><text style="&st18;" transform="matrix(&st17;  395.74  275.72 )">L</text><text ewd:textID="15" style="&st18;" transform="matrix(&st17;  422.65  199.78 )">Junction <tspan dy="6" x="0">Connector</tspan></text><text style="&st18;" transform="matrix(&st17;  415.54  199.78 )">F22</text><text style="&st18;" transform="matrix(&st17;  395.74  224.73 )">L</text><text style="&st18;" transform="matrix(&st17;  424.04  335.75 )">E2(B)</text><text style="&st18;" transform="matrix(&st16;  385.38  296.67 )">16</text><text style="&st18;" transform="matrix(&st16;  397.1  296.67 )">B</text><text style="&st18;" transform="matrix(&st16;  389.83  306.87 )">ACAN</text><text ewd:textID="15" style="&st18;" transform="matrix(&st17;  185.82  182.78 )">Junction <tspan dy="6" x="0">Connector</tspan></text><text style="&st18;" transform="matrix(&st17;  178.72  182.78 )">F20</text><text style="&st18;" transform="matrix(&st17;  370.24  564.67 )">L</text><text style="&st18;" transform="matrix(&st17;  21.8  326.71 )">L</text><text style="&st18;" transform="matrix(&st16;  42.8  56.17 )">30A <tspan dy="6" x="0">AMP1</tspan></text></svg>