﻿<?xml version="1.0" encoding="utf-8"?>
<!DOCTYPE svg PUBLIC "-//W3C//DTD SVG 1.0//EN" "http://www.w3.org/TR/2001/REC-SVG-20010904/DTD/svg10.dtd"[
	<!ENTITY ns_flows "http://ns.adobe.com/Flows/1.0/">
	<!ENTITY ns_svg "http://www.w3.org/2000/svg">
	<!ENTITY ns_xlink "http://www.w3.org/1999/xlink">
	<!ENTITY st0 "font-size:7px;font-family:'MS-PGothic';adobe-font-script:japanese;">
	<!ENTITY st1 "font-size:6px;font-family:'ArialMT';">
	<!-- White fill  -->
	<!ENTITY st2 "fill:#FFFFFF;stroke:#000000; stroke-width:1.41;stroke-linecap:round;stroke-linejoin:round;">
	<!-- Yellow fill  -->
	<!ENTITY st3 "fill:#FFFFCC;stroke:#FFFFCC; stroke-width:0.1;stroke-linecap:round;stroke-linejoin:round;">
	<!-- Gray fill  -->
	<!ENTITY st4 "fill:#CCCCCC;stroke:#CCCCCC; stroke-width:0.1;stroke-linecap:round;stroke-linejoin:round;">
	<!-- Light-blue fill -->
	<!ENTITY st5 "fill:#CCECF4;stroke:#000000; stroke-width:1.133;stroke-linecap:round;stroke-linejoin:round;">
	<!ENTITY st6 "fill:none;stroke-linecap:butt; stroke-linejoin:round;">
	<!ENTITY st7 "fill:none;stroke:#000000;stroke-linecap:round;stroke-linejoin:round;">
	<!ENTITY st8 "enable-background:new    ;">
	<!-- Black fill -->
	<!ENTITY st9 "fill:#000000;stroke:#000000; stroke-linecap:round;stroke-linejoin:round;">
	<!-- SRS note   -->
	<!ENTITY st10 "font-size:9px;font-family:'ArialMT';">
	<!ENTITY st11 "font-size:9px;font-family:'Svg Symbol';">
	<!ENTITY st12 "font-size:6px;font-family:'Svg Symbol';">
	<!ENTITY st13 "fill:none;stroke:#ff0000;stroke-linecap:round;stroke-linejoin:round;">
	<!-- Yellow fill  -->
	<!ENTITY st14 "fill:#FFFF00;stroke:#FFFF00; stroke-width:0.1;stroke-linecap:round;stroke-linejoin:round;">
	<!ENTITY st15 "font-size:6px;font-family:'MS-PGothic';adobe-font-script:japanese;">
	<!ENTITY st16 "1.00 0.00 0.00 1.00">
	<!ENTITY st17 "0.00 -1.00 1.00 0.00">
	<!ENTITY st18 "font-size:6px;font-family:'Arial';">
	<!ENTITY st19 "font-size:9px;font-family:'Arial';">
	<!ENTITY st20 "font-size:6px;font-family:'MS-PGothic','MS PGothic';adobe-font-script:japanese;">
	<!ENTITY st21 "font-size:7px;font-family:'MS-PGothic','MS PGothic';adobe-font-script:japanese;">
	<!ATTLIST svg
		xmlns:ewd CDATA #FIXED "http://shcl.co.jp/ewd"
		xmlns:a CDATA #FIXED "http://ns.adobe.com/AdobeSVGViewerExtensions/3.0/"
		ewd:ver CDATA #IMPLIED
	>
	<!ATTLIST a
		ewd:lineID CDATA #IMPLIED
		ewd:groupID CDATA #IMPLIED
		ewd:figtype CDATA #IMPLIED
		ewd:code CDATA #IMPLIED
		ewd:figID CDATA #IMPLIED
		ewd:pinNo CDATA #IMPLIED
		ewd:comment CDATA #IMPLIED >
	<!ATTLIST g
		ewd:lineID CDATA #IMPLIED
		ewd:groupID CDATA #IMPLIED
		ewd:figtype CDATA #IMPLIED
		ewd:code CDATA #IMPLIED
		ewd:figID CDATA #IMPLIED
		ewd:pinNo CDATA #IMPLIED
		ewd:comment CDATA #IMPLIED >
	<!ATTLIST text
		ewd:textID CDATA #IMPLIED >
	<!ATTLIST title
		ewd:textID CDATA #IMPLIED >
]>
<!-- Generator: Shintec Hozumi YS   -->
<svg onload="call_execInitLoadProc_svg('system')" style="overflow:visible;  enable-background:new 0 0 2057.181 710.000" viewBox="0 0 2057.181 710.000" height="710.000" width="2057.181" xml:space="preserve" ewd:ver="L2.1.2.8" xmlns="&ns_svg;" xmlns:a="http://ns.adobe.com/AdobeSVGViewerExtensions/3.0/" xmlns:ewd="http://shcl.co.jp/ewd" xmlns:xlink="&ns_xlink;">
<path d=" M 1946.17,   69.77  L 1946.17,   95.27 " style="stroke-width: 0.85 ;&st7; " /><path d=" M 1948.30,   95.27  L 1944.05,   95.27 " style="stroke-width: 1.42 ;&st7; " /><path d=" M 1948.30,  103.77  L 1944.05,  103.77 " style="stroke-width: 1.42 ;&st7; " /><path d=" M 1937.68,  137.76  L 1946.17,  137.76 " style="stroke-width: 1.42 ;&st7; " /><path d=" M 1937.68,  197.25  L 1946.17,  197.25 " style="stroke-width: 1.42 ;&st7; " /><path d=" M 1597.73,  180.26  L 1589.23,  180.26 " style="stroke-width: 1.42 ;&st7; " /><path d=" M 1538.24,  180.26  L 1529.74,  180.26 " style="stroke-width: 1.42 ;&st7; " /><path d=" M 1631.73,  180.26  L 1623.23,  180.26 " style="stroke-width: 1.42 ;&st7; " /><path d=" M 1674.22,  180.26  L 1665.72,  180.26 " style="stroke-width: 1.42 ;&st7; " /><path d=" M 1708.21,  180.26  L 1699.72,  180.26 " style="stroke-width: 1.42 ;&st7; " /><path d=" M 1950.42,  191.59  L 1946.17,  195.84  L 1941.92,  191.59 " style="stroke-width: 1.42 ;&st7; " /><path d=" M 1941.92,  188.19  L 1946.17,  192.44  L 1950.42,  188.19 " style="stroke-width: 1.42 ;&st7; " /><path d=" M 1950.42,  132.10  L 1946.17,  136.35  L 1941.92,  132.10 " style="stroke-width: 1.42 ;&st7; " /><path d=" M 1941.92,  128.70  L 1946.17,  132.95  L 1950.42,  128.70 " style="stroke-width: 1.42 ;&st7; " /><path d=" M 1818.70,  197.25  L 1818.70,  256.74  L 1750.71,  256.74  L 1750.71,  214.25 " style="stroke-width: 0.85 ;&st7; " /><path d=" M 1801.70,  171.76  L 1818.70,  197.25  L 1835.69,  171.76  L 1801.70,  171.76 " style="stroke-width: 1.42 ;&st7; " /><path d=" M 1818.70,  171.76  L 1818.70,  197.25 " style="stroke-width: 1.42 ;&st7; " /><path d=" M 1733.71,  180.26  L 1733.71,  214.25  L 1767.70,  214.25  L 1767.70,  180.26  L 1733.71,  180.26 " style="stroke-width: 1.42 ;&st7; " /><path d=" M 1933.43,   35.78  L 1933.43,   78.27  L 1958.92,   78.27  L 1958.92,   35.78  L 1933.43,   35.78 " style="stroke-width: 1.42 ;&st7; " /><path d=" M 1946.17,   90.37  L 1943.34,   87.54  L 1943.34,   91.79  L 1946.17,   94.62  L 1949.01,   91.79  L 1949.01,   87.54  L 1946.17,   90.37 " style="stroke-width: 0.28 ;&st9;" /><path d=" M 1593.48,  185.92  L 1589.23,  181.67  L 1584.98,  185.92 " style="stroke-width: 1.42 ;&st7; " /><path d=" M 1593.48,  189.32  L 1589.23,  185.07  L 1584.98,  189.32 " style="stroke-width: 1.42 ;&st7; " /><path d=" M 1533.99,  189.32  L 1529.74,  185.07  L 1525.49,  189.32 " style="stroke-width: 1.42 ;&st7; " /><path d=" M 1533.99,  185.92  L 1529.74,  181.67  L 1525.49,  185.92 " style="stroke-width: 1.42 ;&st7; " /><path d=" M 1627.48,  185.92  L 1623.23,  181.67  L 1618.98,  185.92 " style="stroke-width: 1.42 ;&st7; " /><path d=" M 1627.48,  189.32  L 1623.23,  185.07  L 1618.98,  189.32 " style="stroke-width: 1.42 ;&st7; " /><path d=" M 1669.97,  185.92  L 1665.72,  181.67  L 1661.47,  185.92 " style="stroke-width: 1.42 ;&st7; " /><path d=" M 1669.97,  189.32  L 1665.72,  185.07  L 1661.47,  189.32 " style="stroke-width: 1.42 ;&st7; " /><path d=" M 1703.96,  185.92  L 1699.72,  181.67  L 1695.47,  185.92 " style="stroke-width: 1.42 ;&st7; " /><path d=" M 1703.96,  189.32  L 1699.72,  185.07  L 1695.47,  189.32 " style="stroke-width: 1.42 ;&st7; " /><path d=" M 1946.17,   47.11  C 1943.44    48.72  1942.52    52.25  1944.14    54.99 " style="stroke-width: 1.42 ;&st7; " /><path d=" M 1944.14,   54.99  C 1944.66    55.87  1945.29    56.51  1946.17    57.03 " style="stroke-width: 1.42 ;&st7; " /><path d=" M 1946.17,   66.94  C 1948.91    65.33  1949.82    61.80  1948.21    59.06 " style="stroke-width: 1.42 ;&st7; " /><path d=" M 1948.21,   59.06  C 1947.69    58.18  1947.06    57.55  1946.17    57.03 " style="stroke-width: 1.42 ;&st7; " /><path d=" M 1947.59,   45.69  C 1947.59    44.91  1946.96    44.28  1946.17    44.28 " style="stroke-width: 0.85 ;&st7; " /><path d=" M 1946.17,   44.28  C 1945.39    44.28  1944.76    44.91  1944.76    45.69 " style="stroke-width: 0.85 ;&st7; " /><path d=" M 1944.76,   45.69  C 1944.76    46.48  1945.39    47.11  1946.17    47.11 " style="stroke-width: 0.85 ;&st7; " /><path d=" M 1946.17,   47.11  C 1946.96    47.11  1947.59    46.48  1947.59    45.69 " style="stroke-width: 0.85 ;&st7; " /><path d=" M 1947.59,   68.36  C 1947.59    67.57  1946.96    66.94  1946.17    66.94 " style="stroke-width: 0.85 ;&st7; " /><path d=" M 1946.17,   66.94  C 1945.39    66.94  1944.76    67.57  1944.76    68.36 " style="stroke-width: 0.85 ;&st7; " /><path d=" M 1944.76,   68.36  C 1944.76    69.14  1945.39    69.77  1946.17    69.77 " style="stroke-width: 0.85 ;&st7; " /><path d=" M 1946.17,   69.77  C 1946.96    69.77  1947.59    69.14  1947.59    68.36 " style="stroke-width: 0.85 ;&st7; " /><path d=" M 1944.05,   95.27  C 1941.70    95.27  1939.80    97.17  1939.80    99.52 " style="stroke-width: 1.42 ;&st7; " /><path d=" M 1939.80,   99.52  C 1939.80   101.87  1941.70   103.77  1944.05   103.77 " style="stroke-width: 1.42 ;&st7; " /><path d=" M 1948.30,  103.77  C 1950.65   103.77  1952.55   101.87  1952.55    99.52 " style="stroke-width: 1.42 ;&st7; " /><path d=" M 1952.55,   99.52  C 1952.55    97.17  1950.65    95.27  1948.30    95.27 " style="stroke-width: 1.42 ;&st7; " /><path d=" M 1899.72,   99.80  C 1899.72    97.30  1897.69    95.27  1895.18    95.27 " style="stroke-width: 1.42 ;&st7; " /><path d=" M 1895.18,   95.27  C 1892.68    95.27  1890.65    97.30  1890.65    99.80 " style="stroke-width: 1.42 ;&st7; " /><path d=" M 1890.65,   99.80  C 1890.65   102.31  1892.68   104.33  1895.18   104.33 " style="stroke-width: 1.42 ;&st7; " /><path d=" M 1895.18,  104.33  C 1897.69   104.33  1899.72   102.31  1899.72    99.80 " style="stroke-width: 1.42 ;&st7; " /><path d=" M 1857.22,   99.80  C 1857.22    97.30  1855.19    95.27  1852.69    95.27 " style="stroke-width: 1.42 ;&st7; " /><path d=" M 1852.69,   95.27  C 1850.19    95.27  1848.16    97.30  1848.16    99.80 " style="stroke-width: 1.42 ;&st7; " /><path d=" M 1848.16,   99.80  C 1848.16   102.31  1850.19   104.33  1852.69   104.33 " style="stroke-width: 1.42 ;&st7; " /><path d=" M 1852.69,  104.33  C 1855.19   104.33  1857.22   102.31  1857.22    99.80 " style="stroke-width: 1.42 ;&st7; " /><path d=" M 1755.24,   99.80  C 1755.24    97.30  1753.21    95.27  1750.71    95.27 " style="stroke-width: 1.42 ;&st7; " /><path d=" M 1750.71,   95.27  C 1748.20    95.27  1746.17    97.30  1746.17    99.80 " style="stroke-width: 1.42 ;&st7; " /><path d=" M 1746.17,   99.80  C 1746.17   102.31  1748.20   104.33  1750.71   104.33 " style="stroke-width: 1.42 ;&st7; " /><path d=" M 1750.71,  104.33  C 1753.21   104.33  1755.24   102.31  1755.24    99.80 " style="stroke-width: 1.42 ;&st7; " /><path d=" M 1593.77,   99.80  C 1593.77    97.30  1591.74    95.27  1589.23    95.27 " style="stroke-width: 1.42 ;&st7; " /><path d=" M 1589.23,   95.27  C 1586.73    95.27  1584.70    97.30  1584.70    99.80 " style="stroke-width: 1.42 ;&st7; " /><path d=" M 1584.70,   99.80  C 1584.70   102.31  1586.73   104.33  1589.23   104.33 " style="stroke-width: 1.42 ;&st7; " /><path d=" M 1589.23,  104.33  C 1591.74   104.33  1593.77   102.31  1593.77    99.80 " style="stroke-width: 1.42 ;&st7; " /><path d=" M 1593.77,  269.21  C 1593.77   266.70  1591.74   264.67  1589.23   264.67 " style="stroke-width: 1.42 ;&st7; " /><path d=" M 1589.23,  264.67  C 1586.73   264.67  1584.70   266.70  1584.70   269.21 " style="stroke-width: 1.42 ;&st7; " /><path d=" M 1584.70,  269.21  C 1584.70   271.71  1586.73   273.74  1589.23   273.74 " style="stroke-width: 1.42 ;&st7; " /><path d=" M 1589.23,  273.74  C 1591.74   273.74  1593.77   271.71  1593.77   269.21 " style="stroke-width: 1.42 ;&st7; " /><path d=" M 1534.28,  269.21  C 1534.28   266.70  1532.25   264.67  1529.74   264.67 " style="stroke-width: 1.42 ;&st7; " /><path d=" M 1529.74,  264.67  C 1527.24   264.67  1525.21   266.70  1525.21   269.21 " style="stroke-width: 1.42 ;&st7; " /><path d=" M 1525.21,  269.21  C 1525.21   271.71  1527.24   273.74  1529.74   273.74 " style="stroke-width: 1.42 ;&st7; " /><path d=" M 1529.74,  273.74  C 1532.25   273.74  1534.28   271.71  1534.28   269.21 " style="stroke-width: 1.42 ;&st7; " /><path d=" M 1500.28,  269.21  C 1500.28   266.70  1498.25   264.67  1495.75   264.67 " style="stroke-width: 1.42 ;&st7; " /><path d=" M 1534.28,   99.80  C 1534.28    97.30  1532.25    95.27  1529.74    95.27 " style="stroke-width: 1.42 ;&st7; " /><path d=" M 1529.74,   95.27  C 1527.24    95.27  1525.21    97.30  1525.21    99.80 " style="stroke-width: 1.42 ;&st7; " /><path d=" M 1525.21,   99.80  C 1525.21   102.31  1527.24   104.33  1529.74   104.33 " style="stroke-width: 1.42 ;&st7; " /><path d=" M 1529.74,  104.33  C 1532.25   104.33  1534.28   102.31  1534.28    99.80 " style="stroke-width: 1.42 ;&st7; " /><path d=" M 1500.28,   99.80  C 1500.28    97.30  1498.25    95.27  1495.75    95.27 " style="stroke-width: 1.42 ;&st7; " /><path d=" M 1627.76,   99.80  C 1627.76    97.30  1625.73    95.27  1623.23    95.27 " style="stroke-width: 1.42 ;&st7; " /><path d=" M 1623.23,   95.27  C 1620.73    95.27  1618.70    97.30  1618.70    99.80 " style="stroke-width: 1.42 ;&st7; " /><path d=" M 1618.70,   99.80  C 1618.70   102.31  1620.73   104.33  1623.23   104.33 " style="stroke-width: 1.42 ;&st7; " /><path d=" M 1623.23,  104.33  C 1625.73   104.33  1627.76   102.31  1627.76    99.80 " style="stroke-width: 1.42 ;&st7; " /><path d=" M 1627.76,  269.21  C 1627.76   266.70  1625.73   264.67  1623.23   264.67 " style="stroke-width: 1.42 ;&st7; " /><path d=" M 1623.23,  264.67  C 1620.73   264.67  1618.70   266.70  1618.70   269.21 " style="stroke-width: 1.42 ;&st7; " /><path d=" M 1618.70,  269.21  C 1618.70   271.71  1620.73   273.74  1623.23   273.74 " style="stroke-width: 1.42 ;&st7; " /><path d=" M 1623.23,  273.74  C 1625.73   273.74  1627.76   271.71  1627.76   269.21 " style="stroke-width: 1.42 ;&st7; " /><path d=" M 1670.25,   99.80  C 1670.25    97.30  1668.22    95.27  1665.72    95.27 " style="stroke-width: 1.42 ;&st7; " /><path d=" M 1665.72,   95.27  C 1663.22    95.27  1661.19    97.30  1661.19    99.80 " style="stroke-width: 1.42 ;&st7; " /><path d=" M 1661.19,   99.80  C 1661.19   102.31  1663.22   104.33  1665.72   104.33 " style="stroke-width: 1.42 ;&st7; " /><path d=" M 1665.72,  104.33  C 1668.22   104.33  1670.25   102.31  1670.25    99.80 " style="stroke-width: 1.42 ;&st7; " /><path d=" M 1670.25,  269.21  C 1670.25   266.70  1668.22   264.67  1665.72   264.67 " style="stroke-width: 1.42 ;&st7; " /><path d=" M 1665.72,  264.67  C 1663.22   264.67  1661.19   266.70  1661.19   269.21 " style="stroke-width: 1.42 ;&st7; " /><path d=" M 1661.19,  269.21  C 1661.19   271.71  1663.22   273.74  1665.72   273.74 " style="stroke-width: 1.42 ;&st7; " /><path d=" M 1665.72,  273.74  C 1668.22   273.74  1670.25   271.71  1670.25   269.21 " style="stroke-width: 1.42 ;&st7; " /><path d=" M 1704.25,   99.80  C 1704.25    97.30  1702.22    95.27  1699.72    95.27 " style="stroke-width: 1.42 ;&st7; " /><path d=" M 1699.72,   95.27  C 1697.21    95.27  1695.18    97.30  1695.18    99.80 " style="stroke-width: 1.42 ;&st7; " /><path d=" M 1695.18,   99.80  C 1695.18   102.31  1697.21   104.33  1699.72   104.33 " style="stroke-width: 1.42 ;&st7; " /><path d=" M 1699.72,  104.33  C 1702.22   104.33  1704.25   102.31  1704.25    99.80 " style="stroke-width: 1.42 ;&st7; " /><path d=" M 1704.25,  269.21  C 1704.25   266.70  1702.22   264.67  1699.72   264.67 " style="stroke-width: 1.42 ;&st7; " /><path d=" M 1699.72,  264.67  C 1697.21   264.67  1695.18   266.70  1695.18   269.21 " style="stroke-width: 1.42 ;&st7; " /><path d=" M 1695.18,  269.21  C 1695.18   271.71  1697.21   273.74  1699.72   273.74 " style="stroke-width: 1.42 ;&st7; " /><path d=" M 1699.72,  273.74  C 1702.22   273.74  1704.25   271.71  1704.25   269.21 " style="stroke-width: 1.42 ;&st7; " /><text style="&st18;" transform="matrix(&st17;  1942.48  233.22 )">L</text><text style="&st18;" transform="matrix(&st17;  1849.0  134.49 )">GR</text><text style="&st18;" transform="matrix(&st16;  1963.48  50.52 )">30A <tspan dy="6" x="0">AMP (*5) </tspan><tspan dy="6" x="0">30A </tspan><tspan dy="6" x="0">AMP1 (*6)</tspan></text><text style="&st18;" transform="matrix(&st16;  1944.59  101.49 )">1</text><text style="&st18;" transform="matrix(&st16;  1937.06  32.08 )">(BAT)</text><text style="&st18;" transform="matrix(&st17;  1942.48  122.84 )">L-B</text><text style="&st18;" transform="matrix(&st17;  1942.48  169.48 )">L</text><text style="&st18;" transform="matrix(&st17;  1891.49  131.24 )">L</text><text ewd:textID="11" style="&st18;" transform="matrix(&st16;  1805.49  168.34 )">Antenna</text><text style="&st18;" transform="matrix(&st17;  1775.32  216.77 )">F5</text><text ewd:textID="10" style="&st18;" transform="matrix(&st17;  1782.42  216.77 )">Amplifier Antenna Assembly</text><text style="&st18;" transform="matrix(&st16;  1927.4  143.98 )">30</text><text style="&st18;" transform="matrix(&st16;  1931.36  203.47 )">8</text><text style="&st18;" transform="matrix(&st16;  1939.39  86.47 )">2</text><text style="&st18;" transform="matrix(&st16;  1884.31  101.77 )">4</text><text style="&st18;" transform="matrix(&st16;  1892.85  101.77 )">A</text><text style="&st18;" transform="matrix(&st16;  1841.81  101.77 )">3</text><text style="&st18;" transform="matrix(&st16;  1850.36  101.77 )">A</text><text style="&st18;" transform="matrix(&st16;  1892.85  91.57 )">B</text><text style="&st18;" transform="matrix(&st16;  1845.41  91.57 )">ACC</text><text style="&st18;" transform="matrix(&st16;  1739.83  101.77 )">8</text><text style="&st18;" transform="matrix(&st16;  1748.38  101.77 )">A</text><text style="&st18;" transform="matrix(&st16;  1748.38  187.89 )">B</text><text style="&st18;" transform="matrix(&st16;  1744.7  176.57 )">1</text><text style="&st18;" transform="matrix(&st17;  1747.01  131.59 )">P</text><text style="&st18;" transform="matrix(&st16;  1743.78  91.57 )">ANT</text><text style="&st18;" transform="matrix(&st16;  1586.76  101.77 )">D</text><text style="&st18;" transform="matrix(&st16;  1578.36  101.77 )">6</text><text style="&st18;" transform="matrix(&st16;  1578.36  271.18 )">6</text><text style="&st18;" transform="matrix(&st16;  1586.9  271.18 )">A</text><text style="&st18;" transform="matrix(&st17;  1585.54  140.09 )">P</text><text style="&st18;" transform="matrix(&st16;  1570.46  177.98 )">20</text><text style="&st18;" transform="matrix(&st17;  1585.54  233.58 )">P</text><text style="&st18;" transform="matrix(&st17;  1526.05  233.72 )">R</text><text style="&st18;" transform="matrix(&st16;  1514.93  177.98 )">6</text><text style="&st18;" transform="matrix(&st17;  1526.05  140.23 )">R</text><text style="&st18;" transform="matrix(&st16;  1527.41  271.18 )">A</text><text style="&st18;" transform="matrix(&st16;  1515.69  271.18 )">12</text><text style="&st18;" transform="matrix(&st16;  1525.4  91.57 )">+B</text><text style="&st18;" transform="matrix(&st16;  1656.36  91.57 )">TXM+</text><text style="&st18;" transform="matrix(&st16;  1690.36  91.57 )">TXM-</text><text style="&st18;" transform="matrix(&st16;  1515.69  101.77 )">12</text><text style="&st18;" transform="matrix(&st16;  1527.27  101.77 )">D</text><text style="&st18;" transform="matrix(&st16;  1579.41  91.57 )">MUTE</text><text style="&st18;" transform="matrix(&st16;  1615.53  91.57 )">GND</text><text style="&st18;" transform="matrix(&st16;  1603.71  332.34 )">L40(A),L55(D)</text><text ewd:textID="18" style="&st18;" transform="matrix(&st16;  1603.71  339.45 )">Multi-Media <tspan dy="6" x="0">Interface ECU Assembly</tspan></text><text style="&st18;" transform="matrix(&st16;  1620.76  101.77 )">D</text><text style="&st18;" transform="matrix(&st16;  1612.35  101.77 )">7</text><text style="&st18;" transform="matrix(&st16;  1612.35  271.18 )">7</text><text style="&st18;" transform="matrix(&st16;  1620.9  271.18 )">A</text><text style="&st18;" transform="matrix(&st17;  1619.53  140.09 )">B</text><text style="&st18;" transform="matrix(&st16;  1605.24  177.98 )">10</text><text style="&st18;" transform="matrix(&st17;  1619.53  233.58 )">B</text><text style="&st18;" transform="matrix(&st16;  1663.25  101.77 )">D</text><text style="&st18;" transform="matrix(&st16;  1654.85  101.77 )">9</text><text style="&st18;" transform="matrix(&st16;  1654.85  271.18 )">9</text><text style="&st18;" transform="matrix(&st16;  1663.39  271.18 )">A</text><text style="&st18;" transform="matrix(&st17;  1662.03  141.12 )">W</text><text style="&st18;" transform="matrix(&st16;  1650.91  177.98 )">8</text><text style="&st18;" transform="matrix(&st17;  1662.03  234.6 )">W</text><text style="&st18;" transform="matrix(&st16;  1697.24  101.77 )">D</text><text style="&st18;" transform="matrix(&st16;  1685.66  101.77 )">10</text><text style="&st18;" transform="matrix(&st16;  1685.66  271.18 )">10</text><text style="&st18;" transform="matrix(&st16;  1697.38  271.18 )">A</text><text style="&st18;" transform="matrix(&st17;  1696.02  139.74 )">L</text><text style="&st18;" transform="matrix(&st16;  1684.9  177.98 )">9</text><text style="&st18;" transform="matrix(&st17;  1696.02  233.22 )">L</text><text style="&st18;" transform="matrix(&st16;  1525.4  281.37 )">+B</text><text style="&st18;" transform="matrix(&st16;  1580.16  281.37 )">MUT1</text><text style="&st18;" transform="matrix(&st16;  1615.53  281.37 )">GND</text><text style="&st18;" transform="matrix(&st16;  1657.67  281.37 )">TX1+</text><text style="&st18;" transform="matrix(&st16;  1691.66  281.37 )">TX1-</text><text style="&st18;" transform="matrix(&st17;  1503.39  143.94 )">(*7)</text><text style="&st18;" transform="matrix(&st17;  1537.38  143.94 )">(*7)</text><text style="&st18;" transform="matrix(&st17;  1596.87  143.94 )">(*7)</text><text style="&st18;" transform="matrix(&st17;  1630.86  143.94 )">(*7)</text><text style="&st18;" transform="matrix(&st17;  1673.36  143.94 )">(*7)</text><text style="&st18;" transform="matrix(&st17;  1707.35  143.94 )">(*7)</text><text style="&st18;" transform="matrix(&st17;  1707.35  237.43 )">(*7)</text><text style="&st18;" transform="matrix(&st17;  1673.36  237.43 )">(*7)</text><text style="&st18;" transform="matrix(&st17;  1630.86  237.43 )">(*7)</text><text style="&st18;" transform="matrix(&st17;  1596.87  237.43 )">(*7)</text><text style="&st18;" transform="matrix(&st17;  1537.38  237.43 )">(*7)</text><text style="&st18;" transform="matrix(&st17;  1503.39  237.43 )">(*7)</text><text style="&st18;" transform="matrix(&st16;  1629.2  41.97 )">F19(C),F35(A),F36(B),F55(D)</text><text ewd:textID="22" style="&st18;" transform="matrix(&st16;  1629.2  49.08 )">Radio Receiver Assembly</text></svg>