﻿<?xml version="1.0" encoding="utf-8"?>
<!DOCTYPE svg PUBLIC "-//W3C//DTD SVG 1.0//EN" "http://www.w3.org/TR/2001/REC-SVG-20010904/DTD/svg10.dtd"[
	<!ENTITY ns_flows "http://ns.adobe.com/Flows/1.0/">
	<!ENTITY ns_svg "http://www.w3.org/2000/svg">
	<!ENTITY ns_xlink "http://www.w3.org/1999/xlink">
	<!ENTITY st0 "font-size:7px;font-family:'MS-PGothic';adobe-font-script:japanese;">
	<!ENTITY st1 "font-size:6px;font-family:'ArialMT';">
	<!-- White fill  -->
	<!ENTITY st2 "fill:#FFFFFF;stroke:#000000; stroke-width:1.41;stroke-linecap:round;stroke-linejoin:round;">
	<!-- Yellow fill  -->
	<!ENTITY st3 "fill:#FFFFCC;stroke:#FFFFCC; stroke-width:0.1;stroke-linecap:round;stroke-linejoin:round;">
	<!-- Gray fill  -->
	<!ENTITY st4 "fill:#CCCCCC;stroke:#CCCCCC; stroke-width:0.1;stroke-linecap:round;stroke-linejoin:round;">
	<!-- Light-blue fill -->
	<!ENTITY st5 "fill:#CCECF4;stroke:#000000; stroke-width:1.133;stroke-linecap:round;stroke-linejoin:round;">
	<!ENTITY st6 "fill:none;stroke-linecap:butt; stroke-linejoin:round;">
	<!ENTITY st7 "fill:none;stroke:#000000;stroke-linecap:round;stroke-linejoin:round;">
	<!ENTITY st8 "enable-background:new    ;">
	<!-- Black fill -->
	<!ENTITY st9 "fill:#000000;stroke:#000000; stroke-linecap:round;stroke-linejoin:round;">
	<!-- SRS note   -->
	<!ENTITY st10 "font-size:9px;font-family:'ArialMT';">
	<!ENTITY st11 "font-size:9px;font-family:'Svg Symbol';">
	<!ENTITY st12 "font-size:6px;font-family:'Svg Symbol';">
	<!ENTITY st13 "fill:none;stroke:#ff0000;stroke-linecap:round;stroke-linejoin:round;">
	<!-- Yellow fill  -->
	<!ENTITY st14 "fill:#FFFF00;stroke:#FFFF00; stroke-width:0.1;stroke-linecap:round;stroke-linejoin:round;">
	<!ENTITY st15 "font-size:6px;font-family:'MS-PGothic';adobe-font-script:japanese;">
	<!ENTITY st16 "1.00 0.00 0.00 1.00">
	<!ENTITY st17 "0.00 -1.00 1.00 0.00">
	<!ENTITY st18 "font-size:6px;font-family:'Arial';">
	<!ENTITY st19 "font-size:9px;font-family:'Arial';">
	<!ENTITY st20 "font-size:6px;font-family:'MS-PGothic','MS PGothic';adobe-font-script:japanese;">
	<!ENTITY st21 "font-size:7px;font-family:'MS-PGothic','MS PGothic';adobe-font-script:japanese;">
	<!ATTLIST svg
		xmlns:ewd CDATA #FIXED "http://shcl.co.jp/ewd"
		xmlns:a CDATA #FIXED "http://ns.adobe.com/AdobeSVGViewerExtensions/3.0/"
		ewd:ver CDATA #IMPLIED
	>
	<!ATTLIST a
		ewd:lineID CDATA #IMPLIED
		ewd:groupID CDATA #IMPLIED
		ewd:figtype CDATA #IMPLIED
		ewd:code CDATA #IMPLIED
		ewd:figID CDATA #IMPLIED
		ewd:pinNo CDATA #IMPLIED
		ewd:comment CDATA #IMPLIED >
	<!ATTLIST g
		ewd:lineID CDATA #IMPLIED
		ewd:groupID CDATA #IMPLIED
		ewd:figtype CDATA #IMPLIED
		ewd:code CDATA #IMPLIED
		ewd:figID CDATA #IMPLIED
		ewd:pinNo CDATA #IMPLIED
		ewd:comment CDATA #IMPLIED >
	<!ATTLIST text
		ewd:textID CDATA #IMPLIED >
	<!ATTLIST title
		ewd:textID CDATA #IMPLIED >
]>
<!-- Generator: Shintec Hozumi YS   -->
<svg onload="call_execInitLoadProc_svg('system')" style="overflow:visible;  enable-background:new 0 0 985.835 710.000" viewBox="0 0 985.835 710.000" height="710.000" width="985.835" xml:space="preserve" ewd:ver="L2.1.2.8" xmlns="&ns_svg;" xmlns:a="http://ns.adobe.com/AdobeSVGViewerExtensions/3.0/" xmlns:ewd="http://shcl.co.jp/ewd" xmlns:xlink="&ns_xlink;">
<path d=" M  603.40,   69.77  L  603.40,   95.27 " style="stroke-width: 0.85 ;&st7; " /><path d=" M  605.52,   95.27  L  601.27,   95.27 " style="stroke-width: 1.42 ;&st7; " /><path d=" M  605.52,  103.77  L  601.27,  103.77 " style="stroke-width: 1.42 ;&st7; " /><path d=" M  939.09,  273.74  L  930.59,  273.74 " style="stroke-width: 0.85 ;&st7; " /><path d=" M  947.57,  264.08  L  940.21,  268.33 " style="stroke-width: 0.85 ;&st7; " /><path d=" M  942.22,  271.79  L  949.58,  267.54 " style="stroke-width: 0.85 ;&st7; " /><path d=" M  934.84,   69.77  L  934.84,   95.27 " style="stroke-width: 0.85 ;&st7; " /><path d=" M  943.34,  588.19  L  934.84,  588.19 " style="stroke-width: 1.42 ;&st7; " /><path d=" M  611.90,  341.73  L  603.40,  341.73 " style="stroke-width: 1.42 ;&st7; " /><path d=" M  705.38,  341.73  L  696.88,  341.73 " style="stroke-width: 1.42 ;&st7; " /><path d=" M  705.38,  299.24  L  696.88,  299.24 " style="stroke-width: 1.42 ;&st7; " /><path d=" M  943.34,  511.70  L  934.84,  511.70 " style="stroke-width: 1.42 ;&st7; " /><path d=" M  883.85,  579.69  L  892.35,  579.69 " style="stroke-width: 1.42 ;&st7; " /><path d=" M  628.89,  333.23  L  637.39,  333.23 " style="stroke-width: 1.42 ;&st7; " /><path d=" M  939.09,  248.24  L  930.59,  248.24 " style="stroke-width: 0.85 ;&st7; " /><path d=" M  936.97,   95.27  L  932.72,   95.27 " style="stroke-width: 1.42 ;&st7; " /><path d=" M  936.97,  103.77  L  932.72,  103.77 " style="stroke-width: 1.42 ;&st7; " /><path d=" M  824.36,  350.23  L  815.86,  350.23 " style="stroke-width: 1.42 ;&st7; " /><path d=" M  824.36,  299.24  L  815.86,  299.24 " style="stroke-width: 1.42 ;&st7; " /><path d=" M  739.38,  129.26  L  730.88,  129.26 " style="stroke-width: 1.42 ;&st7; " /><path d=" M  722.38,  163.26  L  730.88,  163.26 " style="stroke-width: 1.42 ;&st7; " /><path d=" M  820.11,  304.90  L  815.86,  300.65  L  811.61,  304.90 " style="stroke-width: 1.42 ;&st7; " /><path d=" M  820.11,  308.30  L  815.86,  304.05  L  811.61,  308.30 " style="stroke-width: 1.42 ;&st7; " /><path d=" M  815.86,  409.72  L  815.86,  477.71 " style="stroke-width: 0.85 ;&st7; " /><path d=" M  934.84,   90.37  L  932.01,   87.54  L  932.01,   91.79  L  934.84,   94.62  L  937.68,   91.79  L  937.68,   87.54  L  934.84,   90.37 " style="stroke-width: 0.28 ;&st9;" /><path d=" M  934.84,  248.24  L  929.18,  239.75  L  940.51,  239.75  L  934.84,  248.24 " style="stroke-width: 0.28 ;&st9;" /><path d=" M  705.38,  209.72  L  718.13,  209.72 " style="stroke-width: 0.85 ;&st7;stroke-dasharray:3, 1.5;" /><path d=" M  705.38,  200.65  L  718.13,  200.65 " style="stroke-width: 0.85 ;&st7;stroke-dasharray:3, 1.5;" /><path d=" M  611.90,  396.12  L  684.14,  396.12 " style="stroke-width: 0.85 ;&st7;stroke-dasharray:3, 1.5;" /><path d=" M  611.90,  405.18  L  684.14,  405.18 " style="stroke-width: 0.85 ;&st7;stroke-dasharray:3, 1.5;" /><path d=" M  641.64,  327.56  L  637.39,  331.81  L  633.14,  327.56 " style="stroke-width: 1.42 ;&st7; " /><path d=" M  633.14,  324.16  L  637.39,  328.41  L  641.64,  324.16 " style="stroke-width: 1.42 ;&st7; " /><path d=" M  896.60,  574.02  L  892.35,  578.27  L  888.10,  574.02 " style="stroke-width: 1.42 ;&st7; " /><path d=" M  888.10,  570.62  L  892.35,  574.87  L  896.60,  570.62 " style="stroke-width: 1.42 ;&st7; " /><path d=" M  695.69,  221.75  L  695.42,  222.22  L  695.33,  222.75  L  695.42,  223.28  L  695.69,  223.75  L  696.10,  224.10  L  696.61,  224.28  L  697.16,  224.28  L  697.66,  224.10  L  698.08,  223.75  L  698.35,  223.28  L  698.44,  222.75  L  698.35,  222.22  L  698.08,  221.75  L  697.66,  221.40  L  697.16,  221.21  L  696.61,  221.21  L  696.10,  221.40  L  695.69,  221.75  L  696.08,  222.46  L  696.08,  223.04  L  696.46,  223.48  L  697.03,  223.58  L  697.53,  223.30  L  697.73,  222.75  L  697.53,  222.20  L  697.03,  221.91  L  696.46,  222.01  L  696.88,  222.75 " style="stroke-width: 0.85 ;&st7; " /><path d=" M  688.38,  231.25  L  688.38,  214.25  L  739.38,  214.25  L  739.38,  231.25  L  688.38,  231.25 " style="stroke-width: 1.42 ;&st7; " /><path d=" M  696.88,  222.75  L  730.88,  222.75  L  730.88,  214.25 " style="stroke-width: 0.85 ;&st7; " /><path d=" M  696.88,  214.25  L  696.88,  231.25 " style="stroke-width: 0.85 ;&st7; " /><path d=" M  934.84,  350.23  L  934.84,  409.72 " style="stroke-width: 0.85 ;&st7; " /><path d=" M  934.84,  282.24  L  934.84,  222.75 " style="stroke-width: 0.85 ;&st7; " /><path d=" M  917.85,  316.23  L  951.84,  316.23  L  951.84,  350.23  L  917.85,  350.23  L  917.85,  316.23 " style="stroke-width: 1.42 ;&st7; " /><path d=" M  934.84,  316.23  L  934.84,  307.73  L  932.01,  306.32  L  937.68,  303.48  L  932.01,  300.65  L  937.68,  297.82  L  932.01,  294.99  L  937.68,  292.15  L  934.84,  290.74  L  934.84,  282.24 " style="stroke-width: 0.85 ;&st7; " /><path d=" M  939.09,  517.37  L  934.84,  513.12  L  930.59,  517.37 " style="stroke-width: 1.42 ;&st7; " /><path d=" M  939.09,  520.77  L  934.84,  516.52  L  930.59,  520.77 " style="stroke-width: 1.42 ;&st7; " /><path d=" M  701.13,  304.90  L  696.88,  300.65  L  692.63,  304.90 " style="stroke-width: 1.42 ;&st7; " /><path d=" M  701.13,  308.30  L  696.88,  304.05  L  692.63,  308.30 " style="stroke-width: 1.42 ;&st7; " /><path d=" M  701.13,  347.39  L  696.88,  343.14  L  692.63,  347.39 " style="stroke-width: 1.42 ;&st7; " /><path d=" M  701.13,  350.79  L  696.88,  346.54  L  692.63,  350.79 " style="stroke-width: 1.42 ;&st7; " /><path d=" M  607.65,  347.39  L  603.40,  343.14  L  599.15,  347.39 " style="stroke-width: 1.42 ;&st7; " /><path d=" M  607.65,  350.79  L  603.40,  346.54  L  599.15,  350.79 " style="stroke-width: 1.42 ;&st7; " /><path d=" M  939.09,  597.25  L  934.84,  593.00  L  930.59,  597.25 " style="stroke-width: 1.42 ;&st7; " /><path d=" M  939.09,  593.85  L  934.84,  589.60  L  930.59,  593.85 " style="stroke-width: 1.42 ;&st7; " /><path d=" M  922.10,   35.78  L  922.10,   78.27  L  947.59,   78.27  L  947.59,   35.78  L  922.10,   35.78 " style="stroke-width: 1.42 ;&st7; " /><path d=" M  949.58,  267.54  L  947.25,  270.59  L  945.78,  268.05  L  949.58,  267.54  L  948.30,  268.29  L  947.31,  269.57  L  946.69,  268.50  L  948.30,  268.29  L  947.66,  268.65  L  947.34,  269.06  L  947.15,  268.72  L  947.66,  268.65 " style="stroke-width: 0.85 ;&st7; " /><path d=" M  947.58,  264.08  L  945.24,  267.12  L  943.78,  264.58  L  947.58,  264.08  L  946.29,  264.82  L  945.31,  266.10  L  944.69,  265.03  L  946.29,  264.82  L  945.65,  265.19  L  945.34,  265.59  L  945.15,  265.25  L  945.65,  265.19 " style="stroke-width: 0.85 ;&st7; " /><path d=" M  934.84,  273.74  L  929.18,  265.24  L  940.51,  265.24  L  934.84,  273.74 " style="stroke-width: 0.28 ;&st9;" /><path d=" M  900.85,  222.75  L  900.85,  409.72  L  968.84,  409.72  L  968.84,  222.75  L  900.85,  222.75 " style="stroke-width: 1.42 ;&st7; " /><path d=" M  603.40,  409.72  L  603.40,  477.71 " style="stroke-width: 0.85 ;&st7; " /><path d=" M  603.40,   90.37  L  600.57,   87.54  L  600.57,   91.79  L  603.40,   94.62  L  606.23,   91.79  L  606.23,   87.54  L  603.40,   90.37 " style="stroke-width: 0.28 ;&st9;" /><path d=" M  616.15,   78.27  L  616.15,   35.78  L  590.65,   35.78  L  590.65,   78.27  L  616.15,   78.27 " style="stroke-width: 1.42 ;&st7; " /><path d=" M  696.88,  409.72  L  696.88,  477.71 " style="stroke-width: 0.85 ;&st7; " /><path d=" M  603.40,  596.69  L  603.40,  622.18 " style="stroke-width: 0.85 ;&st7; " /><path d=" M  820.11,  355.89  L  815.86,  351.64  L  811.61,  355.89 " style="stroke-width: 1.42 ;&st7; " /><path d=" M  820.11,  359.29  L  815.86,  355.04  L  811.61,  359.29 " style="stroke-width: 1.42 ;&st7; " /><path d=" M  798.87,  214.25  L  832.86,  214.25  L  832.86,  248.24  L  798.87,  248.24  L  798.87,  214.25 " style="stroke-width: 1.42 ;&st7; " /><path d=" M  713.88,   35.78  L  747.87,   35.78  L  747.87,   69.77  L  713.88,   69.77  L  713.88,   35.78 " style="stroke-width: 1.42 ;&st7; " /><path d=" M  735.13,  138.33  L  730.88,  134.08  L  726.63,  138.33 " style="stroke-width: 1.42 ;&st7; " /><path d=" M  735.13,  134.93  L  730.88,  130.68  L  726.63,  134.93 " style="stroke-width: 1.42 ;&st7; " /><path d=" M  735.13,  157.59  L  730.88,  161.84  L  726.63,  157.59 " style="stroke-width: 1.42 ;&st7; " /><path d=" M  726.63,  154.19  L  730.88,  158.44  L  735.13,  154.19 " style="stroke-width: 1.42 ;&st7; " /><path d=" M  603.40,   47.11  C  600.66    48.72   599.75    52.25   601.36    54.99 " style="stroke-width: 1.42 ;&st7; " /><path d=" M  601.36,   54.99  C  601.88    55.87   602.52    56.51   603.40    57.03 " style="stroke-width: 1.42 ;&st7; " /><path d=" M  603.40,   66.94  C  606.14    65.33   607.05    61.80   605.44    59.06 " style="stroke-width: 1.42 ;&st7; " /><path d=" M  605.44,   59.06  C  604.92    58.18   604.28    57.55   603.40    57.03 " style="stroke-width: 1.42 ;&st7; " /><path d=" M  604.82,   45.69  C  604.82    44.91   604.18    44.28   603.40    44.28 " style="stroke-width: 0.85 ;&st7; " /><path d=" M  603.40,   44.28  C  602.62    44.28   601.98    44.91   601.98    45.69 " style="stroke-width: 0.85 ;&st7; " /><path d=" M  601.98,   45.69  C  601.98    46.48   602.62    47.11   603.40    47.11 " style="stroke-width: 0.85 ;&st7; " /><path d=" M  603.40,   47.11  C  604.18    47.11   604.82    46.48   604.82    45.69 " style="stroke-width: 0.85 ;&st7; " /><path d=" M  604.82,   68.36  C  604.82    67.57   604.18    66.94   603.40    66.94 " style="stroke-width: 0.85 ;&st7; " /><path d=" M  603.40,   66.94  C  602.62    66.94   601.98    67.57   601.98    68.36 " style="stroke-width: 0.85 ;&st7; " /><path d=" M  601.98,   68.36  C  601.98    69.14   602.62    69.77   603.40    69.77 " style="stroke-width: 0.85 ;&st7; " /><path d=" M  603.40,   69.77  C  604.18    69.77   604.82    69.14   604.82    68.36 " style="stroke-width: 0.85 ;&st7; " /><path d=" M  601.27,   95.27  C  598.93    95.27   597.03    97.17   597.03    99.52 " style="stroke-width: 1.42 ;&st7; " /><path d=" M  597.03,   99.52  C  597.03   101.87   598.93   103.77   601.27   103.77 " style="stroke-width: 1.42 ;&st7; " /><path d=" M  605.52,  103.77  C  607.87   103.77   609.77   101.87   609.77    99.52 " style="stroke-width: 1.42 ;&st7; " /><path d=" M  609.77,   99.52  C  609.77    97.17   607.87    95.27   605.52    95.27 " style="stroke-width: 1.42 ;&st7; " /><path d=" M  934.84,   47.11  C  932.11    48.72   931.19    52.25   932.81    54.99 " style="stroke-width: 1.42 ;&st7; " /><path d=" M  932.81,   54.99  C  933.33    55.87   933.96    56.51   934.84    57.03 " style="stroke-width: 1.42 ;&st7; " /><path d=" M  934.84,   66.94  C  937.58    65.33   938.49    61.80   936.88    59.06 " style="stroke-width: 1.42 ;&st7; " /><path d=" M  936.88,   59.06  C  936.36    58.18   935.73    57.55   934.84    57.03 " style="stroke-width: 1.42 ;&st7; " /><path d=" M  936.26,   45.69  C  936.26    44.91   935.63    44.28   934.84    44.28 " style="stroke-width: 0.85 ;&st7; " /><path d=" M  934.84,   44.28  C  934.06    44.28   933.43    44.91   933.43    45.69 " style="stroke-width: 0.85 ;&st7; " /><path d=" M  933.43,   45.69  C  933.43    46.48   934.06    47.11   934.84    47.11 " style="stroke-width: 0.85 ;&st7; " /><path d=" M  934.84,   47.11  C  935.63    47.11   936.26    46.48   936.26    45.69 " style="stroke-width: 0.85 ;&st7; " /><path d=" M  936.26,   68.36  C  936.26    67.57   935.63    66.94   934.84    66.94 " style="stroke-width: 0.85 ;&st7; " /><path d=" M  934.84,   66.94  C  934.06    66.94   933.43    67.57   933.43    68.36 " style="stroke-width: 0.85 ;&st7; " /><path d=" M  933.43,   68.36  C  933.43    69.14   934.06    69.77   934.84    69.77 " style="stroke-width: 0.85 ;&st7; " /><path d=" M  934.84,   69.77  C  935.63    69.77   936.26    69.14   936.26    68.36 " style="stroke-width: 0.85 ;&st7; " /><path d=" M  939.38,  414.25  C  939.38   411.75   937.35   409.72   934.84   409.72 " style="stroke-width: 1.42 ;&st7; " /><path d=" M  934.84,  409.72  C  932.34   409.72   930.31   411.75   930.31   414.25 " style="stroke-width: 1.42 ;&st7; " /><path d=" M  930.31,  414.25  C  930.31   416.75   932.34   418.78   934.84   418.78 " style="stroke-width: 1.42 ;&st7; " /><path d=" M  934.84,  418.78  C  937.35   418.78   939.38   416.75   939.38   414.25 " style="stroke-width: 1.42 ;&st7; " /><path d=" M  939.38,  218.22  C  939.38   215.71   937.35   213.68   934.84   213.68 " style="stroke-width: 1.42 ;&st7; " /><path d=" M  934.84,  213.68  C  932.34   213.68   930.31   215.71   930.31   218.22 " style="stroke-width: 1.42 ;&st7; " /><path d=" M  930.31,  218.22  C  930.31   220.72   932.34   222.75   934.84   222.75 " style="stroke-width: 1.42 ;&st7; " /><path d=" M  934.84,  222.75  C  937.35   222.75   939.38   220.72   939.38   218.22 " style="stroke-width: 1.42 ;&st7; " /><path d=" M  607.93,  626.71  C  607.93   624.21   605.90   622.18   603.40   622.18 " style="stroke-width: 1.42 ;&st7; " /><path d=" M  603.40,  622.18  C  600.90   622.18   598.87   624.21   598.87   626.71 " style="stroke-width: 1.42 ;&st7; " /><path d=" M  598.87,  626.71  C  598.87   629.22   600.90   631.25   603.40   631.25 " style="stroke-width: 1.42 ;&st7; " /><path d=" M  603.40,  631.25  C  605.90   631.25   607.93   629.22   607.93   626.71 " style="stroke-width: 1.42 ;&st7; " /><path d=" M  607.93,  635.78  C  607.93   633.28   605.90   631.25   603.40   631.25 " style="stroke-width: 1.42 ;&st7; " /><path d=" M  603.40,  631.25  C  600.90   631.25   598.87   633.28   598.87   635.78 " style="stroke-width: 1.42 ;&st7; " /><path d=" M  598.87,  635.78  C  598.87   638.28   600.90   640.31   603.40   640.31 " style="stroke-width: 1.42 ;&st7; " /><path d=" M  603.40,  640.31  C  605.90   640.31   607.93   638.28   607.93   635.78 " style="stroke-width: 1.42 ;&st7; " /><path d=" M  607.93,  405.18  C  607.93   402.68   605.90   400.65   603.40   400.65 " style="stroke-width: 1.42 ;&st7; " /><path d=" M  603.40,  400.65  C  600.90   400.65   598.87   402.68   598.87   405.18 " style="stroke-width: 1.42 ;&st7; " /><path d=" M  598.87,  405.18  C  598.87   407.69   600.90   409.72   603.40   409.72 " style="stroke-width: 1.42 ;&st7; " /><path d=" M  603.40,  409.72  C  605.90   409.72   607.93   407.69   607.93   405.18 " style="stroke-width: 1.42 ;&st7; " /><path d=" M  701.42,  405.18  C  701.42   402.68   699.39   400.65   696.88   400.65 " style="stroke-width: 1.42 ;&st7; " /><path d=" M  696.88,  400.65  C  694.38   400.65   692.35   402.68   692.35   405.18 " style="stroke-width: 1.42 ;&st7; " /><path d=" M  692.35,  405.18  C  692.35   407.69   694.38   409.72   696.88   409.72 " style="stroke-width: 1.42 ;&st7; " /><path d=" M  696.88,  409.72  C  699.39   409.72   701.42   407.69   701.42   405.18 " style="stroke-width: 1.42 ;&st7; " /><path d=" M  701.42,  396.12  C  701.42   393.62   699.39   391.59   696.88   391.59 " style="stroke-width: 1.42 ;&st7; " /><path d=" M  696.88,  391.59  C  694.38   391.59   692.35   393.62   692.35   396.12 " style="stroke-width: 1.42 ;&st7; " /><path d=" M  692.35,  396.12  C  692.35   398.62   694.38   400.65   696.88   400.65 " style="stroke-width: 1.42 ;&st7; " /><path d=" M  696.88,  400.65  C  699.39   400.65   701.42   398.62   701.42   396.12 " style="stroke-width: 1.42 ;&st7; " /><path d=" M  607.93,  396.12  C  607.93   393.62   605.90   391.59   603.40   391.59 " style="stroke-width: 1.42 ;&st7; " /><path d=" M  603.40,  391.59  C  600.90   391.59   598.87   393.62   598.87   396.12 " style="stroke-width: 1.42 ;&st7; " /><path d=" M  598.87,  396.12  C  598.87   398.62   600.90   400.65   603.40   400.65 " style="stroke-width: 1.42 ;&st7; " /><path d=" M  603.40,  400.65  C  605.90   400.65   607.93   398.62   607.93   396.12 " style="stroke-width: 1.42 ;&st7; " /><path d=" M  701.42,  209.72  C  701.42   207.21   699.39   205.18   696.88   205.18 " style="stroke-width: 1.42 ;&st7; " /><path d=" M  696.88,  205.18  C  694.38   205.18   692.35   207.21   692.35   209.72 " style="stroke-width: 1.42 ;&st7; " /><path d=" M  692.35,  209.72  C  692.35   212.22   694.38   214.25   696.88   214.25 " style="stroke-width: 1.42 ;&st7; " /><path d=" M  696.88,  214.25  C  699.39   214.25   701.42   212.22   701.42   209.72 " style="stroke-width: 1.42 ;&st7; " /><path d=" M  701.42,  200.65  C  701.42   198.15   699.39   196.12   696.88   196.12 " style="stroke-width: 1.42 ;&st7; " /><path d=" M  696.88,  196.12  C  694.38   196.12   692.35   198.15   692.35   200.65 " style="stroke-width: 1.42 ;&st7; " /><path d=" M  692.35,  200.65  C  692.35   203.16   694.38   205.18   696.88   205.18 " style="stroke-width: 1.42 ;&st7; " /><path d=" M  696.88,  205.18  C  699.39   205.18   701.42   203.16   701.42   200.65 " style="stroke-width: 1.42 ;&st7; " /><path d=" M  701.42,  235.78  C  701.42   233.28   699.39   231.25   696.88   231.25 " style="stroke-width: 1.42 ;&st7; " /><path d=" M  696.88,  231.25  C  694.38   231.25   692.35   233.28   692.35   235.78 " style="stroke-width: 1.42 ;&st7; " /><path d=" M  692.35,  235.78  C  692.35   238.28   694.38   240.31   696.88   240.31 " style="stroke-width: 1.42 ;&st7; " /><path d=" M  696.88,  240.31  C  699.39   240.31   701.42   238.28   701.42   235.78 " style="stroke-width: 1.42 ;&st7; " /><path d=" M  701.42,  244.84  C  701.42   242.34   699.39   240.31   696.88   240.31 " style="stroke-width: 1.42 ;&st7; " /><path d=" M  696.88,  240.31  C  694.38   240.31   692.35   242.34   692.35   244.84 " style="stroke-width: 1.42 ;&st7; " /><path d=" M  692.35,  244.84  C  692.35   247.35   694.38   249.38   696.88   249.38 " style="stroke-width: 1.42 ;&st7; " /><path d=" M  696.88,  249.38  C  699.39   249.38   701.42   247.35   701.42   244.84 " style="stroke-width: 1.42 ;&st7; " /><path d=" M  735.41,  200.65  C  735.41   198.15   733.38   196.12   730.88   196.12 " style="stroke-width: 1.42 ;&st7; " /><path d=" M  730.88,  196.12  C  728.37   196.12   726.35   198.15   726.35   200.65 " style="stroke-width: 1.42 ;&st7; " /><path d=" M  726.35,  200.65  C  726.35   203.16   728.37   205.18   730.88   205.18 " style="stroke-width: 1.42 ;&st7; " /><path d=" M  730.88,  205.18  C  733.38   205.18   735.41   203.16   735.41   200.65 " style="stroke-width: 1.42 ;&st7; " /><path d=" M  735.41,  209.72  C  735.41   207.21   733.38   205.18   730.88   205.18 " style="stroke-width: 1.42 ;&st7; " /><path d=" M  730.88,  205.18  C  728.37   205.18   726.35   207.21   726.35   209.72 " style="stroke-width: 1.42 ;&st7; " /><path d=" M  726.35,  209.72  C  726.35   212.22   728.37   214.25   730.88   214.25 " style="stroke-width: 1.42 ;&st7; " /><path d=" M  730.88,  214.25  C  733.38   214.25   735.41   212.22   735.41   209.72 " style="stroke-width: 1.42 ;&st7; " /><path d=" M  820.40,  405.18  C  820.40   402.68   818.37   400.65   815.86   400.65 " style="stroke-width: 1.42 ;&st7; " /><path d=" M  815.86,  400.65  C  813.36   400.65   811.33   402.68   811.33   405.18 " style="stroke-width: 1.42 ;&st7; " /><path d=" M  811.33,  405.18  C  811.33   407.69   813.36   409.72   815.86   409.72 " style="stroke-width: 1.42 ;&st7; " /><path d=" M  815.86,  409.72  C  818.37   409.72   820.40   407.69   820.40   405.18 " style="stroke-width: 1.42 ;&st7; " /><path d=" M  932.72,   95.27  C  930.37    95.27   928.47    97.17   928.47    99.52 " style="stroke-width: 1.42 ;&st7; " /><path d=" M  928.47,   99.52  C  928.47   101.87   930.37   103.77   932.72   103.77 " style="stroke-width: 1.42 ;&st7; " /><path d=" M  936.97,  103.77  C  939.32   103.77   941.22   101.87   941.22    99.52 " style="stroke-width: 1.42 ;&st7; " /><path d=" M  941.22,   99.52  C  941.22    97.17   939.32    95.27   936.97    95.27 " style="stroke-width: 1.42 ;&st7; " /><path d=" M  820.40,  252.78  C  820.40   250.27   818.37   248.24   815.86   248.24 " style="stroke-width: 1.42 ;&st7; " /><path d=" M  815.86,  248.24  C  813.36   248.24   811.33   250.27   811.33   252.78 " style="stroke-width: 1.42 ;&st7; " /><path d=" M  811.33,  252.78  C  811.33   255.28   813.36   257.31   815.86   257.31 " style="stroke-width: 1.42 ;&st7; " /><path d=" M  815.86,  257.31  C  818.37   257.31   820.40   255.28   820.40   252.78 " style="stroke-width: 1.42 ;&st7; " /><path d=" M  820.40,  209.72  C  820.40   207.21   818.37   205.18   815.86   205.18 " style="stroke-width: 1.42 ;&st7; " /><path d=" M  815.86,  205.18  C  813.36   205.18   811.33   207.21   811.33   209.72 " style="stroke-width: 1.42 ;&st7; " /><path d=" M  811.33,  209.72  C  811.33   212.22   813.36   214.25   815.86   214.25 " style="stroke-width: 1.42 ;&st7; " /><path d=" M  815.86,  214.25  C  818.37   214.25   820.40   212.22   820.40   209.72 " style="stroke-width: 1.42 ;&st7; " /><path d=" M  820.40,  200.65  C  820.40   198.15   818.37   196.12   815.86   196.12 " style="stroke-width: 1.42 ;&st7; " /><path d=" M  815.86,  196.12  C  813.36   196.12   811.33   198.15   811.33   200.65 " style="stroke-width: 1.42 ;&st7; " /><path d=" M  811.33,  200.65  C  811.33   203.16   813.36   205.18   815.86   205.18 " style="stroke-width: 1.42 ;&st7; " /><path d=" M  815.86,  205.18  C  818.37   205.18   820.40   203.16   820.40   200.65 " style="stroke-width: 1.42 ;&st7; " /><path d=" M  820.40,  191.59  C  820.40   189.08   818.37   187.05   815.86   187.05 " style="stroke-width: 1.42 ;&st7; " /><path d=" M  815.86,  187.05  C  813.36   187.05   811.33   189.08   811.33   191.59 " style="stroke-width: 1.42 ;&st7; " /><path d=" M  811.33,  191.59  C  811.33   194.09   813.36   196.12   815.86   196.12 " style="stroke-width: 1.42 ;&st7; " /><path d=" M  815.86,  196.12  C  818.37   196.12   820.40   194.09   820.40   191.59 " style="stroke-width: 1.42 ;&st7; " /><path d=" M  820.40,  182.52  C  820.40   180.02   818.37   177.99   815.86   177.99 " style="stroke-width: 1.42 ;&st7; " /><path d=" M  815.86,  177.99  C  813.36   177.99   811.33   180.02   811.33   182.52 " style="stroke-width: 1.42 ;&st7; " /><path d=" M  811.33,  182.52  C  811.33   185.02   813.36   187.05   815.86   187.05 " style="stroke-width: 1.42 ;&st7; " /><path d=" M  815.86,  187.05  C  818.37   187.05   820.40   185.02   820.40   182.52 " style="stroke-width: 1.42 ;&st7; " /><path d=" M  735.41,   83.37  C  735.41    80.87   733.38    78.84   730.88    78.84 " style="stroke-width: 1.42 ;&st7; " /><path d=" M  730.88,   78.84  C  728.37    78.84   726.35    80.87   726.35    83.37 " style="stroke-width: 1.42 ;&st7; " /><path d=" M  726.35,   83.37  C  726.35    85.87   728.37    87.90   730.88    87.90 " style="stroke-width: 1.42 ;&st7; " /><path d=" M  730.88,   87.90  C  733.38    87.90   735.41    85.87   735.41    83.37 " style="stroke-width: 1.42 ;&st7; " /><path d=" M  735.41,   74.31  C  735.41    71.80   733.38    69.77   730.88    69.77 " style="stroke-width: 1.42 ;&st7; " /><path d=" M  730.88,   69.77  C  728.37    69.77   726.35    71.80   726.35    74.31 " style="stroke-width: 1.42 ;&st7; " /><path d=" M  726.35,   74.31  C  726.35    76.81   728.37    78.84   730.88    78.84 " style="stroke-width: 1.42 ;&st7; " /><path d=" M  730.88,   78.84  C  733.38    78.84   735.41    76.81   735.41    74.31 " style="stroke-width: 1.42 ;&st7; " /><text ewd:textID="17" style="&st18;" transform="matrix(&st16;  643.37  637.18 )">Generator Assembly</text><text style="&st18;" transform="matrix(&st17;  942.48  468.48 )">(*14)</text><text style="&st18;" transform="matrix(&st17;  916.98  468.48 )">(*13)</text><text style="&st18;" transform="matrix(&st17;  905.65  463.04 )">B</text><text style="&st18;" transform="matrix(&st16;  801.05  347.95 )">2</text><text style="&st18;" transform="matrix(&st17;  812.17  378.05 )">B</text><text style="&st18;" transform="matrix(&st16;  802.15  417.91 )">LIN</text><text style="&st18;" transform="matrix(&st16;  918.2  101.49 )">49</text><text style="&st18;" transform="matrix(&st16;  931.88  101.49 )">2I</text><text style="&st18;" transform="matrix(&st16;  596.61  86.47 )">2</text><text style="&st18;" transform="matrix(&st17;  931.15  465.94 )">GR</text><text style="&st18;" transform="matrix(&st16;  804.99  407.15 )">2</text><text style="&st18;" transform="matrix(&st16;  813.39  407.15 )">H</text><text style="&st18;" transform="matrix(&st16;  686.01  211.69 )">3</text><text style="&st18;" transform="matrix(&st17;  679.02  322.41 )">(*2)</text><text style="&st18;" transform="matrix(&st17;  667.69  318.7 )">R</text><text style="&st18;" transform="matrix(&st16;  694.55  211.69 )">B</text><text style="&st18;" transform="matrix(&st16;  720.0  211.69 )">2</text><text style="&st18;" transform="matrix(&st16;  728.55  211.69 )">B</text><text style="&st18;" transform="matrix(&st16;  736.85  211.69 )">(*2)</text><text style="&st18;" transform="matrix(&st16;  736.85  202.62 )">(*1)</text><text style="&st18;" transform="matrix(&st16;  694.55  246.81 )">B</text><text style="&st18;" transform="matrix(&st16;  686.78  246.81 )">1</text><text style="&st18;" transform="matrix(&st16;  702.86  246.81 )">(*2)</text><text style="&st18;" transform="matrix(&st16;  720.0  202.62 )">2</text><text style="&st18;" transform="matrix(&st16;  728.55  202.62 )">A</text><text style="&st18;" transform="matrix(&st16;  694.55  237.75 )">A</text><text style="&st18;" transform="matrix(&st16;  686.78  237.75 )">1</text><text style="&st18;" transform="matrix(&st16;  702.86  237.75 )">(*1)</text><text style="&st18;" transform="matrix(&st17;  704.52  368.77 )">(*1)</text><text style="&st18;" transform="matrix(&st17;  704.52  322.02 )">(*1)</text><text style="&st18;" transform="matrix(&st17;  693.19  318.7 )">R</text><text style="&st18;" transform="matrix(&st17;  645.03  313.91 )">(*2)</text><text style="&st18;" transform="matrix(&st17;  633.7  310.49 )">G</text><text style="&st18;" transform="matrix(&st17;  611.04  313.53 )">(*1)</text><text style="&st18;" transform="matrix(&st17;  599.7  310.49 )">G</text><text style="&st18;" transform="matrix(&st17;  645.03  369.16 )">(*2)</text><text style="&st18;" transform="matrix(&st16;  686.01  202.62 )">3</text><text style="&st18;" transform="matrix(&st16;  694.55  202.62 )">A</text><text style="&st18;" transform="matrix(&st16;  601.07  398.09 )">B</text><text style="&st18;" transform="matrix(&st16;  592.52  398.09 )">2</text><text style="&st18;" transform="matrix(&st16;  694.55  398.09 )">B</text><text style="&st18;" transform="matrix(&st16;  686.01  398.09 )">3</text><text style="&st18;" transform="matrix(&st16;  702.86  398.09 )">(*1)</text><text style="&st18;" transform="matrix(&st17;  704.52  279.53 )">(*1)</text><text style="&st18;" transform="matrix(&st16;  702.86  407.15 )">(*2)</text><text style="&st18;" transform="matrix(&st16;  686.01  407.15 )">3</text><text style="&st18;" transform="matrix(&st16;  694.41  407.15 )">C</text><text style="&st18;" transform="matrix(&st16;  600.93  407.15 )">C</text><text style="&st18;" transform="matrix(&st16;  592.52  407.15 )">2</text><text style="&st18;" transform="matrix(&st17;  633.7  365.73 )">G</text><text style="&st18;" transform="matrix(&st16;  618.62  339.45 )">25</text><text style="&st18;" transform="matrix(&st17;  611.04  368.77 )">(*1)</text><text style="&st18;" transform="matrix(&st17;  899.99  628.36 )">(*2)</text><text style="&st18;" transform="matrix(&st17;  888.65  624.51 )">B</text><text style="&st18;" transform="matrix(&st17;  899.99  560.37 )">(*2)</text><text style="&st18;" transform="matrix(&st17;  888.65  556.52 )">B</text><text style="&st18;" transform="matrix(&st16;  877.54  585.91 )">3</text><text style="&st18;" transform="matrix(&st16;  600.93  637.75 )">C</text><text style="&st18;" transform="matrix(&st16;  592.52  637.75 )">4</text><text style="&st18;" transform="matrix(&st16;  609.37  637.75 )">(*2)</text><text style="&st18;" transform="matrix(&st16;  601.07  628.68 )">B</text><text style="&st18;" transform="matrix(&st16;  592.52  628.68 )">4</text><text style="&st18;" transform="matrix(&st16;  609.37  628.68 )">(*1)</text><text style="&st18;" transform="matrix(&st17;  942.48  627.97 )">(*1)</text><text style="&st18;" transform="matrix(&st17;  942.48  559.99 )">(*1)</text><text style="&st18;" transform="matrix(&st17;  727.18  182.73 )">R</text><text style="&st18;" transform="matrix(&st17;  693.19  182.73 )">R</text><text style="&st18;" transform="matrix(&st16;  932.51  220.18 )">A</text><text style="&st18;" transform="matrix(&st16;  920.01  220.18 )">22</text><text style="&st18;" transform="matrix(&st16;  932.51  416.22 )">A</text><text style="&st18;" transform="matrix(&st16;  920.01  416.22 )">26</text><text style="&st18;" transform="matrix(&st17;  890.05  412.24 )">E119(A)</text><text ewd:textID="16" style="&st18;" transform="matrix(&st17;  897.15  412.24 )">Combination Meter Assembly</text><text style="&st18;" transform="matrix(&st17;  693.19  276.21 )">R</text><text style="&st18;" transform="matrix(&st16;  678.11  296.96 )">23</text><text style="&st18;" transform="matrix(&st16;  682.07  339.45 )">3</text><text style="&st18;" transform="matrix(&st16;  588.58  339.45 )">5</text><text style="&st18;" transform="matrix(&st16;  920.03  585.91 )">4</text><text style="&st18;" transform="matrix(&st17;  931.15  556.52 )">B</text><text style="&st18;" transform="matrix(&st16;  920.03  509.42 )">2</text><text style="&st18;" transform="matrix(&st16;  937.68  230.94 )">IG+</text><text style="&st18;" transform="matrix(&st17;  931.15  133.93 )">BE</text><text style="&st18;" transform="matrix(&st16;  928.77  32.08 )">(IG)</text><text style="&st18;" transform="matrix(&st16;  952.15  56.17 )">5A <tspan dy="6" x="0">METER</tspan></text><text style="&st18;" transform="matrix(&st16;  937.68  406.03 )">CHG-</text><text ewd:textID="15" style="&st18;" transform="matrix(&st17;  926.9  281.08 )">Charge</text><text style="&st18;" transform="matrix(&st17;  931.15  624.51 )">B</text><text ewd:textID="18" style="&st18;" transform="matrix(&st16;  655.75  539.16 )">IC Regulator</text><text style="&st18;" transform="matrix(&st16;  593.08  417.91 )">IG</text><text style="&st18;" transform="matrix(&st17;  599.7  365.73 )">G</text><text style="&st18;" transform="matrix(&st16;  597.32  32.08 )">(IG)</text><text style="&st18;" transform="matrix(&st16;  601.81  101.49 )">1</text><text style="&st18;" transform="matrix(&st16;  620.7  56.17 )">5A <tspan dy="6" x="0">ALT-IG</tspan></text><text style="&st18;" transform="matrix(&st16;  688.26  417.91 )">M</text><text style="&st18;" transform="matrix(&st17;  693.19  365.45 )">R</text><text style="&st18;" transform="matrix(&st16;  596.61  618.49 )">L</text><text style="&st18;" transform="matrix(&st16;  797.09  296.96 )">40</text><text style="&st18;" transform="matrix(&st16;  801.03  254.75 )">25</text><text style="&st18;" transform="matrix(&st16;  813.53  254.75 )">B</text><text style="&st18;" transform="matrix(&st16;  821.84  211.69 )">(RHD *2)</text><text style="&st18;" transform="matrix(&st16;  813.39  211.69 )">C</text><text style="&st18;" transform="matrix(&st16;  801.03  211.69 )">53</text><text style="&st18;" transform="matrix(&st16;  821.84  202.62 )">(RHD *15)</text><text style="&st18;" transform="matrix(&st16;  813.39  202.62 )">C</text><text style="&st18;" transform="matrix(&st16;  801.03  202.62 )">32</text><text style="&st18;" transform="matrix(&st16;  821.84  193.56 )">(LHD *2)</text><text style="&st18;" transform="matrix(&st16;  813.53  193.56 )">B</text><text style="&st18;" transform="matrix(&st16;  801.03  193.56 )">53</text><text style="&st18;" transform="matrix(&st16;  821.84  184.49 )">(LHD *15)</text><text style="&st18;" transform="matrix(&st16;  813.53  184.49 )">B</text><text style="&st18;" transform="matrix(&st16;  801.03  184.49 )">32</text><text style="&st18;" transform="matrix(&st16;  736.85  85.34 )">(*17)</text><text style="&st18;" transform="matrix(&st16;  728.41  85.34 )">D</text><text style="&st18;" transform="matrix(&st16;  716.05  85.34 )">25</text><text style="&st18;" transform="matrix(&st16;  736.85  76.28 )">(*16)</text><text style="&st18;" transform="matrix(&st16;  728.55  76.28 )">B</text><text style="&st18;" transform="matrix(&st16;  716.05  76.28 )">23</text><text style="&st18;" transform="matrix(&st16;  712.11  126.98 )">57</text><text style="&st18;" transform="matrix(&st16;  712.88  169.48 )">16</text><text style="&st18;" transform="matrix(&st17;  727.18  148.73 )">R</text><text style="&st18;" transform="matrix(&st17;  727.18  106.24 )">R</text><text ewd:textID="13" style="&st18;" transform="matrix(&st17;  762.59  72.3 )">A/C Amplifier <tspan dy="6" x="0">Assembly</tspan></text><text style="&st18;" transform="matrix(&st17;  755.77  72.3 )">E36(B),E81(D)</text><text style="&st18;" transform="matrix(&st17;  677.87  233.77 )">C43(A),C95(B)</text><text ewd:textID="19" style="&st18;" transform="matrix(&st17;  684.69  233.77 )">Junction Connector</text><text style="&st18;" transform="matrix(&st17;  795.17  250.77 )">ECM</text><text style="&st18;" transform="matrix(&st17;  788.35  250.77 )">C45(B),C46(C)</text><text style="&st18;" transform="matrix(&st16;  810.42  244.55 )">LIN</text><text style="&st18;" transform="matrix(&st16;  809.44  221.88 )">ALT</text><text style="&st18;" transform="matrix(&st16;  724.45  66.08 )">ALT</text><text style="&st18;" transform="matrix(&st17;  812.17  276.07 )">B</text><text style="&st18;" transform="matrix(&st17;  812.17  327.06 )">B</text><text style="&st18;" transform="matrix(&st17;  823.5  383.49 )">(*12)</text><text style="&st18;" transform="matrix(&st17;  823.5  332.5 )">(*12)</text><text style="&st18;" transform="matrix(&st17;  823.5  281.51 )">(*12)</text><text style="&st18;" transform="matrix(&st16;  643.37  630.08 )">C92(C),D1(A),D4(B),D15(F),D19(G),D23(H),j1(D),j2(E)</text></svg>