﻿<?xml version="1.0" encoding="utf-8"?>
<!DOCTYPE svg PUBLIC "-//W3C//DTD SVG 1.0//EN" "http://www.w3.org/TR/2001/REC-SVG-20010904/DTD/svg10.dtd"[
	<!ENTITY ns_flows "http://ns.adobe.com/Flows/1.0/">
	<!ENTITY ns_svg "http://www.w3.org/2000/svg">
	<!ENTITY ns_xlink "http://www.w3.org/1999/xlink">
	<!ENTITY st0 "font-size:7px;font-family:'MS-PGothic';adobe-font-script:japanese;">
	<!ENTITY st1 "font-size:6px;font-family:'ArialMT';">
	<!-- White fill  -->
	<!ENTITY st2 "fill:#FFFFFF;stroke:#000000; stroke-width:1.41;stroke-linecap:round;stroke-linejoin:round;">
	<!-- Yellow fill  -->
	<!ENTITY st3 "fill:#FFFFCC;stroke:#FFFFCC; stroke-width:0.1;stroke-linecap:round;stroke-linejoin:round;">
	<!-- Gray fill  -->
	<!ENTITY st4 "fill:#CCCCCC;stroke:#CCCCCC; stroke-width:0.1;stroke-linecap:round;stroke-linejoin:round;">
	<!-- Light-blue fill -->
	<!ENTITY st5 "fill:#CCECF4;stroke:#000000; stroke-width:1.133;stroke-linecap:round;stroke-linejoin:round;">
	<!ENTITY st6 "fill:none;stroke-linecap:butt; stroke-linejoin:round;">
	<!ENTITY st7 "fill:none;stroke:#000000;stroke-linecap:round;stroke-linejoin:round;">
	<!ENTITY st8 "enable-background:new    ;">
	<!-- Black fill -->
	<!ENTITY st9 "fill:#000000;stroke:#000000; stroke-linecap:round;stroke-linejoin:round;">
	<!-- SRS note   -->
	<!ENTITY st10 "font-size:9px;font-family:'ArialMT';">
	<!ENTITY st11 "font-size:9px;font-family:'Svg Symbol';">
	<!ENTITY st12 "font-size:6px;font-family:'Svg Symbol';">
	<!ENTITY st13 "fill:none;stroke:#ff0000;stroke-linecap:round;stroke-linejoin:round;">
	<!-- Yellow fill  -->
	<!ENTITY st14 "fill:#FFFF00;stroke:#FFFF00; stroke-width:0.1;stroke-linecap:round;stroke-linejoin:round;">
	<!ENTITY st15 "font-size:6px;font-family:'MS-PGothic';adobe-font-script:japanese;">
	<!ENTITY st16 "1.00 0.00 0.00 1.00">
	<!ENTITY st17 "0.00 -1.00 1.00 0.00">
	<!ENTITY st18 "font-size:6px;font-family:'Arial';">
	<!ENTITY st19 "font-size:9px;font-family:'Arial';">
	<!ENTITY st20 "font-size:6px;font-family:'MS-PGothic','MS PGothic';adobe-font-script:japanese;">
	<!ENTITY st21 "font-size:7px;font-family:'MS-PGothic','MS PGothic';adobe-font-script:japanese;">
	<!ATTLIST svg
		xmlns:ewd CDATA #FIXED "http://shcl.co.jp/ewd"
		xmlns:a CDATA #FIXED "http://ns.adobe.com/AdobeSVGViewerExtensions/3.0/"
		ewd:ver CDATA #IMPLIED
	>
	<!ATTLIST a
		ewd:lineID CDATA #IMPLIED
		ewd:groupID CDATA #IMPLIED
		ewd:figtype CDATA #IMPLIED
		ewd:code CDATA #IMPLIED
		ewd:figID CDATA #IMPLIED
		ewd:pinNo CDATA #IMPLIED
		ewd:comment CDATA #IMPLIED >
	<!ATTLIST g
		ewd:lineID CDATA #IMPLIED
		ewd:groupID CDATA #IMPLIED
		ewd:figtype CDATA #IMPLIED
		ewd:code CDATA #IMPLIED
		ewd:figID CDATA #IMPLIED
		ewd:pinNo CDATA #IMPLIED
		ewd:comment CDATA #IMPLIED >
	<!ATTLIST text
		ewd:textID CDATA #IMPLIED >
	<!ATTLIST title
		ewd:textID CDATA #IMPLIED >
]>
<!-- Generator: Shintec Hozumi YS   -->
<svg onload="call_execInitLoadProc_svg('system')" style="overflow:visible;  enable-background:new 0 0 985.835 710.000" viewBox="0 0 985.835 710.000" height="710.000" width="985.835" xml:space="preserve" ewd:ver="L2.1.2.8" xmlns="&ns_svg;" xmlns:a="http://ns.adobe.com/AdobeSVGViewerExtensions/3.0/" xmlns:ewd="http://shcl.co.jp/ewd" xmlns:xlink="&ns_xlink;"><script type="text/javascript" xlink:href="../../../../../system/js/ewd/fig/svgfig.js" xmlns:xlink="http://www.w3.org/1999/xlink" /><defs><font horiz-adv-x="1229"><font-face font-family="Svg Symbol" units-per-em="2048" panose-1="5 5 1 2 1 7 6 2 5 7" ascent="2059" descent="450" alphabetic="0" /><missing-glyph d="M 103,0 l 0,1280 1024,0 0,-1280 -1024,0 z m 32,32 l 960,0 0,1216 -960,0 0,-1216 z" /><glyph unicode="" horiz-adv-x="1573" d="M 1517,0 l -567,0 24,279 q 141,59 207.5,168 66.5,109 66.5,306    0,272 -132.5,417.5 -132.5,145.5 -333.5,145.5 -194,0 -328,-147.5 -134,-147.5 -134,-401.5 0,-200 68.5,-319 68.5,-119     206.5,-169 l 25,-279 -564,0 0,279 35,0 q 3,-61 32,-83 45,-35 137,-35 l 270,0 0,70 q -210,61 -324.5,209 -114.5,148     -114.5,349 0,252 186.5,425 186.5,173 504.5,173 195,0 358.5,-73.5 163.5,-73.5 252,-214.5 88.5,-141 88.5,-310 0,-207     -121.5,-360.5 -121.5,-153.5 -317.5,-197.5 l -8,-70 275,0 q 92,0 128,28 36,28 42,90 l 38,0 0,-279 z" /></font></defs>
<g id="ewd_top"><a ewd:code="E119" ewd:figID="1" ewd:figtype="conn" style="cursor:pointer;"><path d=" M  900.85,  222.75  L  900.85,  409.72  L  968.84,  409.72  L  968.84,  222.75  L  900.85,  222.75 " style="&st5;" /><title ewd:textID="16">Combination Meter Assembly</title></a><a ewd:code="FUSE123,FUSE126" ewd:figID="2" ewd:figtype="rb" style="cursor:pointer;"><path d=" M   97.73,  350.23  L   97.73,  392.72  L  123.23,  392.72  L  123.23,  350.23  L   97.73,  350.23 " style="&st5;" /></a><a ewd:code="FUSE2" ewd:figID="3" ewd:figtype="rb" style="cursor:pointer;"><path d=" M  616.15,   78.27  L  616.15,   35.78  L  590.65,   35.78  L  590.65,   78.27  L  616.15,   78.27 " style="&st5;" /></a><a ewd:code="E36,E81" ewd:figID="4" ewd:figtype="conn" style="cursor:pointer;"><path d=" M  713.88,   35.78  L  747.88,   35.78  L  747.88,   69.77  L  713.88,   69.77  L  713.88,   35.78 " style="&st5;" /><title ewd:textID="13">A/C Amplifier Assembly</title></a><a ewd:code="C92,D1,D15,D19,D23,D4,j1,j2" ewd:figID="5" ewd:figtype="conn" style="cursor:pointer;"><path d=" M  169.97,  622.18  L  169.97,  409.72  L  849.86,  409.72  L  849.86,  622.18  L  169.97,  622.18 " style="&st5;" /><title ewd:textID="17">Generator Assembly</title></a><a ewd:code="C45,C46" ewd:figID="6" ewd:figtype="conn" style="cursor:pointer;"><path d=" M  798.87,  214.25  L  832.86,  214.25  L  832.86,  248.24  L  798.87,  248.24  L  798.87,  214.25 " style="&st5;" /><title>ECM</title></a><a ewd:code="FUSE15" ewd:figID="7" ewd:figtype="rb" style="cursor:pointer;"><path d=" M   38.24,  350.23  L   38.24,  392.72  L   63.74,  392.72  L   63.74,  350.23  L   38.24,  350.23 " style="&st5;" /></a><a ewd:code="C43,C95" ewd:figID="8" ewd:figtype="conn" style="cursor:pointer;"><path d=" M  688.38,  231.25  L  688.38,  214.25  L  739.38,  214.25  L  739.38,  231.25  L  688.38,  231.25 " style="&st5;" /><title ewd:textID="19">Junction Connector</title></a><a ewd:code="1" ewd:figID="9" ewd:figtype="jb" style="cursor:pointer;"><path d=" M   93.48,  435.21  L  118.98,  435.21  L  118.98,  443.71  L   93.48,  443.71  L   93.48,  435.21 " style="&st4;" /></a><a ewd:code="2" ewd:figID="10" ewd:figtype="jb" style="cursor:pointer;"><path d=" M  917.85,   35.78  L  917.85,  103.77  L  985.84,  103.77  L  985.84,   35.78  L  917.85,   35.78 " style="&st4;" /></a><a ewd:code="1" ewd:figID="11" ewd:figtype="jb" style="cursor:pointer;"><path d=" M   93.48,  299.24  L   93.48,  324.73  L  144.48,  324.73  L  144.48,  299.24  L   93.48,  299.24 " style="&st4;" /></a><a ewd:code="FUSE2" ewd:figID="12" ewd:figtype="fuse" style="cursor:pointer;"><path d=" M  616.15,   78.27  L  616.15,   35.78  L  590.65,   35.78  L  590.65,   78.27  L  616.15,   78.27 " style="&st7;" /></a><a ewd:code="FUSE123,FUSE126" ewd:figID="13" ewd:figtype="fuse" style="cursor:pointer;"><path d=" M   97.73,  350.23  L   97.73,  392.72  L  123.23,  392.72  L  123.23,  350.23  L   97.73,  350.23 " style="&st7;" /></a><a ewd:code="FUSE142" ewd:figID="14" ewd:figtype="fuse" style="cursor:pointer;"><path d=" M  922.10,   35.78  L  922.10,   78.27  L  947.59,   78.27  L  947.59,   35.78  L  922.10,   35.78 " style="&st7;" /></a><a ewd:code="FUSE15" ewd:figID="15" ewd:figtype="fuse" style="cursor:pointer;"><path d=" M   38.24,  350.23  L   38.24,  392.72  L   63.74,  392.72  L   63.74,  350.23  L   38.24,  350.23 " style="&st7;" /></a><a ewd:lineID="1" style="cursor:pointer;"><path d=" M   33.99,  605.18  L   33.99,  579.69  L   93.48,  579.69  L  110.48,  596.69  L  110.48,  605.18 " style="stroke:#000000;stroke-width: 5.10 ;&st6;" /></a><a ewd:lineID="2" style="cursor:pointer;"><path d=" M   50.99,  316.23  L   50.99,  307.73  L   67.99,  290.74  L   67.99,  205.75  L  441.93,  205.75  L  441.93,  327.00 " style="stroke:#000000;stroke-width: 5.10 ;&st6;" /></a><a ewd:lineID="3" style="cursor:pointer;"><path d=" M  475.92,  333.23  L  475.92,  188.75  L   50.99,  188.75  L   50.99,  316.23 " style="stroke:#000000;stroke-width: 5.10 ;&st6;" /></a><a ewd:lineID="4" style="cursor:pointer;"><path d=" M  110.48,  605.18  L  110.48,  443.71 " style="stroke:#000000;stroke-width: 5.10 ;&st6;" /></a><a ewd:lineID="5" style="cursor:pointer;"><path d=" M  110.48,  299.24  L  110.48,  231.25  L  399.43,  231.25  L  399.43,  364.39 " style="stroke:#000000;stroke-width: 5.10 ;&st6;" /></a><a ewd:lineID="6" style="cursor:pointer;"><path d=" M  475.92,  391.59  L  475.92,  384.22  L  467.42,  375.72  L  441.93,  375.72  L  441.93,  341.73 " style="stroke:#000000;stroke-width: 5.10 ;&st6;" /></a><a ewd:lineID="7" style="cursor:pointer;"><path d=" M  475.92,  391.59  L  475.92,  347.96 " style="stroke:#000000;stroke-width: 5.10 ;&st6;" /></a><a ewd:lineID="8" style="cursor:pointer;"><path d=" M  603.40,  640.31  L  603.40,  647.68  L  620.40,  664.67  L  892.35,  664.67  L  892.35,  588.19 " style="stroke:#000000;stroke-width: 5.10 ;&st6;" /></a><a ewd:lineID="9" style="cursor:pointer;"><path d=" M  934.84,  594.42  L  934.84,  681.67  L  603.40,  681.67  L  603.40,  640.31 " style="stroke:#000000;stroke-width: 5.10 ;&st6;" /></a><a ewd:lineID="10" style="cursor:pointer;"><path d=" M  603.40,  347.96  L  603.40,  391.59 " style="stroke:#008837;stroke-width: 5.10 ;&st6;" /></a><a ewd:lineID="11" style="cursor:pointer;"><path d=" M  603.40,  391.59  L  603.40,  384.22  L  611.90,  375.72  L  637.39,  375.72  L  637.39,  341.73 " style="stroke:#008837;stroke-width: 5.10 ;&st6;" /></a><a ewd:lineID="12" style="cursor:pointer;"><path d=" M  603.40,  103.77  L  603.40,  333.23 " style="stroke:#008837;stroke-width: 5.10 ;&st6;" /></a><a ewd:lineID="13" style="cursor:pointer;"><path d=" M  637.39,  327.00  L  637.39,  120.77  L  611.90,  120.77  L  603.40,  112.27  L  603.40,  103.77 " style="stroke:#008837;stroke-width: 5.10 ;&st6;" /></a><a ewd:lineID="14" style="cursor:pointer;"><path d=" M  696.88,  391.59  L  696.88,  347.96 " style="stroke:#FF0000;stroke-width: 5.10 ;&st6;" /></a><a ewd:lineID="15" style="cursor:pointer;"><path d=" M  696.88,  391.59  L  696.88,  384.22  L  688.38,  375.72  L  671.39,  375.72  L  671.39,  265.24  L  688.38,  265.24  L  696.88,  256.74  L  696.88,  249.38 " style="stroke:#FF0000;stroke-width: 5.10 ;&st6;" /></a><a ewd:lineID="16" style="cursor:pointer;"><path d=" M  696.88,  305.47  L  696.88,  333.23 " style="stroke:#FF0000;stroke-width: 5.10 ;&st6;" /></a><a ewd:lineID="17" style="cursor:pointer;"><path d=" M  696.88,  249.38  L  696.88,  290.74 " style="stroke:#FF0000;stroke-width: 5.10 ;&st6;" /></a><a ewd:lineID="18" style="cursor:pointer;"><path d=" M  696.88,  196.12  L  696.88,   10.28  L  815.86,   10.28  L  815.86,  177.99 " style="stroke:#FF0000;stroke-width: 5.10 ;&st6;" /></a><a ewd:lineID="19" style="cursor:pointer;"><path d=" M  730.88,  171.76  L  730.88,  196.12 " style="stroke:#FF0000;stroke-width: 5.10 ;&st6;" /></a><a ewd:lineID="20" style="cursor:pointer;"><path d=" M  730.88,  135.50  L  730.88,  157.03 " style="stroke:#FF0000;stroke-width: 5.10 ;&st6;" /></a><a ewd:lineID="21" style="cursor:pointer;"><path d=" M  730.88,   87.90  L  730.88,  120.77 " style="stroke:#FF0000;stroke-width: 5.10 ;&st6;" /></a><a ewd:lineID="22" style="cursor:pointer;"><path d=" M  815.86,  400.65  L  815.86,  356.46 " style="stroke:#000000;stroke-width: 5.10 ;&st6;" /></a><a ewd:lineID="23" style="cursor:pointer;"><path d=" M  815.86,  305.47  L  815.86,  341.73 " style="stroke:#000000;stroke-width: 5.10 ;&st6;" /></a><a ewd:lineID="24" style="cursor:pointer;"><path d=" M  815.86,  257.31  L  815.86,  290.74 " style="stroke:#000000;stroke-width: 5.10 ;&st6;" /></a><a ewd:lineID="25" style="cursor:pointer;"><path d=" M  934.84,  517.93  L  934.84,  520.20  L  917.85,  537.20  L  892.35,  537.20  L  892.35,  573.46 " style="stroke:#000000;stroke-width: 5.10 ;&st6;" /></a><a ewd:lineID="26" style="cursor:pointer;"><path d=" M  934.84,  517.93  L  934.84,  579.69 " style="stroke:#000000;stroke-width: 5.10 ;&st6;" /></a><a ewd:lineID="27" style="cursor:pointer;"><path d=" M  934.84,  418.78  L  934.84,  426.71  L  926.35,  435.21  L  909.35,  435.21  L  909.35,  486.20  L  926.35,  486.20  L  934.84,  494.70  L  934.84,  503.20 " style="stroke:#000000;stroke-width: 5.10 ;&st6;" /></a><a ewd:lineID="28" style="cursor:pointer;"><path d=" M  934.84,  418.78  L  934.84,  503.20 " style="stroke:#999999;stroke-width: 5.10 ;&st6;" /></a><a ewd:lineID="29" style="cursor:pointer;"><path d=" M  934.84,  213.68  L  934.84,  103.77 " style="stroke:#C3AF96;stroke-width: 5.10 ;&st6;" /></a><a ewd:code="CA6" ewd:figID="16" ewd:figtype="w2w" ewd:pinNo="40" style="cursor:pointer;"><path d=" M  824.36,  290.74  L  807.37,  290.74  L  807.37,  299.24  L  824.36,  299.24  L  824.36,  290.74 " style="&st2;" /><text style="&st8;" transform="matrix(&st16;  808.72  297.48 )"><tspan style="&st18;" x="0" y="0">CA6</tspan></text></a><a ewd:code="AD1" ewd:figID="17" ewd:figtype="w2w" ewd:pinNo="2" style="cursor:pointer;"><path d=" M  824.36,  341.73  L  807.37,  341.73  L  807.37,  350.23  L  824.36,  350.23  L  824.36,  341.73 " style="&st2;" /><text style="&st8;" transform="matrix(&st16;  809.13  348.47 )"><tspan style="&st18;" x="0" y="0">AD1</tspan></text></a><a ewd:code="CA3" ewd:figID="18" ewd:figtype="w2w" ewd:pinNo="25" style="cursor:pointer;"><path d=" M  645.89,  333.23  L  628.89,  333.23  L  628.89,  341.73  L  645.89,  341.73  L  645.89,  333.23 " style="&st2;" /><text style="&st8;" transform="matrix(&st16;  630.25  339.97 )"><tspan style="&st18;" x="0" y="0">CA3</tspan></text></a><a ewd:code="CA6" ewd:figID="19" ewd:figtype="w2w" ewd:pinNo="3" style="cursor:pointer;"><path d=" M  900.85,  579.69  L  883.85,  579.69  L  883.85,  588.19  L  900.85,  588.19  L  900.85,  579.69 " style="&st2;" /><text style="&st8;" transform="matrix(&st16;  885.21  586.43 )"><tspan style="&st18;" x="0" y="0">CA6</tspan></text></a><a ewd:code="CA3" ewd:figID="20" ewd:figtype="w2w" ewd:pinNo="26" style="cursor:pointer;"><path d=" M  450.42,  333.23  L  433.43,  333.23  L  433.43,  341.73  L  450.42,  341.73  L  450.42,  333.23 " style="&st2;" /><text style="&st8;" transform="matrix(&st16;  434.79  339.97 )"><tspan style="&st18;" x="0" y="0">CA3</tspan></text></a><a ewd:code="CA6" ewd:figID="21" ewd:figtype="w2w" ewd:pinNo="23" style="cursor:pointer;"><path d=" M  705.38,  290.74  L  688.38,  290.74  L  688.38,  299.24  L  705.38,  299.24  L  705.38,  290.74 " style="&st2;" /><text style="&st8;" transform="matrix(&st16;  689.74  297.48 )"><tspan style="&st18;" x="0" y="0">CA6</tspan></text></a><a ewd:code="CA6" ewd:figID="22" ewd:figtype="w2w" ewd:pinNo="16" style="cursor:pointer;"><path d=" M  739.38,  163.26  L  722.38,  163.26  L  722.38,  171.76  L  739.38,  171.76  L  739.38,  163.26 " style="&st2;" /><text style="&st8;" transform="matrix(&st16;  723.74  170.0 )"><tspan style="&st18;" x="0" y="0">CA6</tspan></text></a><a ewd:code="AD1" ewd:figID="23" ewd:figtype="w2w" ewd:pinNo="6" style="cursor:pointer;"><path d=" M  484.42,  333.23  L  467.42,  333.23  L  467.42,  341.73  L  484.42,  341.73  L  484.42,  333.23 " style="&st2;" /><text style="&st8;" transform="matrix(&st16;  469.19  339.97 )"><tspan style="&st18;" x="0" y="0">AD1</tspan></text></a><a ewd:code="AD1" ewd:figID="24" ewd:figtype="w2w" ewd:pinNo="5" style="cursor:pointer;"><path d=" M  611.90,  333.23  L  594.90,  333.23  L  594.90,  341.73  L  611.90,  341.73  L  611.90,  333.23 " style="&st2;" /><text style="&st8;" transform="matrix(&st16;  596.67  339.97 )"><tspan style="&st18;" x="0" y="0">AD1</tspan></text></a><a ewd:code="AD1" ewd:figID="25" ewd:figtype="w2w" ewd:pinNo="4" style="cursor:pointer;"><path d=" M  943.34,  579.69  L  926.35,  579.69  L  926.35,  588.19  L  943.34,  588.19  L  943.34,  579.69 " style="&st2;" /><text style="&st8;" transform="matrix(&st16;  928.11  586.43 )"><tspan style="&st18;" x="0" y="0">AD1</tspan></text></a><a ewd:code="EA1" ewd:figID="26" ewd:figtype="w2w" ewd:pinNo="2" style="cursor:pointer;"><path d=" M  943.34,  503.20  L  926.35,  503.20  L  926.35,  511.70  L  943.34,  511.70  L  943.34,  503.20 " style="&st2;" /><text style="&st8;" transform="matrix(&st16;  928.26  509.94 )"><tspan style="&st18;" x="0" y="0">EA1</tspan></text></a><a ewd:code="EA1" ewd:figID="27" ewd:figtype="w2w" ewd:pinNo="57" style="cursor:pointer;"><path d=" M  739.38,  120.77  L  722.38,  120.77  L  722.38,  129.26  L  739.38,  129.26  L  739.38,  120.77 " style="&st2;" /><text style="&st8;" transform="matrix(&st16;  724.3  127.51 )"><tspan style="&st18;" x="0" y="0">EA1</tspan></text></a><a ewd:code="AD1" ewd:figID="28" ewd:figtype="w2w" ewd:pinNo="3" style="cursor:pointer;"><path d=" M  705.38,  333.23  L  688.38,  333.23  L  688.38,  341.73  L  705.38,  341.73  L  705.38,  333.23 " style="&st2;" /><text style="&st8;" transform="matrix(&st16;  690.15  339.97 )"><tspan style="&st18;" x="0" y="0">AD1</tspan></text></a></g></svg>