﻿<?xml version="1.0" encoding="utf-8"?>
<!DOCTYPE svg PUBLIC "-//W3C//DTD SVG 1.0//EN" "http://www.w3.org/TR/2001/REC-SVG-20010904/DTD/svg10.dtd"[
	<!ENTITY ns_flows "http://ns.adobe.com/Flows/1.0/">
	<!ENTITY ns_svg "http://www.w3.org/2000/svg">
	<!ENTITY ns_xlink "http://www.w3.org/1999/xlink">
	<!ENTITY st0 "font-size:7px;font-family:'MS-PGothic';adobe-font-script:japanese;">
	<!ENTITY st1 "font-size:6px;font-family:'ArialMT';">
	<!-- White fill  -->
	<!ENTITY st2 "fill:#FFFFFF;stroke:#000000; stroke-width:1.41;stroke-linecap:round;stroke-linejoin:round;">
	<!-- Yellow fill  -->
	<!ENTITY st3 "fill:#FFFFCC;stroke:#FFFFCC; stroke-width:0.1;stroke-linecap:round;stroke-linejoin:round;">
	<!-- Gray fill  -->
	<!ENTITY st4 "fill:#CCCCCC;stroke:#CCCCCC; stroke-width:0.1;stroke-linecap:round;stroke-linejoin:round;">
	<!-- Light-blue fill -->
	<!ENTITY st5 "fill:#CCECF4;stroke:#000000; stroke-width:1.133;stroke-linecap:round;stroke-linejoin:round;">
	<!ENTITY st6 "fill:none;stroke-linecap:butt; stroke-linejoin:round;">
	<!ENTITY st7 "fill:none;stroke:#000000;stroke-linecap:round;stroke-linejoin:round;">
	<!ENTITY st8 "enable-background:new    ;">
	<!-- Black fill -->
	<!ENTITY st9 "fill:#000000;stroke:#000000; stroke-linecap:round;stroke-linejoin:round;">
	<!-- SRS note   -->
	<!ENTITY st10 "font-size:9px;font-family:'ArialMT';">
	<!ENTITY st11 "font-size:9px;font-family:'Svg Symbol';">
	<!ENTITY st12 "font-size:6px;font-family:'Svg Symbol';">
	<!ENTITY st13 "fill:none;stroke:#ff0000;stroke-linecap:round;stroke-linejoin:round;">
	<!-- Yellow fill  -->
	<!ENTITY st14 "fill:#FFFF00;stroke:#FFFF00; stroke-width:0.1;stroke-linecap:round;stroke-linejoin:round;">
	<!ENTITY st15 "font-size:6px;font-family:'MS-PGothic';adobe-font-script:japanese;">
	<!ENTITY st16 "1.00 0.00 0.00 1.00">
	<!ENTITY st17 "0.00 -1.00 1.00 0.00">
	<!ENTITY st18 "font-size:6px;font-family:'Arial';">
	<!ENTITY st19 "font-size:9px;font-family:'Arial';">
	<!ENTITY st20 "font-size:6px;font-family:'MS-PGothic','MS PGothic';adobe-font-script:japanese;">
	<!ENTITY st21 "font-size:7px;font-family:'MS-PGothic','MS PGothic';adobe-font-script:japanese;">
	<!ATTLIST svg
		xmlns:ewd CDATA #FIXED "http://shcl.co.jp/ewd"
		xmlns:a CDATA #FIXED "http://ns.adobe.com/AdobeSVGViewerExtensions/3.0/"
		ewd:ver CDATA #IMPLIED
	>
	<!ATTLIST a
		ewd:lineID CDATA #IMPLIED
		ewd:groupID CDATA #IMPLIED
		ewd:figtype CDATA #IMPLIED
		ewd:code CDATA #IMPLIED
		ewd:figID CDATA #IMPLIED
		ewd:pinNo CDATA #IMPLIED
		ewd:comment CDATA #IMPLIED >
	<!ATTLIST g
		ewd:lineID CDATA #IMPLIED
		ewd:groupID CDATA #IMPLIED
		ewd:figtype CDATA #IMPLIED
		ewd:code CDATA #IMPLIED
		ewd:figID CDATA #IMPLIED
		ewd:pinNo CDATA #IMPLIED
		ewd:comment CDATA #IMPLIED >
	<!ATTLIST text
		ewd:textID CDATA #IMPLIED >
	<!ATTLIST title
		ewd:textID CDATA #IMPLIED >
]>
<!-- Generator: Shintec Hozumi YS   -->
<svg onload="call_execInitLoadProc_svg('system')" style="overflow:visible;  enable-background:new 0 0 4594.024 710.000" viewBox="0 0 4594.024 710.000" height="710.000" width="4594.024" xml:space="preserve" ewd:ver="L2.1.2.8" xmlns="&ns_svg;" xmlns:a="http://ns.adobe.com/AdobeSVGViewerExtensions/3.0/" xmlns:ewd="http://shcl.co.jp/ewd" xmlns:xlink="&ns_xlink;"><script type="text/javascript" xlink:href="../../../../../system/js/ewd/fig/svgfig.js" xmlns:xlink="http://www.w3.org/1999/xlink" /><defs><font horiz-adv-x="1229"><font-face font-family="Svg Symbol" units-per-em="2048" panose-1="5 5 1 2 1 7 6 2 5 7" ascent="2059" descent="450" alphabetic="0" /><missing-glyph d="M 103,0 l 0,1280 1024,0 0,-1280 -1024,0 z m 32,32 l 960,0 0,1216 -960,0 0,-1216 z" /><glyph unicode="" horiz-adv-x="1573" d="M 1517,0 l -567,0 24,279 q 141,59 207.5,168 66.5,109 66.5,306    0,272 -132.5,417.5 -132.5,145.5 -333.5,145.5 -194,0 -328,-147.5 -134,-147.5 -134,-401.5 0,-200 68.5,-319 68.5,-119     206.5,-169 l 25,-279 -564,0 0,279 35,0 q 3,-61 32,-83 45,-35 137,-35 l 270,0 0,70 q -210,61 -324.5,209 -114.5,148     -114.5,349 0,252 186.5,425 186.5,173 504.5,173 195,0 358.5,-73.5 163.5,-73.5 252,-214.5 88.5,-141 88.5,-310 0,-207     -121.5,-360.5 -121.5,-153.5 -317.5,-197.5 l -8,-70 275,0 q 92,0 128,28 36,28 42,90 l 38,0 0,-279 z" /></font></defs>
<g id="ewd_top"><a ewd:code="L1" ewd:figID="1" ewd:figtype="conn" style="cursor:pointer;"><path d=" M  883.85,  486.20  L  883.85,  452.21  L  866.86,  452.21  L  866.86,  486.20  L  883.85,  486.20 " style="&st5;" /><title ewd:textID="15">Front Door Courtesy Light Switch Assembly RH</title></a><a ewd:code="S27" ewd:figID="2" ewd:figtype="conn" style="cursor:pointer;"><path d=" M 4070.82,  460.71  L 4087.82,  460.71  L 4087.82,  477.71  L 4070.82,  477.71  L 4070.82,  460.71 " style="&st5;" /><title ewd:textID="18">Junction Connector</title></a><a ewd:code="E61" ewd:figID="3" ewd:figtype="conn" style="cursor:pointer;"><path d=" M 2940.51,  180.26  L 2940.51,  231.25  L 2957.51,  231.25  L 2957.51,  180.26  L 2940.51,  180.26 " style="&st5;" /><title ewd:textID="18">Junction Connector</title></a><a ewd:code="E58" ewd:figID="4" ewd:figtype="conn" style="cursor:pointer;"><path d=" M 3798.87,  154.76  L 3815.86,  154.76  L 3815.86,  171.76  L 3798.87,  171.76  L 3798.87,  154.76 " style="&st5;" /><title ewd:textID="18">Junction Connector</title></a><a ewd:code="C94" ewd:figID="5" ewd:figtype="conn" style="cursor:pointer;"><path d=" M 1368.27,  596.69  L 1368.27,  613.68  L 1385.27,  613.68  L 1385.27,  596.69  L 1368.27,  596.69 " style="&st5;" /><title ewd:textID="18">Junction Connector</title></a><a ewd:code="I14" ewd:figID="6" ewd:figtype="conn" style="cursor:pointer;"><path d=" M 1988.67,  316.23  L 1988.67,  401.22  L 1640.23,  401.22  L 1640.23,  316.23  L 1988.67,  316.23 " style="&st5;" /><title ewd:textID="16">Front Door Lock Assembly LH</title></a><a ewd:code="S15" ewd:figID="7" ewd:figtype="conn" style="cursor:pointer;"><path d=" M 3909.35,  562.69  L 3909.35,  545.69  L 4011.33,  545.69  L 4011.33,  562.69  L 3909.35,  562.69 " style="&st5;" /><title ewd:textID="18">Junction Connector</title></a><a ewd:code="L29,L30" ewd:figID="8" ewd:figtype="conn" style="cursor:pointer;"><path d=" M 4410.76,  409.72  L 4410.76,  460.71  L 4563.74,  460.71  L 4563.74,  409.72  L 4410.76,  409.72 " style="&st5;" /><title ewd:textID="18">Junction Connector</title></a><a ewd:code="E29" ewd:figID="9" ewd:figtype="conn" style="cursor:pointer;"><path d=" M 4189.80,  307.73  L 4189.80,  350.23  L 4359.77,  350.23  L 4359.77,  307.73  L 4189.80,  307.73 " style="&st5;" /><title ewd:textID="8">Certification ECU Assembly</title></a><a ewd:code="E76" ewd:figID="10" ewd:figtype="conn" style="cursor:pointer;"><path d=" M 4291.78,  197.25  L 4291.78,  231.25  L 4470.25,  231.25  L 4470.25,  197.25  L 4291.78,  197.25 " style="&st5;" /><title ewd:textID="18">Junction Connector</title></a><a ewd:code="C48" ewd:figID="11" ewd:figtype="conn" style="cursor:pointer;"><path d=" M 1317.28,  562.69  L 1317.28,  562.69  C 1317.28   562.69  1317.28   562.69  1317.28   562.69  L 1317.28,  562.69  C 1317.28   558.00  1321.08   554.19  1325.78   554.19  L 1325.78,  554.19  C 1330.47   554.19  1334.28   558.00  1334.28   562.69  L 1334.28,  562.69  L 1334.28,  579.69  C 1334.28   579.69  1334.28   579.69  1334.28   579.69  L 1334.28,  579.69  C 1334.28   584.38  1330.47   588.19  1325.78   588.19  L 1325.78,  588.19  C 1321.08   588.19  1317.28   584.38  1317.28   579.69  L 1317.28,  579.69 " style="&st5;" /><title ewd:textID="10">Crankshaft Position Sensor</title></a><a ewd:code="E62" ewd:figID="12" ewd:figtype="conn" style="cursor:pointer;"><path d=" M  569.40,  197.25  L  569.40,  214.25  L  586.40,  214.25  L  586.40,  197.25  L  569.40,  197.25 " style="&st5;" /><title ewd:textID="18">Junction Connector</title></a><a ewd:code="E69" ewd:figID="13" ewd:figtype="conn" style="cursor:pointer;"><path d=" M 1155.81,  163.26  L 1155.81,  214.25  L 1342.78,  214.25  L 1342.78,  163.26  L 1155.81,  163.26 " style="&st5;" /><title ewd:textID="18">Junction Connector</title></a><a ewd:code="E59" ewd:figID="14" ewd:figtype="conn" style="cursor:pointer;"><path d=" M  713.88,  197.25  L  730.88,  197.25  L  730.88,  214.25  L  713.88,  214.25  L  713.88,  197.25 " style="&st5;" /><title ewd:textID="18">Junction Connector</title></a><a ewd:code="S16" ewd:figID="15" ewd:figtype="conn" style="cursor:pointer;"><path d=" M 3994.33,  460.71  L 4011.33,  460.71  L 4011.33,  477.71  L 3994.33,  477.71  L 3994.33,  460.71 " style="&st5;" /><title ewd:textID="18">Junction Connector</title></a><a ewd:code="A38,A52,C45,C46" ewd:figID="16" ewd:figtype="conn" style="cursor:pointer;"><path d=" M 1274.79,  452.21  L 1274.79,  409.72  L 1521.25,  409.72  L 1521.25,  452.21  L 1274.79,  452.21 " style="&st5;" /><title>ECM</title></a><a ewd:code="S22" ewd:figID="17" ewd:figtype="conn" style="cursor:pointer;"><path d=" M 3900.85,  316.23  L 3900.85,  384.22  L 3943.34,  384.22  L 3943.34,  316.23  L 3900.85,  316.23 " style="&st5;" /><title ewd:textID="7">Back Door Lock Assembly</title></a><a ewd:code="E72" ewd:figID="18" ewd:figtype="conn" style="cursor:pointer;"><path d=" M 1249.29,  265.24  L 1249.29,  282.24  L 1385.27,  282.24  L 1385.27,  265.24  L 1249.29,  265.24 " style="&st5;" /><title ewd:textID="18">Junction Connector</title></a><a ewd:code="FUSE76" ewd:figID="19" ewd:figtype="rb" style="cursor:pointer;"><path d=" M   63.74,   35.78  L   63.74,   78.27  L   89.24,   78.27  L   89.24,   35.78  L   63.74,   35.78 " style="&st5;" /></a><a ewd:code="E67" ewd:figID="20" ewd:figtype="conn" style="cursor:pointer;"><path d=" M  637.39,  197.25  L  654.39,  197.25  L  654.39,  214.25  L  637.39,  214.25  L  637.39,  197.25 " style="&st5;" /><title ewd:textID="18">Junction Connector</title></a><a ewd:code="L2" ewd:figID="21" ewd:figtype="conn" style="cursor:pointer;"><path d=" M  960.34,  486.20  L  960.34,  452.21  L  943.34,  452.21  L  943.34,  486.20  L  960.34,  486.20 " style="&st5;" /><title ewd:textID="23">Rear Door Courtesy Light Switch Assembly RH</title></a><a ewd:code="E61" ewd:figID="22" ewd:figtype="conn" style="cursor:pointer;"><path d=" M  866.86,  197.25  L  883.85,  197.25  L  883.85,  214.25  L  866.86,  214.25  L  866.86,  197.25 " style="&st5;" /><title ewd:textID="18">Junction Connector</title></a><a ewd:code="E86" ewd:figID="23" ewd:figtype="conn" style="cursor:pointer;"><path d=" M 3178.47,  120.77  L 3178.47,  154.76  L 3552.41,  154.76  L 3552.41,  120.77  L 3178.47,  120.77 " style="&st5;" /><title ewd:textID="12">Double Lock Door Control Relay Assembly</title></a><a ewd:code="J6" ewd:figID="24" ewd:figtype="conn" style="cursor:pointer;"><path d=" M 3135.98,  418.22  L 3135.98,  486.20  L 3297.45,  486.20  L 3297.45,  418.22  L 3135.98,  418.22 " style="&st5;" /><title ewd:textID="25">Rear Door Lock Assembly RH</title></a><a ewd:code="FUSE9" ewd:figID="25" ewd:figtype="rb" style="cursor:pointer;"><path d=" M 3709.63,  120.77  L 3709.63,  163.26  L 3735.13,  163.26  L 3735.13,  120.77  L 3709.63,  120.77 " style="&st5;" /></a><a ewd:code="E61" ewd:figID="26" ewd:figtype="conn" style="cursor:pointer;"><path d=" M 3798.87,  341.73  L 3798.87,  358.73  L 3815.86,  358.73  L 3815.86,  341.73  L 3798.87,  341.73 " style="&st5;" /><title ewd:textID="18">Junction Connector</title></a><a ewd:code="E75" ewd:figID="27" ewd:figtype="conn" style="cursor:pointer;"><path d=" M 1155.81,  265.24  L 1155.81,  282.24  L 1215.30,  282.24  L 1215.30,  265.24  L 1155.81,  265.24 " style="&st5;" /><title ewd:textID="18">Junction Connector</title></a><a ewd:code="I6" ewd:figID="28" ewd:figtype="conn" style="cursor:pointer;"><path d=" M 2507.08,  316.23  L 2507.08,  401.22  L 2175.64,  401.22  L 2175.64,  316.23  L 2507.08,  316.23 " style="&st5;" /><title ewd:textID="17">Front Door Lock Assembly RH</title></a><a ewd:code="E73" ewd:figID="29" ewd:figtype="conn" style="cursor:pointer;"><path d=" M 4495.75,  197.25  L 4495.75,  214.25  L 4563.74,  214.25  L 4563.74,  197.25  L 4495.75,  197.25 " style="&st5;" /><title ewd:textID="18">Junction Connector</title></a><a ewd:code="FUSE4" ewd:figID="30" ewd:figtype="rb" style="cursor:pointer;"><path d=" M   12.75,   35.78  L   12.75,   78.27  L   38.24,   78.27  L   38.24,   35.78  L   12.75,   35.78 " style="&st5;" /></a><a ewd:code="K3" ewd:figID="31" ewd:figtype="conn" style="cursor:pointer;"><path d=" M  807.37,  486.20  L  807.37,  452.21  L  790.37,  452.21  L  790.37,  486.20  L  807.37,  486.20 " style="&st5;" /><title ewd:textID="22">Rear Door Courtesy Light Switch Assembly LH</title></a><a ewd:code="S1" ewd:figID="32" ewd:figtype="conn" style="cursor:pointer;"><path d=" M 3985.83,  316.23  L 3985.83,  384.22  L 4028.33,  384.22  L 4028.33,  316.23  L 3985.83,  316.23 " style="&st5;" /><title ewd:textID="7">Back Door Lock Assembly</title></a><a ewd:code="A20" ewd:figID="33" ewd:figtype="conn" style="cursor:pointer;"><path d=" M 4181.30,  562.69  L 4181.30,  511.70  L 4215.30,  511.70  L 4215.30,  562.69  L 4181.30,  562.69 " style="&st5;" /><title ewd:textID="27">Wireless Door Lock Buzzer</title></a><a ewd:code="L21" ewd:figID="34" ewd:figtype="conn" style="cursor:pointer;"><path d=" M 4257.79,  528.70  L 4359.77,  528.70  L 4359.77,  562.69  L 4257.79,  562.69  L 4257.79,  528.70 " style="&st5;" /><title ewd:textID="11">Door Control Receiver</title></a><a ewd:code="C114" ewd:figID="35" ewd:figtype="conn" style="cursor:pointer;"><path d=" M 1419.26,  324.73  L 1521.25,  324.73  L 1521.25,  282.24  L 1419.26,  282.24  L 1419.26,  324.73 " style="&st5;" /><title ewd:textID="10">Crankshaft Position Sensor</title></a><a ewd:code="J13" ewd:figID="36" ewd:figtype="conn" style="cursor:pointer;"><path d=" M 2617.56,  316.23  L 2617.56,  401.22  L 2796.03,  401.22  L 2796.03,  316.23  L 2617.56,  316.23 " style="&st5;" /><title ewd:textID="24">Rear Door Lock Assembly LH</title></a><a ewd:code="E61" ewd:figID="37" ewd:figtype="conn" style="cursor:pointer;"><path d=" M 3322.94,  231.25  L 3322.94,  282.24  L 3339.94,  282.24  L 3339.94,  231.25  L 3322.94,  231.25 " style="&st5;" /><title ewd:textID="18">Junction Connector</title></a><a ewd:code="E59" ewd:figID="38" ewd:figtype="conn" style="cursor:pointer;"><path d=" M 3713.88,  341.73  L 3713.88,  358.73  L 3730.88,  358.73  L 3730.88,  341.73  L 3713.88,  341.73 " style="&st5;" /><title ewd:textID="18">Junction Connector</title></a><a ewd:code="C65" ewd:figID="39" ewd:figtype="conn" style="cursor:pointer;"><path d=" M 1453.26,  579.69  L 1453.26,  613.68  L 1521.25,  613.68  L 1521.25,  579.69  L 1453.26,  579.69 " style="&st5;" /><title ewd:textID="10">Crankshaft Position Sensor</title></a><a ewd:code="E59" ewd:figID="40" ewd:figtype="conn" style="cursor:pointer;"><path d=" M  433.43,  197.25  L  484.42,  197.25  L  484.42,  214.25  L  433.43,  214.25  L  433.43,  197.25 " style="&st5;" /><title ewd:textID="18">Junction Connector</title></a><a ewd:code="K2" ewd:figID="41" ewd:figtype="conn" style="cursor:pointer;"><path d=" M  730.88,  486.20  L  730.88,  452.21  L  713.88,  452.21  L  713.88,  486.20  L  730.88,  486.20 " style="&st5;" /><title ewd:textID="14">Front Door Courtesy Light Switch Assembly LH</title></a><a ewd:code="E1,E2,E3" ewd:figID="42" ewd:figtype="conn" style="cursor:pointer;"><path d=" M  288.95,   35.78  L  288.95,   86.77  L 4368.27,   86.77  L 4368.27,   35.78  L  288.95,   35.78 " style="&st5;" /><title ewd:textID="21">Main Body ECU</title></a><a ewd:code="C42" ewd:figID="43" ewd:figtype="conn" style="cursor:pointer;"><path d=" M 1164.31,  596.69  L 1164.31,  613.68  L 1181.30,  613.68  L 1181.30,  596.69  L 1164.31,  596.69 " style="&st5;" /><title ewd:textID="18">Junction Connector</title></a><a ewd:code="2" ewd:figID="44" ewd:figtype="jb" style="cursor:pointer;"><path d=" M 2626.06,   86.77  L 2626.06,  146.26  L 2651.56,  146.26  L 2651.56,   86.77  L 2626.06,   86.77 " style="&st4;" /></a><a ewd:code="2" ewd:figID="45" ewd:figtype="jb" style="cursor:pointer;"><path d=" M  781.87,   86.77  L  807.37,   86.77  L  807.37,  137.76  L  781.87,  137.76  L  781.87,   86.77 " style="&st4;" /></a><a ewd:code="2" ewd:figID="46" ewd:figtype="jb" style="cursor:pointer;"><path d=" M 3696.88,  248.24  L 3696.88,  299.24  L 3730.88,  299.24  L 3730.88,  248.24  L 3696.88,  248.24 " style="&st4;" /></a><a ewd:code="2" ewd:figID="47" ewd:figtype="jb" style="cursor:pointer;"><path d=" M  560.91,   86.77  L  586.40,   86.77  L  586.40,  137.76  L  560.91,  137.76  L  560.91,   86.77 " style="&st4;" /></a><a ewd:code="2" ewd:figID="48" ewd:figtype="jb" style="cursor:pointer;"><path d=" M  118.98,   35.78  L  280.45,   35.78  L  280.45,   86.77  L  416.43,   86.77  L  416.43,  137.76  L  118.98,  137.76  L  118.98,   35.78 " style="&st4;" /></a><a ewd:code="3" ewd:figID="49" ewd:figtype="jb" style="cursor:pointer;"><path d=" M 3569.40,  120.77  L 3569.40,  188.75  L 3620.40,  188.75  L 3620.40,  120.77  L 3569.40,  120.77 " style="&st4;" /></a><a ewd:code="2" ewd:figID="50" ewd:figtype="jb" style="cursor:pointer;"><path d=" M 1946.17,   86.77  L 1946.17,  129.26  L 1971.67,  129.26  L 1971.67,   86.77  L 1946.17,   86.77 " style="&st4;" /></a><a ewd:code="FUSE76" ewd:figID="51" ewd:figtype="fuse" style="cursor:pointer;"><path d=" M   63.74,   35.78  L   63.74,   78.27  L   89.24,   78.27  L   89.24,   35.78  L   63.74,   35.78 " style="&st7;" /></a><a ewd:code="FUSE149" ewd:figID="52" ewd:figtype="fuse" style="cursor:pointer;"><path d=" M  259.21,   78.27  L  259.21,   35.78  L  233.71,   35.78  L  233.71,   78.27  L  259.21,   78.27 " style="&st7;" /></a><a ewd:code="FUSE163" ewd:figID="53" ewd:figtype="fuse" style="cursor:pointer;"><path d=" M  199.72,   78.27  L  199.72,   35.78  L  174.22,   35.78  L  174.22,   78.27  L  199.72,   78.27 " style="&st7;" /></a><a ewd:code="FUSE9" ewd:figID="54" ewd:figtype="fuse" style="cursor:pointer;"><path d=" M 3709.63,  120.77  L 3709.63,  163.26  L 3735.13,  163.26  L 3735.13,  120.77  L 3709.63,  120.77 " style="&st7;" /></a><a ewd:code="FUSE215" ewd:figID="55" ewd:figtype="fuse" style="cursor:pointer;"><path d=" M 3573.65,  120.77  L 3573.65,  163.26  L 3599.15,  163.26  L 3599.15,  120.77  L 3573.65,  120.77 " style="&st7;" /></a><a ewd:code="FUSE191" ewd:figID="56" ewd:figtype="fuse" style="cursor:pointer;"><path d=" M  148.73,   78.27  L  148.73,   35.78  L  123.23,   35.78  L  123.23,   78.27  L  148.73,   78.27 " style="&st7;" /></a><a ewd:code="FUSE4" ewd:figID="57" ewd:figtype="fuse" style="cursor:pointer;"><path d=" M   12.75,   35.78  L   12.75,   78.27  L   38.24,   78.27  L   38.24,   35.78  L   12.75,   35.78 " style="&st7;" /></a><a ewd:lineID="1" style="cursor:pointer;"><path d=" M   25.50,  163.26  L   25.50,  282.24  L  441.93,  282.24  L  441.93,  232.38 " style="stroke:#000000;stroke-width: 5.10 ;&st6;" /><path d=" M   25.50,  163.26  L   25.50,  282.24  L  441.93,  282.24  L  441.93,  232.38 " style="stroke:#FFFFFF;stroke-width: 4.53 ;&st6;" /></a><a ewd:lineID="2" style="cursor:pointer;"><path d=" M   25.50,  148.24  L   25.50,  112.27 " style="stroke:#000000;stroke-width: 5.10 ;&st6;" /><path d=" M   25.50,  148.24  L   25.50,  112.27 " style="stroke:#FFFFFF;stroke-width: 4.53 ;&st6;" /></a><a ewd:lineID="3" style="cursor:pointer;"><path d=" M  407.93,  137.76  L  407.93,  188.75  L   76.49,  188.75  L   76.49,  112.27 " style="stroke:#00A0C6;stroke-width: 5.10 ;&st6;" /></a><a ewd:lineID="4" style="cursor:pointer;"><path d=" M  441.93,   95.84  L  441.93,  179.12 " style="stroke:#000000;stroke-width: 5.10 ;&st6;" /><path d=" M  441.93,   95.84  L  441.93,  179.12 " style="stroke:#FFFFFF;stroke-width: 4.53 ;&st6;" /></a><a ewd:lineID="5" style="cursor:pointer;"><path d=" M  475.92,   95.84  L  475.92,  179.12 " style="stroke:#000000;stroke-width: 5.10 ;&st6;" /><path d=" M  475.92,   95.84  L  475.92,  179.12 " style="stroke:#FFFFFF;stroke-width: 4.53 ;&st6;" /></a><a ewd:lineID="6" style="cursor:pointer;"><path d=" M  577.90,  214.25  L  577.90,  681.67 " style="stroke:#000000;stroke-width: 5.10 ;&st6;" /><path d=" M  577.90,  214.25  L  577.90,  681.67 " style="stroke:#FFFFFF;stroke-width: 4.53 ;&st6;" /><path d=" M  577.90,  214.25  L  577.90,  681.67 " style="stroke:#000000;stroke-width: 1.13 ;&st6;" /></a><a ewd:lineID="7" style="cursor:pointer;"><path d=" M  577.90,  137.76  L  577.90,  197.25 " style="stroke:#000000;stroke-width: 5.10 ;&st6;" /><path d=" M  577.90,  137.76  L  577.90,  197.25 " style="stroke:#FFFFFF;stroke-width: 4.53 ;&st6;" /><path d=" M  577.90,  137.76  L  577.90,  197.25 " style="stroke:#000000;stroke-width: 1.13 ;&st6;" /></a><a ewd:lineID="8" style="cursor:pointer;"><path d=" M  645.89,  214.25  L  645.89,  681.67 " style="stroke:#992903;stroke-width: 5.10 ;&st6;" /></a><a ewd:lineID="9" style="cursor:pointer;"><path d=" M  645.89,   95.84  L  645.89,  197.25 " style="stroke:#992903;stroke-width: 5.10 ;&st6;" /></a><a ewd:lineID="10" style="cursor:pointer;"><path d=" M  722.38,  373.46  L  722.38,  452.21 " style="stroke:#00A0C6;stroke-width: 5.10 ;&st6;" /></a><a ewd:lineID="11" style="cursor:pointer;"><path d=" M  722.38,  223.31  L  722.38,  358.73 " style="stroke:#00A0C6;stroke-width: 5.10 ;&st6;" /></a><a ewd:lineID="12" style="cursor:pointer;"><path d=" M  722.38,  104.90  L  722.38,  188.19 " style="stroke:#00A0C6;stroke-width: 5.10 ;&st6;" /></a><a ewd:lineID="13" style="cursor:pointer;"><path d=" M  798.87,  137.76  L  798.87,  452.21 " style="stroke:#000000;stroke-width: 5.10 ;&st6;" /><path d=" M  798.87,  137.76  L  798.87,  452.21 " style="stroke:#FFFFFF;stroke-width: 4.53 ;&st6;" /></a><a ewd:lineID="14" style="cursor:pointer;"><path d=" M  875.35,  373.46  L  875.35,  452.21 " style="stroke:#FFE600;stroke-width: 5.10 ;&st6;" /></a><a ewd:lineID="15" style="cursor:pointer;"><path d=" M  875.35,  290.74  L  875.35,  358.73 " style="stroke:#FFE600;stroke-width: 5.10 ;&st6;" /></a><a ewd:lineID="16" style="cursor:pointer;"><path d=" M  875.35,  214.25  L  875.35,  267.51 " style="stroke:#FFE600;stroke-width: 5.10 ;&st6;" /></a><a ewd:lineID="17" style="cursor:pointer;"><path d=" M  875.35,  104.90  L  875.35,  197.25 " style="stroke:#FFE600;stroke-width: 5.10 ;&st6;" /></a><a ewd:lineID="18" style="cursor:pointer;"><path d=" M  951.84,  373.46  L  951.84,  452.21 " style="stroke:#008837;stroke-width: 5.10 ;&st6;" /></a><a ewd:lineID="19" style="cursor:pointer;"><path d=" M  951.84,  290.74  L  951.84,  358.73 " style="stroke:#008837;stroke-width: 5.10 ;&st6;" /></a><a ewd:lineID="20" style="cursor:pointer;"><path d=" M  951.84,   95.84  L  951.84,  267.51 " style="stroke:#008837;stroke-width: 5.10 ;&st6;" /></a><a ewd:lineID="21" style="cursor:pointer;"><path d=" M 1206.80,  282.24  L 1206.80,  341.73  L 1096.32,  341.73  L 1096.32,   95.84 " style="stroke:#99D9E8;stroke-width: 5.10 ;&st6;" /></a><a ewd:lineID="22" style="cursor:pointer;"><path d=" M 1096.32,   95.84  L 1096.32,  103.77  L 1079.32,  120.77  L 1079.32,  358.73  L 1257.79,  358.73  L 1257.79,  282.24 " style="stroke:#99D9E8;stroke-width: 5.10 ;&st6;" /></a><a ewd:lineID="23" style="cursor:pointer;"><path d=" M 1164.31,  282.24  L 1164.31,  324.73  L 1130.31,  324.73  L 1130.31,   95.84 " style="stroke:#000000;stroke-width: 5.10 ;&st6;" /></a><a ewd:lineID="24" style="cursor:pointer;"><path d=" M 1130.31,   95.84  L 1130.31,  103.77  L 1147.31,  120.77  L 1376.77,  120.77  L 1376.77,  265.24 " style="stroke:#000000;stroke-width: 5.10 ;&st6;" /></a><a ewd:lineID="25" style="cursor:pointer;"><path d=" M 1164.31,  223.31  L 1164.31,  265.24 " style="stroke:#000000;stroke-width: 5.10 ;&st6;" /></a><a ewd:lineID="26" style="cursor:pointer;"><path d=" M 1172.80,  613.68  L 1172.80,  681.67 " style="stroke:#000000;stroke-width: 5.10 ;&st6;" /><path d=" M 1172.80,  613.68  L 1172.80,  681.67 " style="stroke:#FFFFFF;stroke-width: 4.53 ;&st6;" /><path d=" M 1172.80,  613.68  L 1172.80,  681.67 " style="stroke:#000000;stroke-width: 1.13 ;&st6;" /></a><a ewd:lineID="27" style="cursor:pointer;"><path d=" M 1215.30,  554.19  L 1172.80,  554.19  L 1172.80,  596.69 " style="stroke:#992903;stroke-width: 5.10 ;&st6;" /></a><a ewd:lineID="28" style="cursor:pointer;"><path d=" M 1206.80,  223.31  L 1206.80,  265.24 " style="stroke:#000000;stroke-width: 5.10 ;&st6;" /><path d=" M 1206.80,  223.31  L 1206.80,  265.24 " style="stroke:#FFFFFF;stroke-width: 4.53 ;&st6;" /></a><a ewd:lineID="29" style="cursor:pointer;"><path d=" M 1291.78,  470.34  L 1291.78,  622.18  L 1325.78,  622.18  L 1325.78,  588.19 " style="stroke:#00A0C6;stroke-width: 5.10 ;&st6;" /></a><a ewd:lineID="30" style="cursor:pointer;"><path d=" M 1291.78,  373.46  L 1291.78,  347.96 " style="stroke:#F668B2;stroke-width: 5.10 ;&st6;" /></a><a ewd:lineID="31" style="cursor:pointer;"><path d=" M 1291.78,  324.73  L 1291.78,  282.24 " style="stroke:#F668B2;stroke-width: 5.10 ;&st6;" /></a><a ewd:lineID="32" style="cursor:pointer;"><path d=" M 1291.78,  223.31  L 1291.78,  265.24 " style="stroke:#FFE600;stroke-width: 5.10 ;&st6;" /></a><a ewd:lineID="33" style="cursor:pointer;"><path d=" M 1325.78,  470.34  L 1325.78,  554.19 " style="stroke:#008837;stroke-width: 5.10 ;&st6;" /></a><a ewd:lineID="34" style="cursor:pointer;"><path d=" M 1334.28,  347.96  L 1334.28,  373.46 " style="stroke:#000000;stroke-width: 5.10 ;&st6;" /></a><a ewd:lineID="35" style="cursor:pointer;"><path d=" M 1334.28,  324.73  L 1334.28,  282.24 " style="stroke:#000000;stroke-width: 5.10 ;&st6;" /></a><a ewd:lineID="36" style="cursor:pointer;"><path d=" M 1334.28,  223.31  L 1334.28,  265.24 " style="stroke:#000000;stroke-width: 5.10 ;&st6;" /></a><a ewd:lineID="37" style="cursor:pointer;"><path d=" M 1376.77,  613.68  L 1376.77,  681.67 " style="stroke:#992903;stroke-width: 5.10 ;&st6;" /></a><a ewd:lineID="38" style="cursor:pointer;"><path d=" M 1376.77,  596.69  L 1376.77,  486.20  L 1419.26,  486.20 " style="stroke:#992903;stroke-width: 5.10 ;&st6;" /></a><a ewd:lineID="39" style="cursor:pointer;"><path d=" M 1470.25,  613.68  L 1470.25,  639.18  L 1427.76,  639.18  L 1427.76,  562.69 " style="stroke:#992903;stroke-width: 5.10 ;&st6;" /></a><a ewd:lineID="40" style="cursor:pointer;"><path d=" M 1436.26,  400.65  L 1436.26,  324.73 " style="stroke:#00A0C6;stroke-width: 5.10 ;&st6;" /></a><a ewd:lineID="41" style="cursor:pointer;"><path d=" M 1470.25,  470.34  L 1470.25,  579.69 " style="stroke:#000000;stroke-width: 5.10 ;&st6;" /></a><a ewd:lineID="42" style="cursor:pointer;"><path d=" M 1470.25,  324.73  L 1470.25,  400.65 " style="stroke:#FFE600;stroke-width: 5.10 ;&st6;" /></a><a ewd:lineID="43" style="cursor:pointer;"><path d=" M 1504.25,  470.34  L 1504.25,  579.69 " style="stroke:#000000;stroke-width: 5.10 ;&st6;" /><path d=" M 1504.25,  470.34  L 1504.25,  579.69 " style="stroke:#FFFFFF;stroke-width: 4.53 ;&st6;" /></a><a ewd:lineID="44" style="cursor:pointer;"><path d=" M 1504.25,  324.73  L 1504.25,  400.65 " style="stroke:#000000;stroke-width: 5.10 ;&st6;" /><path d=" M 1504.25,  324.73  L 1504.25,  400.65 " style="stroke:#FFFFFF;stroke-width: 4.53 ;&st6;" /></a><a ewd:lineID="45" style="cursor:pointer;"><path d=" M 1665.72,  410.28  L 1665.72,  605.18  L 3407.93,  605.18  L 3407.93,  384.22 " style="stroke:#999999;stroke-width: 5.10 ;&st6;" /></a><a ewd:lineID="46" style="cursor:pointer;"><path d=" M 1708.21,  410.28  L 1708.21,  571.19  L 3331.44,  571.19  L 3331.44,  384.22 " style="stroke:#F668B2;stroke-width: 5.10 ;&st6;" /></a><a ewd:lineID="47" style="cursor:pointer;"><path d=" M 1750.71,  410.28  L 1750.71,  554.19  L 2949.01,  554.19  L 2949.01,  384.22 " style="stroke:#008837;stroke-width: 5.10 ;&st6;" /></a><a ewd:lineID="48" style="cursor:pointer;"><path d=" M 1827.19,  460.71  L 1784.70,  460.71  L 1784.70,  410.28 " style="stroke:#000000;stroke-width: 5.10 ;&st6;" /><path d=" M 1827.19,  460.71  L 1784.70,  460.71  L 1784.70,  410.28 " style="stroke:#FFFFFF;stroke-width: 4.53 ;&st6;" /><path d=" M 1827.19,  460.71  L 1784.70,  460.71  L 1784.70,  410.28 " style="stroke:#000000;stroke-width: 1.13 ;&st6;" /></a><a ewd:lineID="49" style="cursor:pointer;"><path d=" M 1835.69,  469.21  L 1835.69,  681.67 " style="stroke:#000000;stroke-width: 5.10 ;&st6;" /><path d=" M 1835.69,  469.21  L 1835.69,  681.67 " style="stroke:#FFFFFF;stroke-width: 4.53 ;&st6;" /><path d=" M 1835.69,  469.21  L 1835.69,  681.67 " style="stroke:#000000;stroke-width: 1.13 ;&st6;" /></a><a ewd:lineID="50" style="cursor:pointer;"><path d=" M 1835.69,  410.28  L 1835.69,  452.21 " style="stroke:#000000;stroke-width: 5.10 ;&st6;" /><path d=" M 1835.69,  410.28  L 1835.69,  452.21 " style="stroke:#FFFFFF;stroke-width: 4.53 ;&st6;" /><path d=" M 1835.69,  410.28  L 1835.69,  452.21 " style="stroke:#000000;stroke-width: 1.13 ;&st6;" /></a><a ewd:lineID="51" style="cursor:pointer;"><path d=" M 1835.69,  307.17  L 1835.69,  273.74 " style="stroke:#992903;stroke-width: 5.10 ;&st6;" /></a><a ewd:lineID="52" style="cursor:pointer;"><path d=" M 1835.69,  259.01  L 1835.69,   95.84 " style="stroke:#992903;stroke-width: 5.10 ;&st6;" /></a><a ewd:lineID="53" style="cursor:pointer;"><path d=" M 2286.12,   95.84  L 2286.12,  103.77  L 2269.12,  120.77  L 2150.14,  120.77  L 2150.14,  214.25  L 1852.69,  214.25  L 1852.69,  239.75  L 1835.69,  256.74  L 1835.69,  259.01 " style="stroke:#992903;stroke-width: 5.10 ;&st6;" /></a><a ewd:lineID="54" style="cursor:pointer;"><path d=" M 1835.69,   95.84  L 1835.69,  103.77  L 1852.69,  120.77  L 1852.69,  197.25  L 2277.62,  197.25  L 2286.12,  205.75  L 2286.12,  208.02 " style="stroke:#992903;stroke-width: 5.10 ;&st6;" /></a><a ewd:lineID="55" style="cursor:pointer;"><path d=" M 1895.18,  307.17  L 1895.18,  273.74 " style="stroke:#FFE600;stroke-width: 5.10 ;&st6;" /></a><a ewd:lineID="56" style="cursor:pointer;"><path d=" M 1895.18,   95.84  L 1895.18,  259.01 " style="stroke:#FFE600;stroke-width: 5.10 ;&st6;" /></a><a ewd:lineID="57" style="cursor:pointer;"><path d=" M 1895.18,   95.84  L 1895.18,  103.77  L 1912.18,  120.77  L 1912.18,  180.26  L 2192.63,  180.26  L 2192.63,  259.01 " style="stroke:#00A0C6;stroke-width: 5.10 ;&st6;" /></a><a ewd:lineID="58" style="cursor:pointer;"><path d=" M 1963.17,  273.74  L 1963.17,  307.17 " style="stroke:#7FC97F;stroke-width: 5.10 ;&st6;" /></a><a ewd:lineID="59" style="cursor:pointer;"><path d=" M 1963.17,  129.26  L 1963.17,  259.01 " style="stroke:#7FC97F;stroke-width: 5.10 ;&st6;" /></a><a ewd:lineID="60" style="cursor:pointer;"><path d=" M 1963.17,  129.26  L 1963.17,  137.76  L 1971.67,  146.26  L 2243.63,  146.26  L 2243.63,  259.01 " style="stroke:#7FC97F;stroke-width: 5.10 ;&st6;" /></a><a ewd:lineID="61" style="cursor:pointer;"><path d=" M 2192.63,  273.74  L 2192.63,  307.17 " style="stroke:#00A0C6;stroke-width: 5.10 ;&st6;" /></a><a ewd:lineID="62" style="cursor:pointer;"><path d=" M 2243.63,  273.74  L 2243.63,  307.17 " style="stroke:#7FC97F;stroke-width: 5.10 ;&st6;" /></a><a ewd:lineID="63" style="cursor:pointer;"><path d=" M 2286.12,  469.21  L 2286.12,  681.67 " style="stroke:#000000;stroke-width: 5.10 ;&st6;" /><path d=" M 2286.12,  469.21  L 2286.12,  681.67 " style="stroke:#FFFFFF;stroke-width: 4.53 ;&st6;" /><path d=" M 2286.12,  469.21  L 2286.12,  681.67 " style="stroke:#000000;stroke-width: 1.13 ;&st6;" /></a><a ewd:lineID="64" style="cursor:pointer;"><path d=" M 2286.12,  410.28  L 2286.12,  452.21 " style="stroke:#000000;stroke-width: 5.10 ;&st6;" /><path d=" M 2286.12,  410.28  L 2286.12,  452.21 " style="stroke:#FFFFFF;stroke-width: 4.53 ;&st6;" /><path d=" M 2286.12,  410.28  L 2286.12,  452.21 " style="stroke:#000000;stroke-width: 1.13 ;&st6;" /></a><a ewd:lineID="65" style="cursor:pointer;"><path d=" M 2286.12,  222.75  L 2286.12,  231.25  L 2303.12,  248.24  L 2303.12,  282.80  L 2286.12,  299.80  L 2286.12,  307.17 " style="stroke:#992903;stroke-width: 5.10 ;&st6;" /></a><a ewd:lineID="66" style="cursor:pointer;"><path d=" M 2286.12,  307.17  L 2286.12,  222.75 " style="stroke:#FFE600;stroke-width: 5.10 ;&st6;" /></a><a ewd:lineID="67" style="cursor:pointer;"><path d=" M 2286.12,   95.84  L 2286.12,  208.02 " style="stroke:#FFE600;stroke-width: 5.10 ;&st6;" /></a><a ewd:lineID="68" style="cursor:pointer;"><path d=" M 2294.62,  460.71  L 2337.11,  460.71  L 2337.11,  410.28 " style="stroke:#000000;stroke-width: 5.10 ;&st6;" /><path d=" M 2294.62,  460.71  L 2337.11,  460.71  L 2337.11,  410.28 " style="stroke:#FFFFFF;stroke-width: 4.53 ;&st6;" /><path d=" M 2294.62,  460.71  L 2337.11,  460.71  L 2337.11,  410.28 " style="stroke:#000000;stroke-width: 1.13 ;&st6;" /></a><a ewd:lineID="69" style="cursor:pointer;"><path d=" M 2388.10,  410.28  L 2388.10,  588.19  L 3373.94,  588.19  L 3373.94,  384.22 " style="stroke:#992903;stroke-width: 5.10 ;&st6;" /></a><a ewd:lineID="70" style="cursor:pointer;"><path d=" M 2439.09,  410.28  L 2439.09,  537.20  L 2906.51,  537.20  L 2906.51,  384.22 " style="stroke:#008837;stroke-width: 5.10 ;&st6;" /></a><a ewd:lineID="71" style="cursor:pointer;"><path d=" M 2481.59,  410.28  L 2481.59,  486.20  L 3059.49,  486.20  L 3059.49,  384.22 " style="stroke:#F668B2;stroke-width: 5.10 ;&st6;" /></a><a ewd:lineID="72" style="cursor:pointer;"><path d=" M 2643.06,  636.91  L 2643.06,  681.67 " style="stroke:#000000;stroke-width: 5.10 ;&st6;" /><path d=" M 2643.06,  636.91  L 2643.06,  681.67 " style="stroke:#FFFFFF;stroke-width: 4.53 ;&st6;" /><path d=" M 2643.06,  636.91  L 2643.06,  681.67 " style="stroke:#000000;stroke-width: 1.13 ;&st6;" /></a><a ewd:lineID="73" style="cursor:pointer;"><path d=" M 2643.06,  469.21  L 2643.06,  622.18 " style="stroke:#000000;stroke-width: 5.10 ;&st6;" /><path d=" M 2643.06,  469.21  L 2643.06,  622.18 " style="stroke:#FFFFFF;stroke-width: 4.53 ;&st6;" /><path d=" M 2643.06,  469.21  L 2643.06,  622.18 " style="stroke:#000000;stroke-width: 1.13 ;&st6;" /></a><a ewd:lineID="74" style="cursor:pointer;"><path d=" M 2643.06,  410.28  L 2643.06,  452.21 " style="stroke:#000000;stroke-width: 5.10 ;&st6;" /><path d=" M 2643.06,  410.28  L 2643.06,  452.21 " style="stroke:#FFFFFF;stroke-width: 4.53 ;&st6;" /><path d=" M 2643.06,  410.28  L 2643.06,  452.21 " style="stroke:#000000;stroke-width: 1.13 ;&st6;" /></a><a ewd:lineID="75" style="cursor:pointer;"><path d=" M 2643.06,  222.75  L 2643.06,  307.17 " style="stroke:#992903;stroke-width: 5.10 ;&st6;" /></a><a ewd:lineID="76" style="cursor:pointer;"><path d=" M 2643.06,  146.26  L 2643.06,  208.02 " style="stroke:#992903;stroke-width: 5.10 ;&st6;" /></a><a ewd:lineID="77" style="cursor:pointer;"><path d=" M 2651.56,  460.71  L 2677.05,  460.71  L 2677.05,  410.28 " style="stroke:#000000;stroke-width: 5.10 ;&st6;" /><path d=" M 2651.56,  460.71  L 2677.05,  460.71  L 2677.05,  410.28 " style="stroke:#FFFFFF;stroke-width: 4.53 ;&st6;" /><path d=" M 2651.56,  460.71  L 2677.05,  460.71  L 2677.05,  410.28 " style="stroke:#000000;stroke-width: 1.13 ;&st6;" /></a><a ewd:lineID="78" style="cursor:pointer;"><path d=" M 2711.05,  410.28  L 2711.05,  469.21  L 3025.49,  469.21  L 3025.49,  384.22 " style="stroke:#7FC97F;stroke-width: 5.10 ;&st6;" /></a><a ewd:lineID="79" style="cursor:pointer;"><path d=" M 2745.04,  410.28  L 2745.04,  452.21  L 2991.50,  452.21  L 2991.50,  384.22 " style="stroke:#F668B2;stroke-width: 5.10 ;&st6;" /></a><a ewd:lineID="80" style="cursor:pointer;"><path d=" M 2779.04,  410.28  L 2779.04,  435.21  L 2864.02,  435.21  L 2864.02,  384.22 " style="stroke:#008837;stroke-width: 5.10 ;&st6;" /></a><a ewd:lineID="81" style="cursor:pointer;"><path d=" M 2864.02,  330.96  L 2864.02,  369.49 " style="stroke:#008837;stroke-width: 5.10 ;&st6;" /></a><a ewd:lineID="82" style="cursor:pointer;"><path d=" M 2864.02,  307.73  L 2864.02,  205.75  L 2940.51,  205.75 " style="stroke:#008837;stroke-width: 5.10 ;&st6;" /></a><a ewd:lineID="83" style="cursor:pointer;"><path d=" M 2940.51,  222.75  L 2906.51,  222.75  L 2906.51,  369.49 " style="stroke:#008837;stroke-width: 5.10 ;&st6;" /></a><a ewd:lineID="84" style="cursor:pointer;"><path d=" M 2949.01,  231.25  L 2949.01,  369.49 " style="stroke:#008837;stroke-width: 5.10 ;&st6;" /></a><a ewd:lineID="85" style="cursor:pointer;"><path d=" M 3195.47,  307.73  L 3195.47,  205.75  L 2957.51,  205.75 " style="stroke:#008837;stroke-width: 5.10 ;&st6;" /></a><a ewd:lineID="86" style="cursor:pointer;"><path d=" M 2957.51,  188.75  L 3195.47,  188.75  L 3195.47,  154.76 " style="stroke:#008837;stroke-width: 5.10 ;&st6;" /></a><a ewd:lineID="87" style="cursor:pointer;"><path d=" M 2991.50,  330.96  L 2991.50,  369.49 " style="stroke:#F668B2;stroke-width: 5.10 ;&st6;" /></a><a ewd:lineID="88" style="cursor:pointer;"><path d=" M 3322.94,  239.75  L 2991.50,  239.75  L 2991.50,  307.73 " style="stroke:#F668B2;stroke-width: 5.10 ;&st6;" /></a><a ewd:lineID="89" style="cursor:pointer;"><path d=" M 3025.49,  330.96  L 3025.49,  369.49 " style="stroke:#7FC97F;stroke-width: 5.10 ;&st6;" /></a><a ewd:lineID="90" style="cursor:pointer;"><path d=" M 3229.46,  154.76  L 3229.46,  222.75  L 3025.49,  222.75  L 3025.49,  307.73 " style="stroke:#7FC97F;stroke-width: 5.10 ;&st6;" /></a><a ewd:lineID="91" style="cursor:pointer;"><path d=" M 3059.49,  369.49  L 3059.49,  273.74  L 3322.94,  273.74 " style="stroke:#F668B2;stroke-width: 5.10 ;&st6;" /></a><a ewd:lineID="92" style="cursor:pointer;"><path d=" M 3161.47,  636.91  L 3161.47,  681.67 " style="stroke:#000000;stroke-width: 5.10 ;&st6;" /><path d=" M 3161.47,  636.91  L 3161.47,  681.67 " style="stroke:#FFFFFF;stroke-width: 4.53 ;&st6;" /><path d=" M 3161.47,  636.91  L 3161.47,  681.67 " style="stroke:#000000;stroke-width: 1.13 ;&st6;" /></a><a ewd:lineID="93" style="cursor:pointer;"><path d=" M 3161.47,  545.69  L 3161.47,  622.18 " style="stroke:#000000;stroke-width: 5.10 ;&st6;" /><path d=" M 3161.47,  545.69  L 3161.47,  622.18 " style="stroke:#FFFFFF;stroke-width: 4.53 ;&st6;" /><path d=" M 3161.47,  545.69  L 3161.47,  622.18 " style="stroke:#000000;stroke-width: 1.13 ;&st6;" /></a><a ewd:lineID="94" style="cursor:pointer;"><path d=" M 3161.47,  495.27  L 3161.47,  528.70 " style="stroke:#000000;stroke-width: 5.10 ;&st6;" /><path d=" M 3161.47,  495.27  L 3161.47,  528.70 " style="stroke:#FFFFFF;stroke-width: 4.53 ;&st6;" /><path d=" M 3161.47,  495.27  L 3161.47,  528.70 " style="stroke:#000000;stroke-width: 1.13 ;&st6;" /></a><a ewd:lineID="95" style="cursor:pointer;"><path d=" M 3161.47,  384.22  L 3161.47,  409.15 " style="stroke:#992903;stroke-width: 5.10 ;&st6;" /></a><a ewd:lineID="96" style="cursor:pointer;"><path d=" M 3161.47,  322.46  L 3161.47,  369.49 " style="stroke:#992903;stroke-width: 5.10 ;&st6;" /></a><a ewd:lineID="97" style="cursor:pointer;"><path d=" M 3161.47,   95.84  L 3161.47,  307.73 " style="stroke:#992903;stroke-width: 5.10 ;&st6;" /></a><a ewd:lineID="98" style="cursor:pointer;"><path d=" M 3169.97,  537.20  L 3271.95,  537.20  L 3271.95,  495.27 " style="stroke:#000000;stroke-width: 5.10 ;&st6;" /><path d=" M 3169.97,  537.20  L 3271.95,  537.20  L 3271.95,  495.27 " style="stroke:#FFFFFF;stroke-width: 4.53 ;&st6;" /><path d=" M 3169.97,  537.20  L 3271.95,  537.20  L 3271.95,  495.27 " style="stroke:#000000;stroke-width: 1.13 ;&st6;" /></a><a ewd:lineID="99" style="cursor:pointer;"><path d=" M 3195.47,  384.22  L 3195.47,  409.15 " style="stroke:#008837;stroke-width: 5.10 ;&st6;" /></a><a ewd:lineID="100" style="cursor:pointer;"><path d=" M 3195.47,  322.46  L 3195.47,  369.49 " style="stroke:#008837;stroke-width: 5.10 ;&st6;" /></a><a ewd:lineID="101" style="cursor:pointer;"><path d=" M 3229.46,  384.22  L 3229.46,  409.15 " style="stroke:#F668B2;stroke-width: 5.10 ;&st6;" /></a><a ewd:lineID="102" style="cursor:pointer;"><path d=" M 3229.46,  322.46  L 3229.46,  369.49 " style="stroke:#F668B2;stroke-width: 5.10 ;&st6;" /></a><a ewd:lineID="103" style="cursor:pointer;"><path d=" M 3322.94,  256.74  L 3229.46,  256.74  L 3229.46,  307.73 " style="stroke:#F668B2;stroke-width: 5.10 ;&st6;" /></a><a ewd:lineID="104" style="cursor:pointer;"><path d=" M 3271.95,  384.22  L 3271.95,  409.15 " style="stroke:#FFE600;stroke-width: 5.10 ;&st6;" /></a><a ewd:lineID="105" style="cursor:pointer;"><path d=" M 3271.95,  322.46  L 3271.95,  369.49 " style="stroke:#FFE600;stroke-width: 5.10 ;&st6;" /></a><a ewd:lineID="106" style="cursor:pointer;"><path d=" M 3271.95,  154.76  L 3271.95,  307.73 " style="stroke:#FFE600;stroke-width: 5.10 ;&st6;" /></a><a ewd:lineID="107" style="cursor:pointer;"><path d=" M 3331.44,  282.24  L 3331.44,  369.49 " style="stroke:#F668B2;stroke-width: 5.10 ;&st6;" /></a><a ewd:lineID="108" style="cursor:pointer;"><path d=" M 3331.44,  154.76  L 3331.44,  231.25 " style="stroke:#F668B2;stroke-width: 5.10 ;&st6;" /></a><a ewd:lineID="109" style="cursor:pointer;"><path d=" M 3373.94,  154.76  L 3373.94,  369.49 " style="stroke:#992903;stroke-width: 5.10 ;&st6;" /></a><a ewd:lineID="110" style="cursor:pointer;"><path d=" M 3407.93,  154.76  L 3407.93,  369.49 " style="stroke:#999999;stroke-width: 5.10 ;&st6;" /></a><a ewd:lineID="111" style="cursor:pointer;"><path d=" M 3441.92,  681.67  L 3441.92,  154.76 " style="stroke:#000000;stroke-width: 5.10 ;&st6;" /><path d=" M 3441.92,  681.67  L 3441.92,  154.76 " style="stroke:#FFFFFF;stroke-width: 4.53 ;&st6;" /><path d=" M 3441.92,  681.67  L 3441.92,  154.76 " style="stroke:#000000;stroke-width: 1.13 ;&st6;" /></a><a ewd:lineID="112" style="cursor:pointer;"><path d=" M 3475.92,  154.76  L 3475.92,  401.22  L 3807.36,  401.22  L 3807.36,  358.73 " style="stroke:#008837;stroke-width: 5.10 ;&st6;" /></a><a ewd:lineID="113" style="cursor:pointer;"><path d=" M 3509.91,  154.76  L 3509.91,  384.22  L 3722.38,  384.22  L 3722.38,  367.79 " style="stroke:#FF0000;stroke-width: 5.10 ;&st6;" /></a><a ewd:lineID="114" style="cursor:pointer;"><path d=" M 3535.41,  154.76  L 3535.41,  222.75  L 3586.40,  222.75  L 3586.40,  188.75 " style="stroke:#000000;stroke-width: 5.10 ;&st6;" /></a><a ewd:lineID="115" style="cursor:pointer;"><path d=" M 3722.38,  299.24  L 3722.38,  332.66 " style="stroke:#FF0000;stroke-width: 5.10 ;&st6;" /></a><a ewd:lineID="116" style="cursor:pointer;"><path d=" M 3722.38,  188.75  L 3722.38,  248.24 " style="stroke:#FF0000;stroke-width: 5.10 ;&st6;" /><path d=" M 3722.38,  188.75  L 3722.38,  248.24 " style="stroke:#FFFFFF;stroke-width: 2.27 ;&st6;" /><path d=" M 3722.38,  188.75  L 3722.38,  248.24 " style="stroke:#00A0C6;stroke-width: 1.13 ;&st6;" /></a><a ewd:lineID="117" style="cursor:pointer;"><path d=" M 3807.36,  189.89  L 3807.36,  341.73 " style="stroke:#008837;stroke-width: 5.10 ;&st6;" /></a><a ewd:lineID="118" style="cursor:pointer;"><path d=" M 3807.36,  136.63  L 3807.36,   95.84 " style="stroke:#008837;stroke-width: 5.10 ;&st6;" /></a><a ewd:lineID="119" style="cursor:pointer;"><path d=" M 3917.85,  384.22  L 3917.85,  545.69 " style="stroke:#000000;stroke-width: 5.10 ;&st6;" /><path d=" M 3917.85,  384.22  L 3917.85,  545.69 " style="stroke:#FFFFFF;stroke-width: 4.53 ;&st6;" /><path d=" M 3917.85,  384.22  L 3917.85,  545.69 " style="stroke:#000000;stroke-width: 1.13 ;&st6;" /></a><a ewd:lineID="120" style="cursor:pointer;"><path d=" M 3917.85,  316.23  L 3917.85,  265.24  L 3994.33,  265.24  L 4002.83,  256.74  L 4002.83,  248.24 " style="stroke:#000000;stroke-width: 5.10 ;&st6;" /><path d=" M 3917.85,  316.23  L 3917.85,  265.24  L 3994.33,  265.24  L 4002.83,  256.74  L 4002.83,  248.24 " style="stroke:#FFFFFF;stroke-width: 4.53 ;&st6;" /></a><a ewd:lineID="121" style="cursor:pointer;"><path d=" M 4002.83,  681.67  L 4002.83,  645.41 " style="stroke:#000000;stroke-width: 5.10 ;&st6;" /><path d=" M 4002.83,  681.67  L 4002.83,  645.41 " style="stroke:#FFFFFF;stroke-width: 4.53 ;&st6;" /><path d=" M 4002.83,  681.67  L 4002.83,  645.41 " style="stroke:#000000;stroke-width: 1.13 ;&st6;" /></a><a ewd:lineID="122" style="cursor:pointer;"><path d=" M 4002.83,  562.69  L 4002.83,  630.68 " style="stroke:#00A0C6;stroke-width: 5.10 ;&st6;" /></a><a ewd:lineID="123" style="cursor:pointer;"><path d=" M 4002.83,  562.69  L 4002.83,  571.19  L 4011.33,  579.69  L 4028.33,  579.69  L 4028.33,  613.68  L 4011.33,  613.68  L 4002.83,  622.18  L 4002.83,  630.68 " style="stroke:#BFB1C5;stroke-width: 5.10 ;&st6;" /><path d=" M 4002.83,  562.69  L 4002.83,  571.19  L 4011.33,  579.69  L 4028.33,  579.69  L 4028.33,  613.68  L 4011.33,  613.68  L 4002.83,  622.18  L 4002.83,  630.68 " style="stroke:#FFFFFF;stroke-width: 2.27 ;&st6;" /><path d=" M 4002.83,  562.69  L 4002.83,  571.19  L 4011.33,  579.69  L 4028.33,  579.69  L 4028.33,  613.68  L 4011.33,  613.68  L 4002.83,  622.18  L 4002.83,  630.68 " style="stroke:#00A0C6;stroke-width: 1.13 ;&st6;" /></a><a ewd:lineID="124" style="cursor:pointer;"><path d=" M 4002.83,  477.71  L 4002.83,  545.69 " style="stroke:#000000;stroke-width: 5.10 ;&st6;" /><path d=" M 4002.83,  477.71  L 4002.83,  545.69 " style="stroke:#FFFFFF;stroke-width: 4.53 ;&st6;" /><path d=" M 4002.83,  477.71  L 4002.83,  545.69 " style="stroke:#000000;stroke-width: 1.13 ;&st6;" /></a><a ewd:lineID="125" style="cursor:pointer;"><path d=" M 4002.83,  545.69  L 4002.83,  537.20  L 4011.33,  528.70  L 4079.32,  528.70  L 4079.32,  477.71 " style="stroke:#BFB1C5;stroke-width: 5.10 ;&st6;" /></a><a ewd:lineID="126" style="cursor:pointer;"><path d=" M 4002.83,  384.22  L 4002.83,  460.71 " style="stroke:#000000;stroke-width: 5.10 ;&st6;" /><path d=" M 4002.83,  384.22  L 4002.83,  460.71 " style="stroke:#FFFFFF;stroke-width: 4.53 ;&st6;" /><path d=" M 4002.83,  384.22  L 4002.83,  460.71 " style="stroke:#000000;stroke-width: 1.13 ;&st6;" /></a><a ewd:lineID="127" style="cursor:pointer;"><path d=" M 4002.83,  384.22  L 4002.83,  392.72  L 4011.33,  401.22  L 4079.32,  401.22  L 4079.32,  460.71 " style="stroke:#BFB1C5;stroke-width: 5.10 ;&st6;" /></a><a ewd:lineID="128" style="cursor:pointer;"><path d=" M 4002.83,  316.23  L 4002.83,  248.24 " style="stroke:#000000;stroke-width: 5.10 ;&st6;" /><path d=" M 4002.83,  316.23  L 4002.83,  248.24 " style="stroke:#FFFFFF;stroke-width: 4.53 ;&st6;" /></a><a ewd:lineID="129" style="cursor:pointer;"><path d=" M 4002.83,  233.23  L 4002.83,  195.27 " style="stroke:#000000;stroke-width: 5.10 ;&st6;" /><path d=" M 4002.83,  233.23  L 4002.83,  195.27 " style="stroke:#FFFFFF;stroke-width: 4.53 ;&st6;" /></a><a ewd:lineID="130" style="cursor:pointer;"><path d=" M 4002.83,   95.84  L 4002.83,  180.26 " style="stroke:#000000;stroke-width: 5.10 ;&st6;" /><path d=" M 4002.83,   95.84  L 4002.83,  180.26 " style="stroke:#FFFFFF;stroke-width: 4.53 ;&st6;" /></a><a ewd:lineID="131" style="cursor:pointer;"><path d=" M 4206.80,  681.67  L 4206.80,  562.69 " style="stroke:#000000;stroke-width: 5.10 ;&st6;" /><path d=" M 4206.80,  681.67  L 4206.80,  562.69 " style="stroke:#FFFFFF;stroke-width: 4.53 ;&st6;" /><path d=" M 4206.80,  681.67  L 4206.80,  562.69 " style="stroke:#000000;stroke-width: 1.13 ;&st6;" /></a><a ewd:lineID="132" style="cursor:pointer;"><path d=" M 4206.80,  424.73  L 4206.80,  511.70 " style="stroke:#7FC97F;stroke-width: 5.10 ;&st6;" /><path d=" M 4206.80,  424.73  L 4206.80,  511.70 " style="stroke:#FFFFFF;stroke-width: 2.27 ;&st6;" /><path d=" M 4206.80,  424.73  L 4206.80,  511.70 " style="stroke:#000000;stroke-width: 1.13 ;&st6;" /></a><a ewd:lineID="133" style="cursor:pointer;"><path d=" M 4206.80,  409.72  L 4206.80,  359.29 " style="stroke:#7FC97F;stroke-width: 5.10 ;&st6;" /></a><a ewd:lineID="134" style="cursor:pointer;"><path d=" M 4274.79,  681.67  L 4274.79,  562.69 " style="stroke:#000000;stroke-width: 5.10 ;&st6;" /><path d=" M 4274.79,  681.67  L 4274.79,  562.69 " style="stroke:#FFFFFF;stroke-width: 4.53 ;&st6;" /><path d=" M 4274.79,  681.67  L 4274.79,  562.69 " style="stroke:#000000;stroke-width: 1.13 ;&st6;" /></a><a ewd:lineID="135" style="cursor:pointer;"><path d=" M 4274.79,  483.94  L 4274.79,  528.70 " style="stroke:#000000;stroke-width: 5.10 ;&st6;" /></a><a ewd:lineID="136" style="cursor:pointer;"><path d=" M 4274.79,  418.22  L 4274.79,  469.21 " style="stroke:#000000;stroke-width: 5.10 ;&st6;" /></a><a ewd:lineID="137" style="cursor:pointer;"><path d=" M 4274.79,  403.48  L 4274.79,  359.29 " style="stroke:#000000;stroke-width: 5.10 ;&st6;" /></a><a ewd:lineID="138" style="cursor:pointer;"><path d=" M 4300.28,  298.67  L 4300.28,  231.25 " style="stroke:#7FC97F;stroke-width: 5.10 ;&st6;" /></a><a ewd:lineID="139" style="cursor:pointer;"><path d=" M 4300.28,   95.84  L 4300.28,  197.25 " style="stroke:#999999;stroke-width: 5.10 ;&st6;" /></a><a ewd:lineID="140" style="cursor:pointer;"><path d=" M 4504.25,  197.25  L 4504.25,  129.26  L 4317.28,  129.26  L 4317.28,  120.77  L 4300.28,  103.77  L 4300.28,   95.84 " style="stroke:#999999;stroke-width: 5.10 ;&st6;" /></a><a ewd:lineID="141" style="cursor:pointer;"><path d=" M 4308.78,  483.94  L 4308.78,  528.70 " style="stroke:#7FC97F;stroke-width: 5.10 ;&st6;" /></a><a ewd:lineID="142" style="cursor:pointer;"><path d=" M 4308.78,  418.22  L 4308.78,  469.21 " style="stroke:#7FC97F;stroke-width: 5.10 ;&st6;" /></a><a ewd:lineID="143" style="cursor:pointer;"><path d=" M 4308.78,  403.48  L 4308.78,  359.29 " style="stroke:#7FC97F;stroke-width: 5.10 ;&st6;" /></a><a ewd:lineID="144" style="cursor:pointer;"><path d=" M 4342.77,  483.94  L 4342.77,  528.70 " style="stroke:#00A0C6;stroke-width: 5.10 ;&st6;" /></a><a ewd:lineID="145" style="cursor:pointer;"><path d=" M 4342.77,  418.22  L 4342.77,  469.21 " style="stroke:#00A0C6;stroke-width: 5.10 ;&st6;" /></a><a ewd:lineID="146" style="cursor:pointer;"><path d=" M 4342.77,  403.48  L 4342.77,  359.29 " style="stroke:#00A0C6;stroke-width: 5.10 ;&st6;" /></a><a ewd:lineID="147" style="cursor:pointer;"><path d=" M 4342.77,  298.67  L 4342.77,  231.25 " style="stroke:#FF0000;stroke-width: 5.10 ;&st6;" /></a><a ewd:lineID="148" style="cursor:pointer;"><path d=" M 4342.77,  197.25  L 4342.77,   95.84 " style="stroke:#FF0000;stroke-width: 5.10 ;&st6;" /></a><a ewd:lineID="149" style="cursor:pointer;"><path d=" M 4555.24,  197.25  L 4555.24,  112.27  L 4351.27,  112.27  L 4342.77,  103.77  L 4342.77,   95.84 " style="stroke:#FF0000;stroke-width: 5.10 ;&st6;" /></a><a ewd:lineID="150" style="cursor:pointer;"><path d=" M 4419.26,  400.65  L 4419.26,  339.46 " style="stroke:#FF0000;stroke-width: 5.10 ;&st6;" /></a><a ewd:lineID="151" style="cursor:pointer;"><path d=" M 4419.26,  231.25  L 4419.26,  324.73 " style="stroke:#FF0000;stroke-width: 5.10 ;&st6;" /></a><a ewd:lineID="152" style="cursor:pointer;"><path d=" M 4461.75,  339.46  L 4461.75,  400.65 " style="stroke:#FFE600;stroke-width: 5.10 ;&st6;" /></a><a ewd:lineID="153" style="cursor:pointer;"><path d=" M 4461.75,  231.25  L 4461.75,  324.73 " style="stroke:#FFE600;stroke-width: 5.10 ;&st6;" /></a><a ewd:lineID="154" style="cursor:pointer;"><path d=" M 4504.25,  339.46  L 4504.25,  341.73  L 4512.75,  350.23  L 4529.74,  350.23  L 4529.74,  384.22  L 4512.75,  384.22  L 4504.25,  392.72  L 4504.25,  400.65 " style="stroke:#7FC97F;stroke-width: 5.10 ;&st6;" /></a><a ewd:lineID="155" style="cursor:pointer;"><path d=" M 4504.25,  400.65  L 4504.25,  339.75 " style="stroke:#000000;stroke-width: 5.10 ;&st6;" /><path d=" M 4504.25,  400.65  L 4504.25,  339.75 " style="stroke:#FFFFFF;stroke-width: 4.53 ;&st6;" /></a><a ewd:lineID="156" style="cursor:pointer;"><path d=" M 4504.25,  280.26  L 4504.25,  324.73 " style="stroke:#000000;stroke-width: 5.10 ;&st6;" /><path d=" M 4504.25,  280.26  L 4504.25,  324.73 " style="stroke:#FFFFFF;stroke-width: 4.53 ;&st6;" /></a><a ewd:lineID="157" style="cursor:pointer;"><path d=" M 4504.25,  214.25  L 4504.25,  265.24 " style="stroke:#000000;stroke-width: 5.10 ;&st6;" /><path d=" M 4504.25,  214.25  L 4504.25,  265.24 " style="stroke:#FFFFFF;stroke-width: 4.53 ;&st6;" /></a><a ewd:lineID="158" style="cursor:pointer;"><path d=" M 4555.24,  339.46  L 4555.24,  341.73  L 4563.74,  350.23  L 4580.73,  350.23  L 4580.73,  384.22  L 4563.74,  384.22  L 4555.24,  392.72  L 4555.24,  400.65 " style="stroke:#999999;stroke-width: 5.10 ;&st6;" /></a><a ewd:lineID="159" style="cursor:pointer;"><path d=" M 4555.24,  339.46  L 4555.24,  400.65 " style="stroke:#FF0000;stroke-width: 5.10 ;&st6;" /></a><a ewd:lineID="160" style="cursor:pointer;"><path d=" M 4555.24,  279.97  L 4555.24,  324.73 " style="stroke:#FF0000;stroke-width: 5.10 ;&st6;" /></a><a ewd:lineID="161" style="cursor:pointer;"><path d=" M 4555.24,  214.25  L 4555.24,  265.24 " style="stroke:#FF0000;stroke-width: 5.10 ;&st6;" /></a><a ewd:code="EA2" ewd:figID="58" ewd:figtype="w2w" ewd:pinNo="36" style="cursor:pointer;"><path d=" M   33.99,  154.76  L   17.00,  154.76  L   17.00,  163.26  L   33.99,  163.26  L   33.99,  154.76 " style="&st2;" /><text style="&st8;" transform="matrix(&st16;  18.51  161.5 )"><tspan style="&st18;" x="0" y="0">EA2</tspan></text></a><a ewd:code="FL2" ewd:figID="59" ewd:figtype="w2w" ewd:pinNo="22" style="cursor:pointer;"><path d=" M  883.85,  358.73  L  866.86,  358.73  L  866.86,  367.22  L  883.85,  367.22  L  883.85,  358.73 " style="&st2;" /><text style="&st8;" transform="matrix(&st16;  868.96  365.47 )"><tspan style="&st18;" x="0" y="0">FL2</tspan></text></a><a ewd:code="FL2" ewd:figID="60" ewd:figtype="w2w" ewd:pinNo="21" style="cursor:pointer;"><path d=" M  960.34,  358.73  L  943.34,  358.73  L  943.34,  367.22  L  960.34,  367.22  L  960.34,  358.73 " style="&st2;" /><text style="&st8;" transform="matrix(&st16;  945.45  365.47 )"><tspan style="&st18;" x="0" y="0">FL2</tspan></text></a><a ewd:code="EK2" ewd:figID="61" ewd:figtype="w2w" ewd:pinNo="23" style="cursor:pointer;"><path d=" M  730.88,  358.73  L  713.88,  358.73  L  713.88,  367.22  L  730.88,  367.22  L  730.88,  358.73 " style="&st2;" /><text style="&st8;" transform="matrix(&st16;  715.39  365.47 )"><tspan style="&st18;" x="0" y="0">EK2</tspan></text></a><a ewd:code="IE3" ewd:figID="62" ewd:figtype="w2w" ewd:pinNo="5" style="cursor:pointer;"><path d=" M 3382.43,  375.72  L 3365.44,  375.72  L 3365.44,  384.22  L 3382.43,  384.22  L 3382.43,  375.72 " style="&st2;" /><text style="&st8;" transform="matrix(&st16;  3368.36  382.47 )"><tspan style="&st18;" x="0" y="0">IE3</tspan></text></a><a ewd:code="IE6" ewd:figID="63" ewd:figtype="w2w" ewd:pinNo="6" style="cursor:pointer;"><path d=" M 2957.51,  375.72  L 2940.51,  375.72  L 2940.51,  384.22  L 2957.51,  384.22  L 2957.51,  375.72 " style="&st2;" /><text style="&st8;" transform="matrix(&st16;  2943.43  382.47 )"><tspan style="&st18;" x="0" y="0">IE6</tspan></text></a><a ewd:code="IE3" ewd:figID="64" ewd:figtype="w2w" ewd:pinNo="6" style="cursor:pointer;"><path d=" M 2915.01,  375.72  L 2898.02,  375.72  L 2898.02,  384.22  L 2915.01,  384.22  L 2915.01,  375.72 " style="&st2;" /><text style="&st8;" transform="matrix(&st16;  2900.94  382.47 )"><tspan style="&st18;" x="0" y="0">IE3</tspan></text></a><a ewd:code="IE6" ewd:figID="65" ewd:figtype="w2w" ewd:pinNo="5" style="cursor:pointer;"><path d=" M 3416.43,  375.72  L 3399.43,  375.72  L 3399.43,  384.22  L 3416.43,  384.22  L 3416.43,  375.72 " style="&st2;" /><text style="&st8;" transform="matrix(&st16;  3402.35  382.47 )"><tspan style="&st18;" x="0" y="0">IE6</tspan></text></a><a ewd:code="IE6" ewd:figID="66" ewd:figtype="w2w" ewd:pinNo="7" style="cursor:pointer;"><path d=" M 3339.94,  375.72  L 3322.94,  375.72  L 3322.94,  384.22  L 3339.94,  384.22  L 3339.94,  375.72 " style="&st2;" /><text style="&st8;" transform="matrix(&st16;  3325.87  382.47 )"><tspan style="&st18;" x="0" y="0">IE6</tspan></text></a><a ewd:code="IE3" ewd:figID="67" ewd:figtype="w2w" ewd:pinNo="7" style="cursor:pointer;"><path d=" M 3067.99,  375.72  L 3050.99,  375.72  L 3050.99,  384.22  L 3067.99,  384.22  L 3067.99,  375.72 " style="&st2;" /><text style="&st8;" transform="matrix(&st16;  3053.91  382.47 )"><tspan style="&st18;" x="0" y="0">IE3</tspan></text></a><a ewd:code="IE3" ewd:figID="68" ewd:figtype="w2w" ewd:pinNo="16" style="cursor:pointer;"><path d=" M 2294.62,  214.25  L 2277.62,  214.25  L 2277.62,  222.75  L 2294.62,  222.75  L 2294.62,  214.25 " style="&st2;" /><text style="&st8;" transform="matrix(&st16;  2280.54  220.99 )"><tspan style="&st18;" x="0" y="0">IE3</tspan></text></a><a ewd:code="JK2" ewd:figID="69" ewd:figtype="w2w" ewd:pinNo="10" style="cursor:pointer;"><path d=" M 3033.99,  375.72  L 3017.00,  375.72  L 3017.00,  384.22  L 3033.99,  384.22  L 3033.99,  375.72 " style="&st2;" /><text style="&st8;" transform="matrix(&st16;  3019.1  382.47 )"><tspan style="&st18;" x="0" y="0">JK2</tspan></text></a><a ewd:code="JK2" ewd:figID="70" ewd:figtype="w2w" ewd:pinNo="12" style="cursor:pointer;"><path d=" M 3000.00,  375.72  L 2983.00,  375.72  L 2983.00,  384.22  L 3000.00,  384.22  L 3000.00,  375.72 " style="&st2;" /><text style="&st8;" transform="matrix(&st16;  2985.1  382.47 )"><tspan style="&st18;" x="0" y="0">JK2</tspan></text></a><a ewd:code="JK2" ewd:figID="71" ewd:figtype="w2w" ewd:pinNo="11" style="cursor:pointer;"><path d=" M 2872.52,  375.72  L 2855.52,  375.72  L 2855.52,  384.22  L 2872.52,  384.22  L 2872.52,  375.72 " style="&st2;" /><text style="&st8;" transform="matrix(&st16;  2857.63  382.47 )"><tspan style="&st18;" x="0" y="0">JK2</tspan></text></a><a ewd:code="JL2" ewd:figID="72" ewd:figtype="w2w" ewd:pinNo="10" style="cursor:pointer;"><path d=" M 3280.45,  375.72  L 3263.45,  375.72  L 3263.45,  384.22  L 3280.45,  384.22  L 3280.45,  375.72 " style="&st2;" /><text style="&st8;" transform="matrix(&st16;  3265.93  382.47 )"><tspan style="&st18;" x="0" y="0">JL2</tspan></text></a><a ewd:code="JL2" ewd:figID="73" ewd:figtype="w2w" ewd:pinNo="11" style="cursor:pointer;"><path d=" M 3203.96,  375.72  L 3186.97,  375.72  L 3186.97,  384.22  L 3203.96,  384.22  L 3203.96,  375.72 " style="&st2;" /><text style="&st8;" transform="matrix(&st16;  3189.44  382.47 )"><tspan style="&st18;" x="0" y="0">JL2</tspan></text></a><a ewd:code="JL2" ewd:figID="74" ewd:figtype="w2w" ewd:pinNo="12" style="cursor:pointer;"><path d=" M 3237.96,  375.72  L 3220.96,  375.72  L 3220.96,  384.22  L 3237.96,  384.22  L 3237.96,  375.72 " style="&st2;" /><text style="&st8;" transform="matrix(&st16;  3223.44  382.47 )"><tspan style="&st18;" x="0" y="0">JL2</tspan></text></a><a ewd:code="EL1" ewd:figID="75" ewd:figtype="w2w" ewd:pinNo="33" style="cursor:pointer;"><path d=" M 3280.45,  307.73  L 3263.45,  307.73  L 3263.45,  316.23  L 3280.45,  316.23  L 3280.45,  307.73 " style="&st2;" /><text style="&st8;" transform="matrix(&st16;  3265.74  314.48 )"><tspan style="&st18;" x="0" y="0">EL1</tspan></text></a><a ewd:code="EL1" ewd:figID="76" ewd:figtype="w2w" ewd:pinNo="78" style="cursor:pointer;"><path d=" M 3203.96,  307.73  L 3186.97,  307.73  L 3186.97,  316.23  L 3203.96,  316.23  L 3203.96,  307.73 " style="&st2;" /><text style="&st8;" transform="matrix(&st16;  3189.26  314.48 )"><tspan style="&st18;" x="0" y="0">EL1</tspan></text></a><a ewd:code="EL1" ewd:figID="77" ewd:figtype="w2w" ewd:pinNo="34" style="cursor:pointer;"><path d=" M 3237.96,  307.73  L 3220.96,  307.73  L 3220.96,  316.23  L 3237.96,  316.23  L 3237.96,  307.73 " style="&st2;" /><text style="&st8;" transform="matrix(&st16;  3223.25  314.48 )"><tspan style="&st18;" x="0" y="0">EL1</tspan></text></a><a ewd:code="EL1" ewd:figID="78" ewd:figtype="w2w" ewd:pinNo="10" style="cursor:pointer;"><path d=" M 3169.97,  307.73  L 3152.97,  307.73  L 3152.97,  316.23  L 3169.97,  316.23  L 3169.97,  307.73 " style="&st2;" /><text style="&st8;" transform="matrix(&st16;  3155.26  314.48 )"><tspan style="&st18;" x="0" y="0">EL1</tspan></text></a><a ewd:code="JL1" ewd:figID="79" ewd:figtype="w2w" ewd:pinNo="16" style="cursor:pointer;"><path d=" M 3169.97,  375.72  L 3152.97,  375.72  L 3152.97,  384.22  L 3169.97,  384.22  L 3169.97,  375.72 " style="&st2;" /><text style="&st8;" transform="matrix(&st16;  3155.86  382.47 )"><tspan style="&st18;" x="0" y="0">JL1</tspan></text></a><a ewd:code="JL1" ewd:figID="80" ewd:figtype="w2w" ewd:pinNo="10" style="cursor:pointer;"><path d=" M 3169.97,  622.18  L 3152.97,  622.18  L 3152.97,  630.68  L 3169.97,  630.68  L 3169.97,  622.18 " style="&st2;" /><text style="&st8;" transform="matrix(&st16;  3155.86  628.92 )"><tspan style="&st18;" x="0" y="0">JL1</tspan></text></a><a ewd:code="JK1" ewd:figID="81" ewd:figtype="w2w" ewd:pinNo="10" style="cursor:pointer;"><path d=" M 2651.56,  622.18  L 2634.56,  622.18  L 2634.56,  630.68  L 2651.56,  630.68  L 2651.56,  622.18 " style="&st2;" /><text style="&st8;" transform="matrix(&st16;  2637.07  628.92 )"><tspan style="&st18;" x="0" y="0">JK1</tspan></text></a><a ewd:code="JK1" ewd:figID="82" ewd:figtype="w2w" ewd:pinNo="16" style="cursor:pointer;"><path d=" M 2651.56,  214.25  L 2634.56,  214.25  L 2634.56,  222.75  L 2651.56,  222.75  L 2651.56,  214.25 " style="&st2;" /><text style="&st8;" transform="matrix(&st16;  2637.07  220.99 )"><tspan style="&st18;" x="0" y="0">JK1</tspan></text></a><a ewd:code="IE6" ewd:figID="83" ewd:figtype="w2w" ewd:pinNo="16" style="cursor:pointer;"><path d=" M 1844.19,  265.24  L 1827.19,  265.24  L 1827.19,  273.74  L 1844.19,  273.74  L 1844.19,  265.24 " style="&st2;" /><text style="&st8;" transform="matrix(&st16;  1830.12  271.98 )"><tspan style="&st18;" x="0" y="0">IE6</tspan></text></a><a ewd:code="EK2" ewd:figID="84" ewd:figtype="w2w" ewd:pinNo="20" style="cursor:pointer;"><path d=" M 4011.33,  180.26  L 3994.33,  180.26  L 3994.33,  188.75  L 4011.33,  188.75  L 4011.33,  180.26 " style="&st2;" /><text style="&st8;" transform="matrix(&st16;  3995.84  187.0 )"><tspan style="&st18;" x="0" y="0">EK2</tspan></text></a><a ewd:code="SK1" ewd:figID="85" ewd:figtype="w2w" ewd:pinNo="5" style="cursor:pointer;"><path d=" M 4011.33,  630.68  L 3994.33,  630.68  L 3994.33,  639.18  L 4011.33,  639.18  L 4011.33,  630.68 " style="&st2;" /><text style="&st8;" transform="matrix(&st16;  3996.25  637.42 )"><tspan style="&st18;" x="0" y="0">SK1</tspan></text></a><a ewd:code="SK1" ewd:figID="86" ewd:figtype="w2w" ewd:pinNo="13" style="cursor:pointer;"><path d=" M 4011.33,  239.75  L 3994.33,  239.75  L 3994.33,  248.24  L 4011.33,  248.24  L 4011.33,  239.75 " style="&st2;" /><text style="&st8;" transform="matrix(&st16;  3996.25  246.49 )"><tspan style="&st18;" x="0" y="0">SK1</tspan></text></a><a ewd:code="EA1" ewd:figID="87" ewd:figtype="w2w" ewd:pinNo="21" style="cursor:pointer;"><path d=" M 4215.30,  409.72  L 4198.30,  409.72  L 4198.30,  418.22  L 4215.30,  418.22  L 4215.30,  409.72 " style="&st2;" /><text style="&st8;" transform="matrix(&st16;  4200.22  416.46 )"><tspan style="&st18;" x="0" y="0">EA1</tspan></text></a><a ewd:code="FE3" ewd:figID="88" ewd:figtype="w2w" ewd:pinNo="18" style="cursor:pointer;"><path d=" M 4351.27,  409.72  L 4334.28,  409.72  L 4334.28,  418.22  L 4351.27,  418.22  L 4351.27,  409.72 " style="&st2;" /><text style="&st8;" transform="matrix(&st16;  4336.01  416.46 )"><tspan style="&st18;" x="0" y="0">FE3</tspan></text></a><a ewd:code="FE3" ewd:figID="89" ewd:figtype="w2w" ewd:pinNo="16" style="cursor:pointer;"><path d=" M 4317.28,  409.72  L 4300.28,  409.72  L 4300.28,  418.22  L 4317.28,  418.22  L 4317.28,  409.72 " style="&st2;" /><text style="&st8;" transform="matrix(&st16;  4302.01  416.46 )"><tspan style="&st18;" x="0" y="0">FE3</tspan></text></a><a ewd:code="FE3" ewd:figID="90" ewd:figtype="w2w" ewd:pinNo="17" style="cursor:pointer;"><path d=" M 4283.28,  409.72  L 4266.29,  409.72  L 4266.29,  418.22  L 4283.28,  418.22  L 4283.28,  409.72 " style="&st2;" /><text style="&st8;" transform="matrix(&st16;  4268.02  416.46 )"><tspan style="&st18;" x="0" y="0">FE3</tspan></text></a><a ewd:code="FL2" ewd:figID="91" ewd:figtype="w2w" ewd:pinNo="10" style="cursor:pointer;"><path d=" M 4283.28,  469.21  L 4266.29,  469.21  L 4266.29,  477.71  L 4283.28,  477.71  L 4283.28,  469.21 " style="&st2;" /><text style="&st8;" transform="matrix(&st16;  4268.39  475.95 )"><tspan style="&st18;" x="0" y="0">FL2</tspan></text></a><a ewd:code="FL2" ewd:figID="92" ewd:figtype="w2w" ewd:pinNo="11" style="cursor:pointer;"><path d=" M 4351.27,  469.21  L 4334.28,  469.21  L 4334.28,  477.71  L 4351.27,  477.71  L 4351.27,  469.21 " style="&st2;" /><text style="&st8;" transform="matrix(&st16;  4336.38  475.95 )"><tspan style="&st18;" x="0" y="0">FL2</tspan></text></a><a ewd:code="FL2" ewd:figID="93" ewd:figtype="w2w" ewd:pinNo="9" style="cursor:pointer;"><path d=" M 4317.28,  469.21  L 4300.28,  469.21  L 4300.28,  477.71  L 4317.28,  477.71  L 4317.28,  469.21 " style="&st2;" /><text style="&st8;" transform="matrix(&st16;  4302.38  475.95 )"><tspan style="&st18;" x="0" y="0">FL2</tspan></text></a><a ewd:code="EK2" ewd:figID="94" ewd:figtype="w2w" ewd:pinNo="19" style="cursor:pointer;"><path d=" M 4512.75,  265.24  L 4495.75,  265.24  L 4495.75,  273.74  L 4512.75,  273.74  L 4512.75,  265.24 " style="&st2;" /><text style="&st8;" transform="matrix(&st16;  4497.26  271.98 )"><tspan style="&st18;" x="0" y="0">EK2</tspan></text></a><a ewd:code="EK2" ewd:figID="95" ewd:figtype="w2w" ewd:pinNo="29" style="cursor:pointer;"><path d=" M 4563.74,  265.24  L 4546.74,  265.24  L 4546.74,  273.74  L 4563.74,  273.74  L 4563.74,  265.24 " style="&st2;" /><text style="&st8;" transform="matrix(&st16;  4548.25  271.98 )"><tspan style="&st18;" x="0" y="0">EK2</tspan></text></a><a ewd:code="KL1" ewd:figID="96" ewd:figtype="w2w" ewd:pinNo="3" style="cursor:pointer;"><path d=" M 4563.74,  324.73  L 4546.74,  324.73  L 4546.74,  333.23  L 4563.74,  333.23  L 4563.74,  324.73 " style="&st2;" /><text style="&st8;" transform="matrix(&st16;  4549.03  331.47 )"><tspan style="&st18;" x="0" y="0">KL1</tspan></text></a><a ewd:code="KL1" ewd:figID="97" ewd:figtype="w2w" ewd:pinNo="2" style="cursor:pointer;"><path d=" M 4512.75,  324.73  L 4495.75,  324.73  L 4495.75,  333.23  L 4512.75,  333.23  L 4512.75,  324.73 " style="&st2;" /><text style="&st8;" transform="matrix(&st16;  4498.04  331.47 )"><tspan style="&st18;" x="0" y="0">KL1</tspan></text></a><a ewd:code="EL1" ewd:figID="98" ewd:figtype="w2w" ewd:pinNo="73" style="cursor:pointer;"><path d=" M 4470.25,  324.73  L 4453.26,  324.73  L 4453.26,  333.23  L 4470.25,  333.23  L 4470.25,  324.73 " style="&st2;" /><text style="&st8;" transform="matrix(&st16;  4455.55  331.47 )"><tspan style="&st18;" x="0" y="0">EL1</tspan></text></a><a ewd:code="EL1" ewd:figID="99" ewd:figtype="w2w" ewd:pinNo="74" style="cursor:pointer;"><path d=" M 4427.76,  324.73  L 4410.76,  324.73  L 4410.76,  333.23  L 4427.76,  333.23  L 4427.76,  324.73 " style="&st2;" /><text style="&st8;" transform="matrix(&st16;  4413.05  331.47 )"><tspan style="&st18;" x="0" y="0">EL1</tspan></text></a><a ewd:code="IE6" ewd:figID="100" ewd:figtype="w2w" ewd:pinNo="14" style="cursor:pointer;"><path d=" M 1903.68,  265.24  L 1886.68,  265.24  L 1886.68,  273.74  L 1903.68,  273.74  L 1903.68,  265.24 " style="&st2;" /><text style="&st8;" transform="matrix(&st16;  1889.61  271.98 )"><tspan style="&st18;" x="0" y="0">IE6</tspan></text></a><a ewd:code="IE6" ewd:figID="101" ewd:figtype="w2w" ewd:pinNo="15" style="cursor:pointer;"><path d=" M 1971.67,  265.24  L 1954.67,  265.24  L 1954.67,  273.74  L 1971.67,  273.74  L 1971.67,  265.24 " style="&st2;" /><text style="&st8;" transform="matrix(&st16;  1957.59  271.98 )"><tspan style="&st18;" x="0" y="0">IE6</tspan></text></a><a ewd:code="IE3" ewd:figID="102" ewd:figtype="w2w" ewd:pinNo="14" style="cursor:pointer;"><path d=" M 2201.13,  265.24  L 2184.14,  265.24  L 2184.14,  273.74  L 2201.13,  273.74  L 2201.13,  265.24 " style="&st2;" /><text style="&st8;" transform="matrix(&st16;  2187.06  271.98 )"><tspan style="&st18;" x="0" y="0">IE3</tspan></text></a><a ewd:code="IE3" ewd:figID="103" ewd:figtype="w2w" ewd:pinNo="15" style="cursor:pointer;"><path d=" M 2252.12,  265.24  L 2235.13,  265.24  L 2235.13,  273.74  L 2252.12,  273.74  L 2252.12,  265.24 " style="&st2;" /><text style="&st8;" transform="matrix(&st16;  2238.05  271.98 )"><tspan style="&st18;" x="0" y="0">IE3</tspan></text></a><a ewd:code="EA3" ewd:figID="104" ewd:figtype="w2w" ewd:pinNo="11" style="cursor:pointer;"><path d=" M 1342.78,  324.73  L 1325.78,  324.73  L 1325.78,  333.23  L 1342.78,  333.23  L 1342.78,  324.73 " style="&st2;" /><text style="&st8;" transform="matrix(&st16;  1327.29  331.47 )"><tspan style="&st18;" x="0" y="0">EA3</tspan></text></a><a ewd:code="EA1" ewd:figID="105" ewd:figtype="w2w" ewd:pinNo="11" style="cursor:pointer;"><path d=" M 1342.78,  333.23  L 1325.78,  333.23  L 1325.78,  341.73  L 1342.78,  341.73  L 1342.78,  333.23 " style="&st2;" /><text style="&st8;" transform="matrix(&st16;  1327.7  339.97 )"><tspan style="&st18;" x="0" y="0">EA1</tspan></text></a><a ewd:code="EA3" ewd:figID="106" ewd:figtype="w2w" ewd:pinNo="10" style="cursor:pointer;"><path d=" M 1300.28,  324.73  L 1283.29,  324.73  L 1283.29,  333.23  L 1300.28,  333.23  L 1300.28,  324.73 " style="&st2;" /><text style="&st8;" transform="matrix(&st16;  1284.79  331.47 )"><tspan style="&st18;" x="0" y="0">EA3</tspan></text></a><a ewd:code="EA1" ewd:figID="107" ewd:figtype="w2w" ewd:pinNo="10" style="cursor:pointer;"><path d=" M 1300.28,  333.23  L 1283.29,  333.23  L 1283.29,  341.73  L 1300.28,  341.73  L 1300.28,  333.23 " style="&st2;" /><text style="&st8;" transform="matrix(&st16;  1285.2  339.97 )"><tspan style="&st18;" x="0" y="0">EA1</tspan></text></a><a ewd:code="FE3" ewd:figID="108" ewd:figtype="w2w" ewd:pinNo="1" style="cursor:pointer;"><path d=" M  960.34,  282.24  L  943.34,  282.24  L  943.34,  290.74  L  960.34,  290.74  L  960.34,  282.24 " style="&st2;" /><text style="&st8;" transform="matrix(&st16;  945.07  288.98 )"><tspan style="&st18;" x="0" y="0">FE3</tspan></text></a><a ewd:code="FE3" ewd:figID="109" ewd:figtype="w2w" ewd:pinNo="6" style="cursor:pointer;"><path d=" M  960.34,  273.74  L  943.34,  273.74  L  943.34,  282.24  L  960.34,  282.24  L  960.34,  273.74 " style="&st2;" /><text style="&st8;" transform="matrix(&st16;  945.07  280.48 )"><tspan style="&st18;" x="0" y="0">FE3</tspan></text></a><a ewd:code="FE4" ewd:figID="110" ewd:figtype="w2w" ewd:pinNo="15" style="cursor:pointer;"><path d=" M  883.85,  282.24  L  866.86,  282.24  L  866.86,  290.74  L  883.85,  290.74  L  883.85,  282.24 " style="&st2;" /><text style="&st8;" transform="matrix(&st16;  868.59  288.98 )"><tspan style="&st18;" x="0" y="0">FE4</tspan></text></a><a ewd:code="FE3" ewd:figID="111" ewd:figtype="w2w" ewd:pinNo="7" style="cursor:pointer;"><path d=" M  883.85,  273.74  L  866.86,  273.74  L  866.86,  282.24  L  883.85,  282.24  L  883.85,  273.74 " style="&st2;" /><text style="&st8;" transform="matrix(&st16;  868.59  280.48 )"><tspan style="&st18;" x="0" y="0">FE3</tspan></text></a><a ewd:code="EK2" ewd:figID="112" ewd:figtype="w2w" ewd:pinNo="57" style="cursor:pointer;"><path d=" M 3000.00,  307.73  L 2983.00,  307.73  L 2983.00,  316.23  L 3000.00,  316.23  L 3000.00,  307.73 " style="&st2;" /><text style="&st8;" transform="matrix(&st16;  2984.51  314.48 )"><tspan style="&st18;" x="0" y="0">EK2</tspan></text></a><a ewd:code="EK2" ewd:figID="113" ewd:figtype="w2w" ewd:pinNo="21" style="cursor:pointer;"><path d=" M 3000.00,  316.23  L 2983.00,  316.23  L 2983.00,  324.73  L 3000.00,  324.73  L 3000.00,  316.23 " style="&st2;" /><text style="&st8;" transform="matrix(&st16;  2984.51  322.98 )"><tspan style="&st18;" x="0" y="0">EK2</tspan></text></a><a ewd:code="EK2" ewd:figID="114" ewd:figtype="w2w" ewd:pinNo="56" style="cursor:pointer;"><path d=" M 3033.99,  307.73  L 3017.00,  307.73  L 3017.00,  316.23  L 3033.99,  316.23  L 3033.99,  307.73 " style="&st2;" /><text style="&st8;" transform="matrix(&st16;  3018.5  314.48 )"><tspan style="&st18;" x="0" y="0">EK2</tspan></text></a><a ewd:code="EK2" ewd:figID="115" ewd:figtype="w2w" ewd:pinNo="31" style="cursor:pointer;"><path d=" M 3033.99,  316.23  L 3017.00,  316.23  L 3017.00,  324.73  L 3033.99,  324.73  L 3033.99,  316.23 " style="&st2;" /><text style="&st8;" transform="matrix(&st16;  3018.5  322.98 )"><tspan style="&st18;" x="0" y="0">EK2</tspan></text></a><a ewd:code="EK2" ewd:figID="116" ewd:figtype="w2w" ewd:pinNo="58" style="cursor:pointer;"><path d=" M 2872.52,  307.73  L 2855.52,  307.73  L 2855.52,  316.23  L 2872.52,  316.23  L 2872.52,  307.73 " style="&st2;" /><text style="&st8;" transform="matrix(&st16;  2857.03  314.48 )"><tspan style="&st18;" x="0" y="0">EK2</tspan></text></a><a ewd:code="EK2" ewd:figID="117" ewd:figtype="w2w" ewd:pinNo="32" style="cursor:pointer;"><path d=" M 2872.52,  316.23  L 2855.52,  316.23  L 2855.52,  324.73  L 2872.52,  324.73  L 2872.52,  316.23 " style="&st2;" /><text style="&st8;" transform="matrix(&st16;  2857.03  322.98 )"><tspan style="&st18;" x="0" y="0">EK2</tspan></text></a><a ewd:code="E2" ewd:figID="118" ewd:figtype="gp" style="cursor:pointer;"><path d=" M  635.27,  681.67  L  656.52,  681.67  L  645.89,  697.25  L  635.27,  681.67 " style="&st2;" /><text style="&st8;" transform="matrix(&st16;  641.36  689.83 )"><tspan style="&st18;" x="0" y="0">E2</tspan></text></a><a ewd:code="I2" ewd:figID="119" ewd:figtype="gp" style="cursor:pointer;"><path d=" M 1825.07,  681.67  L 1846.32,  681.67  L 1835.69,  697.25  L 1825.07,  681.67 " style="&st2;" /><text style="&st8;" transform="matrix(&st16;  1832.57  689.83 )"><tspan style="&st18;" x="0" y="0">I2</tspan></text></a><a ewd:code="I1" ewd:figID="120" ewd:figtype="gp" style="cursor:pointer;"><path d=" M 2275.49,  681.67  L 2296.74,  681.67  L 2286.12,  697.25  L 2275.49,  681.67 " style="&st2;" /><text style="&st8;" transform="matrix(&st16;  2283.4  689.83 )"><tspan style="&st18;" x="0" y="0">I1</tspan></text></a><a ewd:code="E3" ewd:figID="121" ewd:figtype="gp" style="cursor:pointer;"><path d=" M 3431.30,  681.67  L 3452.55,  681.67  L 3441.92,  697.25  L 3431.30,  681.67 " style="&st2;" /><text style="&st8;" transform="matrix(&st16;  3437.39  689.83 )"><tspan style="&st18;" x="0" y="0">E3</tspan></text></a><a ewd:code="C6" ewd:figID="122" ewd:figtype="gp" style="cursor:pointer;"><path d=" M 1162.18,  681.67  L 1183.43,  681.67  L 1172.80,  697.25  L 1162.18,  681.67 " style="&st2;" /><text style="&st8;" transform="matrix(&st16;  1168.12  689.83 )"><tspan style="&st18;" x="0" y="0">C6</tspan></text></a><a ewd:code="E1" ewd:figID="123" ewd:figtype="gp" style="cursor:pointer;"><path d=" M  567.28,  681.67  L  588.53,  681.67  L  577.90,  697.25  L  567.28,  681.67 " style="&st2;" /><text style="&st8;" transform="matrix(&st16;  573.78  689.83 )"><tspan style="&st18;" x="0" y="0">E1</tspan></text></a><a ewd:code="C7" ewd:figID="124" ewd:figtype="gp" style="cursor:pointer;"><path d=" M 1366.15,  681.67  L 1387.39,  681.67  L 1376.77,  697.25  L 1366.15,  681.67 " style="&st2;" /><text style="&st8;" transform="matrix(&st16;  1372.09  689.83 )"><tspan style="&st18;" x="0" y="0">C7</tspan></text></a><a ewd:code="L2" ewd:figID="125" ewd:figtype="gp" style="cursor:pointer;"><path d=" M 4264.16,  681.67  L 4285.41,  681.67  L 4274.79,  697.25  L 4264.16,  681.67 " style="&st2;" /><text style="&st8;" transform="matrix(&st16;  4270.62  689.83 )"><tspan style="&st18;" x="0" y="0">L2</tspan></text></a><a ewd:code="A3" ewd:figID="126" ewd:figtype="gp" style="cursor:pointer;"><path d=" M 4196.17,  681.67  L 4217.42,  681.67  L 4206.80,  697.25  L 4196.17,  681.67 " style="&st2;" /><text style="&st8;" transform="matrix(&st16;  4202.26  689.83 )"><tspan style="&st18;" x="0" y="0">A3</tspan></text></a><a ewd:code="K2" ewd:figID="127" ewd:figtype="gp" style="cursor:pointer;"><path d=" M 3992.21,  681.67  L 4013.45,  681.67  L 4002.83,  697.25  L 3992.21,  681.67 " style="&st2;" /><text style="&st8;" transform="matrix(&st16;  3998.3  689.83 )"><tspan style="&st18;" x="0" y="0">K2</tspan></text></a><a ewd:code="L1" ewd:figID="128" ewd:figtype="gp" style="cursor:pointer;"><path d=" M 3150.85,  681.67  L 3172.09,  681.67  L 3161.47,  697.25  L 3150.85,  681.67 " style="&st2;" /><text style="&st8;" transform="matrix(&st16;  3157.72  689.83 )"><tspan style="&st18;" x="0" y="0">L1</tspan></text></a><a ewd:code="K1" ewd:figID="129" ewd:figtype="gp" style="cursor:pointer;"><path d=" M 2632.44,  681.67  L 2653.68,  681.67  L 2643.06,  697.25  L 2632.44,  681.67 " style="&st2;" /><text style="&st8;" transform="matrix(&st16;  2638.93  689.83 )"><tspan style="&st18;" x="0" y="0">K1</tspan></text></a><a ewd:code="12601" ewd:figID="130" ewd:figtype="sp" style="cursor:pointer;"><path d=" M 1831.44,  452.21  L 1839.94,  452.21  L 1844.19,  456.46  L 1844.19,  464.96  L 1839.94,  469.21  L 1831.44,  469.21  L 1827.19,  464.96  L 1827.19,  456.46  L 1831.44,  452.21 " style="&st2;" /></a><a ewd:code="12529" ewd:figID="131" ewd:figtype="sp" style="cursor:pointer;"><path d=" M 2281.87,  452.21  L 2290.37,  452.21  L 2294.62,  456.46  L 2294.62,  464.96  L 2290.37,  469.21  L 2281.87,  469.21  L 2277.62,  464.96  L 2277.62,  456.46  L 2281.87,  452.21 " style="&st2;" /></a><a ewd:code="19993" ewd:figID="132" ewd:figtype="sp" style="cursor:pointer;"><path d=" M 1219.55,  545.69  L 1228.04,  545.69  L 1232.29,  549.94  L 1232.29,  558.44  L 1228.04,  562.69  L 1219.55,  562.69  L 1215.30,  558.44  L 1215.30,  549.94  L 1219.55,  545.69 " style="&st2;" /></a><a ewd:code="20341" ewd:figID="133" ewd:figtype="sp" style="cursor:pointer;"><path d=" M 1423.51,  477.71  L 1432.01,  477.71  L 1436.26,  481.95  L 1436.26,  490.45  L 1432.01,  494.70  L 1423.51,  494.70  L 1419.26,  490.45  L 1419.26,  481.95  L 1423.51,  477.71 " style="&st2;" /></a><a ewd:code="12457" ewd:figID="134" ewd:figtype="sp" style="cursor:pointer;"><path d=" M 2638.81,  452.21  L 2647.31,  452.21  L 2651.56,  456.46  L 2651.56,  464.96  L 2647.31,  469.21  L 2638.81,  469.21  L 2634.56,  464.96  L 2634.56,  456.46  L 2638.81,  452.21 " style="&st2;" /></a><a ewd:code="12385" ewd:figID="135" ewd:figtype="sp" style="cursor:pointer;"><path d=" M 3157.22,  528.70  L 3165.72,  528.70  L 3169.97,  532.95  L 3169.97,  541.44  L 3165.72,  545.69  L 3157.22,  545.69  L 3152.97,  541.44  L 3152.97,  532.95  L 3157.22,  528.70 " style="&st2;" /></a><a ewd:code="20353" ewd:figID="136" ewd:figtype="sp" style="cursor:pointer;"><path d=" M 1423.51,  545.69  L 1432.01,  545.69  L 1436.26,  549.94  L 1436.26,  558.44  L 1432.01,  562.69  L 1423.51,  562.69  L 1419.26,  558.44  L 1419.26,  549.94  L 1423.51,  545.69 " style="&st2;" /></a></g></svg>