﻿<?xml version="1.0" encoding="utf-8"?>
<!DOCTYPE svg PUBLIC "-//W3C//DTD SVG 1.0//EN" "http://www.w3.org/TR/2001/REC-SVG-20010904/DTD/svg10.dtd"[
	<!ENTITY ns_flows "http://ns.adobe.com/Flows/1.0/">
	<!ENTITY ns_svg "http://www.w3.org/2000/svg">
	<!ENTITY ns_xlink "http://www.w3.org/1999/xlink">
	<!ENTITY st0 "font-size:7px;font-family:'MS-PGothic';adobe-font-script:japanese;">
	<!ENTITY st1 "font-size:6px;font-family:'ArialMT';">
	<!-- White fill  -->
	<!ENTITY st2 "fill:#FFFFFF;stroke:#000000; stroke-width:1.41;stroke-linecap:round;stroke-linejoin:round;">
	<!-- Yellow fill  -->
	<!ENTITY st3 "fill:#FFFFCC;stroke:#FFFFCC; stroke-width:0.1;stroke-linecap:round;stroke-linejoin:round;">
	<!-- Gray fill  -->
	<!ENTITY st4 "fill:#CCCCCC;stroke:#CCCCCC; stroke-width:0.1;stroke-linecap:round;stroke-linejoin:round;">
	<!-- Light-blue fill -->
	<!ENTITY st5 "fill:#CCECF4;stroke:#000000; stroke-width:1.133;stroke-linecap:round;stroke-linejoin:round;">
	<!ENTITY st6 "fill:none;stroke-linecap:butt; stroke-linejoin:round;">
	<!ENTITY st7 "fill:none;stroke:#000000;stroke-linecap:round;stroke-linejoin:round;">
	<!ENTITY st8 "enable-background:new    ;">
	<!-- Black fill -->
	<!ENTITY st9 "fill:#000000;stroke:#000000; stroke-linecap:round;stroke-linejoin:round;">
	<!-- SRS note   -->
	<!ENTITY st10 "font-size:9px;font-family:'ArialMT';">
	<!ENTITY st11 "font-size:9px;font-family:'Svg Symbol';">
	<!ENTITY st12 "font-size:6px;font-family:'Svg Symbol';">
	<!ENTITY st13 "fill:none;stroke:#ff0000;stroke-linecap:round;stroke-linejoin:round;">
	<!-- Yellow fill  -->
	<!ENTITY st14 "fill:#FFFF00;stroke:#FFFF00; stroke-width:0.1;stroke-linecap:round;stroke-linejoin:round;">
	<!ENTITY st15 "font-size:6px;font-family:'MS-PGothic';adobe-font-script:japanese;">
	<!ENTITY st16 "1.00 0.00 0.00 1.00">
	<!ENTITY st17 "0.00 -1.00 1.00 0.00">
	<!ENTITY st18 "font-size:6px;font-family:'Arial';">
	<!ENTITY st19 "font-size:9px;font-family:'Arial';">
	<!ENTITY st20 "font-size:6px;font-family:'MS-PGothic','MS PGothic';adobe-font-script:japanese;">
	<!ENTITY st21 "font-size:7px;font-family:'MS-PGothic','MS PGothic';adobe-font-script:japanese;">
	<!ATTLIST svg
		xmlns:ewd CDATA #FIXED "http://shcl.co.jp/ewd"
		xmlns:a CDATA #FIXED "http://ns.adobe.com/AdobeSVGViewerExtensions/3.0/"
		ewd:ver CDATA #IMPLIED
	>
	<!ATTLIST a
		ewd:lineID CDATA #IMPLIED
		ewd:groupID CDATA #IMPLIED
		ewd:figtype CDATA #IMPLIED
		ewd:code CDATA #IMPLIED
		ewd:figID CDATA #IMPLIED
		ewd:pinNo CDATA #IMPLIED
		ewd:comment CDATA #IMPLIED >
	<!ATTLIST g
		ewd:lineID CDATA #IMPLIED
		ewd:groupID CDATA #IMPLIED
		ewd:figtype CDATA #IMPLIED
		ewd:code CDATA #IMPLIED
		ewd:figID CDATA #IMPLIED
		ewd:pinNo CDATA #IMPLIED
		ewd:comment CDATA #IMPLIED >
	<!ATTLIST text
		ewd:textID CDATA #IMPLIED >
	<!ATTLIST title
		ewd:textID CDATA #IMPLIED >
]>
<!-- Generator: Shintec Hozumi YS   -->
<svg onload="call_execInitLoadProc_svg('system')" style="overflow:visible;  enable-background:new 0 0 5079.829 710.000" viewBox="0 0 5079.829 710.000" height="710.000" width="5079.829" xml:space="preserve" ewd:ver="L2.1.2.8" xmlns="&ns_svg;" xmlns:a="http://ns.adobe.com/AdobeSVGViewerExtensions/3.0/" xmlns:ewd="http://shcl.co.jp/ewd" xmlns:xlink="&ns_xlink;">
<path d=" M  733.00,  129.26  L  728.75,  129.26 " style="stroke-width: 1.42 ;&st7; " /><path d=" M  733.00,  120.77  L  728.75,  120.77 " style="stroke-width: 1.42 ;&st7; " /><path d=" M  722.38,  248.24  L  730.88,  248.24 " style="stroke-width: 1.42 ;&st7; " /><path d=" M  739.38,  537.20  L  730.88,  537.20 " style="stroke-width: 1.42 ;&st7; " /><path d=" M  739.38,  176.73  L  734.40,  171.76 " style="stroke-width: 1.42 ;&st7; " /><path d=" M  722.38,  183.78  L  727.35,  188.75 " style="stroke-width: 1.42 ;&st7; " /><path d=" M  734.40,  188.75  L  739.38,  183.78 " style="stroke-width: 1.42 ;&st7; " /><path d=" M  727.35,  171.76  L  722.38,  176.73 " style="stroke-width: 1.42 ;&st7; " /><path d=" M  909.35,  537.20  L  900.85,  537.20 " style="stroke-width: 1.42 ;&st7; " /><path d=" M  892.35,  248.24  L  900.85,  248.24 " style="stroke-width: 1.42 ;&st7; " /><path d=" M  671.39,  333.23  L  790.37,  333.23  L  790.37,  375.72  L  671.39,  375.72  L  671.39,  333.23 " style="stroke-width: 1.42 ;&st7; " /><path d=" M  735.13,  242.58  L  730.88,  246.83  L  726.63,  242.58 " style="stroke-width: 1.42 ;&st7; " /><path d=" M  730.88,   86.77  L  730.88,  120.77 " style="stroke-width: 0.85 ;&st7; " /><path d=" M  730.88,  115.87  L  728.04,  113.04  L  728.04,  117.29  L  730.88,  120.12  L  733.71,  117.29  L  733.71,  113.04  L  730.88,  115.87 " style="stroke-width: 0.28 ;&st9;" /><path d=" M  726.63,  239.18  L  730.88,  243.43  L  735.13,  239.18 " style="stroke-width: 1.42 ;&st7; " /><path d=" M  729.46,  710.00  L  732.29,  710.00 " style="stroke-width: 0.85 ;&st7; " /><path d=" M  728.04,  707.17  L  733.71,  707.17 " style="stroke-width: 0.85 ;&st7; " /><path d=" M  730.88,  697.25  L  730.88,  701.50 " style="stroke-width: 0.85 ;&st7; " /><path d=" M  726.63,  704.33  L  735.13,  704.33 " style="stroke-width: 0.85 ;&st7; " /><path d=" M  722.38,  701.50  L  739.38,  701.50 " style="stroke-width: 0.85 ;&st7; " /><path d=" M  735.13,  542.86  L  730.88,  538.61  L  726.63,  542.86 " style="stroke-width: 1.42 ;&st7; " /><path d=" M  735.13,  546.26  L  730.88,  542.01  L  726.63,  546.26 " style="stroke-width: 1.42 ;&st7; " /><path d=" M  841.36,  333.23  L  960.34,  333.23  L  960.34,  375.72  L  841.36,  375.72  L  841.36,  333.23 " style="stroke-width: 1.42 ;&st7; " /><path d=" M  905.10,  242.58  L  900.85,  246.83  L  896.60,  242.58 " style="stroke-width: 1.42 ;&st7; " /><path d=" M  896.60,  239.18  L  900.85,  243.43  L  905.10,  239.18 " style="stroke-width: 1.42 ;&st7; " /><path d=" M  905.10,  542.86  L  900.85,  538.61  L  896.60,  542.86 " style="stroke-width: 1.42 ;&st7; " /><path d=" M  905.10,  546.26  L  900.85,  542.01  L  896.60,  546.26 " style="stroke-width: 1.42 ;&st7; " /><path d=" M  737.25,  125.01  C  737.25   122.67   735.35   120.77   733.00   120.77 " style="stroke-width: 1.42 ;&st7; " /><path d=" M  733.00,  129.26  C  735.35   129.26   737.25   127.36   737.25   125.01 " style="stroke-width: 1.42 ;&st7; " /><path d=" M  724.50,  125.01  C  724.50   127.36   726.41   129.26   728.75   129.26 " style="stroke-width: 1.42 ;&st7; " /><path d=" M  728.75,  120.77  C  726.41   120.77   724.50   122.67   724.50   125.01 " style="stroke-width: 1.42 ;&st7; " /><text style="&st18;" transform="matrix(&st17;  727.18  157.51 )">G</text><text style="&st18;" transform="matrix(&st16;  723.46  83.07 )">LIN2</text><text style="&st18;" transform="matrix(&st16;  720.91  94.96 )">16</text><text style="&st18;" transform="matrix(&st16;  715.01  126.98 )">13</text><text style="&st18;" transform="matrix(&st16;  727.13  126.98 )">2J</text><text style="&st18;" transform="matrix(&st17;  727.18  301.99 )">G</text><text style="&st18;" transform="matrix(&st16;  716.06  254.46 )">4</text><text style="&st18;" transform="matrix(&st16;  723.18  372.03 )">GND</text><text style="&st18;" transform="matrix(&st16;  720.91  383.92 )">12</text><text style="&st18;" transform="matrix(&st17;  727.18  459.91 )">W-B</text><text ewd:textID="22" style="&st18;" transform="matrix(&st16;  690.54  356.45 )">Door Lock Control Switch</text><text style="&st18;" transform="matrix(&st16;  712.88  534.92 )">10</text><text style="&st18;" transform="matrix(&st17;  727.18  578.89 )">W-B</text><text style="&st18;" transform="matrix(&st16;  723.85  340.86 )">LIN1</text><text style="&st18;" transform="matrix(&st16;  720.91  329.54 )">17</text><text ewd:textID="35" style="&st18;" transform="matrix(&st17;  805.09  378.25 )">Multiplex Network <tspan dy="6" x="0">Master Switch Assembly</tspan></text><text style="&st18;" transform="matrix(&st17;  798.26  378.25 )">I11</text><text style="&st18;" transform="matrix(&st17;  727.18  217.0 )">G</text><text style="&st18;" transform="matrix(&st17;  738.51  223.5 )">(LHD)</text><text style="&st18;" transform="matrix(&st17;  738.51  308.49 )">(LHD)</text><text style="&st18;" transform="matrix(&st17;  738.51  461.46 )">(LHD)</text><text style="&st18;" transform="matrix(&st17;  738.51  580.44 )">(LHD)</text><text style="&st18;" transform="matrix(&st16;  890.88  383.92 )">12</text><text style="&st18;" transform="matrix(&st16;  890.88  329.54 )">17</text><text style="&st18;" transform="matrix(&st16;  893.15  372.03 )">GND</text><text style="&st18;" transform="matrix(&st16;  886.04  254.46 )">4</text><text style="&st18;" transform="matrix(&st16;  893.82  340.86 )">LIN1</text><text style="&st18;" transform="matrix(&st17;  897.15  459.91 )">W-B</text><text ewd:textID="22" style="&st18;" transform="matrix(&st16;  860.51  356.45 )">Door Lock Control Switch</text><text style="&st18;" transform="matrix(&st17;  897.15  301.99 )">G</text><text style="&st18;" transform="matrix(&st16;  882.86  534.92 )">10</text><text style="&st18;" transform="matrix(&st17;  897.15  578.89 )">W-B</text><text ewd:textID="35" style="&st18;" transform="matrix(&st17;  975.06  378.25 )">Multiplex Network <tspan dy="6" x="0">Master Switch Assembly</tspan></text><text style="&st18;" transform="matrix(&st17;  968.23  378.25 )">I22</text><text style="&st18;" transform="matrix(&st17;  908.49  308.98 )">(RHD)</text><text style="&st18;" transform="matrix(&st17;  908.49  461.96 )">(RHD)</text><text style="&st18;" transform="matrix(&st17;  908.49  580.94 )">(RHD)</text><text style="&st18;" transform="matrix(&st17;  897.15  217.0 )">G</text><text style="&st18;" transform="matrix(&st17;  908.49  224.0 )">(RHD)</text><text style="&st18;" transform="matrix(&st16;  745.35  24.98 )">E117(A),E118(B)</text><text ewd:textID="34" style="&st18;" transform="matrix(&st16;  745.35  32.08 )">Main Body ECU</text></svg>