﻿<?xml version="1.0" encoding="utf-8"?>
<!DOCTYPE svg PUBLIC "-//W3C//DTD SVG 1.0//EN" "http://www.w3.org/TR/2001/REC-SVG-20010904/DTD/svg10.dtd"[
	<!ENTITY ns_flows "http://ns.adobe.com/Flows/1.0/">
	<!ENTITY ns_svg "http://www.w3.org/2000/svg">
	<!ENTITY ns_xlink "http://www.w3.org/1999/xlink">
	<!ENTITY st0 "font-size:7px;font-family:'MS-PGothic';adobe-font-script:japanese;">
	<!ENTITY st1 "font-size:6px;font-family:'ArialMT';">
	<!-- White fill  -->
	<!ENTITY st2 "fill:#FFFFFF;stroke:#000000; stroke-width:1.41;stroke-linecap:round;stroke-linejoin:round;">
	<!-- Yellow fill  -->
	<!ENTITY st3 "fill:#FFFFCC;stroke:#FFFFCC; stroke-width:0.1;stroke-linecap:round;stroke-linejoin:round;">
	<!-- Gray fill  -->
	<!ENTITY st4 "fill:#CCCCCC;stroke:#CCCCCC; stroke-width:0.1;stroke-linecap:round;stroke-linejoin:round;">
	<!-- Light-blue fill -->
	<!ENTITY st5 "fill:#CCECF4;stroke:#000000; stroke-width:1.133;stroke-linecap:round;stroke-linejoin:round;">
	<!ENTITY st6 "fill:none;stroke-linecap:butt; stroke-linejoin:round;">
	<!ENTITY st7 "fill:none;stroke:#000000;stroke-linecap:round;stroke-linejoin:round;">
	<!ENTITY st8 "enable-background:new    ;">
	<!-- Black fill -->
	<!ENTITY st9 "fill:#000000;stroke:#000000; stroke-linecap:round;stroke-linejoin:round;">
	<!-- SRS note   -->
	<!ENTITY st10 "font-size:9px;font-family:'ArialMT';">
	<!ENTITY st11 "font-size:9px;font-family:'Svg Symbol';">
	<!ENTITY st12 "font-size:6px;font-family:'Svg Symbol';">
	<!ENTITY st13 "fill:none;stroke:#ff0000;stroke-linecap:round;stroke-linejoin:round;">
	<!-- Yellow fill  -->
	<!ENTITY st14 "fill:#FFFF00;stroke:#FFFF00; stroke-width:0.1;stroke-linecap:round;stroke-linejoin:round;">
	<!ENTITY st15 "font-size:6px;font-family:'MS-PGothic';adobe-font-script:japanese;">
	<!ENTITY st16 "1.00 0.00 0.00 1.00">
	<!ENTITY st17 "0.00 -1.00 1.00 0.00">
	<!ENTITY st18 "font-size:6px;font-family:'Arial';">
	<!ENTITY st19 "font-size:9px;font-family:'Arial';">
	<!ENTITY st20 "font-size:6px;font-family:'MS-PGothic','MS PGothic';adobe-font-script:japanese;">
	<!ENTITY st21 "font-size:7px;font-family:'MS-PGothic','MS PGothic';adobe-font-script:japanese;">
	<!ATTLIST svg
		xmlns:ewd CDATA #FIXED "http://shcl.co.jp/ewd"
		xmlns:a CDATA #FIXED "http://ns.adobe.com/AdobeSVGViewerExtensions/3.0/"
		ewd:ver CDATA #IMPLIED
	>
	<!ATTLIST a
		ewd:lineID CDATA #IMPLIED
		ewd:groupID CDATA #IMPLIED
		ewd:figtype CDATA #IMPLIED
		ewd:code CDATA #IMPLIED
		ewd:figID CDATA #IMPLIED
		ewd:pinNo CDATA #IMPLIED
		ewd:comment CDATA #IMPLIED >
	<!ATTLIST g
		ewd:lineID CDATA #IMPLIED
		ewd:groupID CDATA #IMPLIED
		ewd:figtype CDATA #IMPLIED
		ewd:code CDATA #IMPLIED
		ewd:figID CDATA #IMPLIED
		ewd:pinNo CDATA #IMPLIED
		ewd:comment CDATA #IMPLIED >
	<!ATTLIST text
		ewd:textID CDATA #IMPLIED >
	<!ATTLIST title
		ewd:textID CDATA #IMPLIED >
]>
<!-- Generator: Shintec Hozumi YS   -->
<svg onload="call_execInitLoadProc_svg('system')" style="overflow:visible;  enable-background:new 0 0 4140.020 710.000" viewBox="0 0 4140.020 710.000" height="710.000" width="4140.020" xml:space="preserve" ewd:ver="L2.1.2.8" xmlns="&ns_svg;" xmlns:a="http://ns.adobe.com/AdobeSVGViewerExtensions/3.0/" xmlns:ewd="http://shcl.co.jp/ewd" xmlns:xlink="&ns_xlink;">
<path d=" M 3067.99,  163.26  L 3059.49,  163.26 " style="stroke-width: 1.42 ;&st7; " /><path d=" M 3059.49,  345.98  L 3059.49,  333.23 " style="stroke-width: 0.85 ;&st7; " /><path d=" M 3059.49,  384.22  L 3059.49,  371.47 " style="stroke-width: 0.85 ;&st7; " /><path d=" M 3059.49,  368.64  L 3065.15,  345.98 " style="stroke-width: 1.42 ;&st7; " /><path d=" M 3067.99,  630.68  L 3059.49,  630.68 " style="stroke-width: 1.42 ;&st7; " /><path d=" M 3050.99,  231.25  L 3059.49,  231.25 " style="stroke-width: 1.42 ;&st7; " /><path d=" M 3152.97,  375.72  L 3144.47,  375.72 " style="stroke-width: 1.42 ;&st7; " /><path d=" M 3144.47,  490.45  L 3144.47,  486.20 " style="stroke-width: 0.85 ;&st7; " /><path d=" M 3144.47,  520.20  L 3144.47,  515.95 " style="stroke-width: 0.85 ;&st7; " /><path d=" M 3203.96,  375.72  L 3195.47,  375.72 " style="stroke-width: 1.42 ;&st7; " /><path d=" M 3195.47,  490.45  L 3195.47,  486.20 " style="stroke-width: 0.85 ;&st7; " /><path d=" M 3195.47,  520.20  L 3195.47,  515.95 " style="stroke-width: 0.85 ;&st7; " /><path d=" M 3144.47,  513.12  L 3142.78,  489.00 " style="stroke-width: 1.42 ;&st7; " /><path d=" M 3195.47,  513.12  L 3193.77,  489.00 " style="stroke-width: 1.42 ;&st7; " /><path d=" M 3448.30,  583.94  L 3448.30,  592.44 " style="stroke-width: 1.42 ;&st7; " /><path d=" M 3467.42,  588.19  L 3448.30,  588.19 " style="stroke-width: 0.85 ;&st7; " /><path d=" M 3444.05,  583.94  L 3444.05,  592.44 " style="stroke-width: 1.42 ;&st7; " /><path d=" M 3444.05,  588.19  L 3424.93,  588.19 " style="stroke-width: 0.85 ;&st7; " /><path d=" M 3278.33,  583.94  L 3278.33,  592.44 " style="stroke-width: 1.42 ;&st7; " /><path d=" M 3297.45,  588.19  L 3278.33,  588.19 " style="stroke-width: 0.85 ;&st7; " /><path d=" M 3274.08,  583.94  L 3274.08,  592.44 " style="stroke-width: 1.42 ;&st7; " /><path d=" M 3274.08,  588.19  L 3254.96,  588.19 " style="stroke-width: 0.85 ;&st7; " /><path d=" M 3063.74,  225.58  L 3059.49,  229.83  L 3055.24,  225.58 " style="stroke-width: 1.42 ;&st7; " /><path d=" M 3042.49,  333.23  L 3042.49,  384.22  L 3076.48,  384.22  L 3076.48,  333.23  L 3042.49,  333.23 " style="stroke-width: 1.42 ;&st7; " /><path d=" M 3063.74,  172.32  L 3059.49,  168.07  L 3055.24,  172.32 " style="stroke-width: 1.42 ;&st7; " /><path d=" M 3063.74,  168.92  L 3059.49,  164.67  L 3055.24,  168.92 " style="stroke-width: 1.42 ;&st7; " /><path d=" M 3237.96,  341.73  L 3237.96,  392.72  L 3611.89,  392.72  L 3611.89,  341.73  L 3237.96,  341.73 " style="stroke-width: 1.42 ;&st7; " /><path d=" M 3407.93,  545.69  L 3407.93,  647.68  L 3492.91,  647.68  L 3492.91,  545.69  L 3407.93,  545.69 " style="stroke-width: 1.42 ;&st7; " /><path d=" M 3466.23,  587.18  L 3465.95,  587.65  L 3465.86,  588.19  L 3465.95,  588.72  L 3466.23,  589.19  L 3466.64,  589.54  L 3467.15,  589.72  L 3467.69,  589.72  L 3468.20,  589.54  L 3468.61,  589.19  L 3468.88,  588.72  L 3468.98,  588.19  L 3468.88,  587.65  L 3468.61,  587.18  L 3468.20,  586.84  L 3467.69,  586.65  L 3467.15,  586.65  L 3466.64,  586.84  L 3466.23,  587.18  L 3466.62,  587.90  L 3466.62,  588.48  L 3466.99,  588.92  L 3467.57,  589.02  L 3468.07,  588.73  L 3468.27,  588.19  L 3468.07,  587.64  L 3467.57,  587.35  L 3466.99,  587.45  L 3467.42,  588.19 " style="stroke-width: 0.85 ;&st7; " /><path d=" M 3423.73,  587.18  L 3423.46,  587.65  L 3423.37,  588.19  L 3423.46,  588.72  L 3423.73,  589.19  L 3424.15,  589.54  L 3424.66,  589.72  L 3425.20,  589.72  L 3425.71,  589.54  L 3426.12,  589.19  L 3426.39,  588.72  L 3426.48,  588.19  L 3426.39,  587.65  L 3426.12,  587.18  L 3425.71,  586.84  L 3425.20,  586.65  L 3424.66,  586.65  L 3424.15,  586.84  L 3423.73,  587.18  L 3424.13,  587.90  L 3424.13,  588.48  L 3424.50,  588.92  L 3425.07,  589.02  L 3425.58,  588.73  L 3425.78,  588.19  L 3425.58,  587.64  L 3425.07,  587.35  L 3424.50,  587.45  L 3424.93,  588.19 " style="stroke-width: 0.85 ;&st7; " /><path d=" M 3458.92,  613.68  L 3467.42,  613.68  L 3467.42,  545.69 " style="stroke-width: 0.85 ;&st7; " /><path d=" M 3433.42,  613.68  L 3424.93,  613.68  L 3424.93,  545.69 " style="stroke-width: 0.85 ;&st7; " /><path d=" M 3433.42,  605.18  L 3433.42,  622.18  L 3458.92,  622.18  L 3458.92,  605.18  L 3433.42,  605.18 " style="stroke-width: 1.42 ;&st7; " /><path d=" M 3444.54,  565.53  L 3441.92,  567.27  L 3441.92,  575.11  L 3439.31,  576.85 " style="stroke-width: 0.85 ;&st7; " /><path d=" M 3441.92,  571.19  L 3450.42,  565.52  L 3450.42,  576.86  L 3441.92,  571.19 " style="stroke-width: 0.28 ;&st9;" /><path d=" M 3424.93,  571.19  L 3467.42,  571.19 " style="stroke-width: 0.85 ;&st7; " /><path d=" M 3466.23,  570.19  L 3465.95,  570.66  L 3465.86,  571.19  L 3465.95,  571.72  L 3466.23,  572.19  L 3466.64,  572.54  L 3467.15,  572.73  L 3467.69,  572.73  L 3468.20,  572.54  L 3468.61,  572.19  L 3468.88,  571.72  L 3468.98,  571.19  L 3468.88,  570.66  L 3468.61,  570.19  L 3468.20,  569.84  L 3467.69,  569.65  L 3467.15,  569.65  L 3466.64,  569.84  L 3466.23,  570.19  L 3466.62,  570.90  L 3466.62,  571.48  L 3466.99,  571.93  L 3467.57,  572.03  L 3468.07,  571.74  L 3468.27,  571.19  L 3468.07,  570.64  L 3467.57,  570.35  L 3466.99,  570.45  L 3467.42,  571.19 " style="stroke-width: 0.85 ;&st7; " /><path d=" M 3423.73,  570.19  L 3423.46,  570.66  L 3423.37,  571.19  L 3423.46,  571.72  L 3423.73,  572.19  L 3424.15,  572.54  L 3424.66,  572.73  L 3425.20,  572.73  L 3425.71,  572.54  L 3426.12,  572.19  L 3426.39,  571.72  L 3426.48,  571.19  L 3426.39,  570.66  L 3426.12,  570.19  L 3425.71,  569.84  L 3425.20,  569.65  L 3424.66,  569.65  L 3424.15,  569.84  L 3423.73,  570.19  L 3424.13,  570.90  L 3424.13,  571.48  L 3424.50,  571.93  L 3425.07,  572.03  L 3425.58,  571.74  L 3425.78,  571.19  L 3425.58,  570.64  L 3425.07,  570.35  L 3424.50,  570.45  L 3424.93,  571.19 " style="stroke-width: 0.85 ;&st7; " /><path d=" M 3433.42,  406.32  L 3450.42,  406.32 " style="stroke-width: 0.85 ;&st7;stroke-dasharray:3, 1.5;" /><path d=" M 3237.96,  545.69  L 3237.96,  647.68  L 3322.94,  647.68  L 3322.94,  545.69  L 3237.96,  545.69 " style="stroke-width: 1.42 ;&st7; " /><path d=" M 3296.26,  587.18  L 3295.98,  587.65  L 3295.89,  588.19  L 3295.98,  588.72  L 3296.26,  589.19  L 3296.67,  589.54  L 3297.18,  589.72  L 3297.72,  589.72  L 3298.23,  589.54  L 3298.64,  589.19  L 3298.91,  588.72  L 3299.01,  588.19  L 3298.91,  587.65  L 3298.64,  587.18  L 3298.23,  586.84  L 3297.72,  586.65  L 3297.18,  586.65  L 3296.67,  586.84  L 3296.26,  587.18  L 3296.65,  587.90  L 3296.65,  588.48  L 3297.02,  588.92  L 3297.59,  589.02  L 3298.10,  588.73  L 3298.30,  588.19  L 3298.10,  587.64  L 3297.59,  587.35  L 3297.02,  587.45  L 3297.45,  588.19 " style="stroke-width: 0.85 ;&st7; " /><path d=" M 3253.76,  587.18  L 3253.49,  587.65  L 3253.40,  588.19  L 3253.49,  588.72  L 3253.76,  589.19  L 3254.18,  589.54  L 3254.69,  589.72  L 3255.22,  589.72  L 3255.73,  589.54  L 3256.15,  589.19  L 3256.42,  588.72  L 3256.51,  588.19  L 3256.42,  587.65  L 3256.15,  587.18  L 3255.73,  586.84  L 3255.22,  586.65  L 3254.69,  586.65  L 3254.18,  586.84  L 3253.76,  587.18  L 3254.16,  587.90  L 3254.16,  588.48  L 3254.53,  588.92  L 3255.10,  589.02  L 3255.61,  588.73  L 3255.80,  588.19  L 3255.61,  587.64  L 3255.10,  587.35  L 3254.53,  587.45  L 3254.95,  588.19 " style="stroke-width: 0.85 ;&st7; " /><path d=" M 3288.95,  613.68  L 3297.45,  613.68  L 3297.45,  545.69 " style="stroke-width: 0.85 ;&st7; " /><path d=" M 3263.45,  613.68  L 3254.95,  613.68  L 3254.95,  545.69 " style="stroke-width: 0.85 ;&st7; " /><path d=" M 3263.45,  605.18  L 3263.45,  622.18  L 3288.95,  622.18  L 3288.95,  605.18  L 3263.45,  605.18 " style="stroke-width: 1.42 ;&st7; " /><path d=" M 3274.57,  565.53  L 3271.95,  567.27  L 3271.95,  575.11  L 3269.34,  576.85 " style="stroke-width: 0.85 ;&st7; " /><path d=" M 3271.95,  571.19  L 3280.45,  565.52  L 3280.45,  576.86  L 3271.95,  571.19 " style="stroke-width: 0.28 ;&st9;" /><path d=" M 3254.95,  571.19  L 3297.45,  571.19 " style="stroke-width: 0.85 ;&st7; " /><path d=" M 3296.26,  570.19  L 3295.98,  570.66  L 3295.89,  571.19  L 3295.98,  571.72  L 3296.26,  572.19  L 3296.67,  572.54  L 3297.18,  572.73  L 3297.72,  572.73  L 3298.23,  572.54  L 3298.64,  572.19  L 3298.91,  571.72  L 3299.01,  571.19  L 3298.91,  570.66  L 3298.64,  570.19  L 3298.23,  569.84  L 3297.72,  569.65  L 3297.18,  569.65  L 3296.67,  569.84  L 3296.26,  570.19  L 3296.65,  570.90  L 3296.65,  571.48  L 3297.02,  571.93  L 3297.59,  572.03  L 3298.10,  571.74  L 3298.30,  571.19  L 3298.10,  570.64  L 3297.59,  570.35  L 3297.02,  570.45  L 3297.45,  571.19 " style="stroke-width: 0.85 ;&st7; " /><path d=" M 3253.76,  570.19  L 3253.49,  570.66  L 3253.40,  571.19  L 3253.49,  571.72  L 3253.76,  572.19  L 3254.18,  572.54  L 3254.69,  572.73  L 3255.22,  572.73  L 3255.73,  572.54  L 3256.15,  572.19  L 3256.42,  571.72  L 3256.51,  571.19  L 3256.42,  570.66  L 3256.15,  570.19  L 3255.73,  569.84  L 3255.22,  569.65  L 3254.69,  569.65  L 3254.18,  569.84  L 3253.76,  570.19  L 3254.16,  570.90  L 3254.16,  571.48  L 3254.53,  571.93  L 3255.10,  572.03  L 3255.61,  571.74  L 3255.80,  571.19  L 3255.61,  570.64  L 3255.10,  570.35  L 3254.53,  570.45  L 3254.95,  571.19 " style="stroke-width: 0.85 ;&st7; " /><path d=" M 3263.45,  406.32  L 3280.45,  406.32 " style="stroke-width: 0.85 ;&st7;stroke-dasharray:3, 1.5;" /><path d=" M 3055.24,  222.18  L 3059.49,  226.43  L 3063.74,  222.18 " style="stroke-width: 1.42 ;&st7; " /><path d=" M 3063.74,  639.75  L 3059.49,  635.50  L 3055.24,  639.75 " style="stroke-width: 1.42 ;&st7; " /><path d=" M 3063.74,  636.35  L 3059.49,  632.10  L 3055.24,  636.35 " style="stroke-width: 1.42 ;&st7; " /><path d=" M 3059.49,  697.25  L 3059.49,  701.50 " style="stroke-width: 0.85 ;&st7; " /><path d=" M 3050.99,  701.50  L 3067.99,  701.50 " style="stroke-width: 0.85 ;&st7; " /><path d=" M 3055.24,  704.33  L 3063.74,  704.33 " style="stroke-width: 0.85 ;&st7; " /><path d=" M 3056.65,  707.17  L 3062.32,  707.17 " style="stroke-width: 0.85 ;&st7; " /><path d=" M 3058.07,  710.00  L 3060.90,  710.00 " style="stroke-width: 0.85 ;&st7; " /><path d=" M 3148.72,  384.79  L 3144.47,  380.54  L 3140.22,  384.79 " style="stroke-width: 1.42 ;&st7; " /><path d=" M 3148.72,  381.39  L 3144.47,  377.14  L 3140.22,  381.39 " style="stroke-width: 1.42 ;&st7; " /><path d=" M 3152.97,  520.20  L 3152.97,  486.20  L 3135.97,  486.20  L 3135.97,  520.20  L 3152.97,  520.20 " style="stroke-width: 1.42 ;&st7; " /><path d=" M 3199.71,  384.79  L 3195.46,  380.54  L 3191.22,  384.79 " style="stroke-width: 1.42 ;&st7; " /><path d=" M 3199.71,  381.39  L 3195.46,  377.14  L 3191.22,  381.39 " style="stroke-width: 1.42 ;&st7; " /><path d=" M 3195.46,  697.25  L 3195.46,  701.50 " style="stroke-width: 0.85 ;&st7; " /><path d=" M 3186.97,  701.50  L 3203.96,  701.50 " style="stroke-width: 0.85 ;&st7; " /><path d=" M 3191.22,  704.33  L 3199.71,  704.33 " style="stroke-width: 0.85 ;&st7; " /><path d=" M 3192.63,  707.17  L 3198.30,  707.17 " style="stroke-width: 0.85 ;&st7; " /><path d=" M 3194.05,  710.00  L 3196.88,  710.00 " style="stroke-width: 0.85 ;&st7; " /><path d=" M 3144.47,  697.25  L 3144.47,  701.50 " style="stroke-width: 0.85 ;&st7; " /><path d=" M 3135.97,  701.50  L 3152.97,  701.50 " style="stroke-width: 0.85 ;&st7; " /><path d=" M 3140.22,  704.33  L 3148.72,  704.33 " style="stroke-width: 0.85 ;&st7; " /><path d=" M 3141.64,  707.17  L 3147.31,  707.17 " style="stroke-width: 0.85 ;&st7; " /><path d=" M 3143.06,  710.00  L 3145.89,  710.00 " style="stroke-width: 0.85 ;&st7; " /><path d=" M 3203.96,  520.20  L 3203.96,  486.20  L 3186.97,  486.20  L 3186.97,  520.20  L 3203.96,  520.20 " style="stroke-width: 1.42 ;&st7; " /><path d=" M 3305.95,  406.32  L 3407.93,  406.32 " style="stroke-width: 0.85 ;&st7;stroke-dasharray:3, 1.5;" /><path d=" M 3433.42,  397.25  L 3450.42,  397.25 " style="stroke-width: 0.85 ;&st7;stroke-dasharray:3, 1.5;" /><path d=" M 3263.45,  397.25  L 3280.45,  397.25 " style="stroke-width: 0.85 ;&st7;stroke-dasharray:3, 1.5;" /><path d=" M 3305.95,  397.25  L 3407.93,  397.25 " style="stroke-width: 0.85 ;&st7;stroke-dasharray:3, 1.5;" /><path d=" M 3064.02,   91.30  C 3064.02    88.80  3061.99    86.77  3059.49    86.77 " style="stroke-width: 1.42 ;&st7; " /><path d=" M 3059.49,   86.77  C 3056.99    86.77  3054.96    88.80  3054.96    91.30 " style="stroke-width: 1.42 ;&st7; " /><path d=" M 3054.96,   91.30  C 3054.96    93.81  3056.99    95.84  3059.49    95.84 " style="stroke-width: 1.42 ;&st7; " /><path d=" M 3059.49,   95.84  C 3061.99    95.84  3064.02    93.81  3064.02    91.30 " style="stroke-width: 1.42 ;&st7; " /><path d=" M 3429.46,  397.25  C 3429.46   394.75  3427.43   392.72  3424.93   392.72 " style="stroke-width: 1.42 ;&st7; " /><path d=" M 3424.93,  392.72  C 3422.42   392.72  3420.40   394.75  3420.40   397.25 " style="stroke-width: 1.42 ;&st7; " /><path d=" M 3420.40,  397.25  C 3420.40   399.76  3422.42   401.78  3424.93   401.78 " style="stroke-width: 1.42 ;&st7; " /><path d=" M 3424.93,  401.78  C 3427.43   401.78  3429.46   399.76  3429.46   397.25 " style="stroke-width: 1.42 ;&st7; " /><path d=" M 3429.46,  406.32  C 3429.46   403.81  3427.43   401.78  3424.93   401.78 " style="stroke-width: 1.42 ;&st7; " /><path d=" M 3424.93,  401.78  C 3422.42   401.78  3420.40   403.81  3420.40   406.32 " style="stroke-width: 1.42 ;&st7; " /><path d=" M 3420.40,  406.32  C 3420.40   408.82  3422.42   410.85  3424.93   410.85 " style="stroke-width: 1.42 ;&st7; " /><path d=" M 3424.93,  410.85  C 3427.43   410.85  3429.46   408.82  3429.46   406.32 " style="stroke-width: 1.42 ;&st7; " /><path d=" M 3471.95,  406.32  C 3471.95   403.81  3469.92   401.78  3467.42   401.78 " style="stroke-width: 1.42 ;&st7; " /><path d=" M 3467.42,  401.78  C 3464.92   401.78  3462.89   403.81  3462.89   406.32 " style="stroke-width: 1.42 ;&st7; " /><path d=" M 3462.89,  406.32  C 3462.89   408.82  3464.92   410.85  3467.42   410.85 " style="stroke-width: 1.42 ;&st7; " /><path d=" M 3467.42,  410.85  C 3469.92   410.85  3471.95   408.82  3471.95   406.32 " style="stroke-width: 1.42 ;&st7; " /><path d=" M 3259.49,  397.25  C 3259.49   394.75  3257.46   392.72  3254.96   392.72 " style="stroke-width: 1.42 ;&st7; " /><path d=" M 3254.96,  392.72  C 3252.45   392.72  3250.42   394.75  3250.42   397.25 " style="stroke-width: 1.42 ;&st7; " /><path d=" M 3250.42,  397.25  C 3250.42   399.76  3252.45   401.78  3254.96   401.78 " style="stroke-width: 1.42 ;&st7; " /><path d=" M 3254.96,  401.78  C 3257.46   401.78  3259.49   399.76  3259.49   397.25 " style="stroke-width: 1.42 ;&st7; " /><path d=" M 3259.49,  406.32  C 3259.49   403.81  3257.46   401.78  3254.96   401.78 " style="stroke-width: 1.42 ;&st7; " /><path d=" M 3254.96,  401.78  C 3252.45   401.78  3250.42   403.81  3250.42   406.32 " style="stroke-width: 1.42 ;&st7; " /><path d=" M 3250.42,  406.32  C 3250.42   408.82  3252.45   410.85  3254.96   410.85 " style="stroke-width: 1.42 ;&st7; " /><path d=" M 3254.96,  410.85  C 3257.46   410.85  3259.49   408.82  3259.49   406.32 " style="stroke-width: 1.42 ;&st7; " /><path d=" M 3301.98,  406.32  C 3301.98   403.81  3299.95   401.78  3297.45   401.78 " style="stroke-width: 1.42 ;&st7; " /><path d=" M 3297.45,  401.78  C 3294.95   401.78  3292.92   403.81  3292.92   406.32 " style="stroke-width: 1.42 ;&st7; " /><path d=" M 3292.92,  406.32  C 3292.92   408.82  3294.95   410.85  3297.45   410.85 " style="stroke-width: 1.42 ;&st7; " /><path d=" M 3297.45,  410.85  C 3299.95   410.85  3301.98   408.82  3301.98   406.32 " style="stroke-width: 1.42 ;&st7; " /><path d=" M 3060.91,  347.39  C 3060.91   346.61  3060.27   345.98  3059.49   345.98 " style="stroke-width: 0.85 ;&st7; " /><path d=" M 3059.49,  345.98  C 3058.71   345.98  3058.07   346.61  3058.07   347.39 " style="stroke-width: 0.85 ;&st7; " /><path d=" M 3058.07,  347.39  C 3058.07   348.18  3058.71   348.81  3059.49   348.81 " style="stroke-width: 0.85 ;&st7; " /><path d=" M 3059.49,  348.81  C 3060.27   348.81  3060.91   348.18  3060.91   347.39 " style="stroke-width: 0.85 ;&st7; " /><path d=" M 3060.91,  370.06  C 3060.91   369.27  3060.27   368.64  3059.49   368.64 " style="stroke-width: 0.85 ;&st7; " /><path d=" M 3059.49,  368.64  C 3058.71   368.64  3058.07   369.27  3058.07   370.06 " style="stroke-width: 0.85 ;&st7; " /><path d=" M 3058.07,  370.06  C 3058.07   370.84  3058.71   371.47  3059.49   371.47 " style="stroke-width: 0.85 ;&st7; " /><path d=" M 3059.49,  371.47  C 3060.27   371.47  3060.91   370.84  3060.91   370.06 " style="stroke-width: 0.85 ;&st7; " /><path d=" M 3145.89,  491.87  C 3145.89   491.09  3145.26   490.45  3144.47   490.45 " style="stroke-width: 0.85 ;&st7; " /><path d=" M 3144.47,  490.45  C 3143.69   490.45  3143.06   491.09  3143.06   491.87 " style="stroke-width: 0.85 ;&st7; " /><path d=" M 3143.06,  491.87  C 3143.06   492.65  3143.69   493.29  3144.47   493.29 " style="stroke-width: 0.85 ;&st7; " /><path d=" M 3144.47,  493.29  C 3145.26   493.29  3145.89   492.65  3145.89   491.87 " style="stroke-width: 0.85 ;&st7; " /><path d=" M 3145.89,  514.53  C 3145.89   513.75  3145.26   513.12  3144.47   513.12 " style="stroke-width: 0.85 ;&st7; " /><path d=" M 3144.47,  513.12  C 3143.69   513.12  3143.06   513.75  3143.06   514.53 " style="stroke-width: 0.85 ;&st7; " /><path d=" M 3143.06,  514.53  C 3143.06   515.31  3143.69   515.95  3144.47   515.95 " style="stroke-width: 0.85 ;&st7; " /><path d=" M 3144.47,  515.95  C 3145.26   515.95  3145.89   515.31  3145.89   514.53 " style="stroke-width: 0.85 ;&st7; " /><path d=" M 3149.01,   91.30  C 3149.01    88.80  3146.98    86.77  3144.47    86.77 " style="stroke-width: 1.42 ;&st7; " /><path d=" M 3144.47,   86.77  C 3141.97    86.77  3139.94    88.80  3139.94    91.30 " style="stroke-width: 1.42 ;&st7; " /><path d=" M 3139.94,   91.30  C 3139.94    93.81  3141.97    95.84  3144.47    95.84 " style="stroke-width: 1.42 ;&st7; " /><path d=" M 3144.47,   95.84  C 3146.98    95.84  3149.01    93.81  3149.01    91.30 " style="stroke-width: 1.42 ;&st7; " /><path d=" M 3196.88,  514.53  C 3196.88   513.75  3196.25   513.12  3195.47   513.12 " style="stroke-width: 0.85 ;&st7; " /><path d=" M 3195.47,  513.12  C 3194.68   513.12  3194.05   513.75  3194.05   514.53 " style="stroke-width: 0.85 ;&st7; " /><path d=" M 3194.05,  514.53  C 3194.05   515.31  3194.68   515.95  3195.47   515.95 " style="stroke-width: 0.85 ;&st7; " /><path d=" M 3195.47,  515.95  C 3196.25   515.95  3196.88   515.31  3196.88   514.53 " style="stroke-width: 0.85 ;&st7; " /><path d=" M 3196.88,  491.87  C 3196.88   491.09  3196.25   490.45  3195.47   490.45 " style="stroke-width: 0.85 ;&st7; " /><path d=" M 3195.47,  490.45  C 3194.68   490.45  3194.05   491.09  3194.05   491.87 " style="stroke-width: 0.85 ;&st7; " /><path d=" M 3194.05,  491.87  C 3194.05   492.65  3194.68   493.29  3195.47   493.29 " style="stroke-width: 0.85 ;&st7; " /><path d=" M 3195.47,  493.29  C 3196.25   493.29  3196.88   492.65  3196.88   491.87 " style="stroke-width: 0.85 ;&st7; " /><path d=" M 3471.95,  397.25  C 3471.95   394.75  3469.92   392.72  3467.42   392.72 " style="stroke-width: 1.42 ;&st7; " /><path d=" M 3467.42,  392.72  C 3464.92   392.72  3462.89   394.75  3462.89   397.25 " style="stroke-width: 1.42 ;&st7; " /><path d=" M 3462.89,  397.25  C 3462.89   399.76  3464.92   401.78  3467.42   401.78 " style="stroke-width: 1.42 ;&st7; " /><path d=" M 3467.42,  401.78  C 3469.92   401.78  3471.95   399.76  3471.95   397.25 " style="stroke-width: 1.42 ;&st7; " /><path d=" M 3301.98,  397.25  C 3301.98   394.75  3299.95   392.72  3297.45   392.72 " style="stroke-width: 1.42 ;&st7; " /><path d=" M 3297.45,  392.72  C 3294.95   392.72  3292.92   394.75  3292.92   397.25 " style="stroke-width: 1.42 ;&st7; " /><path d=" M 3292.92,  397.25  C 3292.92   399.76  3294.95   401.78  3297.45   401.78 " style="stroke-width: 1.42 ;&st7; " /><path d=" M 3297.45,  401.78  C 3299.95   401.78  3301.98   399.76  3301.98   397.25 " style="stroke-width: 1.42 ;&st7; " /><text style="&st18;" transform="matrix(&st17;  3055.79  124.12 )">W</text><text style="&st18;" transform="matrix(&st16;  3057.16  93.27 )">B</text><text style="&st18;" transform="matrix(&st16;  3040.72  160.98 )">20</text><text style="&st18;" transform="matrix(&st16;  3050.23  83.07 )">BCTY</text><text style="&st18;" transform="matrix(&st16;  3044.66  93.27 )">25</text><text ewd:textID="24" style="&st18;" transform="matrix(&st16;  3294.92  338.03 )">Center Airbag Sensor Assembly</text><text style="&st18;" transform="matrix(&st16;  3294.92  330.93 )">E47(A),K27(B),K32(D),L27(C),L38(E)</text><text style="&st18;" transform="matrix(&st16;  3427.76  553.89 )">LBE+</text><text style="&st18;" transform="matrix(&st16;  3422.6  399.22 )">B</text><text style="&st18;" transform="matrix(&st16;  3416.27  389.02 )">LBE+</text><text style="&st18;" transform="matrix(&st16;  3470.25  553.89 )">LBE-</text><text style="&st18;" transform="matrix(&st16;  3405.41  655.29 )">K10</text><text style="&st18;" transform="matrix(&st16;  3418.13  542.0 )">6</text><text style="&st18;" transform="matrix(&st16;  3460.63  542.0 )">7</text><text style="&st18;" transform="matrix(&st16;  3410.87  399.22 )">10</text><text ewd:textID="23" style="&st18;" transform="matrix(&st16;  3424.06  629.82 )">Buckle Switch</text><text ewd:textID="32" style="&st18;" transform="matrix(&st16;  3405.41  662.39 )">Front Seat Inner <tspan dy="6" x="0">Belt Assembly LH</tspan></text><text style="&st18;" transform="matrix(&st16;  3411.65  408.29 )">11</text><text style="&st18;" transform="matrix(&st16;  3422.46  408.29 )">D</text><text style="&st18;" transform="matrix(&st16;  3453.37  408.29 )">12</text><text style="&st18;" transform="matrix(&st16;  3464.95  408.29 )">D</text><text style="&st18;" transform="matrix(&st16;  3473.39  408.29 )">(*4)</text><text style="&st18;" transform="matrix(&st16;  3458.77  389.02 )">LBE-</text><text style="&st18;" transform="matrix(&st17;  3463.73  444.27 )">BR</text><text style="&st18;" transform="matrix(&st17;  3475.06  448.72 )">(LHD)</text><text style="&st18;" transform="matrix(&st17;  3421.23  442.22 )">G</text><text style="&st18;" transform="matrix(&st17;  3432.56  448.72 )">(LHD)</text><text style="&st18;" transform="matrix(&st16;  3257.79  553.89 )">RBE+</text><text style="&st18;" transform="matrix(&st16;  3252.48  399.22 )">C</text><text style="&st18;" transform="matrix(&st16;  3245.81  389.02 )">RBE+</text><text style="&st18;" transform="matrix(&st16;  3300.28  553.89 )">RBE-</text><text style="&st18;" transform="matrix(&st16;  3235.43  655.29 )">L33</text><text style="&st18;" transform="matrix(&st16;  3248.16  542.0 )">6</text><text style="&st18;" transform="matrix(&st16;  3290.65  542.0 )">7</text><text style="&st18;" transform="matrix(&st16;  3240.9  399.22 )">15</text><text ewd:textID="23" style="&st18;" transform="matrix(&st16;  3254.09  629.82 )">Buckle Switch</text><text ewd:textID="33" style="&st18;" transform="matrix(&st16;  3235.43  662.39 )">Front Seat Inner <tspan dy="6" x="0">Belt Assembly RH</tspan></text><text style="&st18;" transform="matrix(&st16;  3240.9  408.29 )">15</text><text style="&st18;" transform="matrix(&st16;  3252.62  408.29 )">E</text><text style="&st18;" transform="matrix(&st16;  3283.39  408.29 )">14</text><text style="&st18;" transform="matrix(&st16;  3295.12  408.29 )">E</text><text style="&st18;" transform="matrix(&st16;  3288.3  389.02 )">RBE-</text><text style="&st18;" transform="matrix(&st17;  3293.75  444.27 )">BR</text><text style="&st18;" transform="matrix(&st17;  3305.09  449.21 )">(RHD)</text><text style="&st18;" transform="matrix(&st17;  3251.26  442.22 )">G</text><text style="&st18;" transform="matrix(&st17;  3262.59  449.21 )">(RHD)</text><text ewd:textID="12" style="&st18;" transform="matrix(&st16;  3286.43  207.72 )">*14 :All Door Jam Protection</text><text ewd:textID="38" style="&st18;" transform="matrix(&st16;  3328.92  32.08 )">Main Body ECU</text><text style="&st18;" transform="matrix(&st16;  3328.92  24.98 )">E1(A),E2(B),E3(C),E4(D)</text><text ewd:textID="5" style="&st18;" transform="matrix(&st16;  3286.43  165.23 )">* 7 :w/ VSC</text><text ewd:textID="6" style="&st18;" transform="matrix(&st16;  3286.43  173.73 )">* 8 :w/o VSC</text><text style="&st18;" transform="matrix(&st16;  3009.3  660.98 )">W-B</text><text style="&st18;" transform="matrix(&st16;  3044.67  237.47 )">9</text><text style="&st18;" transform="matrix(&st17;  3084.1  386.75 )">W3</text><text ewd:textID="21" style="&st18;" transform="matrix(&st17;  3091.2  386.75 )">Back Door Courtesy Light <tspan dy="6" x="-0.01">Switch Assembly</tspan></text><text style="&st18;" transform="matrix(&st16;  3053.48  392.41 )">1</text><text style="&st18;" transform="matrix(&st16;  3052.7  329.54 )">2</text><text style="&st18;" transform="matrix(&st16;  3044.67  628.4 )">8</text><text style="&st18;" transform="matrix(&st17;  3055.79  200.61 )">W</text><text style="&st18;" transform="matrix(&st17;  3055.79  294.09 )">W</text><text style="&st18;" transform="matrix(&st17;  3055.79  515.15 )">W-B</text><text style="&st18;" transform="matrix(&st17;  3055.79  659.63 )">W-B</text><text style="&st18;" transform="matrix(&st16;  3062.32  341.42 )">+</text><text style="&st18;" transform="matrix(&st16;  3062.32  380.53 )">E</text><text style="&st18;" transform="matrix(&st17;  3067.13  205.02 )">(*10)</text><text style="&st18;" transform="matrix(&st17;  3067.13  298.51 )">(*10)</text><text style="&st18;" transform="matrix(&st17;  3067.13  515.22 )">(*10)</text><text style="&st18;" transform="matrix(&st17;  3067.13  659.7 )">(*10)</text><text ewd:textID="22" style="&st18;" transform="matrix(&st17;  3014.72  386.75 )">Back Door Lock Assembly</text><text style="&st18;" transform="matrix(&st17;  3007.61  386.75 )">S1</text><text style="&st18;" transform="matrix(&st16;  3134.51  482.51 )">12</text><text ewd:textID="32" style="&st18;" transform="matrix(&st17;  3167.69  522.72 )">Front Seat Inner Belt <tspan dy="6" x="0">Assembly LH</tspan></text><text style="&st18;" transform="matrix(&st17;  3160.58  522.72 )">K43</text><text style="&st18;" transform="matrix(&st16;  3127.26  373.44 )">11</text><text style="&st18;" transform="matrix(&st17;  3140.78  412.05 )">B</text><text style="&st18;" transform="matrix(&st17;  3152.11  425.58 )">(LHD *13)</text><text style="&st18;" transform="matrix(&st17;  3140.78  237.83 )">B</text><text style="&st18;" transform="matrix(&st17;  3152.11  251.36 )">(LHD *13)</text><text style="&st18;" transform="matrix(&st16;  3137.69  528.39 )">9</text><text style="&st18;" transform="matrix(&st16;  3185.5  482.51 )">12</text><text ewd:textID="33" style="&st18;" transform="matrix(&st17;  3218.68  522.72 )">Front Seat Inner Belt <tspan dy="6" x="0">Assembly RH</tspan></text><text style="&st18;" transform="matrix(&st17;  3211.58  522.72 )">L49</text><text style="&st18;" transform="matrix(&st16;  3176.7  373.44 )">35</text><text style="&st18;" transform="matrix(&st17;  3191.77  412.05 )">B</text><text style="&st18;" transform="matrix(&st17;  3203.1  426.07 )">(RHD *13)</text><text style="&st18;" transform="matrix(&st17;  3191.77  237.83 )">B</text><text style="&st18;" transform="matrix(&st17;  3203.1  251.85 )">(RHD *13)</text><text style="&st18;" transform="matrix(&st17;  3191.77  600.14 )">W-B</text><text style="&st18;" transform="matrix(&st17;  3140.78  600.14 )">W-B</text><text style="&st18;" transform="matrix(&st16;  3135.36  83.07 )">DBKL</text><text style="&st18;" transform="matrix(&st16;  3142.14  93.27 )">A</text><text style="&st18;" transform="matrix(&st16;  3133.6  93.27 )">7</text><text style="&st18;" transform="matrix(&st16;  3188.68  528.39 )">9</text><text style="&st18;" transform="matrix(&st17;  3152.11  608.3 )">(LHD *13)</text><text style="&st18;" transform="matrix(&st17;  3203.1  608.79 )">(RHD *13)</text><text ewd:textID="11" style="&st18;" transform="matrix(&st16;  3286.43  199.22 )">*13 :w/o SRS</text><text ewd:textID="8" style="&st18;" transform="matrix(&st16;  3286.43  190.72 )">*10 :Swing Type</text><text ewd:textID="7" style="&st18;" transform="matrix(&st16;  3286.43  182.22 )">* 9 :Liftgate Type</text><text style="&st18;" transform="matrix(&st16;  3473.39  399.22 )">(*3)</text><text style="&st18;" transform="matrix(&st16;  3453.37  399.22 )">18</text><text style="&st18;" transform="matrix(&st16;  3465.09  399.22 )">B</text><text style="&st18;" transform="matrix(&st16;  3282.62  399.22 )">23</text><text style="&st18;" transform="matrix(&st16;  3294.98  399.22 )">C</text><text ewd:textID="4" style="&st18;" transform="matrix(&st16;  3286.43  156.73 )">* 4 :w/o Curtain Shield Airbag</text><text ewd:textID="3" style="&st18;" transform="matrix(&st16;  3286.43  148.23 )">* 3 :w/ Curtain Shield Airbag</text></svg>