﻿<?xml version="1.0" encoding="utf-8"?>
<!DOCTYPE svg PUBLIC "-//W3C//DTD SVG 1.0//EN" "http://www.w3.org/TR/2001/REC-SVG-20010904/DTD/svg10.dtd"[
	<!ENTITY ns_flows "http://ns.adobe.com/Flows/1.0/">
	<!ENTITY ns_svg "http://www.w3.org/2000/svg">
	<!ENTITY ns_xlink "http://www.w3.org/1999/xlink">
	<!ENTITY st0 "font-size:7px;font-family:'MS-PGothic';adobe-font-script:japanese;">
	<!ENTITY st1 "font-size:6px;font-family:'ArialMT';">
	<!-- White fill  -->
	<!ENTITY st2 "fill:#FFFFFF;stroke:#000000; stroke-width:1.41;stroke-linecap:round;stroke-linejoin:round;">
	<!-- Yellow fill  -->
	<!ENTITY st3 "fill:#FFFFCC;stroke:#FFFFCC; stroke-width:0.1;stroke-linecap:round;stroke-linejoin:round;">
	<!-- Gray fill  -->
	<!ENTITY st4 "fill:#CCCCCC;stroke:#CCCCCC; stroke-width:0.1;stroke-linecap:round;stroke-linejoin:round;">
	<!-- Light-blue fill -->
	<!ENTITY st5 "fill:#CCECF4;stroke:#000000; stroke-width:1.133;stroke-linecap:round;stroke-linejoin:round;">
	<!ENTITY st6 "fill:none;stroke-linecap:butt; stroke-linejoin:round;">
	<!ENTITY st7 "fill:none;stroke:#000000;stroke-linecap:round;stroke-linejoin:round;">
	<!ENTITY st8 "enable-background:new    ;">
	<!-- Black fill -->
	<!ENTITY st9 "fill:#000000;stroke:#000000; stroke-linecap:round;stroke-linejoin:round;">
	<!-- SRS note   -->
	<!ENTITY st10 "font-size:9px;font-family:'ArialMT';">
	<!ENTITY st11 "font-size:9px;font-family:'Svg Symbol';">
	<!ENTITY st12 "font-size:6px;font-family:'Svg Symbol';">
	<!ENTITY st13 "fill:none;stroke:#ff0000;stroke-linecap:round;stroke-linejoin:round;">
	<!-- Yellow fill  -->
	<!ENTITY st14 "fill:#FFFF00;stroke:#FFFF00; stroke-width:0.1;stroke-linecap:round;stroke-linejoin:round;">
	<!ENTITY st15 "font-size:6px;font-family:'MS-PGothic';adobe-font-script:japanese;">
	<!ENTITY st16 "1.00 0.00 0.00 1.00">
	<!ENTITY st17 "0.00 -1.00 1.00 0.00">
	<!ENTITY st18 "font-size:6px;font-family:'Arial';">
	<!ENTITY st19 "font-size:9px;font-family:'Arial';">
	<!ENTITY st20 "font-size:6px;font-family:'MS-PGothic','MS PGothic';adobe-font-script:japanese;">
	<!ENTITY st21 "font-size:7px;font-family:'MS-PGothic','MS PGothic';adobe-font-script:japanese;">
	<!ATTLIST svg
		xmlns:ewd CDATA #FIXED "http://shcl.co.jp/ewd"
		xmlns:a CDATA #FIXED "http://ns.adobe.com/AdobeSVGViewerExtensions/3.0/"
		ewd:ver CDATA #IMPLIED
	>
	<!ATTLIST a
		ewd:lineID CDATA #IMPLIED
		ewd:groupID CDATA #IMPLIED
		ewd:figtype CDATA #IMPLIED
		ewd:code CDATA #IMPLIED
		ewd:figID CDATA #IMPLIED
		ewd:pinNo CDATA #IMPLIED
		ewd:comment CDATA #IMPLIED >
	<!ATTLIST g
		ewd:lineID CDATA #IMPLIED
		ewd:groupID CDATA #IMPLIED
		ewd:figtype CDATA #IMPLIED
		ewd:code CDATA #IMPLIED
		ewd:figID CDATA #IMPLIED
		ewd:pinNo CDATA #IMPLIED
		ewd:comment CDATA #IMPLIED >
	<!ATTLIST text
		ewd:textID CDATA #IMPLIED >
	<!ATTLIST title
		ewd:textID CDATA #IMPLIED >
]>
<!-- Generator: Shintec Hozumi YS   -->
<svg onload="call_execInitLoadProc_svg('system')" style="overflow:visible;  enable-background:new 0 0 4140.020 710.000" viewBox="0 0 4140.020 710.000" height="710.000" width="4140.020" xml:space="preserve" ewd:ver="L2.1.2.8" xmlns="&ns_svg;" xmlns:a="http://ns.adobe.com/AdobeSVGViewerExtensions/3.0/" xmlns:ewd="http://shcl.co.jp/ewd" xmlns:xlink="&ns_xlink;">
<path d=" M 1725.21,  406.88  L 1725.21,  423.88 " style="stroke-width: 1.42 ;&st7; " /><path d=" M 1665.72,  428.13  L 1671.39,  405.47 " style="stroke-width: 1.42 ;&st7; " /><path d=" M 1665.72,  460.71  L 1665.72,  430.96 " style="stroke-width: 0.85 ;&st7; " /><path d=" M 1665.72,  405.47  L 1665.72,  384.22 " style="stroke-width: 0.85 ;&st7; " /><path d=" M 1742.21,  333.23  L 1750.71,  333.23 " style="stroke-width: 1.42 ;&st7; " /><path d=" M 1657.22,  333.23  L 1665.72,  333.23 " style="stroke-width: 1.42 ;&st7; " /><path d=" M 1784.70,  333.23  L 1793.20,  333.23 " style="stroke-width: 1.42 ;&st7; " /><path d=" M 1752.83,  120.77  L 1748.58,  120.77 " style="stroke-width: 1.42 ;&st7; " /><path d=" M 1752.83,  129.26  L 1748.58,  129.26 " style="stroke-width: 1.42 ;&st7; " /><path d=" M 1801.70,  520.20  L 1793.20,  520.20 " style="stroke-width: 1.42 ;&st7; " /><path d=" M 1929.18,  428.13  L 1934.84,  405.47 " style="stroke-width: 1.42 ;&st7; " /><path d=" M 1929.18,  460.71  L 1929.18,  430.96 " style="stroke-width: 0.85 ;&st7; " /><path d=" M 1929.18,  405.47  L 1929.18,  384.22 " style="stroke-width: 0.85 ;&st7; " /><path d=" M 1988.67,  333.23  L 1997.17,  333.23 " style="stroke-width: 1.42 ;&st7; " /><path d=" M 1992.92,  419.35  L 1992.92,  415.38 " style="stroke-width: 1.42 ;&st7; " /><path d=" M 1992.92,  415.38  L 2001.42,  415.38 " style="stroke-width: 1.42 ;&st7; " /><path d=" M 1992.92,  434.08  L 1992.92,  438.05 " style="stroke-width: 1.42 ;&st7; " /><path d=" M 1992.92,  438.05  L 2001.42,  438.05 " style="stroke-width: 1.42 ;&st7; " /><path d=" M 1691.22,  333.23  L 1699.72,  333.23 " style="stroke-width: 1.42 ;&st7; " /><path d=" M 1788.95,  434.08  L 1788.95,  438.05 " style="stroke-width: 1.42 ;&st7; " /><path d=" M 1797.45,  438.05  L 1797.45,  434.08 " style="stroke-width: 1.42 ;&st7; " /><path d=" M 1788.95,  415.38  L 1797.45,  415.38 " style="stroke-width: 1.42 ;&st7; " /><path d=" M 1788.95,  419.35  L 1788.95,  415.38 " style="stroke-width: 1.42 ;&st7; " /><path d=" M 1797.45,  415.38  L 1797.45,  419.35 " style="stroke-width: 1.42 ;&st7; " /><path d=" M 1788.95,  438.05  L 1797.45,  438.05 " style="stroke-width: 1.42 ;&st7; " /><path d=" M 1869.69,  406.88  L 1869.69,  423.88 " style="stroke-width: 1.42 ;&st7; " /><path d=" M 1878.19,  333.23  L 1886.68,  333.23 " style="stroke-width: 1.42 ;&st7; " /><path d=" M 1844.19,  333.23  L 1852.69,  333.23 " style="stroke-width: 1.42 ;&st7; " /><path d=" M 1920.68,  231.25  L 1929.18,  231.25 " style="stroke-width: 1.42 ;&st7; " /><path d=" M 2005.66,  537.20  L 1997.17,  537.20 " style="stroke-width: 1.42 ;&st7; " /><path d=" M 1937.68,  474.31  L 1984.42,  474.31 " style="stroke-width: 0.85 ;&st7;stroke-dasharray:3, 1.5;" /><path d=" M 1937.68,  465.24  L 1984.42,  465.24 " style="stroke-width: 0.85 ;&st7;stroke-dasharray:3, 1.5;" /><path d=" M 1861.19,  370.62  L 1873.94,  370.62 " style="stroke-width: 0.85 ;&st7;stroke-dasharray:3, 1.5;" /><path d=" M 1895.18,  370.62  L 1916.43,  370.62 " style="stroke-width: 0.85 ;&st7;stroke-dasharray:3, 1.5;" /><path d=" M 1937.68,  370.62  L 1984.42,  370.62 " style="stroke-width: 0.85 ;&st7;stroke-dasharray:3, 1.5;" /><path d=" M 1861.19,  379.69  L 1873.94,  379.69 " style="stroke-width: 0.85 ;&st7;stroke-dasharray:3, 1.5;" /><path d=" M 1895.18,  379.69  L 1916.43,  379.69 " style="stroke-width: 0.85 ;&st7;stroke-dasharray:3, 1.5;" /><path d=" M 1937.68,  379.69  L 1984.42,  379.69 " style="stroke-width: 0.85 ;&st7;stroke-dasharray:3, 1.5;" /><path d=" M 1933.43,  225.58  L 1929.18,  229.83  L 1924.93,  225.58 " style="stroke-width: 1.42 ;&st7; " /><path d=" M 1924.93,  222.18  L 1929.18,  226.43  L 1933.43,  222.18 " style="stroke-width: 1.42 ;&st7; " /><path d=" M 1848.44,  324.16  L 1852.69,  328.41  L 1856.94,  324.16 " style="stroke-width: 1.42 ;&st7; " /><path d=" M 1856.94,  327.56  L 1852.69,  331.81  L 1848.44,  327.56 " style="stroke-width: 1.42 ;&st7; " /><path d=" M 1882.43,  324.16  L 1886.68,  328.41  L 1890.93,  324.16 " style="stroke-width: 1.42 ;&st7; " /><path d=" M 1890.93,  327.56  L 1886.68,  331.81  L 1882.43,  327.56 " style="stroke-width: 1.42 ;&st7; " /><path d=" M 1780.45,  465.24  L 1674.22,  465.24 " style="stroke-width: 0.85 ;&st7;stroke-dasharray:3, 1.5;" /><path d=" M 1674.22,  474.31  L 1780.45,  474.31 " style="stroke-width: 0.85 ;&st7;stroke-dasharray:3, 1.5;" /><path d=" M 1674.22,  370.62  L 1682.72,  370.62 " style="stroke-width: 0.85 ;&st7;stroke-dasharray:3, 1.5;" /><path d=" M 1674.22,  379.69  L 1682.72,  379.69 " style="stroke-width: 0.85 ;&st7;stroke-dasharray:3, 1.5;" /><path d=" M 1708.21,  370.62  L 1737.96,  370.62 " style="stroke-width: 0.85 ;&st7;stroke-dasharray:3, 1.5;" /><path d=" M 1708.21,  379.69  L 1737.96,  379.69 " style="stroke-width: 0.85 ;&st7;stroke-dasharray:3, 1.5;" /><path d=" M 1759.21,  370.62  L 1780.45,  370.62 " style="stroke-width: 0.85 ;&st7;stroke-dasharray:3, 1.5;" /><path d=" M 1759.21,  379.69  L 1780.45,  379.69 " style="stroke-width: 0.85 ;&st7;stroke-dasharray:3, 1.5;" /><path d=" M 1869.69,  426.71  L 1869.69,  443.71  L 1929.18,  443.71 " style="stroke-width: 0.85 ;&st7; " /><path d=" M 1859.77,  411.13  L 1852.69,  411.13  L 1852.69,  384.22 " style="stroke-width: 0.85 ;&st7; " /><path d=" M 1879.60,  411.13  L 1886.68,  411.13  L 1886.68,  384.22 " style="stroke-width: 0.85 ;&st7; " /><path d=" M 1927.98,  442.71  L 1927.71,  443.18  L 1927.62,  443.71  L 1927.71,  444.24  L 1927.98,  444.71  L 1928.40,  445.06  L 1928.90,  445.25  L 1929.45,  445.25  L 1929.96,  445.06  L 1930.37,  444.71  L 1930.64,  444.24  L 1930.73,  443.71  L 1930.64,  443.18  L 1930.37,  442.71  L 1929.96,  442.36  L 1929.45,  442.18  L 1928.90,  442.18  L 1928.40,  442.36  L 1927.98,  442.71  L 1928.38,  443.42  L 1928.38,  444.00  L 1928.75,  444.45  L 1929.32,  444.55  L 1929.83,  444.26  L 1930.03,  443.71  L 1929.83,  443.16  L 1929.32,  442.88  L 1928.75,  442.97  L 1929.18,  443.71 " style="stroke-width: 0.85 ;&st7; " /><path d=" M 1927.76,  710.00  L 1930.59,  710.00 " style="stroke-width: 0.85 ;&st7; " /><path d=" M 1926.34,  707.17  L 1932.01,  707.17 " style="stroke-width: 0.85 ;&st7; " /><path d=" M 1924.93,  704.33  L 1933.43,  704.33 " style="stroke-width: 0.85 ;&st7; " /><path d=" M 1661.47,  704.33  L 1669.97,  704.33 " style="stroke-width: 0.85 ;&st7; " /><path d=" M 1664.30,  710.00  L 1667.14,  710.00 " style="stroke-width: 0.85 ;&st7; " /><path d=" M 1662.89,  707.17  L 1668.55,  707.17 " style="stroke-width: 0.85 ;&st7; " /><path d=" M 1657.22,  701.50  L 1674.22,  701.50 " style="stroke-width: 0.85 ;&st7; " /><path d=" M 1665.72,  697.25  L 1665.72,  701.50 " style="stroke-width: 0.85 ;&st7; " /><path d=" M 1997.17,  438.05  L 1997.17,  460.71 " style="stroke-width: 0.85 ;&st7; " /><path d=" M 1793.20,  384.22  L 1793.20,  415.38 " style="stroke-width: 0.85 ;&st7; " /><path d=" M 1929.18,  697.25  L 1929.18,  701.50 " style="stroke-width: 0.85 ;&st7; " /><path d=" M 1920.68,  701.50  L 1937.68,  701.50 " style="stroke-width: 0.85 ;&st7; " /><path d=" M 2001.41,  327.56  L 1997.17,  331.81  L 1992.92,  327.56 " style="stroke-width: 1.42 ;&st7; " /><path d=" M 1992.92,  324.16  L 1997.17,  328.41  L 2001.41,  324.16 " style="stroke-width: 1.42 ;&st7; " /><path d=" M 2022.66,  384.22  L 2022.66,  460.71  L 1835.69,  460.71  L 1835.69,  384.22  L 2022.66,  384.22 " style="stroke-width: 1.42 ;&st7; " /><path d=" M 1793.20,  460.71  L 1793.20,  438.05 " style="stroke-width: 0.85 ;&st7; " /><path d=" M 1997.17,  384.22  L 1997.17,  415.38 " style="stroke-width: 0.85 ;&st7; " /><path d=" M 1695.47,  324.16  L 1699.72,  328.41  L 1703.96,  324.16 " style="stroke-width: 1.42 ;&st7; " /><path d=" M 1703.96,  327.56  L 1699.72,  331.81  L 1695.47,  327.56 " style="stroke-width: 1.42 ;&st7; " /><path d=" M 1797.45,  525.86  L 1793.20,  521.61  L 1788.95,  525.86 " style="stroke-width: 1.42 ;&st7; " /><path d=" M 1797.45,  529.26  L 1793.20,  525.01  L 1788.95,  529.26 " style="stroke-width: 1.42 ;&st7; " /><path d=" M 1750.71,   86.77  L 1750.71,  120.77 " style="stroke-width: 0.85 ;&st7; " /><path d=" M 1750.71,  115.87  L 1747.87,  113.04  L 1747.87,  117.29  L 1750.71,  120.12  L 1753.54,  117.29  L 1753.54,  113.04  L 1750.71,  115.87 " style="stroke-width: 0.28 ;&st9;" /><path d=" M 1664.53,  442.71  L 1664.26,  443.18  L 1664.16,  443.71  L 1664.26,  444.24  L 1664.53,  444.71  L 1664.94,  445.06  L 1665.45,  445.25  L 1665.99,  445.25  L 1666.50,  445.06  L 1666.91,  444.71  L 1667.19,  444.24  L 1667.28,  443.71  L 1667.19,  443.18  L 1666.91,  442.71  L 1666.50,  442.36  L 1665.99,  442.18  L 1665.45,  442.18  L 1664.94,  442.36  L 1664.53,  442.71  L 1664.92,  443.42  L 1664.92,  444.00  L 1665.30,  444.45  L 1665.87,  444.55  L 1666.37,  444.26  L 1666.57,  443.71  L 1666.37,  443.16  L 1665.87,  442.88  L 1665.30,  442.97  L 1665.72,  443.71 " style="stroke-width: 0.85 ;&st7; " /><path d=" M 1797.45,  327.56  L 1793.20,  331.81  L 1788.95,  327.56 " style="stroke-width: 1.42 ;&st7; " /><path d=" M 1788.95,  324.16  L 1793.20,  328.41  L 1797.45,  324.16 " style="stroke-width: 1.42 ;&st7; " /><path d=" M 1669.97,  327.56  L 1665.72,  331.81  L 1661.47,  327.56 " style="stroke-width: 1.42 ;&st7; " /><path d=" M 1661.47,  324.16  L 1665.72,  328.41  L 1669.97,  324.16 " style="stroke-width: 1.42 ;&st7; " /><path d=" M 1754.96,  327.56  L 1750.71,  331.81  L 1746.46,  327.56 " style="stroke-width: 1.42 ;&st7; " /><path d=" M 1746.46,  324.16  L 1750.71,  328.41  L 1754.96,  324.16 " style="stroke-width: 1.42 ;&st7; " /><path d=" M 1810.20,  384.22  L 1810.20,  460.71  L 1640.23,  460.71  L 1640.23,  384.22  L 1810.20,  384.22 " style="stroke-width: 1.42 ;&st7; " /><path d=" M 1735.13,  411.13  L 1750.71,  411.13  L 1750.71,  384.22 " style="stroke-width: 0.85 ;&st7; " /><path d=" M 1715.30,  411.13  L 1699.72,  411.13  L 1699.72,  384.22 " style="stroke-width: 0.85 ;&st7; " /><path d=" M 1725.21,  426.71  L 1725.21,  443.71  L 1665.72,  443.71 " style="stroke-width: 0.85 ;&st7; " /><path d=" M 2001.41,  542.86  L 1997.17,  538.61  L 1992.92,  542.86 " style="stroke-width: 1.42 ;&st7; " /><path d=" M 2001.41,  546.26  L 1997.17,  542.01  L 1992.92,  546.26 " style="stroke-width: 1.42 ;&st7; " /><path d=" M 1529.74,  697.25  L 1529.74,  701.50 " style="stroke-width: 0.85 ;&st7; " /><path d=" M 1521.25,  701.50  L 1538.24,  701.50 " style="stroke-width: 0.85 ;&st7; " /><path d=" M 1525.49,  704.33  L 1533.99,  704.33 " style="stroke-width: 0.85 ;&st7; " /><path d=" M 1526.91,  707.17  L 1532.58,  707.17 " style="stroke-width: 0.85 ;&st7; " /><path d=" M 1528.33,  710.00  L 1531.16,  710.00 " style="stroke-width: 0.85 ;&st7; " /><path d=" M 1735.13,  411.13  C 1735.13   410.35  1734.49   409.72  1733.71   409.72 " style="stroke-width: 0.85 ;&st7; " /><path d=" M 1733.71,  409.72  C 1732.93   409.72  1732.29   410.35  1732.29   411.13 " style="stroke-width: 0.85 ;&st7; " /><path d=" M 1732.29,  411.13  C 1732.29   411.92  1732.93   412.55  1733.71   412.55 " style="stroke-width: 0.85 ;&st7; " /><path d=" M 1733.71,  412.55  C 1734.49   412.55  1735.13   411.92  1735.13   411.13 " style="stroke-width: 0.85 ;&st7; " /><path d=" M 1718.13,  411.13  C 1718.13   410.35  1717.50   409.72  1716.71   409.72 " style="stroke-width: 0.85 ;&st7; " /><path d=" M 1716.71,  409.72  C 1715.93   409.72  1715.30   410.35  1715.30   411.13 " style="stroke-width: 0.85 ;&st7; " /><path d=" M 1715.30,  411.13  C 1715.30   411.92  1715.93   412.55  1716.71   412.55 " style="stroke-width: 0.85 ;&st7; " /><path d=" M 1716.71,  412.55  C 1717.50   412.55  1718.13   411.92  1718.13   411.13 " style="stroke-width: 0.85 ;&st7; " /><path d=" M 1726.63,  425.30  C 1726.63   424.52  1725.99   423.88  1725.21   423.88 " style="stroke-width: 0.85 ;&st7; " /><path d=" M 1725.21,  423.88  C 1724.43   423.88  1723.80   424.52  1723.80   425.30 " style="stroke-width: 0.85 ;&st7; " /><path d=" M 1723.80,  425.30  C 1723.80   426.08  1724.43   426.71  1725.21   426.71 " style="stroke-width: 0.85 ;&st7; " /><path d=" M 1725.21,  426.71  C 1725.99   426.71  1726.63   426.08  1726.63   425.30 " style="stroke-width: 0.85 ;&st7; " /><path d=" M 1667.14,  429.55  C 1667.14   428.76  1666.50   428.13  1665.72   428.13 " style="stroke-width: 0.85 ;&st7; " /><path d=" M 1665.72,  428.13  C 1664.94   428.13  1664.31   428.76  1664.31   429.55 " style="stroke-width: 0.85 ;&st7; " /><path d=" M 1664.31,  429.55  C 1664.31   430.33  1664.94   430.96  1665.72   430.96 " style="stroke-width: 0.85 ;&st7; " /><path d=" M 1665.72,  430.96  C 1666.50   430.96  1667.14   430.33  1667.14   429.55 " style="stroke-width: 0.85 ;&st7; " /><path d=" M 1667.14,  406.88  C 1667.14   406.10  1666.50   405.47  1665.72   405.47 " style="stroke-width: 0.85 ;&st7; " /><path d=" M 1665.72,  405.47  C 1664.94   405.47  1664.31   406.10  1664.31   406.88 " style="stroke-width: 0.85 ;&st7; " /><path d=" M 1664.31,  406.88  C 1664.31   407.67  1664.94   408.30  1665.72   408.30 " style="stroke-width: 0.85 ;&st7; " /><path d=" M 1665.72,  408.30  C 1666.50   408.30  1667.14   407.67  1667.14   406.88 " style="stroke-width: 0.85 ;&st7; " /><path d=" M 1748.58,  120.77  C 1746.24   120.77  1744.33   122.67  1744.33   125.01 " style="stroke-width: 1.42 ;&st7; " /><path d=" M 1744.33,  125.01  C 1744.33   127.36  1746.24   129.26  1748.58   129.26 " style="stroke-width: 1.42 ;&st7; " /><path d=" M 1752.83,  129.26  C 1755.18   129.26  1757.08   127.36  1757.08   125.01 " style="stroke-width: 1.42 ;&st7; " /><path d=" M 1757.08,  125.01  C 1757.08   122.67  1755.18   120.77  1752.83   120.77 " style="stroke-width: 1.42 ;&st7; " /><path d=" M 1627.76,   91.30  C 1627.76    88.80  1625.73    86.77  1623.23    86.77 " style="stroke-width: 1.42 ;&st7; " /><path d=" M 1623.23,   86.77  C 1620.73    86.77  1618.70    88.80  1618.70    91.30 " style="stroke-width: 1.42 ;&st7; " /><path d=" M 1618.70,   91.30  C 1618.70    93.81  1620.73    95.84  1623.23    95.84 " style="stroke-width: 1.42 ;&st7; " /><path d=" M 1623.23,   95.84  C 1625.73    95.84  1627.76    93.81  1627.76    91.30 " style="stroke-width: 1.42 ;&st7; " /><path d=" M 1930.59,  429.55  C 1930.59   428.76  1929.96   428.13  1929.18   428.13 " style="stroke-width: 0.85 ;&st7; " /><path d=" M 1929.18,  428.13  C 1928.40   428.13  1927.76   428.76  1927.76   429.55 " style="stroke-width: 0.85 ;&st7; " /><path d=" M 1927.76,  429.55  C 1927.76   430.33  1928.40   430.96  1929.18   430.96 " style="stroke-width: 0.85 ;&st7; " /><path d=" M 1929.18,  430.96  C 1929.96   430.96  1930.59   430.33  1930.59   429.55 " style="stroke-width: 0.85 ;&st7; " /><path d=" M 1930.59,  406.88  C 1930.59   406.10  1929.96   405.47  1929.18   405.47 " style="stroke-width: 0.85 ;&st7; " /><path d=" M 1929.18,  405.47  C 1928.40   405.47  1927.76   406.10  1927.76   406.88 " style="stroke-width: 0.85 ;&st7; " /><path d=" M 1927.76,  406.88  C 1927.76   407.67  1928.40   408.30  1929.18   408.30 " style="stroke-width: 0.85 ;&st7; " /><path d=" M 1929.18,  408.30  C 1929.96   408.30  1930.59   407.67  1930.59   406.88 " style="stroke-width: 0.85 ;&st7; " /><path d=" M 1997.17,  418.22  C 1992.47   418.22  1988.67   422.02  1988.67   426.71 " style="stroke-width: 1.42 ;&st7; " /><path d=" M 1988.67,  426.71  C 1988.67   431.41  1992.47   435.21  1997.17   435.21 " style="stroke-width: 1.42 ;&st7; " /><path d=" M 1997.17,  435.21  C 2001.86   435.21  2005.66   431.41  2005.66   426.71 " style="stroke-width: 1.42 ;&st7; " /><path d=" M 1704.25,   91.30  C 1704.25    88.80  1702.22    86.77  1699.72    86.77 " style="stroke-width: 1.42 ;&st7; " /><path d=" M 1699.72,   86.77  C 1697.21    86.77  1695.18    88.80  1695.18    91.30 " style="stroke-width: 1.42 ;&st7; " /><path d=" M 1695.18,   91.30  C 1695.18    93.81  1697.21    95.84  1699.72    95.84 " style="stroke-width: 1.42 ;&st7; " /><path d=" M 1699.72,   95.84  C 1702.22    95.84  1704.25    93.81  1704.25    91.30 " style="stroke-width: 1.42 ;&st7; " /><path d=" M 1670.25,   91.30  C 1670.25    88.80  1668.22    86.77  1665.72    86.77 " style="stroke-width: 1.42 ;&st7; " /><path d=" M 1665.72,   86.77  C 1663.22    86.77  1661.19    88.80  1661.19    91.30 " style="stroke-width: 1.42 ;&st7; " /><path d=" M 1661.19,   91.30  C 1661.19    93.81  1663.22    95.84  1665.72    95.84 " style="stroke-width: 1.42 ;&st7; " /><path d=" M 1665.72,   95.84  C 1668.22    95.84  1670.25    93.81  1670.25    91.30 " style="stroke-width: 1.42 ;&st7; " /><path d=" M 1784.70,  426.71  C 1784.70   431.41  1788.51   435.21  1793.20   435.21 " style="stroke-width: 1.42 ;&st7; " /><path d=" M 1793.20,  435.21  C 1797.89   435.21  1801.70   431.41  1801.70   426.71 " style="stroke-width: 1.42 ;&st7; " /><path d=" M 1801.70,  426.71  C 1801.70   422.02  1797.89   418.22  1793.20   418.22 " style="stroke-width: 1.42 ;&st7; " /><path d=" M 1793.20,  418.22  C 1788.51   418.22  1784.70   422.02  1784.70   426.71 " style="stroke-width: 1.42 ;&st7; " /><path d=" M 1670.25,  465.24  C 1670.25   462.74  1668.22   460.71  1665.72   460.71 " style="stroke-width: 1.42 ;&st7; " /><path d=" M 1665.72,  460.71  C 1663.22   460.71  1661.19   462.74  1661.19   465.24 " style="stroke-width: 1.42 ;&st7; " /><path d=" M 1661.19,  465.24  C 1661.19   467.74  1663.22   469.77  1665.72   469.77 " style="stroke-width: 1.42 ;&st7; " /><path d=" M 1665.72,  469.77  C 1668.22   469.77  1670.25   467.74  1670.25   465.24 " style="stroke-width: 1.42 ;&st7; " /><path d=" M 1933.71,  379.69  C 1933.71   377.19  1931.68   375.16  1929.18   375.16 " style="stroke-width: 1.42 ;&st7; " /><path d=" M 1929.18,  375.16  C 1926.67   375.16  1924.65   377.19  1924.65   379.69 " style="stroke-width: 1.42 ;&st7; " /><path d=" M 1924.65,  379.69  C 1924.65   382.19  1926.67   384.22  1929.18   384.22 " style="stroke-width: 1.42 ;&st7; " /><path d=" M 1929.18,  384.22  C 1931.68   384.22  1933.71   382.19  1933.71   379.69 " style="stroke-width: 1.42 ;&st7; " /><path d=" M 1797.73,  465.24  C 1797.73   462.74  1795.70   460.71  1793.20   460.71 " style="stroke-width: 1.42 ;&st7; " /><path d=" M 1793.20,  460.71  C 1790.70   460.71  1788.67   462.74  1788.67   465.24 " style="stroke-width: 1.42 ;&st7; " /><path d=" M 1788.67,  465.24  C 1788.67   467.74  1790.70   469.77  1793.20   469.77 " style="stroke-width: 1.42 ;&st7; " /><path d=" M 1793.20,  469.77  C 1795.70   469.77  1797.73   467.74  1797.73   465.24 " style="stroke-width: 1.42 ;&st7; " /><path d=" M 1891.22,  379.69  C 1891.22   377.19  1889.19   375.16  1886.68   375.16 " style="stroke-width: 1.42 ;&st7; " /><path d=" M 1886.68,  375.16  C 1884.18   375.16  1882.15   377.19  1882.15   379.69 " style="stroke-width: 1.42 ;&st7; " /><path d=" M 1882.15,  379.69  C 1882.15   382.19  1884.18   384.22  1886.68   384.22 " style="stroke-width: 1.42 ;&st7; " /><path d=" M 1886.68,  384.22  C 1889.19   384.22  1891.22   382.19  1891.22   379.69 " style="stroke-width: 1.42 ;&st7; " /><path d=" M 1670.25,  474.31  C 1670.25   471.80  1668.22   469.77  1665.72   469.77 " style="stroke-width: 1.42 ;&st7; " /><path d=" M 1665.72,  469.77  C 1663.22   469.77  1661.19   471.80  1661.19   474.31 " style="stroke-width: 1.42 ;&st7; " /><path d=" M 1661.19,  474.31  C 1661.19   476.81  1663.22   478.84  1665.72   478.84 " style="stroke-width: 1.42 ;&st7; " /><path d=" M 1665.72,  478.84  C 1668.22   478.84  1670.25   476.81  1670.25   474.31 " style="stroke-width: 1.42 ;&st7; " /><path d=" M 1997.17,  375.16  C 1994.66   375.16  1992.63   377.19  1992.63   379.69 " style="stroke-width: 1.42 ;&st7; " /><path d=" M 1992.63,  379.69  C 1992.63   382.19  1994.66   384.22  1997.17   384.22 " style="stroke-width: 1.42 ;&st7; " /><path d=" M 1997.17,  384.22  C 1999.67   384.22  2001.70   382.19  2001.70   379.69 " style="stroke-width: 1.42 ;&st7; " /><path d=" M 1797.73,  474.31  C 1797.73   471.80  1795.70   469.77  1793.20   469.77 " style="stroke-width: 1.42 ;&st7; " /><path d=" M 1793.20,  469.77  C 1790.70   469.77  1788.67   471.80  1788.67   474.31 " style="stroke-width: 1.42 ;&st7; " /><path d=" M 1788.67,  474.31  C 1788.67   476.81  1790.70   478.84  1793.20   478.84 " style="stroke-width: 1.42 ;&st7; " /><path d=" M 1793.20,  478.84  C 1795.70   478.84  1797.73   476.81  1797.73   474.31 " style="stroke-width: 1.42 ;&st7; " /><path d=" M 1871.10,  425.30  C 1871.10   424.52  1870.47   423.88  1869.69   423.88 " style="stroke-width: 0.85 ;&st7; " /><path d=" M 1869.69,  423.88  C 1868.91   423.88  1868.27   424.52  1868.27   425.30 " style="stroke-width: 0.85 ;&st7; " /><path d=" M 1868.27,  425.30  C 1868.27   426.08  1868.91   426.71  1869.69   426.71 " style="stroke-width: 0.85 ;&st7; " /><path d=" M 1869.69,  426.71  C 1870.47   426.71  1871.10   426.08  1871.10   425.30 " style="stroke-width: 0.85 ;&st7; " /><path d=" M 1862.61,  411.13  C 1862.61   410.35  1861.97   409.72  1861.19   409.72 " style="stroke-width: 0.85 ;&st7; " /><path d=" M 1861.19,  409.72  C 1860.41   409.72  1859.77   410.35  1859.77   411.13 " style="stroke-width: 0.85 ;&st7; " /><path d=" M 1859.77,  411.13  C 1859.77   411.92  1860.41   412.55  1861.19   412.55 " style="stroke-width: 0.85 ;&st7; " /><path d=" M 1861.19,  412.55  C 1861.97   412.55  1862.61   411.92  1862.61   411.13 " style="stroke-width: 0.85 ;&st7; " /><path d=" M 1879.60,  411.13  C 1879.60   410.35  1878.97   409.72  1878.19   409.72 " style="stroke-width: 0.85 ;&st7; " /><path d=" M 1878.19,  409.72  C 1877.40   409.72  1876.77   410.35  1876.77   411.13 " style="stroke-width: 0.85 ;&st7; " /><path d=" M 1876.77,  411.13  C 1876.77   411.92  1877.40   412.55  1878.19   412.55 " style="stroke-width: 0.85 ;&st7; " /><path d=" M 1878.19,  412.55  C 1878.97   412.55  1879.60   411.92  1879.60   411.13 " style="stroke-width: 0.85 ;&st7; " /><path d=" M 1670.25,  379.69  C 1670.25   377.19  1668.22   375.16  1665.72   375.16 " style="stroke-width: 1.42 ;&st7; " /><path d=" M 1665.72,  375.16  C 1663.22   375.16  1661.19   377.19  1661.19   379.69 " style="stroke-width: 1.42 ;&st7; " /><path d=" M 1661.19,  379.69  C 1661.19   382.19  1663.22   384.22  1665.72   384.22 " style="stroke-width: 1.42 ;&st7; " /><path d=" M 1665.72,  384.22  C 1668.22   384.22  1670.25   382.19  1670.25   379.69 " style="stroke-width: 1.42 ;&st7; " /><path d=" M 1704.25,  379.69  C 1704.25   377.19  1702.22   375.16  1699.72   375.16 " style="stroke-width: 1.42 ;&st7; " /><path d=" M 1699.72,  375.16  C 1697.21   375.16  1695.18   377.19  1695.18   379.69 " style="stroke-width: 1.42 ;&st7; " /><path d=" M 1695.18,  379.69  C 1695.18   382.19  1697.21   384.22  1699.72   384.22 " style="stroke-width: 1.42 ;&st7; " /><path d=" M 1699.72,  384.22  C 1702.22   384.22  1704.25   382.19  1704.25   379.69 " style="stroke-width: 1.42 ;&st7; " /><path d=" M 1755.24,  379.69  C 1755.24   377.19  1753.21   375.16  1750.71   375.16 " style="stroke-width: 1.42 ;&st7; " /><path d=" M 1750.71,  375.16  C 1748.20   375.16  1746.17   377.19  1746.17   379.69 " style="stroke-width: 1.42 ;&st7; " /><path d=" M 1746.17,  379.69  C 1746.17   382.19  1748.20   384.22  1750.71   384.22 " style="stroke-width: 1.42 ;&st7; " /><path d=" M 1750.71,  384.22  C 1753.21   384.22  1755.24   382.19  1755.24   379.69 " style="stroke-width: 1.42 ;&st7; " /><path d=" M 1797.73,  379.69  C 1797.73   377.19  1795.70   375.16  1793.20   375.16 " style="stroke-width: 1.42 ;&st7; " /><path d=" M 1793.20,  375.16  C 1790.70   375.16  1788.67   377.19  1788.67   379.69 " style="stroke-width: 1.42 ;&st7; " /><path d=" M 1788.67,  379.69  C 1788.67   382.19  1790.70   384.22  1793.20   384.22 " style="stroke-width: 1.42 ;&st7; " /><path d=" M 1793.20,  384.22  C 1795.70   384.22  1797.73   382.19  1797.73   379.69 " style="stroke-width: 1.42 ;&st7; " /><path d=" M 1670.25,  370.62  C 1670.25   368.12  1668.22   366.09  1665.72   366.09 " style="stroke-width: 1.42 ;&st7; " /><path d=" M 1665.72,  366.09  C 1663.22   366.09  1661.19   368.12  1661.19   370.62 " style="stroke-width: 1.42 ;&st7; " /><path d=" M 1661.19,  370.62  C 1661.19   373.13  1663.22   375.16  1665.72   375.16 " style="stroke-width: 1.42 ;&st7; " /><path d=" M 1665.72,  375.16  C 1668.22   375.16  1670.25   373.13  1670.25   370.62 " style="stroke-width: 1.42 ;&st7; " /><path d=" M 1704.25,  370.62  C 1704.25   368.12  1702.22   366.09  1699.72   366.09 " style="stroke-width: 1.42 ;&st7; " /><path d=" M 1699.72,  366.09  C 1697.21   366.09  1695.18   368.12  1695.18   370.62 " style="stroke-width: 1.42 ;&st7; " /><path d=" M 1695.18,  370.62  C 1695.18   373.13  1697.21   375.16  1699.72   375.16 " style="stroke-width: 1.42 ;&st7; " /><path d=" M 1699.72,  375.16  C 1702.22   375.16  1704.25   373.13  1704.25   370.62 " style="stroke-width: 1.42 ;&st7; " /><path d=" M 1755.24,  370.62  C 1755.24   368.12  1753.21   366.09  1750.71   366.09 " style="stroke-width: 1.42 ;&st7; " /><path d=" M 1750.71,  366.09  C 1748.20   366.09  1746.17   368.12  1746.17   370.62 " style="stroke-width: 1.42 ;&st7; " /><path d=" M 1746.17,  370.62  C 1746.17   373.13  1748.20   375.16  1750.71   375.16 " style="stroke-width: 1.42 ;&st7; " /><path d=" M 1750.71,  375.16  C 1753.21   375.16  1755.24   373.13  1755.24   370.62 " style="stroke-width: 1.42 ;&st7; " /><path d=" M 1797.73,  370.62  C 1797.73   368.12  1795.70   366.09  1793.20   366.09 " style="stroke-width: 1.42 ;&st7; " /><path d=" M 1793.20,  366.09  C 1790.70   366.09  1788.67   368.12  1788.67   370.62 " style="stroke-width: 1.42 ;&st7; " /><path d=" M 1788.67,  370.62  C 1788.67   373.13  1790.70   375.16  1793.20   375.16 " style="stroke-width: 1.42 ;&st7; " /><path d=" M 1793.20,  375.16  C 1795.70   375.16  1797.73   373.13  1797.73   370.62 " style="stroke-width: 1.42 ;&st7; " /><path d=" M 1857.22,  379.69  C 1857.22   377.19  1855.19   375.16  1852.69   375.16 " style="stroke-width: 1.42 ;&st7; " /><path d=" M 1852.69,  375.16  C 1850.19   375.16  1848.16   377.19  1848.16   379.69 " style="stroke-width: 1.42 ;&st7; " /><path d=" M 1848.16,  379.69  C 1848.16   382.19  1850.19   384.22  1852.69   384.22 " style="stroke-width: 1.42 ;&st7; " /><path d=" M 1852.69,  384.22  C 1855.19   384.22  1857.22   382.19  1857.22   379.69 " style="stroke-width: 1.42 ;&st7; " /><path d=" M 1997.17,  366.09  C 1994.66   366.09  1992.63   368.12  1992.63   370.62 " style="stroke-width: 1.42 ;&st7; " /><path d=" M 1992.63,  370.62  C 1992.63   373.13  1994.66   375.16  1997.17   375.16 " style="stroke-width: 1.42 ;&st7; " /><path d=" M 1997.17,  375.16  C 1999.67   375.16  2001.70   373.13  2001.70   370.62 " style="stroke-width: 1.42 ;&st7; " /><path d=" M 1933.71,  370.62  C 1933.71   368.12  1931.68   366.09  1929.18   366.09 " style="stroke-width: 1.42 ;&st7; " /><path d=" M 1929.18,  366.09  C 1926.67   366.09  1924.65   368.12  1924.65   370.62 " style="stroke-width: 1.42 ;&st7; " /><path d=" M 1924.65,  370.62  C 1924.65   373.13  1926.67   375.16  1929.18   375.16 " style="stroke-width: 1.42 ;&st7; " /><path d=" M 1929.18,  375.16  C 1931.68   375.16  1933.71   373.13  1933.71   370.62 " style="stroke-width: 1.42 ;&st7; " /><path d=" M 1933.71,   91.30  C 1933.71    88.80  1931.68    86.77  1929.18    86.77 " style="stroke-width: 1.42 ;&st7; " /><path d=" M 1929.18,   86.77  C 1926.67    86.77  1924.65    88.80  1924.65    91.30 " style="stroke-width: 1.42 ;&st7; " /><path d=" M 1924.65,   91.30  C 1924.65    93.81  1926.67    95.84  1929.18    95.84 " style="stroke-width: 1.42 ;&st7; " /><path d=" M 1929.18,   95.84  C 1931.68    95.84  1933.71    93.81  1933.71    91.30 " style="stroke-width: 1.42 ;&st7; " /><path d=" M 1891.22,  370.62  C 1891.22   368.12  1889.19   366.09  1886.68   366.09 " style="stroke-width: 1.42 ;&st7; " /><path d=" M 1886.68,  366.09  C 1884.18   366.09  1882.15   368.12  1882.15   370.62 " style="stroke-width: 1.42 ;&st7; " /><path d=" M 1882.15,  370.62  C 1882.15   373.13  1884.18   375.16  1886.68   375.16 " style="stroke-width: 1.42 ;&st7; " /><path d=" M 1886.68,  375.16  C 1889.19   375.16  1891.22   373.13  1891.22   370.62 " style="stroke-width: 1.42 ;&st7; " /><path d=" M 1857.22,  370.62  C 1857.22   368.12  1855.19   366.09  1852.69   366.09 " style="stroke-width: 1.42 ;&st7; " /><path d=" M 1852.69,  366.09  C 1850.19   366.09  1848.16   368.12  1848.16   370.62 " style="stroke-width: 1.42 ;&st7; " /><path d=" M 1848.16,  370.62  C 1848.16   373.13  1850.19   375.16  1852.69   375.16 " style="stroke-width: 1.42 ;&st7; " /><path d=" M 1852.69,  375.16  C 1855.19   375.16  1857.22   373.13  1857.22   370.62 " style="stroke-width: 1.42 ;&st7; " /><path d=" M 1997.17,  460.71  C 1994.66   460.71  1992.63   462.74  1992.63   465.24 " style="stroke-width: 1.42 ;&st7; " /><path d=" M 1992.63,  465.24  C 1992.63   467.74  1994.66   469.77  1997.17   469.77 " style="stroke-width: 1.42 ;&st7; " /><path d=" M 1997.17,  469.77  C 1999.67   469.77  2001.70   467.74  2001.70   465.24 " style="stroke-width: 1.42 ;&st7; " /><path d=" M 1933.71,  465.24  C 1933.71   462.74  1931.68   460.71  1929.18   460.71 " style="stroke-width: 1.42 ;&st7; " /><path d=" M 1929.18,  460.71  C 1926.67   460.71  1924.65   462.74  1924.65   465.24 " style="stroke-width: 1.42 ;&st7; " /><path d=" M 1924.65,  465.24  C 1924.65   467.74  1926.67   469.77  1929.18   469.77 " style="stroke-width: 1.42 ;&st7; " /><path d=" M 1929.18,  469.77  C 1931.68   469.77  1933.71   467.74  1933.71   465.24 " style="stroke-width: 1.42 ;&st7; " /><path d=" M 1997.17,  469.77  C 1994.66   469.77  1992.63   471.80  1992.63   474.31 " style="stroke-width: 1.42 ;&st7; " /><path d=" M 1992.63,  474.31  C 1992.63   476.81  1994.66   478.84  1997.17   478.84 " style="stroke-width: 1.42 ;&st7; " /><path d=" M 1997.17,  478.84  C 1999.67   478.84  2001.70   476.81  2001.70   474.31 " style="stroke-width: 1.42 ;&st7; " /><path d=" M 1933.71,  474.31  C 1933.71   471.80  1931.68   469.77  1929.18   469.77 " style="stroke-width: 1.42 ;&st7; " /><path d=" M 1929.18,  469.77  C 1926.67   469.77  1924.65   471.80  1924.65   474.31 " style="stroke-width: 1.42 ;&st7; " /><path d=" M 1924.65,  474.31  C 1924.65   476.81  1926.67   478.84  1929.18   478.84 " style="stroke-width: 1.42 ;&st7; " /><path d=" M 1929.18,  478.84  C 1931.68   478.84  1933.71   476.81  1933.71   474.31 " style="stroke-width: 1.42 ;&st7; " /><text style="&st18;" transform="matrix(&st16;  1782.18  24.98 )">E1(A),E2(B),E3(C),E4(D)</text><text ewd:textID="38" style="&st18;" transform="matrix(&st16;  1782.18  32.08 )">Main Body ECU</text><text style="&st18;" transform="matrix(&st16;  1831.03  117.07 )">BE</text><text style="&st18;" transform="matrix(&st16;  1825.94  128.4 )">(RHD)</text><text ewd:textID="30" style="&st18;" transform="matrix(&st17;  1824.92  454.73 )">Front Door Lock Assembly LH</text><text style="&st18;" transform="matrix(&st17;  1817.81  454.73 )">I14(A),(B)</text><text style="&st18;" transform="matrix(&st16;  1799.17  476.28 )">(*2)</text><text style="&st18;" transform="matrix(&st16;  1799.17  372.59 )">(*1)</text><text style="&st18;" transform="matrix(&st16;  1926.85  476.28 )">B</text><text style="&st18;" transform="matrix(&st16;  1918.3  476.28 )">8</text><text style="&st18;" transform="matrix(&st17;  1894.32  257.99 )">(RHD)</text><text style="&st18;" transform="matrix(&st17;  1860.33  257.99 )">(RHD)</text><text style="&st18;" transform="matrix(&st16;  1994.84  476.28 )">B</text><text style="&st18;" transform="matrix(&st16;  1987.07  476.28 )">1</text><text style="&st18;" transform="matrix(&st17;  1882.99  252.98 )">LG</text><text style="&st18;" transform="matrix(&st17;  1848.99  250.22 )">L</text><text style="&st18;" transform="matrix(&st16;  1926.85  467.21 )">A</text><text style="&st18;" transform="matrix(&st16;  1918.3  467.21 )">8</text><text style="&st18;" transform="matrix(&st16;  1911.18  237.47 )">16</text><text style="&st18;" transform="matrix(&st16;  1994.84  467.21 )">A</text><text style="&st18;" transform="matrix(&st16;  1987.07  467.21 )">1</text><text style="&st18;" transform="matrix(&st16;  1799.17  381.66 )">(*2)</text><text style="&st18;" transform="matrix(&st17;  1679.02  150.92 )">BE</text><text style="&st18;" transform="matrix(&st17;  1707.35  363.73 )">(LHD)</text><text style="&st18;" transform="matrix(&st16;  1850.36  372.59 )">A</text><text style="&st18;" transform="matrix(&st16;  1841.81  372.59 )">5</text><text style="&st18;" transform="matrix(&st17;  1758.34  363.73 )">(LHD)</text><text style="&st18;" transform="matrix(&st16;  1919.18  83.07 )">LSWP</text><text style="&st18;" transform="matrix(&st17;  1707.35  257.5 )">(LHD)</text><text style="&st18;" transform="matrix(&st17;  1758.34  257.5 )">(LHD)</text><text style="&st18;" transform="matrix(&st16;  1884.35  372.59 )">A</text><text style="&st18;" transform="matrix(&st16;  1875.81  372.59 )">6</text><text style="&st18;" transform="matrix(&st16;  1918.3  372.59 )">7</text><text style="&st18;" transform="matrix(&st16;  1926.85  372.59 )">A</text><text style="&st18;" transform="matrix(&st16;  1834.7  339.45 )">14</text><text style="&st18;" transform="matrix(&st16;  1994.84  372.59 )">A</text><text style="&st18;" transform="matrix(&st16;  1986.29  372.59 )">2</text><text style="&st18;" transform="matrix(&st16;  1868.69  339.45 )">15</text><text style="&st18;" transform="matrix(&st16;  1850.36  381.66 )">B</text><text style="&st18;" transform="matrix(&st16;  1841.81  381.66 )">5</text><text style="&st18;" transform="matrix(&st16;  1790.87  372.59 )">A</text><text style="&st18;" transform="matrix(&st16;  1782.32  372.59 )">4</text><text style="&st18;" transform="matrix(&st16;  1823.61  609.99 )">B(RHD)</text><text style="&st18;" transform="matrix(&st16;  1748.38  372.59 )">A</text><text style="&st18;" transform="matrix(&st16;  1739.83  372.59 )">9</text><text style="&st18;" transform="matrix(&st17;  1662.03  638.38 )">W-B</text><text style="&st18;" transform="matrix(&st17;  1585.54  148.59 )">B</text><text style="&st18;" transform="matrix(&st16;  1697.38  372.59 )">A</text><text style="&st18;" transform="matrix(&st16;  1685.66  372.59 )">10</text><text style="&st18;" transform="matrix(&st17;  1596.87  156.01 )">(RHD)</text><text style="&st18;" transform="matrix(&st16;  1663.39  372.59 )">A</text><text style="&st18;" transform="matrix(&st16;  1654.85  372.59 )">8</text><text style="&st18;" transform="matrix(&st16;  1790.87  381.66 )">B</text><text style="&st18;" transform="matrix(&st16;  1782.32  381.66 )">4</text><text style="&st18;" transform="matrix(&st16;  1748.38  381.66 )">B</text><text style="&st18;" transform="matrix(&st16;  1739.83  381.66 )">9</text><text style="&st18;" transform="matrix(&st16;  1697.38  381.66 )">B</text><text style="&st18;" transform="matrix(&st16;  1685.66  381.66 )">10</text><text style="&st18;" transform="matrix(&st16;  1663.39  381.66 )">B</text><text style="&st18;" transform="matrix(&st16;  1654.85  381.66 )">8</text><text style="&st18;" transform="matrix(&st16;  1889.52  392.41 )">L</text><text style="&st18;" transform="matrix(&st16;  1855.52  392.41 )">UL</text><text style="&st18;" transform="matrix(&st16;  1790.87  476.28 )">B</text><text style="&st18;" transform="matrix(&st16;  1783.1  476.28 )">1</text><text style="&st18;" transform="matrix(&st16;  1663.39  476.28 )">B</text><text style="&st18;" transform="matrix(&st16;  1654.85  476.28 )">7</text><text style="&st18;" transform="matrix(&st16;  1986.29  381.66 )">4</text><text style="&st18;" transform="matrix(&st16;  1994.84  381.66 )">B</text><text style="&st18;" transform="matrix(&st16;  1875.81  381.66 )">6</text><text style="&st18;" transform="matrix(&st16;  1884.35  381.66 )">B</text><text style="&st18;" transform="matrix(&st16;  1663.39  467.21 )">A</text><text style="&st18;" transform="matrix(&st16;  1823.61  558.99 )">B(RHD)</text><text style="&st18;" transform="matrix(&st16;  1790.87  467.21 )">A</text><text style="&st18;" transform="matrix(&st16;  1782.32  467.21 )">3</text><text style="&st18;" transform="matrix(&st16;  1982.35  534.92 )">9</text><text style="&st18;" transform="matrix(&st16;  1918.3  381.66 )">7</text><text style="&st18;" transform="matrix(&st17;  1882.99  359.21 )">LG</text><text style="&st18;" transform="matrix(&st16;  1926.85  381.66 )">B</text><text style="&st18;" transform="matrix(&st17;  1848.99  356.45 )">L</text><text style="&st18;" transform="matrix(&st16;  1620.9  93.27 )">A</text><text style="&st18;" transform="matrix(&st16;  1926.85  93.27 )">B</text><text style="&st18;" transform="matrix(&st17;  1993.47  497.03 )">B</text><text style="&st18;" transform="matrix(&st17;  1662.03  252.91 )">BE</text><text style="&st18;" transform="matrix(&st16;  1655.58  83.07 )">LSWD</text><text style="&st18;" transform="matrix(&st16;  1654.87  93.27 )">9</text><text style="&st18;" transform="matrix(&st16;  1663.39  93.27 )">A</text><text style="&st18;" transform="matrix(&st16;  1697.38  93.27 )">A</text><text style="&st18;" transform="matrix(&st16;  1612.38  93.27 )">5</text><text style="&st18;" transform="matrix(&st16;  1613.83  83.07 )">ACTD</text><text style="&st18;" transform="matrix(&st17;  1925.48  668.12 )">W-B</text><text style="&st18;" transform="matrix(&st16;  1693.29  83.07 )">UL3</text><text style="&st18;" transform="matrix(&st16;  1685.69  93.27 )">10</text><text style="&st18;" transform="matrix(&st17;  1993.47  356.45 )">L</text><text style="&st18;" transform="matrix(&st17;  1690.36  156.01 )">(RHD)</text><text style="&st18;" transform="matrix(&st16;  1654.85  467.21 )">7</text><text style="&st18;" transform="matrix(&st16;  1982.35  339.45 )">8</text><text style="&st18;" transform="matrix(&st16;  1994.27  428.68 )">M</text><text style="&st18;" transform="matrix(&st16;  1778.39  517.92 )">9</text><text style="&st18;" transform="matrix(&st17;  1789.5  497.03 )">B</text><text style="&st18;" transform="matrix(&st17;  1747.01  252.98 )">LG</text><text style="&st18;" transform="matrix(&st17;  1747.01  359.21 )">LG</text><text style="&st18;" transform="matrix(&st17;  1662.03  359.14 )">BE</text><text style="&st18;" transform="matrix(&st17;  1789.5  356.45 )">L</text><text style="&st18;" transform="matrix(&st16;  1740.74  94.96 )">10</text><text style="&st18;" transform="matrix(&st16;  1746.75  83.07 )">L2</text><text style="&st18;" transform="matrix(&st16;  1734.06  126.98 )">53</text><text style="&st18;" transform="matrix(&st16;  1746.26  126.98 )">2D</text><text style="&st18;" transform="matrix(&st16;  1681.72  339.45 )">14</text><text style="&st18;" transform="matrix(&st17;  1894.32  364.22 )">(RHD)</text><text style="&st18;" transform="matrix(&st16;  1778.39  339.45 )">8</text><text style="&st18;" transform="matrix(&st16;  1647.73  339.45 )">16</text><text style="&st18;" transform="matrix(&st16;  1732.71  339.45 )">15</text><text style="&st18;" transform="matrix(&st17;  1860.33  364.22 )">(RHD)</text><text ewd:textID="36" style="&st18;" transform="matrix(&st17;  1697.44  436.16 )">Key Unlock</text><text ewd:textID="35" style="&st18;" transform="matrix(&st17;  1756.93  432.98 )">Key Lock</text><text style="&st18;" transform="matrix(&st16;  1799.17  467.21 )">(*1)</text><text style="&st18;" transform="matrix(&st17;  1696.02  356.81 )">Y</text><text style="&st18;" transform="matrix(&st17;  1696.02  250.57 )">Y</text><text style="&st18;" transform="matrix(&st17;  1619.53  148.59 )">B</text><text style="&st18;" transform="matrix(&st16;  1790.3  428.68 )">M</text><text style="&st18;" transform="matrix(&st17;  1925.48  502.4 )">W-B</text><text style="&st18;" transform="matrix(&st17;  1662.03  502.4 )">W-B</text><text ewd:textID="46" style="&st18;" transform="matrix(&st17;  1919.55  433.12 )">Unlock <tspan dy="6" x="0">Detection</tspan></text><text ewd:textID="46" style="&st18;" transform="matrix(&st17;  1656.09  433.12 )">Unlock <tspan dy="6" x="0">Detection</tspan></text><text style="&st18;" transform="matrix(&st16;  1668.55  457.02 )">E</text><text style="&st18;" transform="matrix(&st16;  1796.03  457.02 )">UL</text><text style="&st18;" transform="matrix(&st16;  1932.01  457.02 )">E</text><text style="&st18;" transform="matrix(&st16;  1668.55  392.41 )">LSSR</text><text style="&st18;" transform="matrix(&st16;  1702.55  392.41 )">UL</text><text style="&st18;" transform="matrix(&st16;  1753.54  392.41 )">L</text><text style="&st18;" transform="matrix(&st16;  1796.03  392.41 )">L</text><text style="&st18;" transform="matrix(&st16;  1932.01  392.41 )">LSSR</text><text style="&st18;" transform="matrix(&st17;  1925.48  149.35 )">Y(LHD)</text><text style="&st18;" transform="matrix(&st16;  1914.34  93.27 )">27</text><text style="&st18;" transform="matrix(&st17;  1630.87  155.51 )">(LHD)</text><text style="&st18;" transform="matrix(&st17;  1673.36  257.5 )">(LHD)</text><text ewd:textID="35" style="&st18;" transform="matrix(&st17;  1894.32  432.98 )">Key Lock</text><text ewd:textID="36" style="&st18;" transform="matrix(&st17;  1849.0  436.16 )">Key Unlock</text><text style="&st18;" transform="matrix(&st17;  1925.48  318.56 )">Y</text><text style="&st18;" transform="matrix(&st17;  1936.81  325.49 )">(LHD)</text><text style="&st18;" transform="matrix(&st17;  1950.98  320.89 )">BE</text><text ewd:textID="34" style="&st18;" transform="matrix(&st17;  1510.47  191.28 )">Junction <tspan dy="6" x="0">Connector</tspan></text><text style="&st18;" transform="matrix(&st17;  1503.36  191.28 )">E63</text><text style="&st18;" transform="matrix(&st17;  1520.36  386.75 )">E94</text><text ewd:textID="44" style="&st18;" transform="matrix(&st17;  1527.46  386.75 )">Un-Lock Warning <tspan dy="6" x="-0.01">Switch Assembly</tspan></text><text style="&st18;" transform="matrix(&st17;  1537.38  596.04 )">(RHD *12)</text><text style="&st18;" transform="matrix(&st17;  1526.05  587.39 )">W-B</text><text ewd:textID="1" style="&st18;" transform="matrix(&st16;  1697.19  641.15 )">* 1 :w/ Double Locking</text><text ewd:textID="2" style="&st18;" transform="matrix(&st16;  1697.19  649.65 )">* 2 :w/o Double Locking</text><text ewd:textID="10" style="&st18;" transform="matrix(&st16;  1697.19  666.64 )">*12 :w/o Entry &amp; Start System</text><text ewd:textID="9" style="&st18;" transform="matrix(&st16;  1697.19  658.14 )">*11 :Driver's Door Only Jam Protection</text><text ewd:textID="16" style="&st18;" transform="matrix(&st16;  1697.19  675.14 )">*27 :w/ Front Passenger's Side Door Control Switch</text><text style="&st18;" transform="matrix(&st17;  1962.31  325.98 )">(RHD)</text></svg>