﻿<?xml version="1.0" encoding="utf-8"?>
<!DOCTYPE svg PUBLIC "-//W3C//DTD SVG 1.0//EN" "http://www.w3.org/TR/2001/REC-SVG-20010904/DTD/svg10.dtd"[
	<!ENTITY ns_flows "http://ns.adobe.com/Flows/1.0/">
	<!ENTITY ns_svg "http://www.w3.org/2000/svg">
	<!ENTITY ns_xlink "http://www.w3.org/1999/xlink">
	<!ENTITY st0 "font-size:7px;font-family:'MS-PGothic';adobe-font-script:japanese;">
	<!ENTITY st1 "font-size:6px;font-family:'ArialMT';">
	<!-- White fill  -->
	<!ENTITY st2 "fill:#FFFFFF;stroke:#000000; stroke-width:1.41;stroke-linecap:round;stroke-linejoin:round;">
	<!-- Yellow fill  -->
	<!ENTITY st3 "fill:#FFFFCC;stroke:#FFFFCC; stroke-width:0.1;stroke-linecap:round;stroke-linejoin:round;">
	<!-- Gray fill  -->
	<!ENTITY st4 "fill:#CCCCCC;stroke:#CCCCCC; stroke-width:0.1;stroke-linecap:round;stroke-linejoin:round;">
	<!-- Light-blue fill -->
	<!ENTITY st5 "fill:#CCECF4;stroke:#000000; stroke-width:1.133;stroke-linecap:round;stroke-linejoin:round;">
	<!ENTITY st6 "fill:none;stroke-linecap:butt; stroke-linejoin:round;">
	<!ENTITY st7 "fill:none;stroke:#000000;stroke-linecap:round;stroke-linejoin:round;">
	<!ENTITY st8 "enable-background:new    ;">
	<!-- Black fill -->
	<!ENTITY st9 "fill:#000000;stroke:#000000; stroke-linecap:round;stroke-linejoin:round;">
	<!-- SRS note   -->
	<!ENTITY st10 "font-size:9px;font-family:'ArialMT';">
	<!ENTITY st11 "font-size:9px;font-family:'Svg Symbol';">
	<!ENTITY st12 "font-size:6px;font-family:'Svg Symbol';">
	<!ENTITY st13 "fill:none;stroke:#ff0000;stroke-linecap:round;stroke-linejoin:round;">
	<!-- Yellow fill  -->
	<!ENTITY st14 "fill:#FFFF00;stroke:#FFFF00; stroke-width:0.1;stroke-linecap:round;stroke-linejoin:round;">
	<!ENTITY st15 "font-size:6px;font-family:'MS-PGothic';adobe-font-script:japanese;">
	<!ENTITY st16 "1.00 0.00 0.00 1.00">
	<!ENTITY st17 "0.00 -1.00 1.00 0.00">
	<!ENTITY st18 "font-size:6px;font-family:'Arial';">
	<!ENTITY st19 "font-size:9px;font-family:'Arial';">
	<!ENTITY st20 "font-size:6px;font-family:'MS-PGothic','MS PGothic';adobe-font-script:japanese;">
	<!ENTITY st21 "font-size:7px;font-family:'MS-PGothic','MS PGothic';adobe-font-script:japanese;">
	<!ATTLIST svg
		xmlns:ewd CDATA #FIXED "http://shcl.co.jp/ewd"
		xmlns:a CDATA #FIXED "http://ns.adobe.com/AdobeSVGViewerExtensions/3.0/"
		ewd:ver CDATA #IMPLIED
	>
	<!ATTLIST a
		ewd:lineID CDATA #IMPLIED
		ewd:groupID CDATA #IMPLIED
		ewd:figtype CDATA #IMPLIED
		ewd:code CDATA #IMPLIED
		ewd:figID CDATA #IMPLIED
		ewd:pinNo CDATA #IMPLIED
		ewd:comment CDATA #IMPLIED >
	<!ATTLIST g
		ewd:lineID CDATA #IMPLIED
		ewd:groupID CDATA #IMPLIED
		ewd:figtype CDATA #IMPLIED
		ewd:code CDATA #IMPLIED
		ewd:figID CDATA #IMPLIED
		ewd:pinNo CDATA #IMPLIED
		ewd:comment CDATA #IMPLIED >
	<!ATTLIST text
		ewd:textID CDATA #IMPLIED >
	<!ATTLIST title
		ewd:textID CDATA #IMPLIED >
]>
<!-- Generator: Shintec Hozumi YS   -->
<svg onload="call_execInitLoadProc_svg('system')" style="overflow:visible;  enable-background:new 0 0 6715.836 710.000" viewBox="0 0 6715.836 710.000" height="710.000" width="6715.836" xml:space="preserve" ewd:ver="L2.1.2.8" xmlns="&ns_svg;" xmlns:a="http://ns.adobe.com/AdobeSVGViewerExtensions/3.0/" xmlns:ewd="http://shcl.co.jp/ewd" xmlns:xlink="&ns_xlink;">
<path d=" M 1614.73,  120.77  L 1614.73,   95.27  L 1648.72,   95.27  L 1648.72,  197.25 " style="stroke:#992903;stroke-width: 5.10 ;&st6;" /><path d=" M 1614.73,  154.76  L 1614.73,  197.25 " style="stroke:#7FC97F;stroke-width: 5.10 ;&st6;" /><path d=" M 1682.72,  120.77  L 1682.72,   95.27  L 1716.71,   95.27  L 1716.71,  197.25 " style="stroke:#00A0C6;stroke-width: 5.10 ;&st6;" /><path d=" M 1682.72,  154.76  L 1682.72,  197.25 " style="stroke:#FF0000;stroke-width: 5.10 ;&st6;" /><path d=" M 1750.71,  120.77  L 1750.71,   95.27  L 1784.70,   95.27  L 1784.70,  197.25 " style="stroke:#56077D;stroke-width: 5.10 ;&st6;" /><path d=" M 1750.71,  154.76  L 1750.71,  197.25 " style="stroke:#FFE600;stroke-width: 5.10 ;&st6;" /><path d=" M 1682.72,  154.76  L 1682.72,  146.26 " style="stroke-width: 0.85 ;&st7; " /><path d=" M 1614.73,  154.76  L 1614.73,  146.26 " style="stroke-width: 0.85 ;&st7; " /><path d=" M 1750.71,  154.76  L 1750.71,  146.26 " style="stroke-width: 0.85 ;&st7; " /><path d=" M 1682.72,  129.26  L 1682.72,  120.77 " style="stroke-width: 0.85 ;&st7; " /><path d=" M 1750.71,  129.26  L 1750.71,  120.77 " style="stroke-width: 0.85 ;&st7; " /><path d=" M 1614.73,  129.26  L 1614.73,  120.77 " style="stroke-width: 0.85 ;&st7; " /><path d=" M 1733.71,  504.62  L 1739.38,  481.95 " style="stroke-width: 1.42 ;&st7; " /><path d=" M 1733.71,  511.70  L 1733.71,  507.45 " style="stroke-width: 0.85 ;&st7; " /><path d=" M 1733.71,  481.95  L 1733.71,  469.21 " style="stroke-width: 0.85 ;&st7; " /><path d=" M 1793.20,  504.62  L 1798.87,  481.95 " style="stroke-width: 1.42 ;&st7; " /><path d=" M 1793.20,  511.70  L 1793.20,  507.45 " style="stroke-width: 0.85 ;&st7; " /><path d=" M 1793.20,  481.95  L 1793.20,  469.21 " style="stroke-width: 0.85 ;&st7; " /><path d=" M 1861.19,  504.62  L 1866.85,  481.95 " style="stroke-width: 1.42 ;&st7; " /><path d=" M 1861.19,  520.20  L 1861.19,  507.45 " style="stroke-width: 0.85 ;&st7; " /><path d=" M 1861.19,  481.95  L 1861.19,  477.71 " style="stroke-width: 0.85 ;&st7; " /><path d=" M 1980.17,  205.75  L 1971.67,  205.75 " style="stroke-width: 1.42 ;&st7; " /><path d=" M 1937.68,  205.75  L 1929.18,  205.75 " style="stroke-width: 1.42 ;&st7; " /><path d=" M 1631.73,  367.22  L 1640.23,  367.22 " style="stroke-width: 1.42 ;&st7; " /><path d=" M 1665.72,  367.22  L 1674.22,  367.22 " style="stroke-width: 1.42 ;&st7; " /><path d=" M 1725.21,  367.22  L 1733.71,  367.22 " style="stroke-width: 1.42 ;&st7; " /><path d=" M 1784.70,  367.22  L 1793.20,  367.22 " style="stroke-width: 1.42 ;&st7; " /><path d=" M 1912.18,  367.22  L 1920.68,  367.22 " style="stroke-width: 1.42 ;&st7; " /><path d=" M 1963.17,  367.22  L 1971.67,  367.22 " style="stroke-width: 1.42 ;&st7; " /><path d=" M 1665.72,  409.72  L 1674.22,  409.72 " style="stroke-width: 1.42 ;&st7; " /><path d=" M 1631.73,  409.72  L 1640.23,  409.72 " style="stroke-width: 1.42 ;&st7; " /><path d=" M 1665.72,  562.69  L 1657.22,  562.69 " style="stroke-width: 1.42 ;&st7; " /><path d=" M 1861.19,  520.20  L 1861.19,  528.70 " style="stroke-width: 0.85 ;&st7; " /><path d=" M 1835.69,  528.70  L 1835.69,  477.71  L 1861.19,  477.71 " style="stroke-width: 0.85 ;&st7; " /><path d=" M 1792.01,  519.20  L 1791.74,  519.67  L 1791.64,  520.20  L 1791.74,  520.73  L 1792.01,  521.20  L 1792.42,  521.55  L 1792.93,  521.73  L 1793.47,  521.73  L 1793.98,  521.55  L 1794.39,  521.20  L 1794.66,  520.73  L 1794.76,  520.20  L 1794.66,  519.67  L 1794.39,  519.20  L 1793.98,  518.85  L 1793.47,  518.66  L 1792.93,  518.66  L 1792.42,  518.85  L 1792.01,  519.20  L 1792.40,  519.91  L 1792.40,  520.49  L 1792.77,  520.94  L 1793.35,  521.03  L 1793.85,  520.75  L 1794.05,  520.20  L 1793.85,  519.65  L 1793.35,  519.36  L 1792.77,  519.46  L 1793.20,  520.20 " style="stroke-width: 0.85 ;&st7; " /><path d=" M 1793.20,  528.70  L 1793.20,  511.70 " style="stroke-width: 0.85 ;&st7; " /><path d=" M 1793.20,  520.20  L 1733.71,  520.20  L 1733.71,  511.70 " style="stroke-width: 0.85 ;&st7; " /><path d=" M 1793.20,  571.19  L 1793.20,  588.19 " style="stroke-width: 0.85 ;&st7; " /><path d=" M 1784.70,  571.19  L 1801.70,  571.19  L 1801.70,  588.19  L 1784.70,  588.19  L 1784.70,  571.19 " style="stroke-width: 1.42 ;&st7; " /><path d=" M 1613.31,  710.00  L 1616.15,  710.00 " style="stroke-width: 0.85 ;&st7; " /><path d=" M 1611.90,  707.17  L 1617.56,  707.17 " style="stroke-width: 0.85 ;&st7; " /><path d=" M 1610.48,  704.33  L 1618.98,  704.33 " style="stroke-width: 0.85 ;&st7; " /><path d=" M 1606.23,  701.50  L 1623.23,  701.50 " style="stroke-width: 0.85 ;&st7; " /><path d=" M 1614.73,  697.25  L 1614.73,  701.50 " style="stroke-width: 0.85 ;&st7; " /><path d=" M 1716.71,  469.21  L 1716.71,  528.70  L 1878.19,  528.70  L 1878.19,  469.21  L 1716.71,  469.21 " style="stroke-width: 1.42 ;&st7; " /><path d=" M 1623.23,  120.77  L 1623.23,  154.76  L 1606.23,  154.76  L 1606.23,  120.77  L 1623.23,  120.77 " style="stroke-width: 1.42 ;&st7; " /><path d=" M 1691.22,  120.77  L 1691.22,  154.76  L 1674.22,  154.76  L 1674.22,  120.77  L 1691.22,  120.77 " style="stroke-width: 1.42 ;&st7; " /><path d=" M 1759.21,  120.77  L 1759.21,  154.76  L 1742.21,  154.76  L 1742.21,  120.77  L 1759.21,  120.77 " style="stroke-width: 1.42 ;&st7; " /><path d=" M 1963.17,  452.21  L 1963.17,  469.21  L 1980.17,  469.21  L 1980.17,  452.21  L 1963.17,  452.21 " style="stroke-width: 1.42 ;&st7; " /><path d=" M 1971.67,  452.21  L 1971.67,  469.21 " style="stroke-width: 0.85 ;&st7; " /><path d=" M 1648.72,  605.18  L 1665.72,  605.18  L 1665.72,  622.18  L 1648.72,  622.18  L 1648.72,  605.18 " style="stroke-width: 1.42 ;&st7; " /><path d=" M 1657.22,  605.18  L 1657.22,  613.68  L 1648.72,  613.68 " style="stroke-width: 0.85 ;&st7; " /><path d=" M 1657.22,  613.68  L 1665.72,  613.68 " style="stroke-width: 0.85 ;&st7; " /><path d=" M 1656.03,  612.68  L 1655.76,  613.15  L 1655.66,  613.68  L 1655.76,  614.22  L 1656.03,  614.69  L 1656.44,  615.03  L 1656.95,  615.22  L 1657.49,  615.22  L 1658.00,  615.03  L 1658.42,  614.69  L 1658.69,  614.22  L 1658.78,  613.68  L 1658.69,  613.15  L 1658.42,  612.68  L 1658.00,  612.33  L 1657.49,  612.15  L 1656.95,  612.15  L 1656.44,  612.33  L 1656.03,  612.68  L 1656.42,  613.39  L 1656.42,  613.97  L 1656.80,  614.42  L 1657.37,  614.52  L 1657.87,  614.23  L 1658.07,  613.68  L 1657.87,  613.14  L 1657.37,  612.85  L 1656.80,  612.95  L 1657.22,  613.68 " style="stroke-width: 0.85 ;&st7; " /><path d=" M 1661.47,  568.36  L 1657.22,  564.11  L 1652.97,  568.36 " style="stroke-width: 1.42 ;&st7; " /><path d=" M 1661.47,  571.76  L 1657.22,  567.51  L 1652.97,  571.76 " style="stroke-width: 1.42 ;&st7; " /><path d=" M 1793.20,  409.72  L 1793.20,  426.71 " style="stroke-width: 0.85 ;&st7; " /><path d=" M 1784.70,  409.72  L 1801.70,  409.72  L 1801.70,  426.71  L 1784.70,  426.71  L 1784.70,  409.72 " style="stroke-width: 1.42 ;&st7; " /><path d=" M 1644.47,  404.05  L 1640.23,  408.30  L 1635.98,  404.05 " style="stroke-width: 1.42 ;&st7; " /><path d=" M 1635.98,  400.65  L 1640.23,  404.90  L 1644.47,  400.65 " style="stroke-width: 1.42 ;&st7; " /><path d=" M 1678.47,  404.05  L 1674.22,  408.30  L 1669.97,  404.05 " style="stroke-width: 1.42 ;&st7; " /><path d=" M 1669.97,  400.65  L 1674.22,  404.90  L 1678.47,  400.65 " style="stroke-width: 1.42 ;&st7; " /><path d=" M 1737.96,  361.56  L 1733.71,  365.81  L 1729.46,  361.56 " style="stroke-width: 1.42 ;&st7; " /><path d=" M 1729.46,  358.16  L 1733.71,  362.41  L 1737.96,  358.16 " style="stroke-width: 1.42 ;&st7; " /><path d=" M 1797.45,  361.56  L 1793.20,  365.81  L 1788.95,  361.56 " style="stroke-width: 1.42 ;&st7; " /><path d=" M 1975.92,  361.56  L 1971.67,  365.81  L 1967.42,  361.56 " style="stroke-width: 1.42 ;&st7; " /><path d=" M 1678.47,  361.56  L 1674.22,  365.81  L 1669.97,  361.56 " style="stroke-width: 1.42 ;&st7; " /><path d=" M 1669.97,  358.16  L 1674.22,  362.41  L 1678.47,  358.16 " style="stroke-width: 1.42 ;&st7; " /><path d=" M 1635.98,  358.16  L 1640.23,  362.41  L 1644.47,  358.16 " style="stroke-width: 1.42 ;&st7; " /><path d=" M 1788.95,  358.16  L 1793.20,  362.41  L 1797.45,  358.16 " style="stroke-width: 1.42 ;&st7; " /><path d=" M 1916.43,  358.16  L 1920.68,  362.41  L 1924.93,  358.16 " style="stroke-width: 1.42 ;&st7; " /><path d=" M 1924.93,  361.56  L 1920.68,  365.81  L 1916.43,  361.56 " style="stroke-width: 1.42 ;&st7; " /><path d=" M 1967.42,  358.16  L 1971.67,  362.41  L 1975.92,  358.16 " style="stroke-width: 1.42 ;&st7; " /><path d=" M 1644.47,  361.56  L 1640.23,  365.81  L 1635.98,  361.56 " style="stroke-width: 1.42 ;&st7; " /><path d=" M 1614.73,  460.71  L 1614.73,  511.70  L 1699.72,  511.70  L 1699.72,  460.71  L 1614.73,  460.71 " style="stroke-width: 1.42 ;&st7; " /><path d=" M 1725.21,  409.72  L 1742.21,  409.72  L 1742.21,  426.71  L 1725.21,  426.71  L 1725.21,  409.72 " style="stroke-width: 1.42 ;&st7; " /><path d=" M 1733.71,  409.72  L 1733.71,  426.71 " style="stroke-width: 0.85 ;&st7; " /><path d=" M 1975.92,  214.82  L 1971.67,  210.57  L 1967.42,  214.82 " style="stroke-width: 1.42 ;&st7; " /><path d=" M 1975.92,  211.42  L 1971.67,  207.17  L 1967.42,  211.42 " style="stroke-width: 1.42 ;&st7; " /><path d=" M 1933.43,  214.82  L 1929.18,  210.57  L 1924.93,  214.82 " style="stroke-width: 1.42 ;&st7; " /><path d=" M 1933.43,  211.42  L 1929.18,  207.17  L 1924.93,  211.42 " style="stroke-width: 1.42 ;&st7; " /><path d=" M 1735.13,  506.03  C 1735.13   505.25  1734.49   504.62  1733.71   504.62 " style="stroke-width: 0.85 ;&st7; " /><path d=" M 1733.71,  504.62  C 1732.93   504.62  1732.29   505.25  1732.29   506.03 " style="stroke-width: 0.85 ;&st7; " /><path d=" M 1732.29,  506.03  C 1732.29   506.82  1732.93   507.45  1733.71   507.45 " style="stroke-width: 0.85 ;&st7; " /><path d=" M 1733.71,  507.45  C 1734.49   507.45  1735.13   506.82  1735.13   506.03 " style="stroke-width: 0.85 ;&st7; " /><path d=" M 1735.13,  483.37  C 1735.13   482.59  1734.49   481.95  1733.71   481.95 " style="stroke-width: 0.85 ;&st7; " /><path d=" M 1733.71,  481.95  C 1732.93   481.95  1732.29   482.59  1732.29   483.37 " style="stroke-width: 0.85 ;&st7; " /><path d=" M 1732.29,  483.37  C 1732.29   484.15  1732.93   484.79  1733.71   484.79 " style="stroke-width: 0.85 ;&st7; " /><path d=" M 1733.71,  484.79  C 1734.49   484.79  1735.13   484.15  1735.13   483.37 " style="stroke-width: 0.85 ;&st7; " /><path d=" M 1794.62,  506.03  C 1794.62   505.25  1793.98   504.62  1793.20   504.62 " style="stroke-width: 0.85 ;&st7; " /><path d=" M 1793.20,  504.62  C 1792.42   504.62  1791.78   505.25  1791.78   506.03 " style="stroke-width: 0.85 ;&st7; " /><path d=" M 1791.78,  506.03  C 1791.78   506.82  1792.42   507.45  1793.20   507.45 " style="stroke-width: 0.85 ;&st7; " /><path d=" M 1793.20,  507.45  C 1793.98   507.45  1794.62   506.82  1794.62   506.03 " style="stroke-width: 0.85 ;&st7; " /><path d=" M 1794.62,  483.37  C 1794.62   482.59  1793.98   481.95  1793.20   481.95 " style="stroke-width: 0.85 ;&st7; " /><path d=" M 1793.20,  481.95  C 1792.42   481.95  1791.78   482.59  1791.78   483.37 " style="stroke-width: 0.85 ;&st7; " /><path d=" M 1791.78,  483.37  C 1791.78   484.15  1792.42   484.79  1793.20   484.79 " style="stroke-width: 0.85 ;&st7; " /><path d=" M 1793.20,  484.79  C 1793.98   484.79  1794.62   484.15  1794.62   483.37 " style="stroke-width: 0.85 ;&st7; " /><path d=" M 1862.61,  506.03  C 1862.61   505.25  1861.97   504.62  1861.19   504.62 " style="stroke-width: 0.85 ;&st7; " /><path d=" M 1861.19,  504.62  C 1860.41   504.62  1859.77   505.25  1859.77   506.03 " style="stroke-width: 0.85 ;&st7; " /><path d=" M 1859.77,  506.03  C 1859.77   506.82  1860.41   507.45  1861.19   507.45 " style="stroke-width: 0.85 ;&st7; " /><path d=" M 1861.19,  507.45  C 1861.97   507.45  1862.61   506.82  1862.61   506.03 " style="stroke-width: 0.85 ;&st7; " /><path d=" M 1862.61,  483.37  C 1862.61   482.59  1861.97   481.95  1861.19   481.95 " style="stroke-width: 0.85 ;&st7; " /><path d=" M 1861.19,  481.95  C 1860.41   481.95  1859.77   482.59  1859.77   483.37 " style="stroke-width: 0.85 ;&st7; " /><path d=" M 1859.77,  483.37  C 1859.77   484.15  1860.41   484.79  1861.19   484.79 " style="stroke-width: 0.85 ;&st7; " /><path d=" M 1861.19,  484.79  C 1861.97   484.79  1862.61   484.15  1862.61   483.37 " style="stroke-width: 0.85 ;&st7; " /><path d=" M 1721.25,  201.78  C 1721.25   199.28  1719.22   197.25  1716.71   197.25 " style="stroke-width: 1.42 ;&st7; " /><path d=" M 1716.71,  197.25  C 1714.21   197.25  1712.18   199.28  1712.18   201.78 " style="stroke-width: 1.42 ;&st7; " /><path d=" M 1712.18,  201.78  C 1712.18   204.29  1714.21   206.32  1716.71   206.32 " style="stroke-width: 1.42 ;&st7; " /><path d=" M 1716.71,  206.32  C 1719.22   206.32  1721.25   204.29  1721.25   201.78 " style="stroke-width: 1.42 ;&st7; " /><path d=" M 1687.25,  201.78  C 1687.25   199.28  1685.22   197.25  1682.72   197.25 " style="stroke-width: 1.42 ;&st7; " /><path d=" M 1682.72,  197.25  C 1680.22   197.25  1678.19   199.28  1678.19   201.78 " style="stroke-width: 1.42 ;&st7; " /><path d=" M 1678.19,  201.78  C 1678.19   204.29  1680.22   206.32  1682.72   206.32 " style="stroke-width: 1.42 ;&st7; " /><path d=" M 1682.72,  206.32  C 1685.22   206.32  1687.25   204.29  1687.25   201.78 " style="stroke-width: 1.42 ;&st7; " /><path d=" M 1653.26,  201.78  C 1653.26   199.28  1651.23   197.25  1648.72   197.25 " style="stroke-width: 1.42 ;&st7; " /><path d=" M 1648.72,  197.25  C 1646.22   197.25  1644.19   199.28  1644.19   201.78 " style="stroke-width: 1.42 ;&st7; " /><path d=" M 1644.19,  201.78  C 1644.19   204.29  1646.22   206.32  1648.72   206.32 " style="stroke-width: 1.42 ;&st7; " /><path d=" M 1648.72,  206.32  C 1651.23   206.32  1653.26   204.29  1653.26   201.78 " style="stroke-width: 1.42 ;&st7; " /><path d=" M 1619.26,  201.78  C 1619.26   199.28  1617.23   197.25  1614.73   197.25 " style="stroke-width: 1.42 ;&st7; " /><path d=" M 1614.73,  197.25  C 1612.23   197.25  1610.20   199.28  1610.20   201.78 " style="stroke-width: 1.42 ;&st7; " /><path d=" M 1610.20,  201.78  C 1610.20   204.29  1612.23   206.32  1614.73   206.32 " style="stroke-width: 1.42 ;&st7; " /><path d=" M 1614.73,  206.32  C 1617.23   206.32  1619.26   204.29  1619.26   201.78 " style="stroke-width: 1.42 ;&st7; " /><path d=" M 1976.20,  260.71  C 1976.20   258.21  1974.17   256.18  1971.67   256.18 " style="stroke-width: 1.42 ;&st7; " /><path d=" M 1971.67,  256.18  C 1969.17   256.18  1967.14   258.21  1967.14   260.71 " style="stroke-width: 1.42 ;&st7; " /><path d=" M 1967.14,  260.71  C 1967.14   263.21  1969.17   265.24  1971.67   265.24 " style="stroke-width: 1.42 ;&st7; " /><path d=" M 1971.67,  265.24  C 1974.17   265.24  1976.20   263.21  1976.20   260.71 " style="stroke-width: 1.42 ;&st7; " /><path d=" M 1933.71,  260.71  C 1933.71   258.21  1931.68   256.18  1929.18   256.18 " style="stroke-width: 1.42 ;&st7; " /><path d=" M 1929.18,  256.18  C 1926.67   256.18  1924.65   258.21  1924.65   260.71 " style="stroke-width: 1.42 ;&st7; " /><path d=" M 1924.65,  260.71  C 1924.65   263.21  1926.67   265.24  1929.18   265.24 " style="stroke-width: 1.42 ;&st7; " /><path d=" M 1929.18,  265.24  C 1931.68   265.24  1933.71   263.21  1933.71   260.71 " style="stroke-width: 1.42 ;&st7; " /><path d=" M 1848.72,  260.71  C 1848.72   258.21  1846.70   256.18  1844.19   256.18 " style="stroke-width: 1.42 ;&st7; " /><path d=" M 1844.19,  256.18  C 1841.69   256.18  1839.66   258.21  1839.66   260.71 " style="stroke-width: 1.42 ;&st7; " /><path d=" M 1839.66,  260.71  C 1839.66   263.21  1841.69   265.24  1844.19   265.24 " style="stroke-width: 1.42 ;&st7; " /><path d=" M 1844.19,  265.24  C 1846.70   265.24  1848.72   263.21  1848.72   260.71 " style="stroke-width: 1.42 ;&st7; " /><path d=" M 1976.20,  329.26  C 1976.20   326.76  1974.17   324.73  1971.67   324.73 " style="stroke-width: 1.42 ;&st7; " /><path d=" M 1971.67,  324.73  C 1969.17   324.73  1967.14   326.76  1967.14   329.26 " style="stroke-width: 1.42 ;&st7; " /><path d=" M 1967.14,  329.26  C 1967.14   331.77  1969.17   333.80  1971.67   333.80 " style="stroke-width: 1.42 ;&st7; " /><path d=" M 1971.67,  333.80  C 1974.17   333.80  1976.20   331.77  1976.20   329.26 " style="stroke-width: 1.42 ;&st7; " /><path d=" M 1525.78,  329.26  C 1525.78   326.76  1523.75   324.73  1521.25   324.73 " style="stroke-width: 1.42 ;&st7; " /><path d=" M 1521.25,  324.73  C 1518.74   324.73  1516.71   326.76  1516.71   329.26 " style="stroke-width: 1.42 ;&st7; " /><path d=" M 1516.71,  329.26  C 1516.71   331.77  1518.74   333.80  1521.25   333.80 " style="stroke-width: 1.42 ;&st7; " /><path d=" M 1521.25,  333.80  C 1523.75   333.80  1525.78   331.77  1525.78   329.26 " style="stroke-width: 1.42 ;&st7; " /><path d=" M 1614.73,  146.26  C 1616.69   146.26  1618.27   144.68  1618.27   142.72 " style="stroke-width: 0.85 ;&st7; " /><path d=" M 1618.27,  142.72  C 1618.27   140.76  1616.69   139.18  1614.73   139.18 " style="stroke-width: 0.85 ;&st7; " /><path d=" M 1614.73,  139.18  C 1613.74   139.18  1612.89   139.53  1612.20   140.24 " style="stroke-width: 0.85 ;&st7; " /><path d=" M 1612.20,  140.24  C 1613.57   141.64  1615.81   141.66  1617.21   140.29 " style="stroke-width: 0.85 ;&st7; " /><path d=" M 1617.21,  140.29  C 1618.61   138.92  1618.63   136.68  1617.26   135.28 " style="stroke-width: 0.85 ;&st7; " /><path d=" M 1617.26,  135.28  C 1615.89   133.89  1613.65   133.86  1612.25   135.23 " style="stroke-width: 0.85 ;&st7; " /><path d=" M 1612.25,  135.23  C 1612.23   135.25  1612.22   135.27  1612.20   135.28 " style="stroke-width: 0.85 ;&st7; " /><path d=" M 1612.20,  135.28  C 1613.57   136.68  1615.81   136.70  1617.21   135.33 " style="stroke-width: 0.85 ;&st7; " /><path d=" M 1617.21,  135.33  C 1618.61   133.97  1618.63   131.72  1617.26   130.33 " style="stroke-width: 0.85 ;&st7; " /><path d=" M 1617.26,  130.33  C 1616.57   129.62  1615.72   129.26  1614.73   129.26 " style="stroke-width: 0.85 ;&st7; " /><path d=" M 1682.72,  146.26  C 1684.67   146.26  1686.26   144.68  1686.26   142.72 " style="stroke-width: 0.85 ;&st7; " /><path d=" M 1686.26,  142.72  C 1686.26   140.76  1684.67   139.18  1682.72   139.18 " style="stroke-width: 0.85 ;&st7; " /><path d=" M 1682.72,  139.18  C 1681.73   139.18  1680.88   139.53  1680.19   140.24 " style="stroke-width: 0.85 ;&st7; " /><path d=" M 1680.19,  140.24  C 1681.56   141.64  1683.80   141.66  1685.20   140.29 " style="stroke-width: 0.85 ;&st7; " /><path d=" M 1685.20,  140.29  C 1686.59   138.92  1686.62   136.68  1685.25   135.28 " style="stroke-width: 0.85 ;&st7; " /><path d=" M 1685.25,  135.28  C 1683.88   133.89  1681.64   133.86  1680.24   135.23 " style="stroke-width: 0.85 ;&st7; " /><path d=" M 1680.24,  135.23  C 1680.22   135.25  1680.21   135.27  1680.19   135.28 " style="stroke-width: 0.85 ;&st7; " /><path d=" M 1680.19,  135.28  C 1681.56   136.68  1683.80   136.70  1685.20   135.33 " style="stroke-width: 0.85 ;&st7; " /><path d=" M 1685.20,  135.33  C 1686.59   133.97  1686.62   131.72  1685.25   130.33 " style="stroke-width: 0.85 ;&st7; " /><path d=" M 1685.25,  130.33  C 1684.56   129.62  1683.71   129.26  1682.72   129.26 " style="stroke-width: 0.85 ;&st7; " /><path d=" M 1750.71,  146.26  C 1752.66   146.26  1754.25   144.68  1754.25   142.72 " style="stroke-width: 0.85 ;&st7; " /><path d=" M 1754.25,  142.72  C 1754.25   140.76  1752.66   139.18  1750.71   139.18 " style="stroke-width: 0.85 ;&st7; " /><path d=" M 1750.71,  139.18  C 1749.72   139.18  1748.87   139.53  1748.18   140.24 " style="stroke-width: 0.85 ;&st7; " /><path d=" M 1619.26,  260.71  C 1619.26   258.21  1617.23   256.18  1614.73   256.18 " style="stroke-width: 1.42 ;&st7; " /><path d=" M 1614.73,  256.18  C 1612.23   256.18  1610.20   258.21  1610.20   260.71 " style="stroke-width: 1.42 ;&st7; " /><path d=" M 1610.20,  260.71  C 1610.20   263.21  1612.23   265.24  1614.73   265.24 " style="stroke-width: 1.42 ;&st7; " /><path d=" M 1614.73,  265.24  C 1617.23   265.24  1619.26   263.21  1619.26   260.71 " style="stroke-width: 1.42 ;&st7; " /><path d=" M 1653.26,  260.71  C 1653.26   258.21  1651.23   256.18  1648.72   256.18 " style="stroke-width: 1.42 ;&st7; " /><path d=" M 1648.72,  256.18  C 1646.22   256.18  1644.19   258.21  1644.19   260.71 " style="stroke-width: 1.42 ;&st7; " /><path d=" M 1644.19,  260.71  C 1644.19   263.21  1646.22   265.24  1648.72   265.24 " style="stroke-width: 1.42 ;&st7; " /><path d=" M 1648.72,  265.24  C 1651.23   265.24  1653.26   263.21  1653.26   260.71 " style="stroke-width: 1.42 ;&st7; " /><path d=" M 1687.25,  260.71  C 1687.25   258.21  1685.22   256.18  1682.72   256.18 " style="stroke-width: 1.42 ;&st7; " /><path d=" M 1682.72,  256.18  C 1680.22   256.18  1678.19   258.21  1678.19   260.71 " style="stroke-width: 1.42 ;&st7; " /><path d=" M 1678.19,  260.71  C 1678.19   263.21  1680.22   265.24  1682.72   265.24 " style="stroke-width: 1.42 ;&st7; " /><path d=" M 1682.72,  265.24  C 1685.22   265.24  1687.25   263.21  1687.25   260.71 " style="stroke-width: 1.42 ;&st7; " /><path d=" M 1721.25,  260.71  C 1721.25   258.21  1719.22   256.18  1716.71   256.18 " style="stroke-width: 1.42 ;&st7; " /><path d=" M 1716.71,  256.18  C 1714.21   256.18  1712.18   258.21  1712.18   260.71 " style="stroke-width: 1.42 ;&st7; " /><path d=" M 1712.18,  260.71  C 1712.18   263.21  1714.21   265.24  1716.71   265.24 " style="stroke-width: 1.42 ;&st7; " /><path d=" M 1716.71,  265.24  C 1719.22   265.24  1721.25   263.21  1721.25   260.71 " style="stroke-width: 1.42 ;&st7; " /><path d=" M 1755.24,  260.71  C 1755.24   258.21  1753.21   256.18  1750.71   256.18 " style="stroke-width: 1.42 ;&st7; " /><path d=" M 1750.71,  256.18  C 1748.20   256.18  1746.17   258.21  1746.17   260.71 " style="stroke-width: 1.42 ;&st7; " /><path d=" M 1746.17,  260.71  C 1746.17   263.21  1748.20   265.24  1750.71   265.24 " style="stroke-width: 1.42 ;&st7; " /><path d=" M 1750.71,  265.24  C 1753.21   265.24  1755.24   263.21  1755.24   260.71 " style="stroke-width: 1.42 ;&st7; " /><path d=" M 1789.23,  260.71  C 1789.23   258.21  1787.21   256.18  1784.70   256.18 " style="stroke-width: 1.42 ;&st7; " /><path d=" M 1784.70,  256.18  C 1782.20   256.18  1780.17   258.21  1780.17   260.71 " style="stroke-width: 1.42 ;&st7; " /><path d=" M 1780.17,  260.71  C 1780.17   263.21  1782.20   265.24  1784.70   265.24 " style="stroke-width: 1.42 ;&st7; " /><path d=" M 1784.70,  265.24  C 1787.21   265.24  1789.23   263.21  1789.23   260.71 " style="stroke-width: 1.42 ;&st7; " /><path d=" M 1748.18,  135.28  C 1749.55   136.68  1751.79   136.70  1753.19   135.33 " style="stroke-width: 0.85 ;&st7; " /><path d=" M 1753.19,  135.33  C 1754.58   133.97  1754.61   131.72  1753.24   130.33 " style="stroke-width: 0.85 ;&st7; " /><path d=" M 1753.24,  130.33  C 1752.54   129.62  1751.70   129.26  1750.71   129.26 " style="stroke-width: 0.85 ;&st7; " /><path d=" M 1748.18,  140.24  C 1749.55   141.64  1751.79   141.66  1753.19   140.29 " style="stroke-width: 0.85 ;&st7; " /><path d=" M 1753.19,  140.29  C 1754.58   138.92  1754.61   136.68  1753.24   135.28 " style="stroke-width: 0.85 ;&st7; " /><path d=" M 1753.24,  135.28  C 1751.87   133.89  1749.63   133.86  1748.23   135.23 " style="stroke-width: 0.85 ;&st7; " /><path d=" M 1748.23,  135.23  C 1748.21   135.25  1748.20   135.27  1748.18   135.28 " style="stroke-width: 0.85 ;&st7; " /><path d=" M 1789.23,  201.78  C 1789.23   199.28  1787.21   197.25  1784.70   197.25 " style="stroke-width: 1.42 ;&st7; " /><path d=" M 1784.70,  197.25  C 1782.20   197.25  1780.17   199.28  1780.17   201.78 " style="stroke-width: 1.42 ;&st7; " /><path d=" M 1780.17,  201.78  C 1780.17   204.29  1782.20   206.32  1784.70   206.32 " style="stroke-width: 1.42 ;&st7; " /><path d=" M 1784.70,  206.32  C 1787.21   206.32  1789.23   204.29  1789.23   201.78 " style="stroke-width: 1.42 ;&st7; " /><path d=" M 1755.24,  201.78  C 1755.24   199.28  1753.21   197.25  1750.71   197.25 " style="stroke-width: 1.42 ;&st7; " /><path d=" M 1750.71,  197.25  C 1748.20   197.25  1746.17   199.28  1746.17   201.78 " style="stroke-width: 1.42 ;&st7; " /><path d=" M 1746.17,  201.78  C 1746.17   204.29  1748.20   206.32  1750.71   206.32 " style="stroke-width: 1.42 ;&st7; " /><path d=" M 1750.71,  206.32  C 1753.21   206.32  1755.24   204.29  1755.24   201.78 " style="stroke-width: 1.42 ;&st7; " /><path d=" M 1874.22,  260.71  C 1874.22   258.21  1872.19   256.18  1869.69   256.18 " style="stroke-width: 1.42 ;&st7; " /><path d=" M 1869.69,  256.18  C 1867.18   256.18  1865.16   258.21  1865.16   260.71 " style="stroke-width: 1.42 ;&st7; " /><path d=" M 1865.16,  260.71  C 1865.16   263.21  1867.18   265.24  1869.69   265.24 " style="stroke-width: 1.42 ;&st7; " /><path d=" M 1869.69,  265.24  C 1872.19   265.24  1874.22   263.21  1874.22   260.71 " style="stroke-width: 1.42 ;&st7; " /><path d=" M 1925.21,  329.26  C 1925.21   326.76  1923.18   324.73  1920.68   324.73 " style="stroke-width: 1.42 ;&st7; " /><path d=" M 1920.68,  324.73  C 1918.18   324.73  1916.15   326.76  1916.15   329.26 " style="stroke-width: 1.42 ;&st7; " /><path d=" M 1916.15,  329.26  C 1916.15   331.77  1918.18   333.80  1920.68   333.80 " style="stroke-width: 1.42 ;&st7; " /><path d=" M 1920.68,  333.80  C 1923.18   333.80  1925.21   331.77  1925.21   329.26 " style="stroke-width: 1.42 ;&st7; " /><path d=" M 1797.73,  329.26  C 1797.73   326.76  1795.70   324.73  1793.20   324.73 " style="stroke-width: 1.42 ;&st7; " /><path d=" M 1793.20,  324.73  C 1790.70   324.73  1788.67   326.76  1788.67   329.26 " style="stroke-width: 1.42 ;&st7; " /><path d=" M 1788.67,  329.26  C 1788.67   331.77  1790.70   333.80  1793.20   333.80 " style="stroke-width: 1.42 ;&st7; " /><path d=" M 1793.20,  333.80  C 1795.70   333.80  1797.73   331.77  1797.73   329.26 " style="stroke-width: 1.42 ;&st7; " /><path d=" M 1738.24,  329.26  C 1738.24   326.76  1736.21   324.73  1733.71   324.73 " style="stroke-width: 1.42 ;&st7; " /><path d=" M 1733.71,  324.73  C 1731.21   324.73  1729.18   326.76  1729.18   329.26 " style="stroke-width: 1.42 ;&st7; " /><path d=" M 1729.18,  329.26  C 1729.18   331.77  1731.21   333.80  1733.71   333.80 " style="stroke-width: 1.42 ;&st7; " /><path d=" M 1733.71,  333.80  C 1736.21   333.80  1738.24   331.77  1738.24   329.26 " style="stroke-width: 1.42 ;&st7; " /><path d=" M 1678.75,  329.26  C 1678.75   326.76  1676.72   324.73  1674.22   324.73 " style="stroke-width: 1.42 ;&st7; " /><path d=" M 1674.22,  324.73  C 1671.72   324.73  1669.69   326.76  1669.69   329.26 " style="stroke-width: 1.42 ;&st7; " /><path d=" M 1669.69,  329.26  C 1669.69   331.77  1671.72   333.80  1674.22   333.80 " style="stroke-width: 1.42 ;&st7; " /><path d=" M 1674.22,  333.80  C 1676.72   333.80  1678.75   331.77  1678.75   329.26 " style="stroke-width: 1.42 ;&st7; " /><path d=" M 1644.76,  329.26  C 1644.76   326.76  1642.73   324.73  1640.23   324.73 " style="stroke-width: 1.42 ;&st7; " /><path d=" M 1640.23,  324.73  C 1637.72   324.73  1635.69   326.76  1635.69   329.26 " style="stroke-width: 1.42 ;&st7; " /><path d=" M 1635.69,  329.26  C 1635.69   331.77  1637.72   333.80  1640.23   333.80 " style="stroke-width: 1.42 ;&st7; " /><path d=" M 1640.23,  333.80  C 1642.73   333.80  1644.76   331.77  1644.76   329.26 " style="stroke-width: 1.42 ;&st7; " /><path d=" M 1661.76,  516.23  C 1661.76   513.73  1659.73   511.70  1657.22   511.70 " style="stroke-width: 1.42 ;&st7; " /><path d=" M 1657.22,  511.70  C 1654.72   511.70  1652.69   513.73  1652.69   516.23 " style="stroke-width: 1.42 ;&st7; " /><path d=" M 1652.69,  516.23  C 1652.69   518.74  1654.72   520.76  1657.22   520.76 " style="stroke-width: 1.42 ;&st7; " /><path d=" M 1657.22,  520.76  C 1659.73   520.76  1661.76   518.74  1661.76   516.23 " style="stroke-width: 1.42 ;&st7; " /><path d=" M 1644.76,  456.18  C 1644.76   453.67  1642.73   451.64  1640.23   451.64 " style="stroke-width: 1.42 ;&st7; " /><path d=" M 1640.23,  451.64  C 1637.72   451.64  1635.69   453.67  1635.69   456.18 " style="stroke-width: 1.42 ;&st7; " /><path d=" M 1635.69,  456.18  C 1635.69   458.68  1637.72   460.71  1640.23   460.71 " style="stroke-width: 1.42 ;&st7; " /><path d=" M 1640.23,  460.71  C 1642.73   460.71  1644.76   458.68  1644.76   456.18 " style="stroke-width: 1.42 ;&st7; " /><path d=" M 1678.75,  456.18  C 1678.75   453.67  1676.72   451.64  1674.22   451.64 " style="stroke-width: 1.42 ;&st7; " /><path d=" M 1674.22,  451.64  C 1671.72   451.64  1669.69   453.67  1669.69   456.18 " style="stroke-width: 1.42 ;&st7; " /><path d=" M 1669.69,  456.18  C 1669.69   458.68  1671.72   460.71  1674.22   460.71 " style="stroke-width: 1.42 ;&st7; " /><path d=" M 1674.22,  460.71  C 1676.72   460.71  1678.75   458.68  1678.75   456.18 " style="stroke-width: 1.42 ;&st7; " /><text style="&st18;" transform="matrix(&st16;  1654.89  508.0 )">E</text><text style="&st18;" transform="matrix(&st16;  1667.3  468.34 )">2ND</text><text style="&st18;" transform="matrix(&st17;  1967.97  505.53 )">V</text><text style="&st18;" transform="matrix(&st16;  1787.19  465.52 )">1</text><text style="&st18;" transform="matrix(&st16;  1726.92  465.52 )">2</text><text style="&st18;" transform="matrix(&st16;  1854.4  536.89 )">7</text><text style="&st18;" transform="matrix(&st16;  1828.9  536.89 )">3</text><text style="&st18;" transform="matrix(&st16;  1786.41  536.89 )">5</text><text style="&st18;" transform="matrix(&st17;  1789.51  557.64 )">W-B</text><text style="&st18;" transform="matrix(&st17;  1885.8  522.72 )">E52</text><text ewd:textID="50" style="&st18;" transform="matrix(&st17;  1892.9  522.72 )">Transmission <tspan dy="6" x="0">Control Switch</tspan></text><text style="&st18;" transform="matrix(&st16;  1612.4  203.75 )">A</text><text style="&st18;" transform="matrix(&st16;  1600.67  203.75 )">12</text><text style="&st18;" transform="matrix(&st16;  1646.39  203.75 )">A</text><text style="&st18;" transform="matrix(&st16;  1637.85  203.75 )">4</text><text style="&st18;" transform="matrix(&st16;  1680.39  203.75 )">A</text><text style="&st18;" transform="matrix(&st16;  1669.44  203.75 )">11</text><text style="&st18;" transform="matrix(&st16;  1714.38  203.75 )">A</text><text style="&st18;" transform="matrix(&st16;  1705.84  203.75 )">3</text><text style="&st18;" transform="matrix(&st16;  1748.38  203.75 )">B</text><text style="&st18;" transform="matrix(&st16;  1739.83  203.75 )">2</text><text style="&st18;" transform="matrix(&st17;  1809.31  590.71 )">E60</text><text ewd:textID="21" style="&st18;" transform="matrix(&st17;  1816.42  590.71 )">Junction <tspan dy="6" x="0">Connector</tspan></text><text style="&st18;" transform="matrix(&st16;  1838.53  525.01 )">IG</text><text style="&st18;" transform="matrix(&st16;  1796.03  525.01 )">E</text><text style="&st18;" transform="matrix(&st16;  1864.02  525.01 )">S</text><text style="&st18;" transform="matrix(&st16;  1796.03  477.4 )">SFTD</text><text style="&st18;" transform="matrix(&st16;  1736.54  477.4 )">SFTU</text><text style="&st18;" transform="matrix(&st17;  1832.0  590.94 )">G</text><text style="&st18;" transform="matrix(&st16;  1637.89  468.34 )">P</text><text style="&st18;" transform="matrix(&st17;  1653.53  591.64 )">W-B</text><text style="&st18;" transform="matrix(&st16;  1782.46  567.5 )">79</text><text style="&st18;" transform="matrix(&st16;  1783.23  596.38 )">19</text><text style="&st18;" transform="matrix(&st17;  1789.5  390.45 )">L</text><text style="&st18;" transform="matrix(&st17;  1730.01  390.8 )">V</text><text style="&st18;" transform="matrix(&st17;  1916.98  396.07 )">W</text><text style="&st18;" transform="matrix(&st16;  1724.67  321.03 )">SFTU</text><text style="&st18;" transform="matrix(&st16;  1881.33  299.79 )">ECM</text><text style="&st18;" transform="matrix(&st16;  1881.33  292.68 )">A38(A),C45(B)</text><text style="&st18;" transform="matrix(&st16;  1918.35  331.23 )">A</text><text style="&st18;" transform="matrix(&st16;  1905.87  331.23 )">25</text><text style="&st18;" transform="matrix(&st16;  1918.35  321.03 )">S</text><text style="&st18;" transform="matrix(&st16;  1784.16  321.03 )">SFTD</text><text style="&st18;" transform="matrix(&st17;  1789.5  347.96 )">L</text><text style="&st18;" transform="matrix(&st16;  1790.87  331.23 )">A</text><text style="&st18;" transform="matrix(&st16;  1778.4  331.23 )">27</text><text style="&st18;" transform="matrix(&st17;  1730.01  348.31 )">V</text><text style="&st18;" transform="matrix(&st16;  1731.38  331.23 )">A</text><text style="&st18;" transform="matrix(&st16;  1718.91  331.23 )">38</text><text style="&st18;" transform="matrix(&st17;  1916.98  349.33 )">W</text><text style="&st18;" transform="matrix(&st16;  1867.36  262.68 )">A</text><text style="&st18;" transform="matrix(&st16;  1854.88  262.68 )">35</text><text style="&st18;" transform="matrix(&st16;  1861.63  272.88 )">ST1-</text><text style="&st18;" transform="matrix(&st17;  1865.99  233.58 )">P</text><text style="&st18;" transform="matrix(&st17;  1781.01  178.34 )">V</text><text style="&st18;" transform="matrix(&st17;  1747.01  178.34 )">Y</text><text style="&st18;" transform="matrix(&st17;  1713.02  177.98 )">L</text><text style="&st18;" transform="matrix(&st17;  1679.02  178.48 )">R</text><text style="&st18;" transform="matrix(&st17;  1645.03  180.81 )">BR</text><text style="&st18;" transform="matrix(&st17;  1611.03  180.74 )">LG</text><text style="&st18;" transform="matrix(&st16;  1776.4  272.88 )">SL2-</text><text style="&st18;" transform="matrix(&st16;  1742.41  272.88 )">SL2+</text><text style="&st18;" transform="matrix(&st16;  1708.8  272.88 )">SL1-</text><text style="&st18;" transform="matrix(&st16;  1674.81  272.88 )">SL1+</text><text style="&st18;" transform="matrix(&st16;  1639.93  272.88 )">SLU-</text><text style="&st18;" transform="matrix(&st16;  1605.93  272.88 )">SLU+</text><text style="&st18;" transform="matrix(&st17;  1781.01  238.59 )">L-W</text><text style="&st18;" transform="matrix(&st17;  1747.01  238.49 )">G-R</text><text style="&st18;" transform="matrix(&st17;  1713.02  233.22 )">L</text><text style="&st18;" transform="matrix(&st17;  1679.02  233.58 )">Y</text><text style="&st18;" transform="matrix(&st17;  1645.03  237.71 )">L-R</text><text style="&st18;" transform="matrix(&st17;  1611.03  237.57 )">L-Y</text><text style="&st18;" transform="matrix(&st16;  1770.67  262.68 )">13</text><text style="&st18;" transform="matrix(&st16;  1782.37  262.68 )">B</text><text style="&st18;" transform="matrix(&st16;  1736.68  262.68 )">12</text><text style="&st18;" transform="matrix(&st16;  1748.38  262.68 )">B</text><text style="&st18;" transform="matrix(&st16;  1702.69  262.68 )">15</text><text style="&st18;" transform="matrix(&st16;  1714.38  262.68 )">B</text><text style="&st18;" transform="matrix(&st16;  1668.69  262.68 )">14</text><text style="&st18;" transform="matrix(&st16;  1680.39  262.68 )">B</text><text style="&st18;" transform="matrix(&st16;  1635.47  262.68 )">11</text><text style="&st18;" transform="matrix(&st16;  1646.39  262.68 )">B</text><text style="&st18;" transform="matrix(&st16;  1600.7  262.68 )">10</text><text style="&st18;" transform="matrix(&st16;  1612.4  262.68 )">B</text><text style="&st18;" transform="matrix(&st16;  1773.83  203.75 )">4</text><text style="&st18;" transform="matrix(&st16;  1782.37  203.75 )">B</text><text style="&st18;" transform="matrix(&st17;  1925.48  178.34 )">B</text><text style="&st18;" transform="matrix(&st17;  1967.97  178.34 )">P</text><text style="&st18;" transform="matrix(&st16;  1919.92  272.88 )">CANL</text><text style="&st18;" transform="matrix(&st16;  1961.92  272.88 )">CANH</text><text style="&st18;" transform="matrix(&st17;  1967.97  233.58 )">P</text><text style="&st18;" transform="matrix(&st17;  1925.48  233.58 )">B</text><text style="&st18;" transform="matrix(&st16;  1915.9  262.68 )">11</text><text style="&st18;" transform="matrix(&st16;  1926.85  262.68 )">A</text><text style="&st18;" transform="matrix(&st16;  1957.61  262.68 )">10</text><text style="&st18;" transform="matrix(&st16;  1969.34  262.68 )">A</text><text style="&st18;" transform="matrix(&st16;  1983.31  454.15 )">E58</text><text ewd:textID="21" style="&st18;" transform="matrix(&st16;  1983.31  461.26 )">Junction <tspan dy="6" x="0">Connector</tspan></text><text style="&st18;" transform="matrix(&st16;  1961.7  477.4 )">61</text><text style="&st18;" transform="matrix(&st16;  1961.7  448.52 )">51</text><text style="&st18;" transform="matrix(&st17;  1967.97  395.05 )">V</text><text style="&st18;" transform="matrix(&st16;  1841.86  262.68 )">A</text><text style="&st18;" transform="matrix(&st16;  1829.39  262.68 )">36</text><text style="&st18;" transform="matrix(&st16;  1837.41  272.88 )">STP</text><text style="&st18;" transform="matrix(&st17;  1840.5  233.72 )">R</text><text style="&st18;" transform="matrix(&st16;  1663.34  458.14 )">4</text><text style="&st18;" transform="matrix(&st16;  1671.89  458.14 )">B</text><text style="&st18;" transform="matrix(&st17;  1967.97  348.31 )">V</text><text style="&st18;" transform="matrix(&st16;  1969.34  331.23 )">A</text><text style="&st18;" transform="matrix(&st16;  1964.54  321.03 )">SPD</text><text style="&st18;" transform="matrix(&st16;  1957.64  331.23 )">13</text><text style="&st18;" transform="matrix(&st16;  1511.57  321.03 )">LGND</text><text style="&st18;" transform="matrix(&st16;  1518.91  331.23 )">A</text><text style="&st18;" transform="matrix(&st16;  1506.44  331.23 )">44</text><text style="&st18;" transform="matrix(&st17;  1517.55  407.94 )">R</text><text style="&st18;" transform="matrix(&st16;  1511.57  476.84 )">LGND</text><text style="&st18;" transform="matrix(&st16;  1515.23  465.52 )">1</text><text style="&st18;" transform="matrix(&st16;  1617.56  193.56 )">SLU+</text><text style="&st18;" transform="matrix(&st16;  1651.56  193.56 )">SLU-</text><text style="&st18;" transform="matrix(&st16;  1685.55  193.56 )">SL1+</text><text style="&st18;" transform="matrix(&st16;  1719.55  193.56 )">SL1-</text><text style="&st18;" transform="matrix(&st16;  1753.54  193.56 )">SL2+</text><text style="&st18;" transform="matrix(&st16;  1787.53  193.56 )">SL2-</text><text ewd:textID="18" style="&st18;" transform="matrix(&st16;  1612.21  74.58 )">Electronically Controlled Transmission Solenoid</text><text style="&st18;" transform="matrix(&st16;  1612.21  67.47 )">C34(A),C96(B)</text><text style="&st18;" transform="matrix(&st16;  1527.77  626.98 )">L</text><text style="&st18;" transform="matrix(&st16;  1527.77  643.98 )">L</text><text style="&st18;" transform="matrix(&st16;  1525.08  660.98 )">SB</text><text style="&st18;" transform="matrix(&st16;  1576.07  660.98 )">SB</text><text style="&st18;" transform="matrix(&st16;  1578.76  643.98 )">L</text><text style="&st18;" transform="matrix(&st16;  1578.76  626.98 )">L</text><text style="&st18;" transform="matrix(&st17;  1636.53  432.94 )">L</text><text style="&st18;" transform="matrix(&st17;  1670.52  390.8 )">P</text><text style="&st18;" transform="matrix(&st16;  1665.07  321.03 )">SNWI</text><text style="&st18;" transform="matrix(&st17;  1670.52  348.31 )">P</text><text style="&st18;" transform="matrix(&st16;  1671.89  331.23 )">A</text><text style="&st18;" transform="matrix(&st16;  1663.37  331.23 )">4</text><text style="&st18;" transform="matrix(&st17;  1670.52  433.29 )">P</text><text style="&st18;" transform="matrix(&st16;  1626.2  331.23 )">51</text><text style="&st18;" transform="matrix(&st16;  1637.89  331.23 )">A</text><text style="&st18;" transform="matrix(&st17;  1636.53  352.3 )">L-B</text><text style="&st18;" transform="matrix(&st16;  1632.07  321.03 )">PWR</text><text style="&st18;" transform="matrix(&st17;  1636.53  390.45 )">L</text><text style="&st18;" transform="matrix(&st17;  1653.53  544.9 )">W-B</text><text style="&st18;" transform="matrix(&st16;  1709.01  609.99 )">W-B</text><text style="&st18;" transform="matrix(&st16;  1650.43  601.49 )">9</text><text style="&st18;" transform="matrix(&st16;  1668.55  609.99 )">12</text><text style="&st18;" transform="matrix(&st16;  1642.71  609.99 )">1</text><text ewd:textID="21" style="&st18;" transform="matrix(&st16;  1663.2  595.54 )">Junction <tspan dy="6" x="0">Connector</tspan></text><text style="&st18;" transform="matrix(&st16;  1663.2  588.43 )">E66</text><text style="&st18;" transform="matrix(&st16;  1643.19  560.41 )">1</text><text style="&st18;" transform="matrix(&st17;  1809.31  429.24 )">E59</text><text ewd:textID="21" style="&st18;" transform="matrix(&st17;  1816.42  429.24 )">Junction <tspan dy="6" x="0">Connector</tspan></text><text style="&st18;" transform="matrix(&st16;  1782.46  406.03 )">27</text><text style="&st18;" transform="matrix(&st16;  1783.23  434.91 )">17</text><text style="&st18;" transform="matrix(&st16;  1625.41  415.94 )">8</text><text style="&st18;" transform="matrix(&st16;  1659.41  415.94 )">9</text><text style="&st18;" transform="matrix(&st16;  1774.43  373.44 )">34</text><text style="&st18;" transform="matrix(&st16;  1901.91  373.44 )">36</text><text style="&st18;" transform="matrix(&st16;  1952.9  373.44 )">73</text><text style="&st18;" transform="matrix(&st16;  1624.03  609.99 )">W-B</text><text style="&st18;" transform="matrix(&st16;  1621.46  373.44 )">37</text><text style="&st18;" transform="matrix(&st16;  1655.45  373.44 )">38</text><text style="&st18;" transform="matrix(&st16;  1714.94  373.44 )">35</text><text style="&st18;" transform="matrix(&st16;  1643.17  518.2 )">16</text><text style="&st18;" transform="matrix(&st16;  1654.89  518.2 )">B</text><text ewd:textID="48" style="&st18;" transform="matrix(&st17;  1611.03  514.22 )">Suspension Control Switch</text><text style="&st18;" transform="matrix(&st17;  1603.93  514.22 )">V4(B)</text><text style="&st18;" transform="matrix(&st16;  1722.97  434.91 )">94</text><text style="&st18;" transform="matrix(&st16;  1722.97  406.03 )">84</text><text ewd:textID="21" style="&st18;" transform="matrix(&st17;  1756.93  429.24 )">Junction <tspan dy="6" x="0">Connector</tspan></text><text style="&st18;" transform="matrix(&st17;  1749.82  429.24 )">E58</text><text style="&st18;" transform="matrix(&st17;  1730.01  450.29 )">V</text><text style="&st18;" transform="matrix(&st17;  1789.5  449.94 )">L</text><text style="&st18;" transform="matrix(&st16;  1629.35  458.14 )">3</text><text style="&st18;" transform="matrix(&st16;  1637.89  458.14 )">B</text><text ewd:textID="16" style="&st18;" transform="matrix(&st16;  1638.75  488.17 )">ECT Switch</text><text style="&st18;" transform="matrix(&st16;  1953.68  203.47 )">10</text><text style="&st18;" transform="matrix(&st16;  1911.96  203.47 )">11</text></svg>