﻿<?xml version="1.0" encoding="utf-8"?>
<!DOCTYPE svg PUBLIC "-//W3C//DTD SVG 1.0//EN" "http://www.w3.org/TR/2001/REC-SVG-20010904/DTD/svg10.dtd"[
	<!ENTITY ns_flows "http://ns.adobe.com/Flows/1.0/">
	<!ENTITY ns_svg "http://www.w3.org/2000/svg">
	<!ENTITY ns_xlink "http://www.w3.org/1999/xlink">
	<!ENTITY st0 "font-size:7px;font-family:'MS-PGothic';adobe-font-script:japanese;">
	<!ENTITY st1 "font-size:6px;font-family:'ArialMT';">
	<!-- White fill  -->
	<!ENTITY st2 "fill:#FFFFFF;stroke:#000000; stroke-width:1.41;stroke-linecap:round;stroke-linejoin:round;">
	<!-- Yellow fill  -->
	<!ENTITY st3 "fill:#FFFFCC;stroke:#FFFFCC; stroke-width:0.1;stroke-linecap:round;stroke-linejoin:round;">
	<!-- Gray fill  -->
	<!ENTITY st4 "fill:#CCCCCC;stroke:#CCCCCC; stroke-width:0.1;stroke-linecap:round;stroke-linejoin:round;">
	<!-- Light-blue fill -->
	<!ENTITY st5 "fill:#CCECF4;stroke:#000000; stroke-width:1.133;stroke-linecap:round;stroke-linejoin:round;">
	<!ENTITY st6 "fill:none;stroke-linecap:butt; stroke-linejoin:round;">
	<!ENTITY st7 "fill:none;stroke:#000000;stroke-linecap:round;stroke-linejoin:round;">
	<!ENTITY st8 "enable-background:new    ;">
	<!-- Black fill -->
	<!ENTITY st9 "fill:#000000;stroke:#000000; stroke-linecap:round;stroke-linejoin:round;">
	<!-- SRS note   -->
	<!ENTITY st10 "font-size:9px;font-family:'ArialMT';">
	<!ENTITY st11 "font-size:9px;font-family:'Svg Symbol';">
	<!ENTITY st12 "font-size:6px;font-family:'Svg Symbol';">
	<!ENTITY st13 "fill:none;stroke:#ff0000;stroke-linecap:round;stroke-linejoin:round;">
	<!-- Yellow fill  -->
	<!ENTITY st14 "fill:#FFFF00;stroke:#FFFF00; stroke-width:0.1;stroke-linecap:round;stroke-linejoin:round;">
	<!ENTITY st15 "font-size:6px;font-family:'MS-PGothic';adobe-font-script:japanese;">
	<!ENTITY st16 "1.00 0.00 0.00 1.00">
	<!ENTITY st17 "0.00 -1.00 1.00 0.00">
	<!ENTITY st18 "font-size:6px;font-family:'Arial';">
	<!ENTITY st19 "font-size:9px;font-family:'Arial';">
	<!ENTITY st20 "font-size:6px;font-family:'MS-PGothic','MS PGothic';adobe-font-script:japanese;">
	<!ENTITY st21 "font-size:7px;font-family:'MS-PGothic','MS PGothic';adobe-font-script:japanese;">
	<!ATTLIST svg
		xmlns:ewd CDATA #FIXED "http://shcl.co.jp/ewd"
		xmlns:a CDATA #FIXED "http://ns.adobe.com/AdobeSVGViewerExtensions/3.0/"
		ewd:ver CDATA #IMPLIED
	>
	<!ATTLIST a
		ewd:lineID CDATA #IMPLIED
		ewd:groupID CDATA #IMPLIED
		ewd:figtype CDATA #IMPLIED
		ewd:code CDATA #IMPLIED
		ewd:figID CDATA #IMPLIED
		ewd:pinNo CDATA #IMPLIED
		ewd:comment CDATA #IMPLIED >
	<!ATTLIST g
		ewd:lineID CDATA #IMPLIED
		ewd:groupID CDATA #IMPLIED
		ewd:figtype CDATA #IMPLIED
		ewd:code CDATA #IMPLIED
		ewd:figID CDATA #IMPLIED
		ewd:pinNo CDATA #IMPLIED
		ewd:comment CDATA #IMPLIED >
	<!ATTLIST text
		ewd:textID CDATA #IMPLIED >
	<!ATTLIST title
		ewd:textID CDATA #IMPLIED >
]>
<!-- Generator: Shintec Hozumi YS   -->
<svg onload="call_execInitLoadProc_svg('system')" style="overflow:visible;  enable-background:new 0 0 6577.901 710.000" viewBox="0 0 6577.901 710.000" height="710.000" width="6577.901" xml:space="preserve" ewd:ver="L2.1.2.8" xmlns="&ns_svg;" xmlns:a="http://ns.adobe.com/AdobeSVGViewerExtensions/3.0/" xmlns:ewd="http://shcl.co.jp/ewd" xmlns:xlink="&ns_xlink;">
<path d=" M 5511.33,  265.24  L 5502.83,  265.24 " style="stroke-width: 0.85 ;&st7; " /><path d=" M 5519.81,  255.58  L 5512.45,  259.83 " style="stroke-width: 0.85 ;&st7; " /><path d=" M 5514.46,  263.29  L 5521.82,  259.05 " style="stroke-width: 0.85 ;&st7; " /><path d=" M 5596.30,  255.58  L 5588.94,  259.83 " style="stroke-width: 0.85 ;&st7; " /><path d=" M 5590.94,  263.29  L 5598.30,  259.05 " style="stroke-width: 0.85 ;&st7; " /><path d=" M 5524.08,  193.00  L 5524.08,  184.50 " style="stroke-width: 0.85 ;&st7; " /><path d=" M 5553.82,  205.75  L 5545.32,  205.75 " style="stroke-width: 0.85 ;&st7; " /><path d=" M 5813.03,   78.27  L 5813.03,  112.27 " style="stroke-width: 0.85 ;&st7; " /><path d=" M 5815.15,  120.77  L 5810.90,  120.77 " style="stroke-width: 1.42 ;&st7; " /><path d=" M 5815.15,  112.27  L 5810.90,  112.27 " style="stroke-width: 1.42 ;&st7; " /><path d=" M 5813.03,   69.77  L 5813.03,   78.27 " style="stroke-width: 0.85 ;&st7; " /><path d=" M 6002.12,  120.77  L 5997.87,  120.77 " style="stroke-width: 1.42 ;&st7; " /><path d=" M 6002.12,  112.27  L 5997.87,  112.27 " style="stroke-width: 1.42 ;&st7; " /><path d=" M 5991.50,  188.75  L 6000.00,  188.75 " style="stroke-width: 1.42 ;&st7; " /><path d=" M 5558.07,  477.71  L 5549.57,  477.71 " style="stroke-width: 1.42 ;&st7; " /><path d=" M 5621.81,  265.24  L 5613.31,  265.24 " style="stroke-width: 0.85 ;&st7; " /><path d=" M 5630.30,  255.58  L 5622.93,  259.83 " style="stroke-width: 0.85 ;&st7; " /><path d=" M 5624.94,  263.29  L 5632.30,  259.05 " style="stroke-width: 0.85 ;&st7; " /><path d=" M 5551.70,  103.77  L 5547.45,  103.77 " style="stroke-width: 1.42 ;&st7; " /><path d=" M 5551.70,   95.27  L 5547.45,   95.27 " style="stroke-width: 1.42 ;&st7; " /><path d=" M 5549.57,   69.77  L 5549.57,   95.27 " style="stroke-width: 0.85 ;&st7; " /><path d=" M 5655.80,  265.24  L 5647.31,  265.24 " style="stroke-width: 0.85 ;&st7; " /><path d=" M 5664.29,  255.58  L 5656.93,  259.83 " style="stroke-width: 0.85 ;&st7; " /><path d=" M 5658.93,  263.29  L 5666.29,  259.05 " style="stroke-width: 0.85 ;&st7; " /><path d=" M 5587.82,  265.24  L 5579.32,  265.24 " style="stroke-width: 0.85 ;&st7; " /><path d=" M 5549.57,  697.25  L 5549.57,  701.50 " style="stroke-width: 0.85 ;&st7; " /><path d=" M 5541.07,  701.50  L 5558.07,  701.50 " style="stroke-width: 0.85 ;&st7; " /><path d=" M 5536.82,   35.78  L 5536.82,   78.27  L 5562.32,   78.27  L 5562.32,   35.78  L 5536.82,   35.78 " style="stroke-width: 1.42 ;&st7; " /><path d=" M 5549.57,   90.37  L 5546.74,   87.54  L 5546.74,   91.79  L 5549.57,   94.62  L 5552.40,   91.79  L 5552.40,   87.54  L 5549.57,   90.37 " style="stroke-width: 0.28 ;&st9;" /><path d=" M 5651.55,  265.24  L 5645.89,  256.74  L 5657.22,  256.74  L 5651.55,  265.24 " style="stroke-width: 0.28 ;&st9;" /><path d=" M 5664.29,  255.58  L 5661.95,  258.62  L 5660.49,  256.08  L 5664.29,  255.58  L 5663.00,  256.32  L 5662.02,  257.60  L 5661.40,  256.53  L 5663.00,  256.32  L 5662.36,  256.69  L 5662.05,  257.09  L 5661.86,  256.75  L 5662.36,  256.69 " style="stroke-width: 0.85 ;&st7; " /><path d=" M 5666.29,  259.05  L 5663.96,  262.09  L 5662.49,  259.55  L 5666.29,  259.05  L 5665.01,  259.79  L 5664.02,  261.07  L 5663.40,  260.00  L 5665.01,  259.79  L 5664.37,  260.16  L 5664.05,  260.56  L 5663.86,  260.22  L 5664.37,  260.16 " style="stroke-width: 0.85 ;&st7; " /><path d=" M 5507.08,  265.24  L 5501.41,  256.74  L 5512.74,  256.74  L 5507.08,  265.24 " style="stroke-width: 0.28 ;&st9;" /><path d=" M 5519.81,  255.58  L 5517.48,  258.62  L 5516.01,  256.08  L 5519.81,  255.58  L 5518.53,  256.32  L 5517.54,  257.60  L 5516.92,  256.53  L 5518.53,  256.32  L 5517.89,  256.69  L 5517.58,  257.09  L 5517.38,  256.75  L 5517.89,  256.69 " style="stroke-width: 0.85 ;&st7; " /><path d=" M 5521.81,  259.05  L 5519.48,  262.09  L 5518.01,  259.55  L 5521.81,  259.05  L 5520.53,  259.79  L 5519.55,  261.07  L 5518.93,  260.00  L 5520.53,  259.79  L 5519.89,  260.16  L 5519.58,  260.56  L 5519.38,  260.22  L 5519.89,  260.16 " style="stroke-width: 0.85 ;&st7; " /><path d=" M 5583.56,  231.25  L 5583.56,  273.74  L 5586.40,  275.16  L 5580.73,  277.99  L 5586.40,  280.82  L 5580.73,  283.65  L 5586.40,  286.49  L 5580.73,  289.32  L 5583.56,  290.74  L 5583.56,  324.73 " style="stroke-width: 0.85 ;&st7; " /><path d=" M 5583.56,  265.24  L 5577.90,  256.74  L 5589.23,  256.74  L 5583.56,  265.24 " style="stroke-width: 0.28 ;&st9;" /><path d=" M 5596.30,  255.58  L 5593.96,  258.62  L 5592.50,  256.08  L 5596.30,  255.58  L 5595.02,  256.32  L 5594.03,  257.60  L 5593.41,  256.53  L 5595.02,  256.32  L 5594.37,  256.69  L 5594.06,  257.09  L 5593.87,  256.75  L 5594.37,  256.69 " style="stroke-width: 0.85 ;&st7; " /><path d=" M 5598.30,  259.05  L 5595.97,  262.09  L 5594.50,  259.55  L 5598.30,  259.05  L 5597.02,  259.79  L 5596.03,  261.07  L 5595.41,  260.00  L 5597.02,  259.79  L 5596.38,  260.16  L 5596.07,  260.56  L 5595.87,  260.22  L 5596.38,  260.16 " style="stroke-width: 0.85 ;&st7; " /><path d=" M 5582.37,  230.24  L 5582.10,  230.71  L 5582.01,  231.25  L 5582.10,  231.78  L 5582.37,  232.25  L 5582.79,  232.60  L 5583.30,  232.78  L 5583.83,  232.78  L 5584.34,  232.60  L 5584.76,  232.25  L 5585.03,  231.78  L 5585.12,  231.25  L 5585.03,  230.71  L 5584.76,  230.24  L 5584.34,  229.90  L 5583.83,  229.71  L 5583.30,  229.71  L 5582.79,  229.90  L 5582.37,  230.24  L 5582.77,  230.96  L 5582.77,  231.54  L 5583.14,  231.98  L 5583.71,  232.08  L 5584.22,  231.79  L 5584.41,  231.25  L 5584.22,  230.70  L 5583.71,  230.41  L 5583.14,  230.51  L 5583.56,  231.25 " style="stroke-width: 0.85 ;&st7; " /><path d=" M 5575.07,  324.73  L 5575.07,  367.22  L 5592.06,  367.22  L 5592.06,  324.73  L 5575.07,  324.73 " style="stroke-width: 1.42 ;&st7; " /><path d=" M 5548.38,  230.24  L 5548.11,  230.71  L 5548.01,  231.25  L 5548.11,  231.78  L 5548.38,  232.25  L 5548.79,  232.60  L 5549.30,  232.78  L 5549.84,  232.78  L 5550.35,  232.60  L 5550.76,  232.25  L 5551.03,  231.78  L 5551.13,  231.25  L 5551.03,  230.71  L 5550.76,  230.24  L 5550.35,  229.90  L 5549.84,  229.71  L 5549.30,  229.71  L 5548.79,  229.90  L 5548.38,  230.24  L 5548.77,  230.96  L 5548.77,  231.54  L 5549.15,  231.98  L 5549.72,  232.08  L 5550.22,  231.79  L 5550.42,  231.25  L 5550.22,  230.70  L 5549.72,  230.41  L 5549.15,  230.51  L 5549.57,  231.25 " style="stroke-width: 0.85 ;&st7; " /><path d=" M 5548.38,  187.75  L 5548.11,  188.22  L 5548.01,  188.75  L 5548.11,  189.29  L 5548.38,  189.76  L 5548.79,  190.10  L 5549.30,  190.29  L 5549.84,  190.29  L 5550.35,  190.10  L 5550.76,  189.76  L 5551.03,  189.29  L 5551.13,  188.75  L 5551.03,  188.22  L 5550.76,  187.75  L 5550.35,  187.41  L 5549.84,  187.22  L 5549.30,  187.22  L 5548.79,  187.41  L 5548.38,  187.75  L 5548.77,  188.46  L 5548.77,  189.05  L 5549.15,  189.49  L 5549.72,  189.59  L 5550.22,  189.30  L 5550.42,  188.75  L 5550.22,  188.21  L 5549.72,  187.92  L 5549.15,  188.02  L 5549.57,  188.75 " style="stroke-width: 0.85 ;&st7; " /><path d=" M 5505.88,  213.25  L 5505.61,  213.72  L 5505.52,  214.25  L 5505.61,  214.78  L 5505.88,  215.25  L 5506.30,  215.60  L 5506.81,  215.79  L 5507.35,  215.79  L 5507.86,  215.60  L 5508.27,  215.25  L 5508.54,  214.78  L 5508.64,  214.25  L 5508.54,  213.72  L 5508.27,  213.25  L 5507.86,  212.90  L 5507.35,  212.71  L 5506.81,  212.71  L 5506.30,  212.90  L 5505.88,  213.25  L 5506.28,  213.96  L 5506.28,  214.54  L 5506.65,  214.99  L 5507.22,  215.09  L 5507.73,  214.80  L 5507.93,  214.25  L 5507.73,  213.70  L 5507.22,  213.41  L 5506.65,  213.51  L 5507.08,  214.25 " style="stroke-width: 0.85 ;&st7; " /><path d=" M 5524.07,  188.75  L 5532.57,  183.09  L 5532.57,  194.42  L 5524.07,  188.75 " style="stroke-width: 0.28 ;&st9;" /><path d=" M 5549.57,  180.26  L 5549.57,  324.73 " style="stroke-width: 0.85 ;&st7; " /><path d=" M 5549.57,  205.75  L 5543.90,  197.25  L 5555.24,  197.25  L 5549.57,  205.75 " style="stroke-width: 0.28 ;&st9;" /><path d=" M 5507.08,  214.25  L 5507.08,  188.75  L 5549.57,  188.75 " style="stroke-width: 0.85 ;&st7; " /><path d=" M 5548.38,  391.72  L 5548.11,  392.19  L 5548.01,  392.72  L 5548.11,  393.25  L 5548.38,  393.72  L 5548.79,  394.07  L 5549.30,  394.26  L 5549.84,  394.26  L 5550.35,  394.07  L 5550.76,  393.72  L 5551.03,  393.25  L 5551.13,  392.72  L 5551.03,  392.19  L 5550.76,  391.72  L 5550.35,  391.37  L 5549.84,  391.18  L 5549.30,  391.18  L 5548.79,  391.37  L 5548.38,  391.72  L 5548.77,  392.43  L 5548.77,  393.01  L 5549.15,  393.46  L 5549.72,  393.56  L 5550.22,  393.27  L 5550.42,  392.72  L 5550.22,  392.17  L 5549.72,  391.88  L 5549.15,  391.98  L 5549.57,  392.72 " style="stroke-width: 0.85 ;&st7; " /><path d=" M 5565.15,  409.72  L 5567.98,  409.72 " style="stroke-width: 0.85 ;&st7; " /><path d=" M 5563.73,  406.88  L 5569.40,  406.88 " style="stroke-width: 0.85 ;&st7; " /><path d=" M 5562.32,  404.05  L 5570.82,  404.05 " style="stroke-width: 0.85 ;&st7; " /><path d=" M 5558.07,  401.22  L 5575.07,  401.22 " style="stroke-width: 0.85 ;&st7; " /><path d=" M 5549.57,  375.72  L 5549.57,  426.71 " style="stroke-width: 0.85 ;&st7; " /><path d=" M 5566.57,  401.22  L 5566.57,  392.72  L 5549.57,  392.72 " style="stroke-width: 0.85 ;&st7; " /><path d=" M 5549.57,  520.20  L 5549.57,  545.69 " style="stroke-width: 0.85 ;&st7; " /><path d=" M 5541.07,  537.20  L 5558.07,  537.20 " style="stroke-width: 1.13 ;&st7;stroke-dasharray:3, 1.5;" /><path d=" M 5541.07,  528.70  L 5558.07,  528.70 " style="stroke-width: 1.13 ;&st7;stroke-dasharray:3, 1.5;" /><path d=" M 5541.07,  520.20  L 5541.07,  545.69  L 5558.07,  545.69  L 5558.07,  520.20  L 5541.07,  520.20 " style="stroke-width: 1.42 ;&st7; " /><path d=" M 5545.32,  704.33  L 5553.82,  704.33 " style="stroke-width: 0.85 ;&st7; " /><path d=" M 5548.15,  710.00  L 5550.99,  710.00 " style="stroke-width: 0.85 ;&st7; " /><path d=" M 5546.74,  707.17  L 5552.40,  707.17 " style="stroke-width: 0.85 ;&st7; " /><path d=" M 5983.00,  282.24  L 5983.00,  248.24  L 6084.98,  248.24  L 6084.98,  282.24  L 5983.00,  282.24 " style="stroke-width: 1.42 ;&st7; " /><path d=" M 5796.03,  282.24  L 5796.03,  248.24  L 5932.01,  248.24  L 5932.01,  282.24  L 5796.03,  282.24 " style="stroke-width: 1.42 ;&st7; " /><path d=" M 5811.83,   94.27  L 5811.56,   94.74  L 5811.47,   95.27  L 5811.56,   95.80  L 5811.83,   96.27  L 5812.25,   96.62  L 5812.76,   96.81  L 5813.30,   96.81  L 5813.81,   96.62  L 5814.22,   96.27  L 5814.49,   95.80  L 5814.58,   95.27  L 5814.49,   94.74  L 5814.22,   94.27  L 5813.81,   93.92  L 5813.30,   93.73  L 5812.76,   93.73  L 5812.25,   93.92  L 5811.83,   94.27  L 5812.23,   94.98  L 5812.23,   95.56  L 5812.60,   96.01  L 5813.17,   96.11  L 5813.68,   95.82  L 5813.88,   95.27  L 5813.68,   94.72  L 5813.17,   94.43  L 5812.60,   94.53  L 5813.03,   95.27 " style="stroke-width: 0.85 ;&st7; " /><path d=" M 5800.28,   35.78  L 5800.28,   78.27  L 5825.77,   78.27  L 5825.77,   35.78  L 5800.28,   35.78 " style="stroke-width: 1.42 ;&st7; " /><path d=" M 5813.03,  107.37  L 5810.19,  104.54  L 5810.19,  108.79  L 5813.03,  111.62  L 5815.86,  108.79  L 5815.86,  104.54  L 5813.03,  107.37 " style="stroke-width: 0.28 ;&st9;" /><path d=" M 5813.03,   95.27  L 5999.99,   95.27  L 5999.99,  112.27 " style="stroke-width: 0.85 ;&st7; " /><path d=" M 5999.99,  107.37  L 5997.16,  104.54  L 5997.16,  108.79  L 5999.99,  111.62  L 6002.83,  108.79  L 6002.83,  104.54  L 5999.99,  107.37 " style="stroke-width: 0.28 ;&st9;" /><path d=" M 6004.24,  183.09  L 5999.99,  187.34  L 5995.75,  183.09 " style="stroke-width: 1.42 ;&st7; " /><path d=" M 5995.75,  179.69  L 5999.99,  183.94  L 6004.24,  179.69 " style="stroke-width: 1.42 ;&st7; " /><path d=" M 6004.24,  350.79  L 5999.99,  346.54  L 5995.75,  350.79 " style="stroke-width: 1.42 ;&st7; " /><path d=" M 6004.24,  347.39  L 5999.99,  343.14  L 5995.75,  347.39 " style="stroke-width: 1.42 ;&st7; " /><path d=" M 5813.03,  656.18  L 5813.03,  681.67 " style="stroke-width: 0.85 ;&st7; " /><path d=" M 5804.53,  656.18  L 5804.53,  673.17  L 5821.52,  673.17  L 5821.52,  656.18  L 5804.53,  656.18 " style="stroke-width: 1.42 ;&st7; " /><path d=" M 5804.53,  701.50  L 5821.52,  701.50 " style="stroke-width: 0.85 ;&st7; " /><path d=" M 5813.03,  697.25  L 5813.03,  701.50 " style="stroke-width: 0.85 ;&st7; " /><path d=" M 5808.78,  704.33  L 5817.28,  704.33 " style="stroke-width: 0.85 ;&st7; " /><path d=" M 5811.61,  710.00  L 5814.44,  710.00 " style="stroke-width: 0.85 ;&st7; " /><path d=" M 5810.19,  707.17  L 5815.86,  707.17 " style="stroke-width: 0.85 ;&st7; " /><path d=" M 5999.99,  697.25  L 5999.99,  701.50 " style="stroke-width: 0.85 ;&st7; " /><path d=" M 5991.50,  701.50  L 6008.49,  701.50 " style="stroke-width: 0.85 ;&st7; " /><path d=" M 5995.75,  704.33  L 6004.24,  704.33 " style="stroke-width: 0.85 ;&st7; " /><path d=" M 5997.16,  707.17  L 6002.83,  707.17 " style="stroke-width: 0.85 ;&st7; " /><path d=" M 5998.58,  710.00  L 6001.41,  710.00 " style="stroke-width: 0.85 ;&st7; " /><path d=" M 5553.82,  486.77  L 5549.57,  482.52  L 5545.32,  486.77 " style="stroke-width: 1.42 ;&st7; " /><path d=" M 5553.82,  483.37  L 5549.57,  479.12  L 5545.32,  483.37 " style="stroke-width: 1.42 ;&st7; " /><path d=" M 5617.56,  231.25  L 5617.56,  273.74  L 5620.39,  275.16  L 5614.73,  277.99  L 5620.39,  280.82  L 5614.73,  283.65  L 5620.39,  286.49  L 5614.73,  289.32  L 5617.56,  290.74  L 5617.56,  324.73 " style="stroke-width: 0.85 ;&st7; " /><path d=" M 5617.56,  265.24  L 5611.89,  256.74  L 5623.22,  256.74  L 5617.56,  265.24 " style="stroke-width: 0.28 ;&st9;" /><path d=" M 5630.29,  255.58  L 5627.96,  258.62  L 5626.49,  256.08  L 5630.29,  255.58  L 5629.01,  256.32  L 5628.02,  257.60  L 5627.41,  256.53  L 5629.01,  256.32  L 5628.37,  256.69  L 5628.06,  257.09  L 5627.86,  256.75  L 5628.37,  256.69 " style="stroke-width: 0.85 ;&st7; " /><path d=" M 5632.30,  259.05  L 5629.96,  262.09  L 5628.49,  259.55  L 5632.30,  259.05  L 5631.01,  259.79  L 5630.03,  261.07  L 5629.41,  260.00  L 5631.01,  259.79  L 5630.37,  260.16  L 5630.06,  260.56  L 5629.86,  260.22  L 5630.37,  260.16 " style="stroke-width: 0.85 ;&st7; " /><path d=" M 5616.37,  230.24  L 5616.09,  230.71  L 5616.00,  231.25  L 5616.09,  231.78  L 5616.37,  232.25  L 5616.78,  232.60  L 5617.29,  232.78  L 5617.83,  232.78  L 5618.34,  232.60  L 5618.75,  232.25  L 5619.02,  231.78  L 5619.12,  231.25  L 5619.02,  230.71  L 5618.75,  230.24  L 5618.34,  229.90  L 5617.83,  229.71  L 5617.29,  229.71  L 5616.78,  229.90  L 5616.37,  230.24  L 5616.76,  230.96  L 5616.76,  231.54  L 5617.13,  231.98  L 5617.71,  232.08  L 5618.21,  231.79  L 5618.41,  231.25  L 5618.21,  230.70  L 5617.71,  230.41  L 5617.13,  230.51  L 5617.56,  231.25 " style="stroke-width: 0.85 ;&st7; " /><path d=" M 5609.06,  324.73  L 5609.06,  367.22  L 5626.06,  367.22  L 5626.06,  324.73  L 5609.06,  324.73 " style="stroke-width: 1.42 ;&st7; " /><path d=" M 5555.95,   99.52  C 5555.95    97.17  5554.04    95.27  5551.70    95.27 " style="stroke-width: 1.42 ;&st7; " /><path d=" M 5551.70,  103.77  C 5554.04   103.77  5555.95   101.87  5555.95    99.52 " style="stroke-width: 1.42 ;&st7; " /><path d=" M 5543.20,   99.52  C 5543.20   101.87  5545.10   103.77  5547.45   103.77 " style="stroke-width: 1.42 ;&st7; " /><path d=" M 5547.45,   95.27  C 5545.10    95.27  5543.20    97.17  5543.20    99.52 " style="stroke-width: 1.42 ;&st7; " /><path d=" M 5550.99,   68.36  C 5550.99    67.57  5550.36    66.94  5549.57    66.94 " style="stroke-width: 0.85 ;&st7; " /><path d=" M 5549.57,   66.94  C 5548.79    66.94  5548.16    67.57  5548.16    68.36 " style="stroke-width: 0.85 ;&st7; " /><path d=" M 5548.16,   68.36  C 5548.16    69.14  5548.79    69.77  5549.57    69.77 " style="stroke-width: 0.85 ;&st7; " /><path d=" M 5549.57,   69.77  C 5550.36    69.77  5550.99    69.14  5550.99    68.36 " style="stroke-width: 0.85 ;&st7; " /><path d=" M 5550.99,   45.69  C 5550.99    44.91  5550.36    44.28  5549.57    44.28 " style="stroke-width: 0.85 ;&st7; " /><path d=" M 5549.57,   44.28  C 5548.79    44.28  5548.16    44.91  5548.16    45.69 " style="stroke-width: 0.85 ;&st7; " /><path d=" M 5548.16,   45.69  C 5548.16    46.48  5548.79    47.11  5549.57    47.11 " style="stroke-width: 0.85 ;&st7; " /><path d=" M 5549.57,   47.11  C 5550.36    47.11  5550.99    46.48  5550.99    45.69 " style="stroke-width: 0.85 ;&st7; " /><path d=" M 5549.57,   66.94  C 5552.31    65.33  5553.22    61.80  5551.61    59.06 " style="stroke-width: 1.42 ;&st7; " /><path d=" M 5551.61,   59.06  C 5551.09    58.18  5550.45    57.55  5549.57    57.03 " style="stroke-width: 1.42 ;&st7; " /><path d=" M 5549.57,   47.11  C 5546.83    48.72  5545.92    52.25  5547.54    54.99 " style="stroke-width: 1.42 ;&st7; " /><path d=" M 5547.54,   54.99  C 5548.06    55.87  5548.69    56.51  5549.57    57.03 " style="stroke-width: 1.42 ;&st7; " /><path d=" M 5554.11,  175.72  C 5554.11   173.22  5552.08   171.19  5549.57   171.19 " style="stroke-width: 1.42 ;&st7; " /><path d=" M 5549.57,  171.19  C 5547.07   171.19  5545.04   173.22  5545.04   175.72 " style="stroke-width: 1.42 ;&st7; " /><path d=" M 5545.04,  175.72  C 5545.04   178.23  5547.07   180.26  5549.57   180.26 " style="stroke-width: 1.42 ;&st7; " /><path d=" M 5549.57,  180.26  C 5552.08   180.26  5554.11   178.23  5554.11   175.72 " style="stroke-width: 1.42 ;&st7; " /><path d=" M 5554.11,  431.25  C 5554.11   428.74  5552.08   426.71  5549.57   426.71 " style="stroke-width: 1.42 ;&st7; " /><path d=" M 5549.57,  426.71  C 5547.07   426.71  5545.04   428.74  5545.04   431.25 " style="stroke-width: 1.42 ;&st7; " /><path d=" M 5545.04,  431.25  C 5545.04   433.75  5547.07   435.78  5549.57   435.78 " style="stroke-width: 1.42 ;&st7; " /><path d=" M 5549.57,  435.78  C 5552.08   435.78  5554.11   433.75  5554.11   431.25 " style="stroke-width: 1.42 ;&st7; " /><path d=" M 5554.11,  550.23  C 5554.11   547.72  5552.08   545.69  5549.57   545.69 " style="stroke-width: 1.42 ;&st7; " /><path d=" M 5549.57,  545.69  C 5547.07   545.69  5545.04   547.72  5545.04   550.23 " style="stroke-width: 1.42 ;&st7; " /><path d=" M 5545.04,  550.23  C 5545.04   552.73  5547.07   554.76  5549.57   554.76 " style="stroke-width: 1.42 ;&st7; " /><path d=" M 5549.57,  554.76  C 5552.08   554.76  5554.11   552.73  5554.11   550.23 " style="stroke-width: 1.42 ;&st7; " /><path d=" M 5554.11,  515.67  C 5554.11   513.16  5552.08   511.13  5549.57   511.13 " style="stroke-width: 1.42 ;&st7; " /><path d=" M 5549.57,  511.13  C 5547.07   511.13  5545.04   513.16  5545.04   515.67 " style="stroke-width: 1.42 ;&st7; " /><path d=" M 5545.04,  515.67  C 5545.04   518.17  5547.07   520.20  5549.57   520.20 " style="stroke-width: 1.42 ;&st7; " /><path d=" M 5549.57,  520.20  C 5552.08   520.20  5554.11   518.17  5554.11   515.67 " style="stroke-width: 1.42 ;&st7; " /><path d=" M 5993.62,  116.52  C 5993.62   118.86  5995.53   120.77  5997.87   120.77 " style="stroke-width: 1.42 ;&st7; " /><path d=" M 5997.87,  112.27  C 5995.53   112.27  5993.62   114.17  5993.62   116.52 " style="stroke-width: 1.42 ;&st7; " /><path d=" M 5819.40,  116.52  C 5819.40   114.17  5817.50   112.27  5815.15   112.27 " style="stroke-width: 1.42 ;&st7; " /><path d=" M 5815.15,  120.77  C 5817.50   120.77  5819.40   118.86  5819.40   116.52 " style="stroke-width: 1.42 ;&st7; " /><path d=" M 5806.65,  116.52  C 5806.65   118.86  5808.56   120.77  5810.90   120.77 " style="stroke-width: 1.42 ;&st7; " /><path d=" M 5810.90,  112.27  C 5808.56   112.27  5806.65   114.17  5806.65   116.52 " style="stroke-width: 1.42 ;&st7; " /><path d=" M 5814.45,   68.36  C 5814.45    67.57  5813.81    66.94  5813.03    66.94 " style="stroke-width: 0.85 ;&st7; " /><path d=" M 5813.03,   66.94  C 5812.25    66.94  5811.61    67.57  5811.61    68.36 " style="stroke-width: 0.85 ;&st7; " /><path d=" M 5811.61,   68.36  C 5811.61    69.14  5812.25    69.77  5813.03    69.77 " style="stroke-width: 0.85 ;&st7; " /><path d=" M 5813.03,   69.77  C 5813.81    69.77  5814.45    69.14  5814.45    68.36 " style="stroke-width: 0.85 ;&st7; " /><path d=" M 5814.45,   45.69  C 5814.45    44.91  5813.81    44.28  5813.03    44.28 " style="stroke-width: 0.85 ;&st7; " /><path d=" M 5813.03,   44.28  C 5812.25    44.28  5811.61    44.91  5811.61    45.69 " style="stroke-width: 0.85 ;&st7; " /><path d=" M 5811.61,   45.69  C 5811.61    46.48  5812.25    47.11  5813.03    47.11 " style="stroke-width: 0.85 ;&st7; " /><path d=" M 5813.03,   47.11  C 5813.81    47.11  5814.45    46.48  5814.45    45.69 " style="stroke-width: 0.85 ;&st7; " /><path d=" M 5813.03,   66.94  C 5815.77    65.33  5816.68    61.80  5815.07    59.06 " style="stroke-width: 1.42 ;&st7; " /><path d=" M 5815.07,   59.06  C 5814.55    58.18  5813.91    57.55  5813.03    57.03 " style="stroke-width: 1.42 ;&st7; " /><path d=" M 5813.03,   47.11  C 5810.29    48.72  5809.38    52.25  5810.99    54.99 " style="stroke-width: 1.42 ;&st7; " /><path d=" M 5810.99,   54.99  C 5811.51    55.87  5812.15    56.51  5813.03    57.03 " style="stroke-width: 1.42 ;&st7; " /><text style="&st18;" transform="matrix(&st16;  5535.52  552.2 )">14</text><text style="&st18;" transform="matrix(&st16;  5545.83  332.37 )">IG</text><text style="&st18;" transform="matrix(&st16;  5532.93  101.49 )">49</text><text style="&st18;" transform="matrix(&st17;  5545.88  146.67 )">BE</text><text style="&st18;" transform="matrix(&st16;  5543.5  32.08 )">(IG)</text><text style="&st18;" transform="matrix(&st16;  5546.61  101.49 )">2I</text><text style="&st18;" transform="matrix(&st16;  5566.88  56.17 )">5A <tspan dy="6" x="0">METER</tspan></text><text style="&st18;" transform="matrix(&st16;  5547.24  552.2 )">B</text><text style="&st18;" transform="matrix(&st17;  5545.88  461.26 )">BR</text><text style="&st18;" transform="matrix(&st16;  5552.41  188.45 )">IG+</text><text style="&st18;" transform="matrix(&st16;  5552.41  423.02 )">ET</text><text ewd:textID="21" style="&st18;" transform="matrix(&st17;  5582.71  361.13 )">One Step <tspan dy="6" x="0">Dim</tspan></text><text ewd:textID="24" style="&st18;" transform="matrix(&st17;  5643.9  281.9 )">Radar Cruise</text><text style="&st18;" transform="matrix(&st17;  5575.62  274.06 )">CRUISE</text><text style="&st18;" transform="matrix(&st16;  5547.24  177.69 )">A</text><text style="&st18;" transform="matrix(&st16;  5534.74  177.69 )">22</text><text style="&st18;" transform="matrix(&st16;  5547.24  433.22 )">A</text><text style="&st18;" transform="matrix(&st16;  5534.74  433.22 )">20</text><text style="&st18;" transform="matrix(&st16;  5547.24  517.64 )">A</text><text style="&st18;" transform="matrix(&st16;  5535.52  517.64 )">19</text><text ewd:textID="17" style="&st18;" transform="matrix(&st17;  5572.79  548.22 )">Junction <tspan dy="6" x="0">Connector</tspan></text><text style="&st18;" transform="matrix(&st17;  5565.97  548.22 )">A37(A),C44(B)</text><text style="&st18;" transform="matrix(&st17;  5545.88  503.76 )">BR</text><text style="&st18;" transform="matrix(&st17;  5545.88  673.73 )">BR</text><text style="&st18;" transform="matrix(&st16;  5854.77  278.54 )">CA2H</text><text style="&st18;" transform="matrix(&st16;  5829.76  278.54 )">CA2L</text><text style="&st18;" transform="matrix(&st16;  5831.74  290.43 )">2</text><text style="&st18;" transform="matrix(&st16;  5857.23  290.43 )">3</text><text style="&st18;" transform="matrix(&st17;  5860.32  309.71 )">L</text><text style="&st18;" transform="matrix(&st17;  5834.83  310.06 )">B</text><text style="&st18;" transform="matrix(&st16;  5908.22  290.43 )">6</text><text style="&st18;" transform="matrix(&st16;  5882.73  290.43 )">5</text><text style="&st18;" transform="matrix(&st16;  5880.79  278.54 )">CA1P</text><text style="&st18;" transform="matrix(&st16;  5906.15  278.54 )">CA1N</text><text ewd:textID="17" style="&st18;" transform="matrix(&st16;  5824.67  666.64 )">Junction <tspan dy="6" x="0">Connector</tspan></text><text ewd:textID="19" style="&st18;" transform="matrix(&st17;  5946.73  284.76 )">Millimeter Wave <tspan dy="6" x="0">Radar Sensor Assembly</tspan></text><text style="&st18;" transform="matrix(&st16;  5806.95  32.08 )">(IG)</text><text style="&st18;" transform="matrix(&st16;  5796.38  118.49 )">24</text><text style="&st18;" transform="matrix(&st16;  5808.58  118.49 )">2H</text><text style="&st18;" transform="matrix(&st16;  5830.33  53.34 )">10A <tspan dy="6" x="0">ECU-IG </tspan><tspan dy="6" x="0">NO.2</tspan></text><text style="&st18;" transform="matrix(&st17;  5809.33  166.01 )">G</text><text style="&st18;" transform="matrix(&st16;  5984.13  118.49 )">12</text><text style="&st18;" transform="matrix(&st16;  5996.25  118.49 )">2J</text><text style="&st18;" transform="matrix(&st17;  5996.3  171.77 )">B(*7)</text><text style="&st18;" transform="matrix(&st16;  5982.0  194.97 )">16</text><text style="&st18;" transform="matrix(&st17;  5996.3  231.26 )">B(*7)</text><text style="&st18;" transform="matrix(&st16;  5806.24  244.55 )">8</text><text style="&st18;" transform="matrix(&st16;  5806.95  255.88 )">IGB</text><text style="&st18;" transform="matrix(&st16;  5803.0  278.54 )">SGND</text><text style="&st18;" transform="matrix(&st16;  5807.02  290.43 )">1</text><text style="&st18;" transform="matrix(&st17;  5939.9  284.76 )">A72</text><text style="&st18;" transform="matrix(&st16;  5993.21  244.55 )">7</text><text style="&st18;" transform="matrix(&st16;  5993.92  255.88 )">IGB</text><text style="&st18;" transform="matrix(&st16;  5992.3  278.54 )">GND</text><text style="&st18;" transform="matrix(&st16;  5990.03  290.43 )">10</text><text style="&st18;" transform="matrix(&st16;  5982.0  339.45 )">12</text><text style="&st18;" transform="matrix(&st17;  5996.3  318.72 )">BR(*7)</text><text style="&st18;" transform="matrix(&st17;  5996.3  420.7 )">BR(*7)</text><text style="&st18;" transform="matrix(&st16;  5824.67  659.54 )">A75</text><text style="&st18;" transform="matrix(&st16;  5806.24  652.49 )">2</text><text style="&st18;" transform="matrix(&st17;  5809.33  312.54 )">BR</text><text style="&st18;" transform="matrix(&st17;  5911.32  310.06 )">P</text><text style="&st18;" transform="matrix(&st17;  5885.82  310.06 )">B</text><text style="&st18;" transform="matrix(&st16;  5723.38  558.99 )">SB</text><text style="&st18;" transform="matrix(&st16;  5725.71  575.99 )">B</text><text style="&st18;" transform="matrix(&st16;  5672.39  558.99 )">SB</text><text style="&st18;" transform="matrix(&st16;  5674.72  575.99 )">B</text><text style="&st18;" transform="matrix(&st16;  5724.69  618.48 )">W</text><text style="&st18;" transform="matrix(&st16;  5673.7  618.48 )">W</text><text style="&st18;" transform="matrix(&st16;  5530.8  475.43 )">67</text><text ewd:textID="21" style="&st18;" transform="matrix(&st17;  5616.71  361.13 )">One Step <tspan dy="6" x="0">Dim</tspan></text><text style="&st18;" transform="matrix(&st17;  5609.62  267.77 )">SET</text></svg>