﻿<?xml version="1.0" encoding="utf-8"?>
<!DOCTYPE svg PUBLIC "-//W3C//DTD SVG 1.0//EN" "http://www.w3.org/TR/2001/REC-SVG-20010904/DTD/svg10.dtd"[
	<!ENTITY ns_flows "http://ns.adobe.com/Flows/1.0/">
	<!ENTITY ns_svg "http://www.w3.org/2000/svg">
	<!ENTITY ns_xlink "http://www.w3.org/1999/xlink">
	<!ENTITY st0 "font-size:7px;font-family:'MS-PGothic';adobe-font-script:japanese;">
	<!ENTITY st1 "font-size:6px;font-family:'ArialMT';">
	<!-- White fill  -->
	<!ENTITY st2 "fill:#FFFFFF;stroke:#000000; stroke-width:1.41;stroke-linecap:round;stroke-linejoin:round;">
	<!-- Yellow fill  -->
	<!ENTITY st3 "fill:#FFFFCC;stroke:#FFFFCC; stroke-width:0.1;stroke-linecap:round;stroke-linejoin:round;">
	<!-- Gray fill  -->
	<!ENTITY st4 "fill:#CCCCCC;stroke:#CCCCCC; stroke-width:0.1;stroke-linecap:round;stroke-linejoin:round;">
	<!-- Light-blue fill -->
	<!ENTITY st5 "fill:#CCECF4;stroke:#000000; stroke-width:1.133;stroke-linecap:round;stroke-linejoin:round;">
	<!ENTITY st6 "fill:none;stroke-linecap:butt; stroke-linejoin:round;">
	<!ENTITY st7 "fill:none;stroke:#000000;stroke-linecap:round;stroke-linejoin:round;">
	<!ENTITY st8 "enable-background:new    ;">
	<!-- Black fill -->
	<!ENTITY st9 "fill:#000000;stroke:#000000; stroke-linecap:round;stroke-linejoin:round;">
	<!-- SRS note   -->
	<!ENTITY st10 "font-size:9px;font-family:'ArialMT';">
	<!ENTITY st11 "font-size:9px;font-family:'Svg Symbol';">
	<!ENTITY st12 "font-size:6px;font-family:'Svg Symbol';">
	<!ENTITY st13 "fill:none;stroke:#ff0000;stroke-linecap:round;stroke-linejoin:round;">
	<!-- Yellow fill  -->
	<!ENTITY st14 "fill:#FFFF00;stroke:#FFFF00; stroke-width:0.1;stroke-linecap:round;stroke-linejoin:round;">
	<!ENTITY st15 "font-size:6px;font-family:'MS-PGothic';adobe-font-script:japanese;">
	<!ENTITY st16 "1.00 0.00 0.00 1.00">
	<!ENTITY st17 "0.00 -1.00 1.00 0.00">
	<!ENTITY st18 "font-size:6px;font-family:'Arial';">
	<!ENTITY st19 "font-size:9px;font-family:'Arial';">
	<!ENTITY st20 "font-size:6px;font-family:'MS-PGothic','MS PGothic';adobe-font-script:japanese;">
	<!ENTITY st21 "font-size:7px;font-family:'MS-PGothic','MS PGothic';adobe-font-script:japanese;">
	<!ATTLIST svg
		xmlns:ewd CDATA #FIXED "http://shcl.co.jp/ewd"
		xmlns:a CDATA #FIXED "http://ns.adobe.com/AdobeSVGViewerExtensions/3.0/"
		ewd:ver CDATA #IMPLIED
	>
	<!ATTLIST a
		ewd:lineID CDATA #IMPLIED
		ewd:groupID CDATA #IMPLIED
		ewd:figtype CDATA #IMPLIED
		ewd:code CDATA #IMPLIED
		ewd:figID CDATA #IMPLIED
		ewd:pinNo CDATA #IMPLIED
		ewd:comment CDATA #IMPLIED >
	<!ATTLIST g
		ewd:lineID CDATA #IMPLIED
		ewd:groupID CDATA #IMPLIED
		ewd:figtype CDATA #IMPLIED
		ewd:code CDATA #IMPLIED
		ewd:figID CDATA #IMPLIED
		ewd:pinNo CDATA #IMPLIED
		ewd:comment CDATA #IMPLIED >
	<!ATTLIST text
		ewd:textID CDATA #IMPLIED >
	<!ATTLIST title
		ewd:textID CDATA #IMPLIED >
]>
<!-- Generator: Shintec Hozumi YS   -->
<svg onload="call_execInitLoadProc_svg('system')" style="overflow:visible;  enable-background:new 0 0 6715.836 710.000" viewBox="0 0 6715.836 710.000" height="710.000" width="6715.836" xml:space="preserve" ewd:ver="L2.1.2.8" xmlns="&ns_svg;" xmlns:a="http://ns.adobe.com/AdobeSVGViewerExtensions/3.0/" xmlns:ewd="http://shcl.co.jp/ewd" xmlns:xlink="&ns_xlink;">
<path d=" M 4053.82,  205.75  L 4045.32,  205.75 " style="stroke-width: 1.42 ;&st7; " /><path d=" M 4011.33,  205.75  L 4002.83,  205.75 " style="stroke-width: 1.42 ;&st7; " /><path d=" M 4087.82,  137.76  L 4087.82,  163.26 " style="stroke-width: 0.85 ;&st7; " /><path d=" M 4089.94,  163.26  L 4085.69,  163.26 " style="stroke-width: 1.42 ;&st7; " /><path d=" M 4089.94,  171.76  L 4085.69,  171.76 " style="stroke-width: 1.42 ;&st7; " /><path d=" M 4300.28,  537.20  L 4291.78,  537.20 " style="stroke-width: 1.42 ;&st7; " /><path d=" M 4336.40,  214.25  L 4332.15,  214.25 " style="stroke-width: 1.42 ;&st7; " /><path d=" M 4336.40,  205.75  L 4332.15,  205.75 " style="stroke-width: 1.42 ;&st7; " /><path d=" M 4293.91,  205.75  L 4289.66,  205.75 " style="stroke-width: 1.42 ;&st7; " /><path d=" M 4293.91,  214.25  L 4289.66,  214.25 " style="stroke-width: 1.42 ;&st7; " /><path d=" M 4293.91,  171.76  L 4289.66,  171.76 " style="stroke-width: 1.42 ;&st7; " /><path d=" M 4293.91,  163.26  L 4289.66,  163.26 " style="stroke-width: 1.42 ;&st7; " /><path d=" M 4291.78,  137.76  L 4291.78,  163.26 " style="stroke-width: 0.85 ;&st7; " /><path d=" M 4436.26,  205.75  L 4444.76,  205.75 " style="stroke-width: 1.42 ;&st7; " /><path d=" M 4446.88,  171.76  L 4442.63,  171.76 " style="stroke-width: 1.42 ;&st7; " /><path d=" M 4446.88,  163.26  L 4442.63,  163.26 " style="stroke-width: 1.42 ;&st7; " /><path d=" M 4444.76,  137.76  L 4444.76,  163.26 " style="stroke-width: 0.85 ;&st7; " /><path d=" M 4491.50,  333.23  L 4483.00,  333.23 " style="stroke-width: 0.85 ;&st7; " /><path d=" M 4499.98,  323.57  L 4492.62,  327.82 " style="stroke-width: 0.85 ;&st7; " /><path d=" M 4494.63,  331.28  L 4501.99,  327.03 " style="stroke-width: 0.85 ;&st7; " /><path d=" M 4419.26,  260.99  L 4419.26,  252.49 " style="stroke-width: 0.85 ;&st7; " /><path d=" M 4449.01,  273.74  L 4440.51,  273.74 " style="stroke-width: 0.85 ;&st7; " /><path d=" M 4372.52,  273.74  L 4364.02,  273.74 " style="stroke-width: 0.85 ;&st7; " /><path d=" M 4257.79,  452.21  L 4263.45,  443.71 " style="stroke-width: 0.85 ;&st7; " /><path d=" M 4266.29,  443.71  L 4266.29,  435.21 " style="stroke-width: 0.85 ;&st7; " /><path d=" M 4274.79,  443.71  L 4257.79,  443.71 " style="stroke-width: 1.42 ;&st7; " /><path d=" M 4164.30,  248.24  L 4164.30,  486.20  L 4648.72,  486.20  L 4648.72,  248.24  L 4164.30,  248.24 " style="stroke-width: 1.42 ;&st7; " /><path d=" M 4181.30,  375.72  L 4597.73,  375.72  L 4597.73,  426.71  L 4181.30,  426.71  L 4181.30,  375.72 " style="stroke-width: 1.42 ;&st7; " /><path d=" M 4291.78,  358.73  L 4291.78,  375.72 " style="stroke-width: 0.85 ;&st7; " /><path d=" M 4300.28,  358.73  L 4300.28,  375.72 " style="stroke-width: 0.85 ;&st7; " /><path d=" M 4274.78,  341.73  L 4274.78,  358.73  L 4325.78,  358.73  L 4325.78,  333.23  L 4274.78,  333.23  L 4274.78,  341.73 " style="stroke-width: 1.42 ;&st7; " /><path d=" M 4308.78,  358.73  L 4308.78,  375.72 " style="stroke-width: 0.85 ;&st7; " /><path d=" M 4274.78,  452.21  L 4269.12,  443.71 " style="stroke-width: 0.85 ;&st7; " /><path d=" M 4274.78,  452.21  L 4271.60,  450.08  L 4274.04,  448.45  L 4274.78,  452.21  L 4273.96,  450.98  L 4272.62,  450.08  L 4273.65,  449.39  L 4273.96,  450.98  L 4273.55,  450.36  L 4273.13,  450.08  L 4273.45,  449.86  L 4273.55,  450.36 " style="stroke-width: 0.85 ;&st7; " /><path d=" M 4257.79,  486.20  L 4257.79,  477.71  L 4254.95,  476.29  L 4260.62,  473.46  L 4254.95,  470.62  L 4260.62,  467.79  L 4254.95,  464.96  L 4260.62,  462.12  L 4257.79,  460.71  L 4257.79,  452.21 " style="stroke-width: 0.85 ;&st7; " /><path d=" M 4266.29,  435.21  L 4291.78,  435.21  L 4291.78,  486.20 " style="stroke-width: 0.85 ;&st7; " /><path d=" M 4274.78,  452.21  L 4274.78,  460.71 " style="stroke-width: 0.85 ;&st7; " /><path d=" M 4266.29,  460.71  L 4283.28,  460.71 " style="stroke-width: 0.85 ;&st7; " /><path d=" M 4270.53,  463.54  L 4279.03,  463.54 " style="stroke-width: 0.85 ;&st7; " /><path d=" M 4271.95,  466.37  L 4277.62,  466.37 " style="stroke-width: 0.85 ;&st7; " /><path d=" M 4273.37,  469.21  L 4276.20,  469.21 " style="stroke-width: 0.85 ;&st7; " /><path d=" M 4402.26,  282.24  L 4402.26,  256.74  L 4444.76,  256.74 " style="stroke-width: 0.85 ;&st7; " /><path d=" M 4368.27,  273.74  L 4362.60,  265.24  L 4373.93,  265.24  L 4368.27,  273.74 " style="stroke-width: 0.28 ;&st9;" /><path d=" M 4368.27,  248.24  L 4368.27,  282.24 " style="stroke-width: 0.85 ;&st7; " /><path d=" M 4444.76,  273.74  L 4439.09,  265.24  L 4450.42,  265.24  L 4444.76,  273.74 " style="stroke-width: 0.28 ;&st9;" /><path d=" M 4444.76,  248.24  L 4444.76,  375.72 " style="stroke-width: 0.85 ;&st7; " /><path d=" M 4419.26,  256.74  L 4427.76,  251.08  L 4427.76,  262.41  L 4419.26,  256.74 " style="stroke-width: 0.28 ;&st9;" /><path d=" M 4266.29,  273.74  L 4334.27,  273.74  L 4334.27,  307.73  L 4266.29,  307.73  L 4266.29,  273.74 " style="stroke-width: 1.42 ;&st7; " /><path d=" M 4367.08,  281.24  L 4366.80,  281.71  L 4366.71,  282.24  L 4366.80,  282.77  L 4367.08,  283.24  L 4367.49,  283.59  L 4368.00,  283.77  L 4368.54,  283.77  L 4369.05,  283.59  L 4369.46,  283.24  L 4369.73,  282.77  L 4369.83,  282.24  L 4369.73,  281.71  L 4369.46,  281.24  L 4369.05,  280.89  L 4368.54,  280.70  L 4368.00,  280.70  L 4367.49,  280.89  L 4367.08,  281.24  L 4367.47,  281.95  L 4367.47,  282.53  L 4367.84,  282.97  L 4368.42,  283.07  L 4368.92,  282.79  L 4369.12,  282.24  L 4368.92,  281.69  L 4368.42,  281.40  L 4367.84,  281.50  L 4368.27,  282.24 " style="stroke-width: 0.85 ;&st7; " /><path d=" M 4401.07,  281.24  L 4400.80,  281.71  L 4400.70,  282.24  L 4400.80,  282.77  L 4401.07,  283.24  L 4401.48,  283.59  L 4401.99,  283.77  L 4402.53,  283.77  L 4403.04,  283.59  L 4403.46,  283.24  L 4403.73,  282.77  L 4403.82,  282.24  L 4403.73,  281.71  L 4403.46,  281.24  L 4403.04,  280.89  L 4402.53,  280.70  L 4401.99,  280.70  L 4401.48,  280.89  L 4401.07,  281.24  L 4401.46,  281.95  L 4401.46,  282.53  L 4401.84,  282.97  L 4402.41,  283.07  L 4402.91,  282.79  L 4403.11,  282.24  L 4402.91,  281.69  L 4402.41,  281.40  L 4401.84,  281.50  L 4402.26,  282.24 " style="stroke-width: 0.85 ;&st7; " /><path d=" M 4443.56,  255.74  L 4443.29,  256.21  L 4443.20,  256.74  L 4443.29,  257.28  L 4443.56,  257.75  L 4443.98,  258.09  L 4444.49,  258.28  L 4445.02,  258.28  L 4445.53,  258.09  L 4445.95,  257.75  L 4446.22,  257.28  L 4446.31,  256.74  L 4446.22,  256.21  L 4445.95,  255.74  L 4445.53,  255.39  L 4445.02,  255.21  L 4444.49,  255.21  L 4443.98,  255.39  L 4443.56,  255.74  L 4443.96,  256.45  L 4443.96,  257.03  L 4444.33,  257.48  L 4444.90,  257.58  L 4445.41,  257.29  L 4445.61,  256.74  L 4445.41,  256.20  L 4444.90,  255.91  L 4444.33,  256.01  L 4444.76,  256.74 " style="stroke-width: 0.85 ;&st7; " /><path d=" M 4443.56,  298.23  L 4443.29,  298.70  L 4443.20,  299.24  L 4443.29,  299.77  L 4443.56,  300.24  L 4443.98,  300.58  L 4444.49,  300.77  L 4445.02,  300.77  L 4445.53,  300.58  L 4445.95,  300.24  L 4446.22,  299.77  L 4446.31,  299.24  L 4446.22,  298.70  L 4445.95,  298.23  L 4445.53,  297.89  L 4445.02,  297.70  L 4444.49,  297.70  L 4443.98,  297.89  L 4443.56,  298.23  L 4443.96,  298.94  L 4443.96,  299.53  L 4444.33,  299.97  L 4444.90,  300.07  L 4445.41,  299.78  L 4445.61,  299.24  L 4445.41,  298.69  L 4444.90,  298.40  L 4444.33,  298.50  L 4444.76,  299.24 " style="stroke-width: 0.85 ;&st7; " /><path d=" M 4181.30,  443.71  L 4181.30,  469.21  L 4232.29,  469.21  L 4232.29,  443.71  L 4181.30,  443.71 " style="stroke-width: 1.42 ;&st7; " /><path d=" M 4189.80,  426.71  L 4189.80,  443.71 " style="stroke-width: 0.85 ;&st7; " /><path d=" M 4223.79,  426.71  L 4223.79,  443.71 " style="stroke-width: 0.85 ;&st7; " /><path d=" M 4487.25,  375.72  L 4487.25,  358.73  L 4484.42,  357.31  L 4490.08,  354.48  L 4484.42,  351.64  L 4490.08,  348.81  L 4484.42,  345.98  L 4490.08,  343.14  L 4487.25,  341.73  L 4487.25,  282.24  L 4334.27,  282.24 " style="stroke-width: 0.85 ;&st7; " /><path d=" M 4501.98,  327.03  L 4499.65,  330.08  L 4498.18,  327.54  L 4501.98,  327.03  L 4500.70,  327.78  L 4499.72,  329.06  L 4499.10,  327.99  L 4500.70,  327.78  L 4500.06,  328.14  L 4499.75,  328.55  L 4499.55,  328.21  L 4500.06,  328.14 " style="stroke-width: 0.85 ;&st7; " /><path d=" M 4499.98,  323.57  L 4497.65,  326.61  L 4496.18,  324.07  L 4499.98,  323.57  L 4498.70,  324.31  L 4497.71,  325.59  L 4497.10,  324.52  L 4498.70,  324.31  L 4498.06,  324.68  L 4497.75,  325.08  L 4497.55,  324.74  L 4498.06,  324.68 " style="stroke-width: 0.85 ;&st7; " /><path d=" M 4487.25,  333.23  L 4481.58,  324.73  L 4492.91,  324.73  L 4487.25,  333.23 " style="stroke-width: 0.28 ;&st9;" /><path d=" M 4334.27,  299.24  L 4572.23,  299.24 " style="stroke-width: 0.85 ;&st7; " /><path d=" M 4444.76,  158.36  L 4441.92,  155.53  L 4441.92,  159.78  L 4444.76,  162.61  L 4447.59,  159.78  L 4447.59,  155.53  L 4444.76,  158.36 " style="stroke-width: 0.28 ;&st9;" /><path d=" M 4432.01,  103.77  L 4432.01,  146.26  L 4457.50,  146.26  L 4457.50,  103.77  L 4432.01,  103.77 " style="stroke-width: 1.42 ;&st7; " /><path d=" M 4449.00,  200.09  L 4444.76,  204.33  L 4440.51,  200.09 " style="stroke-width: 1.42 ;&st7; " /><path d=" M 4440.51,  196.69  L 4444.76,  200.94  L 4449.00,  196.69 " style="stroke-width: 1.42 ;&st7; " /><path d=" M 4291.78,  158.36  L 4288.95,  155.53  L 4288.95,  159.78  L 4291.78,  162.61  L 4294.61,  159.78  L 4294.61,  155.53  L 4291.78,  158.36 " style="stroke-width: 0.28 ;&st9;" /><path d=" M 4279.03,  103.77  L 4279.03,  146.26  L 4304.53,  146.26  L 4304.53,  103.77  L 4279.03,  103.77 " style="stroke-width: 1.42 ;&st7; " /><path d=" M 4334.27,  163.26  L 4334.27,  154.76  L 4368.27,  154.76  L 4368.27,  163.26 " style="stroke-width: 0.85 ;&st7; " /><path d=" M 4325.78,  146.26  L 4325.78,  163.26  L 4376.77,  163.26  L 4376.77,  146.26  L 4325.78,  146.26 " style="stroke-width: 1.42 ;&st7; " /><path d=" M 4291.78,  219.14  L 4294.61,  221.98  L 4294.61,  217.73  L 4291.78,  214.90  L 4288.95,  217.73  L 4288.95,  221.98  L 4291.78,  219.14 " style="stroke-width: 0.28 ;&st9;" /><path d=" M 4334.27,  219.14  L 4337.11,  221.98  L 4337.11,  217.73  L 4334.27,  214.90  L 4331.44,  217.73  L 4331.44,  221.98  L 4334.27,  219.14 " style="stroke-width: 0.28 ;&st9;" /><path d=" M 4291.78,  214.25  L 4291.78,  231.25  L 4334.27,  231.25  L 4334.27,  214.25 " style="stroke-width: 0.85 ;&st7; " /><path d=" M 4368.27,  375.72  L 4368.27,  358.73 " style="stroke-width: 0.85 ;&st7; " /><path d=" M 4342.77,  341.73  L 4342.77,  358.73  L 4393.76,  358.73  L 4393.76,  333.23  L 4342.77,  333.23  L 4342.77,  341.73 " style="stroke-width: 1.42 ;&st7; " /><path d=" M 4495.75,  697.25  L 4495.75,  701.50 " style="stroke-width: 0.85 ;&st7; " /><path d=" M 4487.25,  701.50  L 4504.25,  701.50 " style="stroke-width: 0.85 ;&st7; " /><path d=" M 4491.50,  704.33  L 4500.00,  704.33 " style="stroke-width: 0.85 ;&st7; " /><path d=" M 4492.91,  707.17  L 4498.58,  707.17 " style="stroke-width: 0.85 ;&st7; " /><path d=" M 4494.33,  710.00  L 4497.16,  710.00 " style="stroke-width: 0.85 ;&st7; " /><path d=" M 4487.25,  562.69  L 4487.25,  588.19  L 4504.25,  588.19  L 4504.25,  562.69  L 4487.25,  562.69 " style="stroke-width: 1.42 ;&st7; " /><path d=" M 4487.25,  571.19  L 4504.25,  571.19 " style="stroke-width: 1.13 ;&st7;stroke-dasharray:3, 1.5;" /><path d=" M 4487.25,  579.69  L 4504.25,  579.69 " style="stroke-width: 1.13 ;&st7;stroke-dasharray:3, 1.5;" /><path d=" M 4495.75,  562.69  L 4495.75,  588.19 " style="stroke-width: 0.85 ;&st7; " /><path d=" M 4223.79,  469.21  L 4223.79,  486.20 " style="stroke-width: 0.85 ;&st7; " /><path d=" M 4189.80,  469.21  L 4189.80,  486.20 " style="stroke-width: 0.85 ;&st7; " /><path d=" M 4487.25,  163.26  L 4487.25,  205.75  L 4631.72,  205.75  L 4631.72,  163.26  L 4487.25,  163.26 " style="stroke-width: 1.42 ;&st7; " /><path d=" M 4049.57,  211.42  L 4045.32,  207.17  L 4041.07,  211.42 " style="stroke-width: 1.42 ;&st7; " /><path d=" M 4049.57,  214.82  L 4045.32,  210.57  L 4041.07,  214.82 " style="stroke-width: 1.42 ;&st7; " /><path d=" M 4296.03,  546.26  L 4291.78,  542.01  L 4287.53,  546.26 " style="stroke-width: 1.42 ;&st7; " /><path d=" M 4296.03,  542.86  L 4291.78,  538.61  L 4287.53,  542.86 " style="stroke-width: 1.42 ;&st7; " /><path d=" M 4002.83,  392.72  L 4002.83,  409.72 " style="stroke-width: 0.85 ;&st7; " /><path d=" M 4002.83,  697.25  L 4002.83,  701.50 " style="stroke-width: 0.85 ;&st7; " /><path d=" M 4000.00,  707.17  L 4005.66,  707.17 " style="stroke-width: 0.85 ;&st7; " /><path d=" M 4001.41,  710.00  L 4004.25,  710.00 " style="stroke-width: 0.85 ;&st7; " /><path d=" M 4087.82,  158.36  L 4084.98,  155.53  L 4084.98,  159.78  L 4087.82,  162.61  L 4090.65,  159.78  L 4090.65,  155.53  L 4087.82,  158.36 " style="stroke-width: 0.28 ;&st9;" /><path d=" M 4075.07,  103.77  L 4075.07,  146.26  L 4100.56,  146.26  L 4100.56,  103.77  L 4075.07,  103.77 " style="stroke-width: 1.42 ;&st7; " /><path d=" M 4087.82,  222.75  L 4087.82,  239.75 " style="stroke-width: 0.85 ;&st7; " /><path d=" M 4079.32,  222.75  L 4096.31,  222.75  L 4096.31,  239.75  L 4079.32,  239.75  L 4079.32,  222.75 " style="stroke-width: 1.42 ;&st7; " /><path d=" M 4340.65,  210.00  C 4340.65   207.65  4338.75   205.75  4336.40   205.75 " style="stroke-width: 1.42 ;&st7; " /><path d=" M 4336.40,  214.25  C 4338.75   214.25  4340.65   212.35  4340.65   210.00 " style="stroke-width: 1.42 ;&st7; " /><path d=" M 4327.90,  210.00  C 4327.90   212.35  4329.80   214.25  4332.15   214.25 " style="stroke-width: 1.42 ;&st7; " /><path d=" M 4332.15,  205.75  C 4329.80   205.75  4327.90   207.65  4327.90   210.00 " style="stroke-width: 1.42 ;&st7; " /><path d=" M 4289.66,  205.75  C 4287.31   205.75  4285.41   207.65  4285.41   210.00 " style="stroke-width: 1.42 ;&st7; " /><path d=" M 4285.41,  210.00  C 4285.41   212.35  4287.31   214.25  4289.66   214.25 " style="stroke-width: 1.42 ;&st7; " /><path d=" M 4293.91,  214.25  C 4296.25   214.25  4298.16   212.35  4298.16   210.00 " style="stroke-width: 1.42 ;&st7; " /><path d=" M 4298.16,  210.00  C 4298.16   207.65  4296.25   205.75  4293.91   205.75 " style="stroke-width: 1.42 ;&st7; " /><path d=" M 4298.16,  167.51  C 4298.16   165.16  4296.25   163.26  4293.91   163.26 " style="stroke-width: 1.42 ;&st7; " /><path d=" M 4293.91,  171.76  C 4296.25   171.76  4298.16   169.85  4298.16   167.51 " style="stroke-width: 1.42 ;&st7; " /><path d=" M 4285.41,  167.51  C 4285.41   169.85  4287.31   171.76  4289.66   171.76 " style="stroke-width: 1.42 ;&st7; " /><path d=" M 4289.66,  163.26  C 4287.31   163.26  4285.41   165.16  4285.41   167.51 " style="stroke-width: 1.42 ;&st7; " /><path d=" M 4293.20,  136.35  C 4293.20   135.56  4292.57   134.93  4291.78   134.93 " style="stroke-width: 0.85 ;&st7; " /><path d=" M 4291.78,  134.93  C 4291.00   134.93  4290.37   135.56  4290.37   136.35 " style="stroke-width: 0.85 ;&st7; " /><path d=" M 4290.37,  136.35  C 4290.37   137.13  4291.00   137.76  4291.78   137.76 " style="stroke-width: 0.85 ;&st7; " /><path d=" M 4291.78,  137.76  C 4292.57   137.76  4293.20   137.13  4293.20   136.35 " style="stroke-width: 0.85 ;&st7; " /><path d=" M 4293.20,  113.68  C 4293.20   112.90  4292.57   112.27  4291.78   112.27 " style="stroke-width: 0.85 ;&st7; " /><path d=" M 4291.78,  112.27  C 4291.00   112.27  4290.37   112.90  4290.37   113.68 " style="stroke-width: 0.85 ;&st7; " /><path d=" M 4290.37,  113.68  C 4290.37   114.47  4291.00   115.10  4291.78   115.10 " style="stroke-width: 0.85 ;&st7; " /><path d=" M 4291.78,  115.10  C 4292.57   115.10  4293.20   114.47  4293.20   113.68 " style="stroke-width: 0.85 ;&st7; " /><path d=" M 4291.78,  134.93  C 4294.52   133.32  4295.43   129.79  4293.82   127.05 " style="stroke-width: 1.42 ;&st7; " /><path d=" M 4293.82,  127.05  C 4293.30   126.17  4292.66   125.53  4291.78   125.01 " style="stroke-width: 1.42 ;&st7; " /><path d=" M 4291.78,  115.10  C 4289.04   116.71  4288.13   120.24  4289.75   122.98 " style="stroke-width: 1.42 ;&st7; " /><path d=" M 4289.75,  122.98  C 4290.27   123.86  4290.90   124.49  4291.78   125.01 " style="stroke-width: 1.42 ;&st7; " /><path d=" M 4451.13,  167.51  C 4451.13   165.16  4449.23   163.26  4446.88   163.26 " style="stroke-width: 1.42 ;&st7; " /><path d=" M 4446.88,  171.76  C 4449.23   171.76  4451.13   169.85  4451.13   167.51 " style="stroke-width: 1.42 ;&st7; " /><path d=" M 4438.38,  167.51  C 4438.38   169.85  4440.29   171.76  4442.63   171.76 " style="stroke-width: 1.42 ;&st7; " /><path d=" M 4442.63,  163.26  C 4440.29   163.26  4438.38   165.16  4438.38   167.51 " style="stroke-width: 1.42 ;&st7; " /><path d=" M 4446.17,  136.35  C 4446.17   135.56  4445.54   134.93  4444.76   134.93 " style="stroke-width: 0.85 ;&st7; " /><path d=" M 4444.76,  134.93  C 4443.98   134.93  4443.34   135.56  4443.34   136.35 " style="stroke-width: 0.85 ;&st7; " /><path d=" M 4443.34,  136.35  C 4443.34   137.13  4443.98   137.76  4444.76   137.76 " style="stroke-width: 0.85 ;&st7; " /><path d=" M 4444.76,  137.76  C 4445.54   137.76  4446.17   137.13  4446.17   136.35 " style="stroke-width: 0.85 ;&st7; " /><path d=" M 4446.17,  113.68  C 4446.17   112.90  4445.54   112.27  4444.76   112.27 " style="stroke-width: 0.85 ;&st7; " /><path d=" M 4444.76,  112.27  C 4443.98   112.27  4443.34   112.90  4443.34   113.68 " style="stroke-width: 0.85 ;&st7; " /><path d=" M 4443.34,  113.68  C 4443.34   114.47  4443.98   115.10  4444.76   115.10 " style="stroke-width: 0.85 ;&st7; " /><path d=" M 4444.76,  115.10  C 4445.54   115.10  4446.17   114.47  4446.17   113.68 " style="stroke-width: 0.85 ;&st7; " /><path d=" M 4444.76,  134.93  C 4447.50   133.32  4448.41   129.79  4446.79   127.05 " style="stroke-width: 1.42 ;&st7; " /><path d=" M 4446.79,  127.05  C 4446.27   126.17  4445.64   125.53  4444.76   125.01 " style="stroke-width: 1.42 ;&st7; " /><path d=" M 4444.76,  115.10  C 4442.02   116.71  4441.11   120.24  4442.72   122.98 " style="stroke-width: 1.42 ;&st7; " /><path d=" M 4442.72,  122.98  C 4443.24   123.86  4443.88   124.49  4444.76   125.01 " style="stroke-width: 1.42 ;&st7; " /><path d=" M 4495.75,  588.19  C 4493.25   588.19  4491.22   590.22  4491.22   592.72 " style="stroke-width: 1.42 ;&st7; " /><path d=" M 4491.22,  592.72  C 4491.22   595.22  4493.25   597.25  4495.75   597.25 " style="stroke-width: 1.42 ;&st7; " /><path d=" M 4495.75,  597.25  C 4498.25   597.25  4500.28   595.22  4500.28   592.72 " style="stroke-width: 1.42 ;&st7; " /><path d=" M 4495.75,  553.63  C 4493.25   553.63  4491.22   555.66  4491.22   558.16 " style="stroke-width: 1.42 ;&st7; " /><path d=" M 4491.22,  558.16  C 4491.22   560.66  4493.25   562.69  4495.75   562.69 " style="stroke-width: 1.42 ;&st7; " /><path d=" M 4495.75,  562.69  C 4498.25   562.69  4500.28   560.66  4500.28   558.16 " style="stroke-width: 1.42 ;&st7; " /><path d=" M 4087.82,  115.10  C 4085.08   116.71  4084.17   120.24  4085.78   122.98 " style="stroke-width: 1.42 ;&st7; " /><path d=" M 4085.78,  122.98  C 4086.30   123.86  4086.94   124.49  4087.82   125.01 " style="stroke-width: 1.42 ;&st7; " /><path d=" M 4087.82,  134.93  C 4090.55   133.32  4091.47   129.79  4089.85   127.05 " style="stroke-width: 1.42 ;&st7; " /><path d=" M 4089.85,  127.05  C 4089.33   126.17  4088.70   125.53  4087.82   125.01 " style="stroke-width: 1.42 ;&st7; " /><path d=" M 4089.23,  113.68  C 4089.23   112.90  4088.60   112.27  4087.82   112.27 " style="stroke-width: 0.85 ;&st7; " /><path d=" M 4087.82,  112.27  C 4087.03   112.27  4086.40   112.90  4086.40   113.68 " style="stroke-width: 0.85 ;&st7; " /><path d=" M 4086.40,  113.68  C 4086.40   114.47  4087.03   115.10  4087.82   115.10 " style="stroke-width: 0.85 ;&st7; " /><path d=" M 4087.82,  115.10  C 4088.60   115.10  4089.23   114.47  4089.23   113.68 " style="stroke-width: 0.85 ;&st7; " /><path d=" M 4089.23,  136.35  C 4089.23   135.56  4088.60   134.93  4087.82   134.93 " style="stroke-width: 0.85 ;&st7; " /><path d=" M 4087.82,  134.93  C 4087.03   134.93  4086.40   135.56  4086.40   136.35 " style="stroke-width: 0.85 ;&st7; " /><path d=" M 4086.40,  136.35  C 4086.40   137.13  4087.03   137.76  4087.82   137.76 " style="stroke-width: 0.85 ;&st7; " /><path d=" M 4087.82,  137.76  C 4088.60   137.76  4089.23   137.13  4089.23   136.35 " style="stroke-width: 0.85 ;&st7; " /><path d=" M 4085.69,  163.26  C 4083.35   163.26  4081.44   165.16  4081.44   167.51 " style="stroke-width: 1.42 ;&st7; " /><path d=" M 4081.44,  167.51  C 4081.44   169.85  4083.35   171.76  4085.69   171.76 " style="stroke-width: 1.42 ;&st7; " /><path d=" M 4089.94,  171.76  C 4092.29   171.76  4094.19   169.85  4094.19   167.51 " style="stroke-width: 1.42 ;&st7; " /><path d=" M 4094.19,  167.51  C 4094.19   165.16  4092.29   163.26  4089.94   163.26 " style="stroke-width: 1.42 ;&st7; " /><path d=" M 4372.80,  243.71  C 4372.80   241.21  4370.77   239.18  4368.27   239.18 " style="stroke-width: 1.42 ;&st7; " /><path d=" M 4368.27,  239.18  C 4365.77   239.18  4363.74   241.21  4363.74   243.71 " style="stroke-width: 1.42 ;&st7; " /><path d=" M 4363.74,  243.71  C 4363.74   246.21  4365.77   248.24  4368.27   248.24 " style="stroke-width: 1.42 ;&st7; " /><path d=" M 4368.27,  248.24  C 4370.77   248.24  4372.80   246.21  4372.80   243.71 " style="stroke-width: 1.42 ;&st7; " /><path d=" M 4449.29,  243.71  C 4449.29   241.21  4447.26   239.18  4444.76   239.18 " style="stroke-width: 1.42 ;&st7; " /><path d=" M 4444.76,  239.18  C 4442.25   239.18  4440.22   241.21  4440.22   243.71 " style="stroke-width: 1.42 ;&st7; " /><path d=" M 4440.22,  243.71  C 4440.22   246.21  4442.25   248.24  4444.76   248.24 " style="stroke-width: 1.42 ;&st7; " /><path d=" M 4444.76,  248.24  C 4447.26   248.24  4449.29   246.21  4449.29   243.71 " style="stroke-width: 1.42 ;&st7; " /><path d=" M 4194.33,  490.74  C 4194.33   488.23  4192.30   486.20  4189.80   486.20 " style="stroke-width: 1.42 ;&st7; " /><path d=" M 4189.80,  486.20  C 4187.30   486.20  4185.27   488.23  4185.27   490.74 " style="stroke-width: 1.42 ;&st7; " /><path d=" M 4185.27,  490.74  C 4185.27   493.24  4187.30   495.27  4189.80   495.27 " style="stroke-width: 1.42 ;&st7; " /><path d=" M 4189.80,  495.27  C 4192.30   495.27  4194.33   493.24  4194.33   490.74 " style="stroke-width: 1.42 ;&st7; " /><path d=" M 4228.33,  490.74  C 4228.33   488.23  4226.30   486.20  4223.79   486.20 " style="stroke-width: 1.42 ;&st7; " /><path d=" M 4223.79,  486.20  C 4221.29   486.20  4219.26   488.23  4219.26   490.74 " style="stroke-width: 1.42 ;&st7; " /><path d=" M 4219.26,  490.74  C 4219.26   493.24  4221.29   495.27  4223.79   495.27 " style="stroke-width: 1.42 ;&st7; " /><path d=" M 4223.79,  495.27  C 4226.30   495.27  4228.33   493.24  4228.33   490.74 " style="stroke-width: 1.42 ;&st7; " /><path d=" M 4262.32,  490.74  C 4262.32   488.23  4260.29   486.20  4257.79   486.20 " style="stroke-width: 1.42 ;&st7; " /><path d=" M 4257.79,  486.20  C 4255.29   486.20  4253.26   488.23  4253.26   490.74 " style="stroke-width: 1.42 ;&st7; " /><path d=" M 4253.26,  490.74  C 4253.26   493.24  4255.29   495.27  4257.79   495.27 " style="stroke-width: 1.42 ;&st7; " /><path d=" M 4257.79,  495.27  C 4260.29   495.27  4262.32   493.24  4262.32   490.74 " style="stroke-width: 1.42 ;&st7; " /><path d=" M 4296.32,  490.74  C 4296.32   488.23  4294.29   486.20  4291.78   486.20 " style="stroke-width: 1.42 ;&st7; " /><path d=" M 4291.78,  486.20  C 4289.28   486.20  4287.25   488.23  4287.25   490.74 " style="stroke-width: 1.42 ;&st7; " /><path d=" M 4287.25,  490.74  C 4287.25   493.24  4289.28   495.27  4291.78   495.27 " style="stroke-width: 1.42 ;&st7; " /><path d=" M 4291.78,  495.27  C 4294.29   495.27  4296.32   493.24  4296.32   490.74 " style="stroke-width: 1.42 ;&st7; " /><text ewd:textID="13" style="&st18;" transform="matrix(&st16;  4288.87  347.95 )">Display</text><text ewd:textID="31" style="&st18;" transform="matrix(&st16;  4285.29  287.05 )">Power <tspan dy="6" x="0">Supply </tspan><tspan dy="6" x="0">Circuit</tspan></text><text style="&st18;" transform="matrix(&st16;  4199.52  458.43 )">CAN</text><text ewd:textID="23" style="&st18;" transform="matrix(&st17;  4479.31  339.79 )">Master</text><text style="&st18;" transform="matrix(&st16;  4260.62  482.51 )">+S</text><text style="&st18;" transform="matrix(&st16;  4294.62  482.51 )">SI</text><text style="&st18;" transform="matrix(&st16;  4192.63  482.51 )">CANL</text><text style="&st18;" transform="matrix(&st16;  4226.63  482.51 )">CANH</text><text style="&st18;" transform="matrix(&st16;  4371.1  256.44 )">B</text><text style="&st18;" transform="matrix(&st16;  4447.59  256.44 )">IG+</text><text style="&st18;" transform="matrix(&st16;  4462.06  124.16 )">5A <tspan dy="6" x="0">MET</tspan></text><text style="&st18;" transform="matrix(&st16;  4443.17  169.48 )">1</text><text style="&st18;" transform="matrix(&st16;  4437.97  154.45 )">2</text><text style="&st18;" transform="matrix(&st16;  4438.68  100.07 )">(IG)</text><text style="&st18;" transform="matrix(&st16;  4425.99  211.97 )">33</text><text style="&st18;" transform="matrix(&st17;  4441.06  191.32 )">B-R</text><text style="&st18;" transform="matrix(&st17;  4441.06  229.33 )">B</text><text style="&st18;" transform="matrix(&st16;  4309.09  124.16 )">5A <tspan dy="6" x="0">ECU-B1</tspan></text><text style="&st18;" transform="matrix(&st16;  4290.19  169.48 )">1</text><text style="&st18;" transform="matrix(&st16;  4284.99  154.45 )">2</text><text style="&st18;" transform="matrix(&st16;  4282.67  100.07 )">(BAT)</text><text style="&st18;" transform="matrix(&st16;  4275.91  211.97 )">13</text><text style="&st18;" transform="matrix(&st16;  4287.47  211.97 )">2B</text><text style="&st18;" transform="matrix(&st16;  4329.83  211.97 )">2D</text><text style="&st18;" transform="matrix(&st16;  4318.41  211.97 )">14</text><text style="&st18;" transform="matrix(&st16;  4323.53  171.45 )">86</text><text style="&st18;" transform="matrix(&st16;  4357.53  171.45 )">26</text><text style="&st18;" transform="matrix(&st17;  4288.09  195.22 )">R-L</text><text style="&st18;" transform="matrix(&st17;  4330.58  191.23 )">R</text><text style="&st18;" transform="matrix(&st17;  4364.57  191.23 )">R</text><text ewd:textID="21" style="&st18;" transform="matrix(&st17;  4391.49  165.78 )">Junction <tspan dy="6" x="0">Connector</tspan></text><text style="&st18;" transform="matrix(&st17;  4384.38  165.78 )">E59</text><text ewd:textID="9" style="&st18;" transform="matrix(&st16;  4357.25  347.95 )">Buzzer</text><text style="&st18;" transform="matrix(&st16;  4441.01  383.36 )">IG</text><text style="&st18;" transform="matrix(&st16;  4321.5  284.21 )">+B</text><text style="&st18;" transform="matrix(&st16;  4318.67  301.2 )">IG+</text><text style="&st18;" transform="matrix(&st16;  4170.47  550.5 )">V</text><text style="&st18;" transform="matrix(&st16;  4170.47  533.5 )">B</text><text style="&st18;" transform="matrix(&st17;  4492.05  614.24 )">BR</text><text style="&st18;" transform="matrix(&st17;  4492.05  546.25 )">BR</text><text style="&st18;" transform="matrix(&st16;  4493.42  560.13 )">A</text><text style="&st18;" transform="matrix(&st16;  4481.69  560.13 )">19</text><text style="&st18;" transform="matrix(&st16;  4493.42  594.69 )">B</text><text style="&st18;" transform="matrix(&st16;  4481.69  594.69 )">14</text><text style="&st18;" transform="matrix(&st17;  4288.09  578.89 )">V-W</text><text style="&st18;" transform="matrix(&st17;  4288.09  514.03 )">V</text><text style="&st18;" transform="matrix(&st16;  4170.47  567.49 )">V</text><text style="&st18;" transform="matrix(&st16;  4119.48  567.49 )">V</text><text style="&st18;" transform="matrix(&st16;  4119.48  550.5 )">V</text><text style="&st18;" transform="matrix(&st16;  4119.48  533.5 )">B</text><text style="&st18;" transform="matrix(&st16;  4494.28  159.57 )">15</text><text style="&st18;" transform="matrix(&st16;  4495.88  170.89 )">CA1L</text><text style="&st18;" transform="matrix(&st16;  4041.58  125.57 )">IG</text><text style="&st18;" transform="matrix(&st17;  4041.63  234.0 )">G</text><text style="&st18;" transform="matrix(&st17;  4041.63  161.76 )">G</text><text style="&st18;" transform="matrix(&st16;  4027.33  203.47 )">16</text><text style="&st18;" transform="matrix(&st16;  4119.83  643.98 )">L</text><text style="&st18;" transform="matrix(&st16;  4117.15  660.98 )">SB</text><text style="&st18;" transform="matrix(&st16;  4168.14  660.98 )">SB</text><text style="&st18;" transform="matrix(&st16;  4170.82  643.98 )">L</text><text style="&st18;" transform="matrix(&st16;  4170.47  74.58 )">B</text><text style="&st18;" transform="matrix(&st16;  4168.0  57.58 )">BR</text><text style="&st18;" transform="matrix(&st16;  4164.96  32.08 )">R-W</text><text style="&st18;" transform="matrix(&st16;  4170.33  15.09 )">R</text><text style="&st18;" transform="matrix(&st16;  4119.48  74.58 )">B</text><text style="&st18;" transform="matrix(&st16;  4117.01  57.58 )">BR</text><text style="&st18;" transform="matrix(&st16;  4113.97  32.08 )">R-W</text><text style="&st18;" transform="matrix(&st16;  4119.34  15.09 )">R</text><text style="&st18;" transform="matrix(&st16;  4273.01  534.92 )">27</text><text ewd:textID="3" style="&st18;" transform="matrix(&st16;  4365.75  522.17 )">* 8 :w/o VGRS</text><text ewd:textID="2" style="&st18;" transform="matrix(&st16;  4365.75  513.67 )">* 7 :w/ VGRS</text><text style="&st18;" transform="matrix(&st16;  4035.36  137.46 )">14</text><text ewd:textID="21" style="&st18;" transform="matrix(&st16;  4014.47  401.77 )">Junction <tspan dy="6" x="0">Connector</tspan></text><text style="&st18;" transform="matrix(&st16;  4014.47  394.66 )">E62</text><text ewd:textID="4" style="&st18;" transform="matrix(&st16;  4105.12  121.33 )">10A <tspan dy="6" x="0">ECU-IG </tspan><tspan dy="6" x="0">No.2</tspan></text><text style="&st18;" transform="matrix(&st16;  4083.37  169.48 )">2D</text><text style="&st18;" transform="matrix(&st16;  4075.13  169.48 )">7</text><text style="&st18;" transform="matrix(&st16;  4081.74  100.07 )">(IG)</text><text ewd:textID="21" style="&st18;" transform="matrix(&st17;  4111.03  242.27 )">Junction <tspan dy="6" x="0">Connector</tspan></text><text style="&st18;" transform="matrix(&st17;  4103.93  242.27 )">E60</text><text style="&st18;" transform="matrix(&st16;  4077.85  219.06 )">51</text><text style="&st18;" transform="matrix(&st16;  4077.85  247.94 )">31</text><text style="&st18;" transform="matrix(&st17;  4084.12  191.51 )">G</text><text style="&st18;" transform="matrix(&st16;  4354.21  245.68 )">17</text><text style="&st18;" transform="matrix(&st16;  4365.94  245.68 )">A</text><text style="&st18;" transform="matrix(&st16;  4430.7  245.68 )">18</text><text style="&st18;" transform="matrix(&st16;  4442.43  245.68 )">A</text><text style="&st18;" transform="matrix(&st16;  4174.97  492.71 )">26</text><text style="&st18;" transform="matrix(&st16;  4187.47  492.71 )">A</text><text style="&st18;" transform="matrix(&st16;  4208.96  492.71 )">25</text><text style="&st18;" transform="matrix(&st16;  4221.46  492.71 )">A</text><text style="&st18;" transform="matrix(&st16;  4246.91  492.71 )">4</text><text style="&st18;" transform="matrix(&st16;  4255.46  492.71 )">A</text><text style="&st18;" transform="matrix(&st16;  4280.91  492.71 )">3</text><text style="&st18;" transform="matrix(&st16;  4289.45  492.71 )">A</text></svg>