﻿<?xml version="1.0" encoding="utf-8"?>
<!DOCTYPE svg PUBLIC "-//W3C//DTD SVG 1.0//EN" "http://www.w3.org/TR/2001/REC-SVG-20010904/DTD/svg10.dtd"[
	<!ENTITY ns_flows "http://ns.adobe.com/Flows/1.0/">
	<!ENTITY ns_svg "http://www.w3.org/2000/svg">
	<!ENTITY ns_xlink "http://www.w3.org/1999/xlink">
	<!ENTITY st0 "font-size:7px;font-family:'MS-PGothic';adobe-font-script:japanese;">
	<!ENTITY st1 "font-size:6px;font-family:'ArialMT';">
	<!-- White fill  -->
	<!ENTITY st2 "fill:#FFFFFF;stroke:#000000; stroke-width:1.41;stroke-linecap:round;stroke-linejoin:round;">
	<!-- Yellow fill  -->
	<!ENTITY st3 "fill:#FFFFCC;stroke:#FFFFCC; stroke-width:0.1;stroke-linecap:round;stroke-linejoin:round;">
	<!-- Gray fill  -->
	<!ENTITY st4 "fill:#CCCCCC;stroke:#CCCCCC; stroke-width:0.1;stroke-linecap:round;stroke-linejoin:round;">
	<!-- Light-blue fill -->
	<!ENTITY st5 "fill:#CCECF4;stroke:#000000; stroke-width:1.133;stroke-linecap:round;stroke-linejoin:round;">
	<!ENTITY st6 "fill:none;stroke-linecap:butt; stroke-linejoin:round;">
	<!ENTITY st7 "fill:none;stroke:#000000;stroke-linecap:round;stroke-linejoin:round;">
	<!ENTITY st8 "enable-background:new    ;">
	<!-- Black fill -->
	<!ENTITY st9 "fill:#000000;stroke:#000000; stroke-linecap:round;stroke-linejoin:round;">
	<!-- SRS note   -->
	<!ENTITY st10 "font-size:9px;font-family:'ArialMT';">
	<!ENTITY st11 "font-size:9px;font-family:'Svg Symbol';">
	<!ENTITY st12 "font-size:6px;font-family:'Svg Symbol';">
	<!ENTITY st13 "fill:none;stroke:#ff0000;stroke-linecap:round;stroke-linejoin:round;">
	<!-- Yellow fill  -->
	<!ENTITY st14 "fill:#FFFF00;stroke:#FFFF00; stroke-width:0.1;stroke-linecap:round;stroke-linejoin:round;">
	<!ENTITY st15 "font-size:6px;font-family:'MS-PGothic';adobe-font-script:japanese;">
	<!ENTITY st16 "1.00 0.00 0.00 1.00">
	<!ENTITY st17 "0.00 -1.00 1.00 0.00">
	<!ENTITY st18 "font-size:6px;font-family:'Arial';">
	<!ENTITY st19 "font-size:9px;font-family:'Arial';">
	<!ENTITY st20 "font-size:6px;font-family:'MS-PGothic','MS PGothic';adobe-font-script:japanese;">
	<!ENTITY st21 "font-size:7px;font-family:'MS-PGothic','MS PGothic';adobe-font-script:japanese;">
	<!ATTLIST svg
		xmlns:ewd CDATA #FIXED "http://shcl.co.jp/ewd"
		xmlns:a CDATA #FIXED "http://ns.adobe.com/AdobeSVGViewerExtensions/3.0/"
		ewd:ver CDATA #IMPLIED
	>
	<!ATTLIST a
		ewd:lineID CDATA #IMPLIED
		ewd:groupID CDATA #IMPLIED
		ewd:figtype CDATA #IMPLIED
		ewd:code CDATA #IMPLIED
		ewd:figID CDATA #IMPLIED
		ewd:pinNo CDATA #IMPLIED
		ewd:comment CDATA #IMPLIED >
	<!ATTLIST g
		ewd:lineID CDATA #IMPLIED
		ewd:groupID CDATA #IMPLIED
		ewd:figtype CDATA #IMPLIED
		ewd:code CDATA #IMPLIED
		ewd:figID CDATA #IMPLIED
		ewd:pinNo CDATA #IMPLIED
		ewd:comment CDATA #IMPLIED >
	<!ATTLIST text
		ewd:textID CDATA #IMPLIED >
	<!ATTLIST title
		ewd:textID CDATA #IMPLIED >
]>
<!-- Generator: Shintec Hozumi YS   -->
<svg onload="call_execInitLoadProc_svg('system')" style="overflow:visible;  enable-background:new 0 0 8677.758 710.000" viewBox="0 0 8677.758 710.000" height="710.000" width="8677.758" xml:space="preserve" ewd:ver="L2.1.2.8" xmlns="&ns_svg;" xmlns:a="http://ns.adobe.com/AdobeSVGViewerExtensions/3.0/" xmlns:ewd="http://shcl.co.jp/ewd" xmlns:xlink="&ns_xlink;">
<path d=" M 5473.09,  562.69  L 5473.09,  549.94 " style="stroke-width: 0.85 ;&st7; " /><path d=" M 5473.09,  524.45  L 5473.09,  520.20 " style="stroke-width: 0.85 ;&st7; " /><path d=" M 5252.12,  435.21  L 5260.62,  435.21 " style="stroke-width: 1.42 ;&st7; " /><path d=" M 5218.13,  435.21  L 5226.63,  435.21 " style="stroke-width: 1.42 ;&st7; " /><path d=" M 5252.12,  392.72  L 5260.62,  392.72 " style="stroke-width: 1.42 ;&st7; " /><path d=" M 5243.62,  205.75  L 5235.13,  205.75 " style="stroke-width: 1.42 ;&st7; " /><path d=" M 5286.12,  205.75  L 5277.62,  205.75 " style="stroke-width: 1.42 ;&st7; " /><path d=" M 5022.66,   69.77  L 5022.66,   95.27 " style="stroke-width: 0.85 ;&st7; " /><path d=" M 5024.79,   95.27  L 5020.54,   95.27 " style="stroke-width: 1.42 ;&st7; " /><path d=" M 5024.79,  103.77  L 5020.54,  103.77 " style="stroke-width: 1.42 ;&st7; " /><path d=" M 5084.28,  103.77  L 5080.03,  103.77 " style="stroke-width: 1.42 ;&st7; " /><path d=" M 5084.28,   95.27  L 5080.03,   95.27 " style="stroke-width: 1.42 ;&st7; " /><path d=" M 5082.15,   69.77  L 5082.15,   95.27 " style="stroke-width: 0.85 ;&st7; " /><path d=" M 5056.66,  190.17  L 5062.32,  167.51 " style="stroke-width: 1.42 ;&st7; " /><path d=" M 5056.66,  197.25  L 5056.66,  193.00 " style="stroke-width: 0.85 ;&st7; " /><path d=" M 5056.66,  167.51  L 5056.66,  163.26 " style="stroke-width: 0.85 ;&st7; " /><path d=" M 5082.15,  167.51  L 5082.15,  163.26 " style="stroke-width: 0.85 ;&st7; " /><path d=" M 5082.15,  197.25  L 5082.15,  193.00 " style="stroke-width: 0.85 ;&st7; " /><path d=" M 5082.15,  190.17  L 5080.46,  166.05 " style="stroke-width: 1.42 ;&st7; " /><path d=" M 5362.60,  384.22  L 5371.10,  384.22 " style="stroke-width: 1.42 ;&st7; " /><path d=" M 5218.13,  392.72  L 5226.63,  392.72 " style="stroke-width: 1.42 ;&st7; " /><path d=" M 5405.10,  384.22  L 5413.60,  384.22 " style="stroke-width: 1.42 ;&st7; " /><path d=" M 5371.10,  547.11  L 5376.77,  524.45 " style="stroke-width: 1.42 ;&st7; " /><path d=" M 5371.10,  554.19  L 5371.10,  549.94 " style="stroke-width: 0.85 ;&st7; " /><path d=" M 5371.10,  524.45  L 5371.10,  511.70 " style="stroke-width: 0.85 ;&st7; " /><path d=" M 5413.60,  547.11  L 5419.26,  524.45 " style="stroke-width: 1.42 ;&st7; " /><path d=" M 5413.60,  554.19  L 5413.60,  549.94 " style="stroke-width: 0.85 ;&st7; " /><path d=" M 5413.60,  524.45  L 5413.60,  511.70 " style="stroke-width: 0.85 ;&st7; " /><path d=" M 5473.09,  547.11  L 5478.75,  524.45 " style="stroke-width: 1.42 ;&st7; " /><path d=" M 5073.65,  525.17  L 5068.68,  520.20 " style="stroke-width: 1.42 ;&st7; " /><path d=" M 5056.66,  532.23  L 5061.63,  537.20 " style="stroke-width: 1.42 ;&st7; " /><path d=" M 5068.68,  537.20  L 5073.65,  532.23 " style="stroke-width: 1.42 ;&st7; " /><path d=" M 5061.63,  520.20  L 5056.66,  525.17 " style="stroke-width: 1.42 ;&st7; " /><path d=" M 5235.13,  613.68  L 5226.63,  613.68 " style="stroke-width: 1.42 ;&st7; " /><path d=" M 5294.61,  630.68  L 5294.61,  647.68 " style="stroke-width: 0.85 ;&st7; " /><path d=" M 5286.11,  630.68  L 5303.11,  630.68  L 5303.11,  647.68  L 5286.11,  647.68  L 5286.11,  630.68 " style="stroke-width: 1.42 ;&st7; " /><path d=" M 5366.85,  375.16  L 5371.10,  379.41  L 5375.35,  375.16 " style="stroke-width: 1.42 ;&st7; " /><path d=" M 5375.35,  378.56  L 5371.10,  382.80  L 5366.85,  378.56 " style="stroke-width: 1.42 ;&st7; " /><path d=" M 5264.87,  387.05  L 5260.62,  391.30  L 5256.37,  387.05 " style="stroke-width: 1.42 ;&st7; " /><path d=" M 5256.37,  383.65  L 5260.62,  387.90  L 5264.87,  383.65 " style="stroke-width: 1.42 ;&st7; " /><path d=" M 5473.08,  562.69  L 5473.08,  571.19 " style="stroke-width: 0.85 ;&st7; " /><path d=" M 5447.59,  571.19  L 5447.59,  520.20  L 5473.08,  520.20 " style="stroke-width: 0.85 ;&st7; " /><path d=" M 5412.40,  561.69  L 5412.13,  562.16  L 5412.04,  562.69  L 5412.13,  563.22  L 5412.40,  563.69  L 5412.81,  564.04  L 5413.32,  564.23  L 5413.86,  564.23  L 5414.37,  564.04  L 5414.79,  563.69  L 5415.06,  563.22  L 5415.15,  562.69  L 5415.06,  562.16  L 5414.79,  561.69  L 5414.37,  561.34  L 5413.86,  561.16  L 5413.32,  561.16  L 5412.81,  561.34  L 5412.40,  561.69  L 5412.79,  562.40  L 5412.79,  562.98  L 5413.17,  563.43  L 5413.74,  563.53  L 5414.24,  563.24  L 5414.44,  562.69  L 5414.24,  562.14  L 5413.74,  561.86  L 5413.17,  561.95  L 5413.59,  562.69 " style="stroke-width: 0.85 ;&st7; " /><path d=" M 5413.59,  571.19  L 5413.59,  554.19 " style="stroke-width: 0.85 ;&st7; " /><path d=" M 5413.59,  562.69  L 5371.10,  562.69  L 5371.10,  554.19 " style="stroke-width: 0.85 ;&st7; " /><path d=" M 5063.74,  710.00  L 5066.57,  710.00 " style="stroke-width: 0.85 ;&st7; " /><path d=" M 5062.32,  707.17  L 5067.98,  707.17 " style="stroke-width: 0.85 ;&st7; " /><path d=" M 5060.90,  704.33  L 5069.40,  704.33 " style="stroke-width: 0.85 ;&st7; " /><path d=" M 5056.65,  701.50  L 5073.65,  701.50 " style="stroke-width: 0.85 ;&st7; " /><path d=" M 5065.15,  697.25  L 5065.15,  701.50 " style="stroke-width: 0.85 ;&st7; " /><path d=" M 5157.22,  710.00  L 5160.05,  710.00 " style="stroke-width: 0.85 ;&st7; " /><path d=" M 5155.80,  707.17  L 5161.47,  707.17 " style="stroke-width: 0.85 ;&st7; " /><path d=" M 5154.39,  704.33  L 5162.89,  704.33 " style="stroke-width: 0.85 ;&st7; " /><path d=" M 5150.14,  701.50  L 5167.13,  701.50 " style="stroke-width: 0.85 ;&st7; " /><path d=" M 5158.64,  697.25  L 5158.64,  701.50 " style="stroke-width: 0.85 ;&st7; " /><path d=" M 5256.37,  426.15  L 5260.62,  430.40  L 5264.87,  426.15 " style="stroke-width: 1.42 ;&st7; " /><path d=" M 5230.87,  429.55  L 5226.62,  433.80  L 5222.38,  429.55 " style="stroke-width: 1.42 ;&st7; " /><path d=" M 5222.38,  426.15  L 5226.62,  430.40  L 5230.87,  426.15 " style="stroke-width: 1.42 ;&st7; " /><path d=" M 5413.59,  630.68  L 5413.59,  647.68 " style="stroke-width: 0.85 ;&st7; " /><path d=" M 5405.09,  630.68  L 5422.09,  630.68  L 5422.09,  647.68  L 5405.09,  647.68  L 5405.09,  630.68 " style="stroke-width: 1.42 ;&st7; " /><path d=" M 5293.20,  710.00  L 5296.03,  710.00 " style="stroke-width: 0.85 ;&st7; " /><path d=" M 5291.78,  707.17  L 5297.45,  707.17 " style="stroke-width: 0.85 ;&st7; " /><path d=" M 5290.36,  704.33  L 5298.86,  704.33 " style="stroke-width: 0.85 ;&st7; " /><path d=" M 5286.11,  701.50  L 5303.11,  701.50 " style="stroke-width: 0.85 ;&st7; " /><path d=" M 5294.61,  697.25  L 5294.61,  701.50 " style="stroke-width: 0.85 ;&st7; " /><path d=" M 5409.34,  375.16  L 5413.59,  379.41  L 5417.84,  375.16 " style="stroke-width: 1.42 ;&st7; " /><path d=" M 5417.84,  378.56  L 5413.59,  382.80  L 5409.34,  378.56 " style="stroke-width: 1.42 ;&st7; " /><path d=" M 5354.10,  511.70  L 5354.10,  571.19  L 5490.08,  571.19  L 5490.08,  511.70  L 5354.10,  511.70 " style="stroke-width: 1.42 ;&st7; " /><path d=" M 5264.87,  429.55  L 5260.62,  433.80  L 5256.37,  429.55 " style="stroke-width: 1.42 ;&st7; " /><path d=" M 5222.38,  383.65  L 5226.62,  387.90  L 5230.87,  383.65 " style="stroke-width: 1.42 ;&st7; " /><path d=" M 5230.87,  387.05  L 5226.62,  391.30  L 5222.38,  387.05 " style="stroke-width: 1.42 ;&st7; " /><path d=" M 5059.13,  180.26  L 5081.45,  180.26 " style="stroke-width: 0.85 ;&st7;stroke-dasharray:3, 1.5;" /><path d=" M 5048.15,  163.26  L 5090.65,  163.26  L 5090.65,  197.25  L 5048.15,  197.25  L 5048.15,  163.26 " style="stroke-width: 1.42 ;&st7; " /><path d=" M 5094.90,   78.27  L 5094.90,   35.78  L 5069.40,   35.78  L 5069.40,   78.27  L 5094.90,   78.27 " style="stroke-width: 1.42 ;&st7; " /><path d=" M 5082.15,   90.37  L 5079.32,   87.54  L 5079.32,   91.79  L 5082.15,   94.62  L 5084.98,   91.79  L 5084.98,   87.54  L 5082.15,   90.37 " style="stroke-width: 0.28 ;&st9;" /><path d=" M 5243.62,  506.60  L 5235.12,  506.60 " style="stroke-width: 0.85 ;&st7;stroke-dasharray:3, 1.5;" /><path d=" M 5235.12,  515.67  L 5247.87,  515.67 " style="stroke-width: 0.85 ;&st7;stroke-dasharray:3, 1.5;" /><path d=" M 5281.87,  211.42  L 5277.62,  207.17  L 5273.37,  211.42 " style="stroke-width: 1.42 ;&st7; " /><path d=" M 5281.87,  214.82  L 5277.62,  210.57  L 5273.37,  214.82 " style="stroke-width: 1.42 ;&st7; " /><path d=" M 5239.37,  211.42  L 5235.12,  207.17  L 5230.87,  211.42 " style="stroke-width: 1.42 ;&st7; " /><path d=" M 5239.37,  214.82  L 5235.12,  210.57  L 5230.87,  214.82 " style="stroke-width: 1.42 ;&st7; " /><path d=" M 5226.62,  129.26  L 5226.62,  146.26  L 5286.11,  146.26  L 5286.11,  129.26  L 5226.62,  129.26 " style="stroke-width: 1.42 ;&st7; " /><path d=" M 5235.12,  129.26  L 5235.12,  146.26 " style="stroke-width: 0.85 ;&st7; " /><path d=" M 5277.62,  146.26  L 5277.62,  129.26 " style="stroke-width: 0.85 ;&st7; " /><path d=" M 5035.41,   78.27  L 5035.41,   35.78  L 5009.91,   35.78  L 5009.91,   78.27  L 5035.41,   78.27 " style="stroke-width: 1.42 ;&st7; " /><path d=" M 5022.66,   90.37  L 5019.83,   87.54  L 5019.83,   91.79  L 5022.66,   94.62  L 5025.49,   91.79  L 5025.49,   87.54  L 5022.66,   90.37 " style="stroke-width: 0.28 ;&st9;" /><path d=" M 5294.61,  639.18  L 5286.11,  639.18 " style="stroke-width: 0.85 ;&st7; " /><path d=" M 5293.42,  638.18  L 5293.15,  638.65  L 5293.06,  639.18  L 5293.15,  639.71  L 5293.42,  640.18  L 5293.83,  640.53  L 5294.34,  640.71  L 5294.88,  640.71  L 5295.39,  640.53  L 5295.81,  640.18  L 5296.08,  639.71  L 5296.17,  639.18  L 5296.08,  638.65  L 5295.81,  638.18  L 5295.39,  637.83  L 5294.88,  637.64  L 5294.34,  637.64  L 5293.83,  637.83  L 5293.42,  638.18  L 5293.81,  638.89  L 5293.81,  639.47  L 5294.19,  639.92  L 5294.76,  640.01  L 5295.26,  639.73  L 5295.46,  639.18  L 5295.26,  638.63  L 5294.76,  638.34  L 5294.19,  638.44  L 5294.61,  639.18 " style="stroke-width: 0.85 ;&st7; " /><path d=" M 5209.63,  520.20  L 5209.63,  562.69  L 5277.62,  562.69  L 5277.62,  520.20  L 5209.63,  520.20 " style="stroke-width: 1.42 ;&st7; " /><path d=" M 5124.64,  697.25  L 5124.64,  701.50 " style="stroke-width: 0.85 ;&st7; " /><path d=" M 5116.14,  701.50  L 5133.14,  701.50 " style="stroke-width: 0.85 ;&st7; " /><path d=" M 5120.39,  704.33  L 5128.89,  704.33 " style="stroke-width: 0.85 ;&st7; " /><path d=" M 5121.81,  707.17  L 5127.47,  707.17 " style="stroke-width: 0.85 ;&st7; " /><path d=" M 5123.23,  710.00  L 5126.06,  710.00 " style="stroke-width: 0.85 ;&st7; " /><path d=" M 5230.87,  622.75  L 5226.62,  618.50  L 5222.38,  622.75 " style="stroke-width: 1.42 ;&st7; " /><path d=" M 5230.87,  619.35  L 5226.62,  615.10  L 5222.38,  619.35 " style="stroke-width: 1.42 ;&st7; " /><path d=" M 5320.11,  443.71  L 5320.11,  460.71 " style="stroke-width: 0.85 ;&st7; " /><path d=" M 5311.61,  443.71  L 5328.61,  443.71  L 5328.61,  460.71  L 5311.61,  460.71  L 5311.61,  443.71 " style="stroke-width: 1.42 ;&st7; " /><path d=" M 5464.58,  443.71  L 5464.58,  460.71 " style="stroke-width: 0.85 ;&st7; " /><path d=" M 5456.09,  443.71  L 5473.08,  443.71  L 5473.08,  460.71  L 5456.09,  460.71  L 5456.09,  443.71 " style="stroke-width: 1.42 ;&st7; " /><path d=" M 5088.52,   99.52  C 5088.52    97.17  5086.62    95.27  5084.28    95.27 " style="stroke-width: 1.42 ;&st7; " /><path d=" M 5084.28,  103.77  C 5086.62   103.77  5088.52   101.87  5088.52    99.52 " style="stroke-width: 1.42 ;&st7; " /><path d=" M 5075.78,   99.52  C 5075.78   101.87  5077.68   103.77  5080.03   103.77 " style="stroke-width: 1.42 ;&st7; " /><path d=" M 5080.03,   95.27  C 5077.68    95.27  5075.78    97.17  5075.78    99.52 " style="stroke-width: 1.42 ;&st7; " /><path d=" M 5083.57,   68.36  C 5083.57    67.57  5082.93    66.94  5082.15    66.94 " style="stroke-width: 0.85 ;&st7; " /><path d=" M 5082.15,   66.94  C 5081.37    66.94  5080.73    67.57  5080.73    68.36 " style="stroke-width: 0.85 ;&st7; " /><path d=" M 5080.73,   68.36  C 5080.73    69.14  5081.37    69.77  5082.15    69.77 " style="stroke-width: 0.85 ;&st7; " /><path d=" M 5082.15,   69.77  C 5082.93    69.77  5083.57    69.14  5083.57    68.36 " style="stroke-width: 0.85 ;&st7; " /><path d=" M 5083.57,   45.69  C 5083.57    44.91  5082.93    44.28  5082.15    44.28 " style="stroke-width: 0.85 ;&st7; " /><path d=" M 5082.15,   44.28  C 5081.37    44.28  5080.73    44.91  5080.73    45.69 " style="stroke-width: 0.85 ;&st7; " /><path d=" M 5080.73,   45.69  C 5080.73    46.48  5081.37    47.11  5082.15    47.11 " style="stroke-width: 0.85 ;&st7; " /><path d=" M 5082.15,   47.11  C 5082.93    47.11  5083.57    46.48  5083.57    45.69 " style="stroke-width: 0.85 ;&st7; " /><path d=" M 5082.15,   66.94  C 5084.89    65.33  5085.80    61.80  5084.19    59.06 " style="stroke-width: 1.42 ;&st7; " /><path d=" M 5084.19,   59.06  C 5083.67    58.18  5083.03    57.55  5082.15    57.03 " style="stroke-width: 1.42 ;&st7; " /><path d=" M 5082.15,   47.11  C 5079.41    48.72  5078.50    52.25  5080.11    54.99 " style="stroke-width: 1.42 ;&st7; " /><path d=" M 5080.11,   54.99  C 5080.63    55.87  5081.27    56.51  5082.15    57.03 " style="stroke-width: 1.42 ;&st7; " /><path d=" M 5058.07,  191.59  C 5058.07   190.80  5057.44   190.17  5056.66   190.17 " style="stroke-width: 0.85 ;&st7; " /><path d=" M 5056.66,  190.17  C 5055.87   190.17  5055.24   190.80  5055.24   191.59 " style="stroke-width: 0.85 ;&st7; " /><path d=" M 5055.24,  191.59  C 5055.24   192.37  5055.87   193.00  5056.66   193.00 " style="stroke-width: 0.85 ;&st7; " /><path d=" M 5056.66,  193.00  C 5057.44   193.00  5058.07   192.37  5058.07   191.59 " style="stroke-width: 0.85 ;&st7; " /><path d=" M 5058.07,  168.92  C 5058.07   168.14  5057.44   167.51  5056.66   167.51 " style="stroke-width: 0.85 ;&st7; " /><path d=" M 5056.66,  167.51  C 5055.87   167.51  5055.24   168.14  5055.24   168.92 " style="stroke-width: 0.85 ;&st7; " /><path d=" M 5055.24,  168.92  C 5055.24   169.71  5055.87   170.34  5056.66   170.34 " style="stroke-width: 0.85 ;&st7; " /><path d=" M 5056.66,  170.34  C 5057.44   170.34  5058.07   169.71  5058.07   168.92 " style="stroke-width: 0.85 ;&st7; " /><path d=" M 5083.57,  168.92  C 5083.57   168.14  5082.93   167.51  5082.15   167.51 " style="stroke-width: 0.85 ;&st7; " /><path d=" M 5082.15,  167.51  C 5081.37   167.51  5080.73   168.14  5080.73   168.92 " style="stroke-width: 0.85 ;&st7; " /><path d=" M 5080.73,  168.92  C 5080.73   169.71  5081.37   170.34  5082.15   170.34 " style="stroke-width: 0.85 ;&st7; " /><path d=" M 5082.15,  170.34  C 5082.93   170.34  5083.57   169.71  5083.57   168.92 " style="stroke-width: 0.85 ;&st7; " /><path d=" M 5083.57,  191.59  C 5083.57   190.80  5082.93   190.17  5082.15   190.17 " style="stroke-width: 0.85 ;&st7; " /><path d=" M 5082.15,  190.17  C 5081.37   190.17  5080.73   190.80  5080.73   191.59 " style="stroke-width: 0.85 ;&st7; " /><path d=" M 5080.73,  191.59  C 5080.73   192.37  5081.37   193.00  5082.15   193.00 " style="stroke-width: 0.85 ;&st7; " /><path d=" M 5082.15,  193.00  C 5082.93   193.00  5083.57   192.37  5083.57   191.59 " style="stroke-width: 0.85 ;&st7; " /><path d=" M 5086.68,  260.71  C 5086.68   258.21  5084.65   256.18  5082.15   256.18 " style="stroke-width: 1.42 ;&st7; " /><path d=" M 5082.15,  256.18  C 5079.65   256.18  5077.62   258.21  5077.62   260.71 " style="stroke-width: 1.42 ;&st7; " /><path d=" M 5077.62,  260.71  C 5077.62   263.21  5079.65   265.24  5082.15   265.24 " style="stroke-width: 1.42 ;&st7; " /><path d=" M 5082.15,  265.24  C 5084.65   265.24  5086.68   263.21  5086.68   260.71 " style="stroke-width: 1.42 ;&st7; " /><path d=" M 5418.13,  329.26  C 5418.13   326.76  5416.10   324.73  5413.60   324.73 " style="stroke-width: 1.42 ;&st7; " /><path d=" M 5413.60,  324.73  C 5411.09   324.73  5409.06   326.76  5409.06   329.26 " style="stroke-width: 1.42 ;&st7; " /><path d=" M 5409.06,  329.26  C 5409.06   331.77  5411.09   333.80  5413.60   333.80 " style="stroke-width: 1.42 ;&st7; " /><path d=" M 5413.60,  333.80  C 5416.10   333.80  5418.13   331.77  5418.13   329.26 " style="stroke-width: 1.42 ;&st7; " /><path d=" M 5418.13,  260.71  C 5418.13   258.21  5416.10   256.18  5413.60   256.18 " style="stroke-width: 1.42 ;&st7; " /><path d=" M 5413.60,  256.18  C 5411.09   256.18  5409.06   258.21  5409.06   260.71 " style="stroke-width: 1.42 ;&st7; " /><path d=" M 5409.06,  260.71  C 5409.06   263.21  5411.09   265.24  5413.60   265.24 " style="stroke-width: 1.42 ;&st7; " /><path d=" M 5413.60,  265.24  C 5416.10   265.24  5418.13   263.21  5418.13   260.71 " style="stroke-width: 1.42 ;&st7; " /><path d=" M 5375.64,  329.26  C 5375.64   326.76  5373.61   324.73  5371.10   324.73 " style="stroke-width: 1.42 ;&st7; " /><path d=" M 5371.10,  324.73  C 5368.60   324.73  5366.57   326.76  5366.57   329.26 " style="stroke-width: 1.42 ;&st7; " /><path d=" M 5366.57,  329.26  C 5366.57   331.77  5368.60   333.80  5371.10   333.80 " style="stroke-width: 1.42 ;&st7; " /><path d=" M 5371.10,  333.80  C 5373.61   333.80  5375.64   331.77  5375.64   329.26 " style="stroke-width: 1.42 ;&st7; " /><path d=" M 5375.64,  260.71  C 5375.64   258.21  5373.61   256.18  5371.10   256.18 " style="stroke-width: 1.42 ;&st7; " /><path d=" M 5371.10,  256.18  C 5368.60   256.18  5366.57   258.21  5366.57   260.71 " style="stroke-width: 1.42 ;&st7; " /><path d=" M 5366.57,  260.71  C 5366.57   263.21  5368.60   265.24  5371.10   265.24 " style="stroke-width: 1.42 ;&st7; " /><path d=" M 5371.10,  265.24  C 5373.61   265.24  5375.64   263.21  5375.64   260.71 " style="stroke-width: 1.42 ;&st7; " /><path d=" M 5333.14,  260.71  C 5333.14   258.21  5331.11   256.18  5328.61   256.18 " style="stroke-width: 1.42 ;&st7; " /><path d=" M 5328.61,  256.18  C 5326.11   256.18  5324.08   258.21  5324.08   260.71 " style="stroke-width: 1.42 ;&st7; " /><path d=" M 5324.08,  260.71  C 5324.08   263.21  5326.11   265.24  5328.61   265.24 " style="stroke-width: 1.42 ;&st7; " /><path d=" M 5328.61,  265.24  C 5331.11   265.24  5333.14   263.21  5333.14   260.71 " style="stroke-width: 1.42 ;&st7; " /><path d=" M 5163.17,  329.26  C 5163.17   326.76  5161.14   324.73  5158.64   324.73 " style="stroke-width: 1.42 ;&st7; " /><path d=" M 5158.64,  324.73  C 5156.13   324.73  5154.11   326.76  5154.11   329.26 " style="stroke-width: 1.42 ;&st7; " /><path d=" M 5154.11,  329.26  C 5154.11   331.77  5156.13   333.80  5158.64   333.80 " style="stroke-width: 1.42 ;&st7; " /><path d=" M 5158.64,  333.80  C 5161.14   333.80  5163.17   331.77  5163.17   329.26 " style="stroke-width: 1.42 ;&st7; " /><path d=" M 5103.68,  329.26  C 5103.68   326.76  5101.65   324.73  5099.15   324.73 " style="stroke-width: 1.42 ;&st7; " /><path d=" M 5099.15,  324.73  C 5096.64   324.73  5094.62   326.76  5094.62   329.26 " style="stroke-width: 1.42 ;&st7; " /><path d=" M 5094.62,  329.26  C 5094.62   331.77  5096.64   333.80  5099.15   333.80 " style="stroke-width: 1.42 ;&st7; " /><path d=" M 5099.15,  333.80  C 5101.65   333.80  5103.68   331.77  5103.68   329.26 " style="stroke-width: 1.42 ;&st7; " /><path d=" M 5069.69,  329.26  C 5069.69   326.76  5067.66   324.73  5065.15   324.73 " style="stroke-width: 1.42 ;&st7; " /><path d=" M 5065.15,  324.73  C 5062.65   324.73  5060.62   326.76  5060.62   329.26 " style="stroke-width: 1.42 ;&st7; " /><path d=" M 5060.62,  329.26  C 5060.62   331.77  5062.65   333.80  5065.15   333.80 " style="stroke-width: 1.42 ;&st7; " /><path d=" M 5065.15,  333.80  C 5067.66   333.80  5069.69   331.77  5069.69   329.26 " style="stroke-width: 1.42 ;&st7; " /><path d=" M 5035.69,  329.26  C 5035.69   326.76  5033.66   324.73  5031.16   324.73 " style="stroke-width: 1.42 ;&st7; " /><path d=" M 5031.16,  324.73  C 5028.66   324.73  5026.63   326.76  5026.63   329.26 " style="stroke-width: 1.42 ;&st7; " /><path d=" M 5026.63,  329.26  C 5026.63   331.77  5028.66   333.80  5031.16   333.80 " style="stroke-width: 1.42 ;&st7; " /><path d=" M 5031.16,  333.80  C 5033.66   333.80  5035.69   331.77  5035.69   329.26 " style="stroke-width: 1.42 ;&st7; " /><path d=" M 5265.15,  329.26  C 5265.15   326.76  5263.12   324.73  5260.62   324.73 " style="stroke-width: 1.42 ;&st7; " /><path d=" M 5260.62,  324.73  C 5258.12   324.73  5256.09   326.76  5256.09   329.26 " style="stroke-width: 1.42 ;&st7; " /><path d=" M 5256.09,  329.26  C 5256.09   331.77  5258.12   333.80  5260.62   333.80 " style="stroke-width: 1.42 ;&st7; " /><path d=" M 5260.62,  333.80  C 5263.12   333.80  5265.15   331.77  5265.15   329.26 " style="stroke-width: 1.42 ;&st7; " /><path d=" M 5231.16,  329.26  C 5231.16   326.76  5229.13   324.73  5226.63   324.73 " style="stroke-width: 1.42 ;&st7; " /><path d=" M 5226.63,  324.73  C 5224.12   324.73  5222.09   326.76  5222.09   329.26 " style="stroke-width: 1.42 ;&st7; " /><path d=" M 5222.09,  329.26  C 5222.09   331.77  5224.12   333.80  5226.63   333.80 " style="stroke-width: 1.42 ;&st7; " /><path d=" M 5226.63,  333.80  C 5229.13   333.80  5231.16   331.77  5231.16   329.26 " style="stroke-width: 1.42 ;&st7; " /><path d=" M 5001.70,  329.26  C 5001.70   326.76  4999.67   324.73  4997.17   324.73 " style="stroke-width: 1.42 ;&st7; " /><path d=" M 5282.15,  260.71  C 5282.15   258.21  5280.12   256.18  5277.62   256.18 " style="stroke-width: 1.42 ;&st7; " /><path d=" M 5277.62,  256.18  C 5275.11   256.18  5273.09   258.21  5273.09   260.71 " style="stroke-width: 1.42 ;&st7; " /><path d=" M 5273.09,  260.71  C 5273.09   263.21  5275.11   265.24  5277.62   265.24 " style="stroke-width: 1.42 ;&st7; " /><path d=" M 5277.62,  265.24  C 5280.12   265.24  5282.15   263.21  5282.15   260.71 " style="stroke-width: 1.42 ;&st7; " /><path d=" M 5239.66,  260.71  C 5239.66   258.21  5237.63   256.18  5235.13   256.18 " style="stroke-width: 1.42 ;&st7; " /><path d=" M 5235.13,  256.18  C 5232.62   256.18  5230.59   258.21  5230.59   260.71 " style="stroke-width: 1.42 ;&st7; " /><path d=" M 5230.59,  260.71  C 5230.59   263.21  5232.62   265.24  5235.13   265.24 " style="stroke-width: 1.42 ;&st7; " /><path d=" M 5235.13,  265.24  C 5237.63   265.24  5239.66   263.21  5239.66   260.71 " style="stroke-width: 1.42 ;&st7; " /><path d=" M 5061.19,  260.71  C 5061.19   258.21  5059.16   256.18  5056.66   256.18 " style="stroke-width: 1.42 ;&st7; " /><path d=" M 5056.66,  256.18  C 5054.15   256.18  5052.12   258.21  5052.12   260.71 " style="stroke-width: 1.42 ;&st7; " /><path d=" M 5052.12,  260.71  C 5052.12   263.21  5054.15   265.24  5056.66   265.24 " style="stroke-width: 1.42 ;&st7; " /><path d=" M 5056.66,  265.24  C 5059.16   265.24  5061.19   263.21  5061.19   260.71 " style="stroke-width: 1.42 ;&st7; " /><path d=" M 5022.66,   47.11  C 5019.92    48.72  5019.01    52.25  5020.62    54.99 " style="stroke-width: 1.42 ;&st7; " /><path d=" M 5020.62,   54.99  C 5021.14    55.87  5021.78    56.51  5022.66    57.03 " style="stroke-width: 1.42 ;&st7; " /><path d=" M 5022.66,   66.94  C 5025.40    65.33  5026.31    61.80  5024.70    59.06 " style="stroke-width: 1.42 ;&st7; " /><path d=" M 5024.70,   59.06  C 5024.18    58.18  5023.54    57.55  5022.66    57.03 " style="stroke-width: 1.42 ;&st7; " /><path d=" M 5024.08,   45.69  C 5024.08    44.91  5023.44    44.28  5022.66    44.28 " style="stroke-width: 0.85 ;&st7; " /><path d=" M 5022.66,   44.28  C 5021.88    44.28  5021.24    44.91  5021.24    45.69 " style="stroke-width: 0.85 ;&st7; " /><path d=" M 5021.24,   45.69  C 5021.24    46.48  5021.88    47.11  5022.66    47.11 " style="stroke-width: 0.85 ;&st7; " /><path d=" M 5022.66,   47.11  C 5023.44    47.11  5024.08    46.48  5024.08    45.69 " style="stroke-width: 0.85 ;&st7; " /><path d=" M 5024.08,   68.36  C 5024.08    67.57  5023.44    66.94  5022.66    66.94 " style="stroke-width: 0.85 ;&st7; " /><path d=" M 5022.66,   66.94  C 5021.88    66.94  5021.24    67.57  5021.24    68.36 " style="stroke-width: 0.85 ;&st7; " /><path d=" M 5021.24,   68.36  C 5021.24    69.14  5021.88    69.77  5022.66    69.77 " style="stroke-width: 0.85 ;&st7; " /><path d=" M 5022.66,   69.77  C 5023.44    69.77  5024.08    69.14  5024.08    68.36 " style="stroke-width: 0.85 ;&st7; " /><path d=" M 5020.54,   95.27  C 5018.19    95.27  5016.29    97.17  5016.29    99.52 " style="stroke-width: 1.42 ;&st7; " /><path d=" M 5016.29,   99.52  C 5016.29   101.87  5018.19   103.77  5020.54   103.77 " style="stroke-width: 1.42 ;&st7; " /><path d=" M 5024.79,  103.77  C 5027.13   103.77  5029.03   101.87  5029.03    99.52 " style="stroke-width: 1.42 ;&st7; " /><path d=" M 5029.03,   99.52  C 5029.03    97.17  5027.13    95.27  5024.79    95.27 " style="stroke-width: 1.42 ;&st7; " /><path d=" M 5061.19,  210.85  C 5061.19   208.35  5059.16   206.32  5056.66   206.32 " style="stroke-width: 1.42 ;&st7; " /><path d=" M 5056.66,  206.32  C 5054.15   206.32  5052.12   208.35  5052.12   210.85 " style="stroke-width: 1.42 ;&st7; " /><path d=" M 5052.12,  210.85  C 5052.12   213.35  5054.15   215.38  5056.66   215.38 " style="stroke-width: 1.42 ;&st7; " /><path d=" M 5056.66,  215.38  C 5059.16   215.38  5061.19   213.35  5061.19   210.85 " style="stroke-width: 1.42 ;&st7; " /><path d=" M 5061.19,  201.78  C 5061.19   199.28  5059.16   197.25  5056.66   197.25 " style="stroke-width: 1.42 ;&st7; " /><path d=" M 5056.66,  197.25  C 5054.15   197.25  5052.12   199.28  5052.12   201.78 " style="stroke-width: 1.42 ;&st7; " /><path d=" M 5052.12,  201.78  C 5052.12   204.29  5054.15   206.32  5056.66   206.32 " style="stroke-width: 1.42 ;&st7; " /><path d=" M 5056.66,  206.32  C 5059.16   206.32  5061.19   204.29  5061.19   201.78 " style="stroke-width: 1.42 ;&st7; " /><path d=" M 5086.68,  210.85  C 5086.68   208.35  5084.65   206.32  5082.15   206.32 " style="stroke-width: 1.42 ;&st7; " /><path d=" M 5082.15,  206.32  C 5079.65   206.32  5077.62   208.35  5077.62   210.85 " style="stroke-width: 1.42 ;&st7; " /><path d=" M 5077.62,  210.85  C 5077.62   213.35  5079.65   215.38  5082.15   215.38 " style="stroke-width: 1.42 ;&st7; " /><path d=" M 5082.15,  215.38  C 5084.65   215.38  5086.68   213.35  5086.68   210.85 " style="stroke-width: 1.42 ;&st7; " /><path d=" M 5086.68,  201.78  C 5086.68   199.28  5084.65   197.25  5082.15   197.25 " style="stroke-width: 1.42 ;&st7; " /><path d=" M 5082.15,  197.25  C 5079.65   197.25  5077.62   199.28  5077.62   201.78 " style="stroke-width: 1.42 ;&st7; " /><path d=" M 5077.62,  201.78  C 5077.62   204.29  5079.65   206.32  5082.15   206.32 " style="stroke-width: 1.42 ;&st7; " /><path d=" M 5082.15,  206.32  C 5084.65   206.32  5086.68   204.29  5086.68   201.78 " style="stroke-width: 1.42 ;&st7; " /><path d=" M 5061.19,  158.73  C 5061.19   156.22  5059.16   154.19  5056.66   154.19 " style="stroke-width: 1.42 ;&st7; " /><path d=" M 5056.66,  154.19  C 5054.15   154.19  5052.12   156.22  5052.12   158.73 " style="stroke-width: 1.42 ;&st7; " /><path d=" M 5052.12,  158.73  C 5052.12   161.23  5054.15   163.26  5056.66   163.26 " style="stroke-width: 1.42 ;&st7; " /><path d=" M 5056.66,  163.26  C 5059.16   163.26  5061.19   161.23  5061.19   158.73 " style="stroke-width: 1.42 ;&st7; " /><path d=" M 5061.19,  149.66  C 5061.19   147.16  5059.16   145.13  5056.66   145.13 " style="stroke-width: 1.42 ;&st7; " /><path d=" M 5056.66,  145.13  C 5054.15   145.13  5052.12   147.16  5052.12   149.66 " style="stroke-width: 1.42 ;&st7; " /><path d=" M 5052.12,  149.66  C 5052.12   152.16  5054.15   154.19  5056.66   154.19 " style="stroke-width: 1.42 ;&st7; " /><path d=" M 5056.66,  154.19  C 5059.16   154.19  5061.19   152.16  5061.19   149.66 " style="stroke-width: 1.42 ;&st7; " /><path d=" M 5086.68,  158.73  C 5086.68   156.22  5084.65   154.19  5082.15   154.19 " style="stroke-width: 1.42 ;&st7; " /><path d=" M 5082.15,  154.19  C 5079.65   154.19  5077.62   156.22  5077.62   158.73 " style="stroke-width: 1.42 ;&st7; " /><path d=" M 5077.62,  158.73  C 5077.62   161.23  5079.65   163.26  5082.15   163.26 " style="stroke-width: 1.42 ;&st7; " /><path d=" M 5082.15,  163.26  C 5084.65   163.26  5086.68   161.23  5086.68   158.73 " style="stroke-width: 1.42 ;&st7; " /><path d=" M 5086.68,  149.66  C 5086.68   147.16  5084.65   145.13  5082.15   145.13 " style="stroke-width: 1.42 ;&st7; " /><path d=" M 5082.15,  145.13  C 5079.65   145.13  5077.62   147.16  5077.62   149.66 " style="stroke-width: 1.42 ;&st7; " /><path d=" M 5077.62,  149.66  C 5077.62   152.16  5079.65   154.19  5082.15   154.19 " style="stroke-width: 1.42 ;&st7; " /><path d=" M 5082.15,  154.19  C 5084.65   154.19  5086.68   152.16  5086.68   149.66 " style="stroke-width: 1.42 ;&st7; " /><path d=" M 5265.15,  515.67  C 5265.15   513.16  5263.12   511.13  5260.62   511.13 " style="stroke-width: 1.42 ;&st7; " /><path d=" M 5260.62,  511.13  C 5258.12   511.13  5256.09   513.16  5256.09   515.67 " style="stroke-width: 1.42 ;&st7; " /><path d=" M 5256.09,  515.67  C 5256.09   518.17  5258.12   520.20  5260.62   520.20 " style="stroke-width: 1.42 ;&st7; " /><path d=" M 5260.62,  520.20  C 5263.12   520.20  5265.15   518.17  5265.15   515.67 " style="stroke-width: 1.42 ;&st7; " /><path d=" M 5265.15,  506.60  C 5265.15   504.10  5263.12   502.07  5260.62   502.07 " style="stroke-width: 1.42 ;&st7; " /><path d=" M 5260.62,  502.07  C 5258.12   502.07  5256.09   504.10  5256.09   506.60 " style="stroke-width: 1.42 ;&st7; " /><path d=" M 5256.09,  506.60  C 5256.09   509.10  5258.12   511.13  5260.62   511.13 " style="stroke-width: 1.42 ;&st7; " /><path d=" M 5260.62,  511.13  C 5263.12   511.13  5265.15   509.10  5265.15   506.60 " style="stroke-width: 1.42 ;&st7; " /><path d=" M 5231.16,  515.67  C 5231.16   513.16  5229.13   511.13  5226.63   511.13 " style="stroke-width: 1.42 ;&st7; " /><path d=" M 5226.63,  511.13  C 5224.12   511.13  5222.09   513.16  5222.09   515.67 " style="stroke-width: 1.42 ;&st7; " /><path d=" M 5222.09,  515.67  C 5222.09   518.17  5224.12   520.20  5226.63   520.20 " style="stroke-width: 1.42 ;&st7; " /><path d=" M 5226.63,  520.20  C 5229.13   520.20  5231.16   518.17  5231.16   515.67 " style="stroke-width: 1.42 ;&st7; " /><path d=" M 5231.16,  506.60  C 5231.16   504.10  5229.13   502.07  5226.63   502.07 " style="stroke-width: 1.42 ;&st7; " /><path d=" M 5226.63,  502.07  C 5224.12   502.07  5222.09   504.10  5222.09   506.60 " style="stroke-width: 1.42 ;&st7; " /><path d=" M 5222.09,  506.60  C 5222.09   509.10  5224.12   511.13  5226.63   511.13 " style="stroke-width: 1.42 ;&st7; " /><path d=" M 5226.63,  511.13  C 5229.13   511.13  5231.16   509.10  5231.16   506.60 " style="stroke-width: 1.42 ;&st7; " /><path d=" M 5231.16,  576.29  C 5231.16   573.79  5229.13   571.76  5226.63   571.76 " style="stroke-width: 1.42 ;&st7; " /><path d=" M 5226.63,  571.76  C 5224.12   571.76  5222.09   573.79  5222.09   576.29 " style="stroke-width: 1.42 ;&st7; " /><path d=" M 5222.09,  576.29  C 5222.09   578.79  5224.12   580.82  5226.63   580.82 " style="stroke-width: 1.42 ;&st7; " /><path d=" M 5226.63,  580.82  C 5229.13   580.82  5231.16   578.79  5231.16   576.29 " style="stroke-width: 1.42 ;&st7; " /><path d=" M 5231.16,  567.22  C 5231.16   564.72  5229.13   562.69  5226.63   562.69 " style="stroke-width: 1.42 ;&st7; " /><path d=" M 5226.63,  562.69  C 5224.12   562.69  5222.09   564.72  5222.09   567.22 " style="stroke-width: 1.42 ;&st7; " /><path d=" M 5222.09,  567.22  C 5222.09   569.73  5224.12   571.76  5226.63   571.76 " style="stroke-width: 1.42 ;&st7; " /><path d=" M 5226.63,  571.76  C 5229.13   571.76  5231.16   569.73  5231.16   567.22 " style="stroke-width: 1.42 ;&st7; " /><path d=" M 5418.13,  661.27  C 5418.13   658.77  5416.10   656.74  5413.60   656.74 " style="stroke-width: 1.42 ;&st7; " /><path d=" M 5413.60,  656.74  C 5411.09   656.74  5409.06   658.77  5409.06   661.27 " style="stroke-width: 1.42 ;&st7; " /><path d=" M 5409.06,  661.27  C 5409.06   663.78  5411.09   665.81  5413.60   665.81 " style="stroke-width: 1.42 ;&st7; " /><path d=" M 5413.60,  665.81  C 5416.10   665.81  5418.13   663.78  5418.13   661.27 " style="stroke-width: 1.42 ;&st7; " /><path d=" M 5418.13,  652.21  C 5418.13   649.71  5416.10   647.68  5413.60   647.68 " style="stroke-width: 1.42 ;&st7; " /><path d=" M 5413.60,  647.68  C 5411.09   647.68  5409.06   649.71  5409.06   652.21 " style="stroke-width: 1.42 ;&st7; " /><path d=" M 5409.06,  652.21  C 5409.06   654.71  5411.09   656.74  5413.60   656.74 " style="stroke-width: 1.42 ;&st7; " /><path d=" M 5413.60,  656.74  C 5416.10   656.74  5418.13   654.71  5418.13   652.21 " style="stroke-width: 1.42 ;&st7; " /><path d=" M 5418.13,  626.15  C 5418.13   623.64  5416.10   621.61  5413.60   621.61 " style="stroke-width: 1.42 ;&st7; " /><path d=" M 5413.60,  621.61  C 5411.09   621.61  5409.06   623.64  5409.06   626.15 " style="stroke-width: 1.42 ;&st7; " /><path d=" M 5409.06,  626.15  C 5409.06   628.65  5411.09   630.68  5413.60   630.68 " style="stroke-width: 1.42 ;&st7; " /><path d=" M 5413.60,  630.68  C 5416.10   630.68  5418.13   628.65  5418.13   626.15 " style="stroke-width: 1.42 ;&st7; " /><path d=" M 5418.13,  617.08  C 5418.13   614.58  5416.10   612.55  5413.60   612.55 " style="stroke-width: 1.42 ;&st7; " /><path d=" M 5413.60,  612.55  C 5411.09   612.55  5409.06   614.58  5409.06   617.08 " style="stroke-width: 1.42 ;&st7; " /><path d=" M 5409.06,  617.08  C 5409.06   619.59  5411.09   621.61  5413.60   621.61 " style="stroke-width: 1.42 ;&st7; " /><path d=" M 5413.60,  621.61  C 5416.10   621.61  5418.13   619.59  5418.13   617.08 " style="stroke-width: 1.42 ;&st7; " /><path d=" M 5324.64,  439.18  C 5324.64   436.68  5322.61   434.65  5320.11   434.65 " style="stroke-width: 1.42 ;&st7; " /><path d=" M 5320.11,  434.65  C 5317.61   434.65  5315.58   436.68  5315.58   439.18 " style="stroke-width: 1.42 ;&st7; " /><path d=" M 5315.58,  439.18  C 5315.58   441.68  5317.61   443.71  5320.11   443.71 " style="stroke-width: 1.42 ;&st7; " /><path d=" M 5320.11,  443.71  C 5322.61   443.71  5324.64   441.68  5324.64   439.18 " style="stroke-width: 1.42 ;&st7; " /><path d=" M 5324.64,  465.24  C 5324.64   462.74  5322.61   460.71  5320.11   460.71 " style="stroke-width: 1.42 ;&st7; " /><path d=" M 5320.11,  460.71  C 5317.61   460.71  5315.58   462.74  5315.58   465.24 " style="stroke-width: 1.42 ;&st7; " /><path d=" M 5315.58,  465.24  C 5315.58   467.74  5317.61   469.77  5320.11   469.77 " style="stroke-width: 1.42 ;&st7; " /><path d=" M 5320.11,  469.77  C 5322.61   469.77  5324.64   467.74  5324.64   465.24 " style="stroke-width: 1.42 ;&st7; " /><path d=" M 5469.12,  439.18  C 5469.12   436.68  5467.09   434.65  5464.59   434.65 " style="stroke-width: 1.42 ;&st7; " /><path d=" M 5464.59,  434.65  C 5462.08   434.65  5460.05   436.68  5460.05   439.18 " style="stroke-width: 1.42 ;&st7; " /><path d=" M 5460.05,  439.18  C 5460.05   441.68  5462.08   443.71  5464.59   443.71 " style="stroke-width: 1.42 ;&st7; " /><path d=" M 5464.59,  443.71  C 5467.09   443.71  5469.12   441.68  5469.12   439.18 " style="stroke-width: 1.42 ;&st7; " /><path d=" M 5469.12,  465.24  C 5469.12   462.74  5467.09   460.71  5464.59   460.71 " style="stroke-width: 1.42 ;&st7; " /><path d=" M 5464.59,  460.71  C 5462.08   460.71  5460.05   462.74  5460.05   465.24 " style="stroke-width: 1.42 ;&st7; " /><path d=" M 5460.05,  465.24  C 5460.05   467.74  5462.08   469.77  5464.59   469.77 " style="stroke-width: 1.42 ;&st7; " /><path d=" M 5464.59,  469.77  C 5467.09   469.77  5469.12   467.74  5469.12   465.24 " style="stroke-width: 1.42 ;&st7; " /><path d=" M 5372.52,  548.53  C 5372.52   547.74  5371.88   547.11  5371.10   547.11 " style="stroke-width: 0.85 ;&st7; " /><path d=" M 5371.10,  547.11  C 5370.32   547.11  5369.69   547.74  5369.69   548.53 " style="stroke-width: 0.85 ;&st7; " /><path d=" M 5369.69,  548.53  C 5369.69   549.31  5370.32   549.94  5371.10   549.94 " style="stroke-width: 0.85 ;&st7; " /><path d=" M 5371.10,  549.94  C 5371.88   549.94  5372.52   549.31  5372.52   548.53 " style="stroke-width: 0.85 ;&st7; " /><path d=" M 5372.52,  525.86  C 5372.52   525.08  5371.88   524.45  5371.10   524.45 " style="stroke-width: 0.85 ;&st7; " /><path d=" M 5371.10,  524.45  C 5370.32   524.45  5369.69   525.08  5369.69   525.86 " style="stroke-width: 0.85 ;&st7; " /><path d=" M 5369.69,  525.86  C 5369.69   526.65  5370.32   527.28  5371.10   527.28 " style="stroke-width: 0.85 ;&st7; " /><path d=" M 5371.10,  527.28  C 5371.88   527.28  5372.52   526.65  5372.52   525.86 " style="stroke-width: 0.85 ;&st7; " /><path d=" M 5415.01,  548.53  C 5415.01   547.74  5414.38   547.11  5413.60   547.11 " style="stroke-width: 0.85 ;&st7; " /><path d=" M 5413.60,  547.11  C 5412.81   547.11  5412.18   547.74  5412.18   548.53 " style="stroke-width: 0.85 ;&st7; " /><path d=" M 5412.18,  548.53  C 5412.18   549.31  5412.81   549.94  5413.60   549.94 " style="stroke-width: 0.85 ;&st7; " /><path d=" M 5413.60,  549.94  C 5414.38   549.94  5415.01   549.31  5415.01   548.53 " style="stroke-width: 0.85 ;&st7; " /><path d=" M 5415.01,  525.86  C 5415.01   525.08  5414.38   524.45  5413.60   524.45 " style="stroke-width: 0.85 ;&st7; " /><path d=" M 5413.60,  524.45  C 5412.81   524.45  5412.18   525.08  5412.18   525.86 " style="stroke-width: 0.85 ;&st7; " /><path d=" M 5412.18,  525.86  C 5412.18   526.65  5412.81   527.28  5413.60   527.28 " style="stroke-width: 0.85 ;&st7; " /><path d=" M 5413.60,  527.28  C 5414.38   527.28  5415.01   526.65  5415.01   525.86 " style="stroke-width: 0.85 ;&st7; " /><path d=" M 5474.50,  548.53  C 5474.50   547.74  5473.87   547.11  5473.09   547.11 " style="stroke-width: 0.85 ;&st7; " /><path d=" M 5473.09,  547.11  C 5472.30   547.11  5471.67   547.74  5471.67   548.53 " style="stroke-width: 0.85 ;&st7; " /><path d=" M 5471.67,  548.53  C 5471.67   549.31  5472.30   549.94  5473.09   549.94 " style="stroke-width: 0.85 ;&st7; " /><path d=" M 5473.09,  549.94  C 5473.87   549.94  5474.50   549.31  5474.50   548.53 " style="stroke-width: 0.85 ;&st7; " /><path d=" M 5474.50,  525.86  C 5474.50   525.08  5473.87   524.45  5473.09   524.45 " style="stroke-width: 0.85 ;&st7; " /><path d=" M 5473.09,  524.45  C 5472.30   524.45  5471.67   525.08  5471.67   525.86 " style="stroke-width: 0.85 ;&st7; " /><path d=" M 5471.67,  525.86  C 5471.67   526.65  5472.30   527.28  5473.09   527.28 " style="stroke-width: 0.85 ;&st7; " /><path d=" M 5473.09,  527.28  C 5473.87   527.28  5474.50   526.65  5474.50   525.86 " style="stroke-width: 0.85 ;&st7; " /><text style="&st18;" transform="matrix(&st17;  5310.73  650.2 )">E66</text><text ewd:textID="41" style="&st18;" transform="matrix(&st17;  5317.83  650.2 )">Junction <tspan dy="6" x="0">Connector</tspan></text><text style="&st18;" transform="matrix(&st16;  5288.6  655.87 )">1</text><text style="&st18;" transform="matrix(&st16;  5284.65  626.99 )">12</text><text style="&st18;" transform="matrix(&st16;  5407.58  508.01 )">1</text><text style="&st18;" transform="matrix(&st16;  5364.31  508.01 )">2</text><text style="&st18;" transform="matrix(&st16;  5466.3  579.38 )">7</text><text style="&st18;" transform="matrix(&st16;  5440.8  579.38 )">3</text><text style="&st18;" transform="matrix(&st16;  5406.81  579.38 )">5</text><text style="&st18;" transform="matrix(&st17;  5409.9  600.14 )">W-B</text><text style="&st18;" transform="matrix(&st17;  5222.93  420.19 )">L</text><text style="&st18;" transform="matrix(&st16;  5218.47  321.03 )">PWR</text><text style="&st18;" transform="matrix(&st17;  5222.93  369.3 )">L-B</text><text style="&st18;" transform="matrix(&st16;  5224.3  331.23 )">A</text><text style="&st18;" transform="matrix(&st16;  5212.6  331.23 )">51</text><text style="&st18;" transform="matrix(&st16;  5352.33  390.44 )">35</text><text style="&st18;" transform="matrix(&st17;  5497.69  565.22 )">E52</text><text style="&st18;" transform="matrix(&st16;  5394.83  390.44 )">34</text><text style="&st18;" transform="matrix(&st16;  5450.42  567.5 )">IG</text><text style="&st18;" transform="matrix(&st16;  5416.43  567.5 )">E</text><text style="&st18;" transform="matrix(&st16;  5475.92  567.5 )">S</text><text style="&st18;" transform="matrix(&st16;  5416.43  519.89 )">SFTD</text><text style="&st18;" transform="matrix(&st16;  5373.94  519.89 )">SFTU</text><text style="&st18;" transform="matrix(&st16;  5153.83  321.03 )">EC</text><text style="&st18;" transform="matrix(&st16;  5144.61  331.23 )">31</text><text style="&st18;" transform="matrix(&st16;  5156.31  331.23 )">A</text><text style="&st18;" transform="matrix(&st17;  5154.94  476.91 )">W-B</text><text style="&st18;" transform="matrix(&st17;  5256.93  475.93 )">R</text><text style="&st18;" transform="matrix(&st17;  5443.89  595.19 )">G</text><text style="&st18;" transform="matrix(&st17;  5290.92  676.62 )">W-B</text><text style="&st18;" transform="matrix(&st17;  5350.41  625.63 )">W-B</text><text style="&st18;" transform="matrix(&st16;  5211.81  441.43 )">8</text><text style="&st18;" transform="matrix(&st16;  5241.85  398.94 )">38</text><text style="&st18;" transform="matrix(&st16;  5326.28  272.88 )">P</text><text style="&st18;" transform="matrix(&st16;  5317.76  262.68 )">2</text><text style="&st18;" transform="matrix(&st16;  5326.28  262.68 )">B</text><text style="&st18;" transform="matrix(&st17;  5324.91  238.35 )">G-B</text><text style="&st18;" transform="matrix(&st16;  5368.63  272.88 )">N</text><text style="&st18;" transform="matrix(&st16;  5356.3  262.68 )">25</text><text style="&st18;" transform="matrix(&st16;  5368.77  262.68 )">B</text><text style="&st18;" transform="matrix(&st17;  5367.41  239.37 )">G-W</text><text style="&st18;" transform="matrix(&st16;  5362.06  321.03 )">SFTU</text><text style="&st18;" transform="matrix(&st16;  5245.81  441.43 )">9</text><text style="&st18;" transform="matrix(&st17;  5409.9  234.0 )">G</text><text style="&st18;" transform="matrix(&st16;  5411.26  262.68 )">B</text><text style="&st18;" transform="matrix(&st16;  5398.79  262.68 )">27</text><text style="&st18;" transform="matrix(&st16;  5411.12  272.88 )">D</text><text style="&st18;" transform="matrix(&st16;  5076.08  32.08 )">(IG)</text><text style="&st18;" transform="matrix(&st16;  5404.55  321.03 )">SFTD</text><text style="&st18;" transform="matrix(&st17;  5409.9  356.45 )">L</text><text style="&st18;" transform="matrix(&st16;  5411.26  331.23 )">A</text><text style="&st18;" transform="matrix(&st16;  5398.79  331.23 )">27</text><text style="&st18;" transform="matrix(&st17;  5367.41  356.81 )">Y</text><text style="&st18;" transform="matrix(&st16;  5368.77  331.23 )">A</text><text style="&st18;" transform="matrix(&st16;  5356.3  331.23 )">38</text><text style="&st18;" transform="matrix(&st16;  5207.86  398.94 )">37</text><text style="&st18;" transform="matrix(&st16;  5075.36  86.47 )">2</text><text style="&st18;" transform="matrix(&st17;  5078.45  118.85 )">B</text><text style="&st18;" transform="matrix(&st16;  5079.82  262.68 )">A</text><text style="&st18;" transform="matrix(&st16;  5067.35  262.68 )">35</text><text style="&st18;" transform="matrix(&st16;  5074.1  272.88 )">ST1-</text><text style="&st18;" transform="matrix(&st17;  5078.46  239.09 )">R-W</text><text style="&st18;" transform="matrix(&st16;  5249.77  331.23 )">4</text><text style="&st18;" transform="matrix(&st16;  5080.56  101.49 )">1</text><text style="&st18;" transform="matrix(&st16;  5099.46  56.17 )">10A <tspan dy="6" x="0">IGN</tspan></text><text style="&st18;" transform="matrix(&st16;  5258.29  331.23 )">A</text><text style="&st18;" transform="matrix(&st16;  5024.87  321.03 )">E05</text><text style="&st18;" transform="matrix(&st16;  5017.13  331.23 )">21</text><text style="&st18;" transform="matrix(&st16;  5028.83  331.23 )">B</text><text style="&st18;" transform="matrix(&st17;  5027.46  476.91 )">W-B</text><text style="&st18;" transform="matrix(&st17;  5256.93  365.45 )">R</text><text style="&st18;" transform="matrix(&st16;  5092.86  321.03 )">E04</text><text style="&st18;" transform="matrix(&st16;  5059.25  321.03 )">E01</text><text style="&st18;" transform="matrix(&st16;  5050.35  331.23 )">43</text><text style="&st18;" transform="matrix(&st16;  5062.82  331.23 )">B</text><text style="&st18;" transform="matrix(&st16;  5084.34  331.23 )">23</text><text style="&st18;" transform="matrix(&st16;  5096.82  331.23 )">B</text><text style="&st18;" transform="matrix(&st17;  5061.46  476.91 )">W-B</text><text style="&st18;" transform="matrix(&st17;  5095.45  476.91 )">W-B</text><text style="&st18;" transform="matrix(&st16;  5251.47  321.03 )">SNWI</text><text style="&st18;" transform="matrix(&st17;  5256.93  420.69 )">R</text><text style="&st18;" transform="matrix(&st17;  5222.93  475.43 )">L</text><text style="&st18;" transform="matrix(&st16;  5270.83  154.45 )">2</text><text style="&st18;" transform="matrix(&st16;  5259.62  203.47 )">10</text><text style="&st18;" transform="matrix(&st17;  5231.43  182.59 )">B</text><text style="&st18;" transform="matrix(&st17;  5273.92  182.59 )">P</text><text style="&st18;" transform="matrix(&st16;  5225.16  125.57 )">12</text><text style="&st18;" transform="matrix(&st16;  5225.16  154.45 )">13</text><text style="&st18;" transform="matrix(&st16;  5271.61  125.57 )">1</text><text ewd:textID="41" style="&st18;" transform="matrix(&st17;  5300.83  148.79 )">Junction <tspan dy="6" x="-0.01">Connector</tspan></text><text style="&st18;" transform="matrix(&st16;  5225.87  272.88 )">CANL</text><text style="&st18;" transform="matrix(&st16;  5267.87  272.88 )">CANH</text><text style="&st18;" transform="matrix(&st16;  5217.91  203.47 )">11</text><text style="&st18;" transform="matrix(&st17;  5273.92  233.58 )">P</text><text style="&st18;" transform="matrix(&st17;  5231.43  233.58 )">B</text><text style="&st18;" transform="matrix(&st17;  5293.73  148.79 )">E72</text><text style="&st18;" transform="matrix(&st16;  5221.85  262.68 )">11</text><text style="&st18;" transform="matrix(&st16;  5232.79  262.68 )">A</text><text style="&st18;" transform="matrix(&st16;  5263.56  262.68 )">10</text><text style="&st18;" transform="matrix(&st16;  5275.29  262.68 )">A</text><text style="&st18;" transform="matrix(&st16;  5305.31  441.15 )">84</text><text style="&st18;" transform="matrix(&st16;  5013.55  32.08 )">(BAT)</text><text style="&st18;" transform="matrix(&st16;  5015.87  86.47 )">2</text><text style="&st18;" transform="matrix(&st17;  5018.97  122.84 )">L-B</text><text style="&st18;" transform="matrix(&st16;  5054.32  262.68 )">A</text><text style="&st18;" transform="matrix(&st16;  5041.85  262.68 )">36</text><text style="&st18;" transform="matrix(&st16;  5049.87  272.88 )">STP</text><text style="&st18;" transform="matrix(&st17;  5052.96  233.72 )">R</text><text style="&st18;" transform="matrix(&st16;  5021.07  101.49 )">1</text><text style="&st18;" transform="matrix(&st16;  5039.97  56.17 )">15A <tspan dy="6" x="0">STOP</tspan></text><text style="&st18;" transform="matrix(&st16;  5408.24  299.79 )">ECM</text><text style="&st18;" transform="matrix(&st16;  5408.24  292.68 )">A38(A),C45(B)</text><text style="&st18;" transform="matrix(&st17;  5273.92  106.1 )">Y</text><text style="&st18;" transform="matrix(&st17;  5231.43  106.1 )">B</text><text style="&st18;" transform="matrix(&st17;  5268.26  479.64 )">(*2)</text><text style="&st18;" transform="matrix(&st16;  5279.33  635.49 )">9</text><text style="&st18;" transform="matrix(&st17;  5222.93  600.14 )">W-B</text><text style="&st18;" transform="matrix(&st16;  5224.3  558.99 )">E</text><text style="&st18;" transform="matrix(&st16;  5253.7  527.83 )">2ND</text><text style="&st18;" transform="matrix(&st16;  5224.3  527.83 )">P</text><text ewd:textID="23" style="&st18;" transform="matrix(&st16;  5225.15  543.41 )">ECT Switch</text><text ewd:textID="65" style="&st18;" transform="matrix(&st17;  5292.34  565.22 )">Suspension <tspan dy="6" x="-0.01">Control Switch</tspan></text><text style="&st18;" transform="matrix(&st17;  5285.23  565.22 )">V4(A),(B)</text><text style="&st18;" transform="matrix(&st17;  5061.46  599.02 )">B</text><text style="&st18;" transform="matrix(&st16;  5266.59  517.64 )">(*3)</text><text style="&st18;" transform="matrix(&st16;  5109.56  660.98 )">B</text><text style="&st18;" transform="matrix(&st16;  5211.79  569.19 )">20</text><text style="&st18;" transform="matrix(&st16;  5224.3  569.19 )">A</text><text style="&st18;" transform="matrix(&st16;  5232.6  569.19 )">(*2)</text><text style="&st18;" transform="matrix(&st16;  5212.57  578.26 )">16</text><text style="&st18;" transform="matrix(&st16;  5224.3  578.26 )">B</text><text style="&st18;" transform="matrix(&st16;  5232.6  578.26 )">(*3)</text><text style="&st18;" transform="matrix(&st16;  5212.57  508.57 )">16</text><text style="&st18;" transform="matrix(&st16;  5215.75  517.64 )">3</text><text style="&st18;" transform="matrix(&st16;  5224.3  508.57 )">A</text><text style="&st18;" transform="matrix(&st16;  5224.3  517.64 )">B</text><text style="&st18;" transform="matrix(&st16;  5258.29  517.64 )">B</text><text style="&st18;" transform="matrix(&st16;  5246.57  508.57 )">17</text><text style="&st18;" transform="matrix(&st16;  5258.29  508.57 )">A</text><text style="&st18;" transform="matrix(&st16;  5266.59  508.57 )">(*2)</text><text style="&st18;" transform="matrix(&st16;  5249.74  517.64 )">4</text><text style="&st18;" transform="matrix(&st16;  5054.32  212.82 )">B</text><text style="&st18;" transform="matrix(&st16;  5046.56  212.82 )">1</text><text style="&st18;" transform="matrix(&st16;  5054.32  203.75 )">A</text><text style="&st18;" transform="matrix(&st16;  5046.56  203.75 )">1</text><text style="&st18;" transform="matrix(&st16;  5088.12  212.82 )">(*3)</text><text style="&st18;" transform="matrix(&st16;  5079.82  212.82 )">B</text><text style="&st18;" transform="matrix(&st16;  5071.27  212.82 )">3</text><text style="&st18;" transform="matrix(&st16;  5088.12  203.75 )">(*2)</text><text style="&st18;" transform="matrix(&st16;  5079.82  203.75 )">A</text><text style="&st18;" transform="matrix(&st16;  5071.27  203.75 )">4</text><text style="&st18;" transform="matrix(&st16;  5054.32  160.69 )">B</text><text style="&st18;" transform="matrix(&st16;  5045.78  160.69 )">2</text><text style="&st18;" transform="matrix(&st16;  5054.32  151.63 )">A</text><text style="&st18;" transform="matrix(&st16;  5045.78  151.63 )">2</text><text ewd:textID="64" style="&st18;" transform="matrix(&st17;  5038.51  199.78 )">Stop Light <tspan dy="6" x="0">Switch Assembly</tspan></text><text style="&st18;" transform="matrix(&st16;  5088.12  160.69 )">(*3)</text><text style="&st18;" transform="matrix(&st16;  5079.82  160.69 )">B</text><text style="&st18;" transform="matrix(&st16;  5071.27  160.69 )">4</text><text style="&st18;" transform="matrix(&st16;  5088.12  151.63 )">(*2)</text><text style="&st18;" transform="matrix(&st16;  5079.82  151.63 )">A</text><text style="&st18;" transform="matrix(&st16;  5071.27  151.63 )">3</text><text ewd:textID="2" style="&st18;" transform="matrix(&st16;  5436.57  148.23 )">* 2 :Before Jan. 2012 Production</text><text style="&st18;" transform="matrix(&st17;  5031.41  199.78 )">A30(A),(B)</text><text ewd:textID="3" style="&st18;" transform="matrix(&st16;  5436.57  156.73 )">* 3 :From Jan. 2012 Production</text><text style="&st18;" transform="matrix(&st16;  5419.57  663.24 )">(*3)</text><text style="&st18;" transform="matrix(&st16;  5411.26  663.24 )">A</text><text style="&st18;" transform="matrix(&st16;  5399.54  663.24 )">19</text><text style="&st18;" transform="matrix(&st16;  5419.57  654.18 )">(*2)</text><text style="&st18;" transform="matrix(&st16;  5411.26  654.18 )">A</text><text style="&st18;" transform="matrix(&st16;  5402.72  654.18 )">9</text><text style="&st18;" transform="matrix(&st16;  5419.57  628.12 )">(*3)</text><text style="&st18;" transform="matrix(&st16;  5411.26  628.12 )">A</text><text style="&st18;" transform="matrix(&st16;  5398.76  628.12 )">79</text><text style="&st18;" transform="matrix(&st16;  5419.57  619.05 )">(*2)</text><text style="&st18;" transform="matrix(&st16;  5411.26  619.05 )">A</text><text style="&st18;" transform="matrix(&st16;  5398.76  619.05 )">60</text><text style="&st18;" transform="matrix(&st16;  5212.59  611.4 )">1</text><text style="&st18;" transform="matrix(&st17;  5282.42  369.3 )">P-L</text><text style="&st18;" transform="matrix(&st17;  5293.75  369.16 )">(*3)</text><text style="&st18;" transform="matrix(&st17;  5268.26  369.16 )">(*2)</text><text style="&st18;" transform="matrix(&st16;  5425.23  636.87 )">E60(A)</text><text ewd:textID="41" style="&st18;" transform="matrix(&st16;  5425.23  643.98 )">Junction Connector</text><text ewd:textID="41" style="&st18;" transform="matrix(&st17;  5343.33  463.23 )">Junction <tspan dy="6" x="0">Connector</tspan></text><text style="&st18;" transform="matrix(&st16;  5317.78  441.15 )">A</text><text style="&st18;" transform="matrix(&st17;  5336.22  463.23 )">E58(A)</text><text ewd:textID="41" style="&st18;" transform="matrix(&st17;  5487.8  463.23 )">Junction <tspan dy="6" x="0">Connector</tspan></text><text style="&st18;" transform="matrix(&st17;  5480.7  463.23 )">E59(A)</text><text style="&st18;" transform="matrix(&st17;  5409.9  471.18 )">L</text><text style="&st18;" transform="matrix(&st17;  5421.23  475.39 )">(*2)</text><text style="&st18;" transform="matrix(&st17;  5367.41  471.54 )">Y</text><text style="&st18;" transform="matrix(&st17;  5378.74  475.39 )">(*2)</text><text style="&st18;" transform="matrix(&st16;  5437.11  406.02 )">L</text><text style="&st18;" transform="matrix(&st16;  5432.91  417.35 )">(*3)</text><text style="&st18;" transform="matrix(&st16;  5437.11  491.01 )">L</text><text style="&st18;" transform="matrix(&st16;  5432.91  502.34 )">(*3)</text><text style="&st18;" transform="matrix(&st16;  5343.28  491.01 )">Y</text><text style="&st18;" transform="matrix(&st16;  5339.43  502.34 )">(*3)</text><text style="&st18;" transform="matrix(&st16;  5343.28  406.02 )">Y</text><text style="&st18;" transform="matrix(&st16;  5339.43  417.35 )">(*3)</text><text style="&st18;" transform="matrix(&st16;  5305.28  467.21 )">94</text><text style="&st18;" transform="matrix(&st16;  5317.78  467.21 )">A</text><text style="&st18;" transform="matrix(&st16;  5244.42  635.48 )">W-B</text><text style="&st18;" transform="matrix(&st17;  5282.42  475.79 )">P</text><text style="&st18;" transform="matrix(&st17;  5293.75  479.64 )">(*3)</text><text style="&st18;" transform="matrix(&st16;  5449.78  441.15 )">27</text><text style="&st18;" transform="matrix(&st16;  5462.26  441.15 )">A</text><text style="&st18;" transform="matrix(&st16;  5450.53  467.21 )">17</text><text style="&st18;" transform="matrix(&st16;  5462.26  467.21 )">A</text></svg>