﻿<?xml version="1.0" encoding="utf-8"?>
<!DOCTYPE svg PUBLIC "-//W3C//DTD SVG 1.0//EN" "http://www.w3.org/TR/2001/REC-SVG-20010904/DTD/svg10.dtd"[
	<!ENTITY ns_flows "http://ns.adobe.com/Flows/1.0/">
	<!ENTITY ns_svg "http://www.w3.org/2000/svg">
	<!ENTITY ns_xlink "http://www.w3.org/1999/xlink">
	<!ENTITY st0 "font-size:7px;font-family:'MS-PGothic';adobe-font-script:japanese;">
	<!ENTITY st1 "font-size:6px;font-family:'ArialMT';">
	<!-- White fill  -->
	<!ENTITY st2 "fill:#FFFFFF;stroke:#000000; stroke-width:1.41;stroke-linecap:round;stroke-linejoin:round;">
	<!-- Yellow fill  -->
	<!ENTITY st3 "fill:#FFFFCC;stroke:#FFFFCC; stroke-width:0.1;stroke-linecap:round;stroke-linejoin:round;">
	<!-- Gray fill  -->
	<!ENTITY st4 "fill:#CCCCCC;stroke:#CCCCCC; stroke-width:0.1;stroke-linecap:round;stroke-linejoin:round;">
	<!-- Light-blue fill -->
	<!ENTITY st5 "fill:#CCECF4;stroke:#000000; stroke-width:1.133;stroke-linecap:round;stroke-linejoin:round;">
	<!ENTITY st6 "fill:none;stroke-linecap:butt; stroke-linejoin:round;">
	<!ENTITY st7 "fill:none;stroke:#000000;stroke-linecap:round;stroke-linejoin:round;">
	<!ENTITY st8 "enable-background:new    ;">
	<!-- Black fill -->
	<!ENTITY st9 "fill:#000000;stroke:#000000; stroke-linecap:round;stroke-linejoin:round;">
	<!-- SRS note   -->
	<!ENTITY st10 "font-size:9px;font-family:'ArialMT';">
	<!ENTITY st11 "font-size:9px;font-family:'Svg Symbol';">
	<!ENTITY st12 "font-size:6px;font-family:'Svg Symbol';">
	<!ENTITY st13 "fill:none;stroke:#ff0000;stroke-linecap:round;stroke-linejoin:round;">
	<!-- Yellow fill  -->
	<!ENTITY st14 "fill:#FFFF00;stroke:#FFFF00; stroke-width:0.1;stroke-linecap:round;stroke-linejoin:round;">
	<!ENTITY st15 "font-size:6px;font-family:'MS-PGothic';adobe-font-script:japanese;">
	<!ENTITY st16 "1.00 0.00 0.00 1.00">
	<!ENTITY st17 "0.00 -1.00 1.00 0.00">
	<!ENTITY st18 "font-size:6px;font-family:'Arial';">
	<!ENTITY st19 "font-size:9px;font-family:'Arial';">
	<!ENTITY st20 "font-size:6px;font-family:'MS-PGothic','MS PGothic';adobe-font-script:japanese;">
	<!ENTITY st21 "font-size:7px;font-family:'MS-PGothic','MS PGothic';adobe-font-script:japanese;">
	<!ATTLIST svg
		xmlns:ewd CDATA #FIXED "http://shcl.co.jp/ewd"
		xmlns:a CDATA #FIXED "http://ns.adobe.com/AdobeSVGViewerExtensions/3.0/"
		ewd:ver CDATA #IMPLIED
	>
	<!ATTLIST a
		ewd:lineID CDATA #IMPLIED
		ewd:groupID CDATA #IMPLIED
		ewd:figtype CDATA #IMPLIED
		ewd:code CDATA #IMPLIED
		ewd:figID CDATA #IMPLIED
		ewd:pinNo CDATA #IMPLIED
		ewd:comment CDATA #IMPLIED >
	<!ATTLIST g
		ewd:lineID CDATA #IMPLIED
		ewd:groupID CDATA #IMPLIED
		ewd:figtype CDATA #IMPLIED
		ewd:code CDATA #IMPLIED
		ewd:figID CDATA #IMPLIED
		ewd:pinNo CDATA #IMPLIED
		ewd:comment CDATA #IMPLIED >
	<!ATTLIST text
		ewd:textID CDATA #IMPLIED >
	<!ATTLIST title
		ewd:textID CDATA #IMPLIED >
]>
<!-- Generator: Shintec Hozumi YS   -->
<svg onload="call_execInitLoadProc_svg('system')" style="overflow:visible;  enable-background:new 0 0 8745.747 710.000" viewBox="0 0 8745.747 710.000" height="710.000" width="8745.747" xml:space="preserve" ewd:ver="L2.1.2.8" xmlns="&ns_svg;" xmlns:a="http://ns.adobe.com/AdobeSVGViewerExtensions/3.0/" xmlns:ewd="http://shcl.co.jp/ewd" xmlns:xlink="&ns_xlink;">
<path d=" M 4045.32,  367.22  L 4130.31,  367.22  L 4130.31,  333.23  L 4036.83,  333.23  L 4036.83,  358.73 " style="stroke:#000000;stroke-width: 0.85 ;&st7;stroke-dasharray:3, 1.5;" /><path d=" M 4002.83,  154.76  L 4002.83,  163.26 " style="stroke-width: 0.85 ;&st7; " /><path d=" M 4002.83,  180.26  L 4002.83,  188.75 " style="stroke-width: 0.85 ;&st7; " /><path d=" M 4096.32,  222.75  L 4104.81,  222.75 " style="stroke-width: 1.42 ;&st7; " /><path d=" M 4053.82,  154.76  L 4053.82,  163.26 " style="stroke-width: 0.85 ;&st7; " /><path d=" M 4053.82,  180.26  L 4053.82,  188.75 " style="stroke-width: 0.85 ;&st7; " /><path d=" M 4104.81,  154.76  L 4104.81,  163.26 " style="stroke-width: 0.85 ;&st7; " /><path d=" M 4104.81,  180.26  L 4104.81,  188.75 " style="stroke-width: 0.85 ;&st7; " /><path d=" M 4045.32,  222.75  L 4053.82,  222.75 " style="stroke-width: 1.42 ;&st7; " /><path d=" M 4113.31,  112.27  L 4104.81,  112.27 " style="stroke-width: 1.42 ;&st7; " /><path d=" M 4062.32,  112.27  L 4053.82,  112.27 " style="stroke-width: 1.42 ;&st7; " /><path d=" M 4011.33,  112.27  L 4002.83,  112.27 " style="stroke-width: 1.42 ;&st7; " /><path d=" M 4113.31,  401.22  L 4104.81,  401.22 " style="stroke-width: 1.42 ;&st7; " /><path d=" M 4070.82,  401.22  L 4062.32,  401.22 " style="stroke-width: 1.42 ;&st7; " /><path d=" M 4011.33,   57.75  L 4006.36,   52.78 " style="stroke-width: 1.42 ;&st7; " /><path d=" M 4006.36,   69.77  L 4011.33,   64.80 " style="stroke-width: 1.42 ;&st7; " /><path d=" M 4062.32,   57.75  L 4057.35,   52.78 " style="stroke-width: 1.42 ;&st7; " /><path d=" M 4045.32,   64.80  L 4050.30,   69.77 " style="stroke-width: 1.42 ;&st7; " /><path d=" M 4057.35,   69.77  L 4062.32,   64.80 " style="stroke-width: 1.42 ;&st7; " /><path d=" M 4050.30,   52.78  L 4045.32,   57.75 " style="stroke-width: 1.42 ;&st7; " /><path d=" M 4045.32,  363.70  L 4040.35,  358.73 " style="stroke-width: 1.42 ;&st7; " /><path d=" M 4028.33,  370.75  L 4033.30,  375.72 " style="stroke-width: 1.42 ;&st7; " /><path d=" M 4040.35,  375.72  L 4045.32,  370.75 " style="stroke-width: 1.42 ;&st7; " /><path d=" M 4033.30,  358.73  L 4028.33,  363.70 " style="stroke-width: 1.42 ;&st7; " /><path d=" M 4461.75,  697.25  L 4461.75,  701.50 " style="stroke-width: 0.85 ;&st7; " /><path d=" M 4453.25,  701.50  L 4470.25,  701.50 " style="stroke-width: 0.85 ;&st7; " /><path d=" M 4457.50,  704.33  L 4466.00,  704.33 " style="stroke-width: 0.85 ;&st7; " /><path d=" M 4458.92,  707.17  L 4464.59,  707.17 " style="stroke-width: 0.85 ;&st7; " /><path d=" M 4460.34,  710.00  L 4463.17,  710.00 " style="stroke-width: 0.85 ;&st7; " /><path d=" M 4062.32,  188.75  L 4062.32,  154.76  L 4045.32,  154.76  L 4045.32,  188.75  L 4062.32,  188.75 " style="stroke-width: 1.42 ;&st7; " /><path d=" M 4113.31,  188.75  L 4113.31,  154.76  L 4096.31,  154.76  L 4096.31,  188.75  L 4113.31,  188.75 " style="stroke-width: 1.42 ;&st7; " /><path d=" M 4283.28,  697.25  L 4283.28,  701.50 " style="stroke-width: 0.85 ;&st7; " /><path d=" M 4274.78,  701.50  L 4291.78,  701.50 " style="stroke-width: 0.85 ;&st7; " /><path d=" M 4279.03,  704.33  L 4287.53,  704.33 " style="stroke-width: 0.85 ;&st7; " /><path d=" M 4280.45,  707.17  L 4286.12,  707.17 " style="stroke-width: 0.85 ;&st7; " /><path d=" M 4281.87,  710.00  L 4284.70,  710.00 " style="stroke-width: 0.85 ;&st7; " /><path d=" M 4393.76,  697.25  L 4393.76,  701.50 " style="stroke-width: 0.85 ;&st7; " /><path d=" M 4385.27,  701.50  L 4402.26,  701.50 " style="stroke-width: 0.85 ;&st7; " /><path d=" M 4389.51,  704.33  L 4398.01,  704.33 " style="stroke-width: 0.85 ;&st7; " /><path d=" M 4390.93,  707.17  L 4396.60,  707.17 " style="stroke-width: 0.85 ;&st7; " /><path d=" M 4392.35,  710.00  L 4395.18,  710.00 " style="stroke-width: 0.85 ;&st7; " /><path d=" M 4100.56,  213.68  L 4104.81,  217.93  L 4109.06,  213.68 " style="stroke-width: 1.42 ;&st7; " /><path d=" M 4109.06,  217.08  L 4104.81,  221.33  L 4100.56,  217.08 " style="stroke-width: 1.42 ;&st7; " /><path d=" M 4049.57,  213.68  L 4053.82,  217.93  L 4058.07,  213.68 " style="stroke-width: 1.42 ;&st7; " /><path d=" M 4058.07,  217.08  L 4053.82,  221.33  L 4049.57,  217.08 " style="stroke-width: 1.42 ;&st7; " /><path d=" M 4109.06,  117.93  L 4104.81,  113.68  L 4100.56,  117.93 " style="stroke-width: 1.42 ;&st7; " /><path d=" M 4109.06,  121.33  L 4104.81,  117.08  L 4100.56,  121.33 " style="stroke-width: 1.42 ;&st7; " /><path d=" M 4058.07,  121.33  L 4053.82,  117.08  L 4049.57,  121.33 " style="stroke-width: 1.42 ;&st7; " /><path d=" M 4058.07,  117.93  L 4053.82,  113.68  L 4049.57,  117.93 " style="stroke-width: 1.42 ;&st7; " /><path d=" M 4103.62,  451.21  L 4103.35,  451.68  L 4103.25,  452.21  L 4103.35,  452.74  L 4103.62,  453.21  L 4104.03,  453.56  L 4104.54,  453.75  L 4105.08,  453.75  L 4105.59,  453.56  L 4106.01,  453.21  L 4106.28,  452.74  L 4106.37,  452.21  L 4106.28,  451.68  L 4106.01,  451.21  L 4105.59,  450.86  L 4105.08,  450.67  L 4104.54,  450.67  L 4104.03,  450.86  L 4103.62,  451.21  L 4104.01,  451.92  L 4104.01,  452.50  L 4104.39,  452.95  L 4104.96,  453.05  L 4105.46,  452.76  L 4105.66,  452.21  L 4105.46,  451.66  L 4104.96,  451.37  L 4104.39,  451.47  L 4104.81,  452.21 " style="stroke-width: 0.85 ;&st7; " /><path d=" M 4092.06,  467.08  L 4083.57,  467.08  L 4083.57,  471.33  L 4092.06,  471.33  L 4092.06,  467.08 " style="stroke-width: 0.85 ;&st7; " /><path d=" M 4079.32,  494.70  L 4079.32,  443.71  L 4113.31,  443.71  L 4113.31,  494.70  L 4079.32,  494.70 " style="stroke-width: 1.42 ;&st7; " /><path d=" M 4103.62,  485.20  L 4103.35,  485.67  L 4103.25,  486.20  L 4103.35,  486.74  L 4103.62,  487.21  L 4104.03,  487.55  L 4104.54,  487.74  L 4105.08,  487.74  L 4105.59,  487.55  L 4106.01,  487.21  L 4106.28,  486.74  L 4106.37,  486.20  L 4106.28,  485.67  L 4106.01,  485.20  L 4105.59,  484.86  L 4105.08,  484.67  L 4104.54,  484.67  L 4104.03,  484.86  L 4103.62,  485.20  L 4104.01,  485.91  L 4104.01,  486.50  L 4104.39,  486.94  L 4104.96,  487.04  L 4105.46,  486.75  L 4105.66,  486.20  L 4105.46,  485.66  L 4104.96,  485.37  L 4104.39,  485.47  L 4104.81,  486.20 " style="stroke-width: 0.85 ;&st7; " /><path d=" M 4104.81,  486.20  L 4104.81,  494.70 " style="stroke-width: 0.85 ;&st7; " /><path d=" M 4104.81,  443.71  L 4104.81,  452.21 " style="stroke-width: 0.85 ;&st7; " /><path d=" M 4087.82,  475.58  L 4087.82,  486.20  L 4104.81,  486.20 " style="stroke-width: 0.85 ;&st7; " /><path d=" M 4087.82,  452.21  L 4087.82,  462.83 " style="stroke-width: 0.85 ;&st7; " /><path d=" M 4104.81,  452.21  L 4087.82,  452.21 " style="stroke-width: 0.85 ;&st7; " /><path d=" M 4104.81,  486.20  L 4104.81,  477.71  L 4101.98,  476.29  L 4107.65,  473.46  L 4101.98,  470.62  L 4107.65,  467.79  L 4101.98,  464.96  L 4107.65,  462.12  L 4104.81,  460.71  L 4104.81,  452.21 " style="stroke-width: 0.85 ;&st7; " /><path d=" M 4083.57,  462.83  L 4092.06,  462.83 " style="stroke-width: 0.85 ;&st7; " /><path d=" M 4083.57,  475.58  L 4092.06,  475.58 " style="stroke-width: 0.85 ;&st7; " /><path d=" M 4109.06,  406.88  L 4104.81,  402.63  L 4100.56,  406.88 " style="stroke-width: 1.42 ;&st7; " /><path d=" M 4109.06,  410.28  L 4104.81,  406.03  L 4100.56,  410.28 " style="stroke-width: 1.42 ;&st7; " /><path d=" M 4066.57,  406.88  L 4062.32,  402.63  L 4058.07,  406.88 " style="stroke-width: 1.42 ;&st7; " /><path d=" M 4066.57,  410.28  L 4062.32,  406.03  L 4058.07,  410.28 " style="stroke-width: 1.42 ;&st7; " /><path d=" M 4580.73,  435.21  L 4580.73,  588.19  L 4495.75,  588.19  L 4495.75,  435.21  L 4580.73,  435.21 " style="stroke-width: 1.42 ;&st7; " /><path d=" M 4580.73,  426.15  L 4495.75,  426.15  L 4495.75,  401.22  L 4580.73,  401.22  L 4580.73,  426.15 " style="stroke-width: 1.42 ;&st7; " /><path d=" M 4002.83,  180.26  C 4004.79   180.26  4006.37   178.67  4006.37   176.71 " style="stroke-width: 0.85 ;&st7; " /><path d=" M 4006.37,  176.71  C 4006.37   174.76  4004.79   173.17  4002.83   173.17 " style="stroke-width: 0.85 ;&st7; " /><path d=" M 4002.83,  173.17  C 4001.84   173.17  4001.00   173.53  4000.30   174.24 " style="stroke-width: 0.85 ;&st7; " /><path d=" M 4000.30,  174.24  C 4001.67   175.63  4003.91   175.66  4005.31   174.29 " style="stroke-width: 0.85 ;&st7; " /><path d=" M 4005.31,  174.29  C 4006.71   172.92  4006.73   170.67  4005.36   169.28 " style="stroke-width: 0.85 ;&st7; " /><path d=" M 4005.36,  169.28  C 4003.99   167.88  4001.75   167.86  4000.35   169.23 " style="stroke-width: 0.85 ;&st7; " /><path d=" M 4000.35,  169.23  C 4000.33   169.24  4000.32   169.26  4000.30   169.28 " style="stroke-width: 0.85 ;&st7; " /><path d=" M 4000.30,  169.28  C 4001.67   170.67  4003.91   170.70  4005.31   169.33 " style="stroke-width: 0.85 ;&st7; " /><path d=" M 4005.31,  169.33  C 4006.71   167.96  4006.73   165.72  4005.36   164.32 " style="stroke-width: 0.85 ;&st7; " /><path d=" M 4005.36,  164.32  C 4004.67   163.61  4003.82   163.26  4002.83   163.26 " style="stroke-width: 0.85 ;&st7; " /><path d=" M 4007.36,  260.71  C 4007.36   258.21  4005.33   256.18  4002.83   256.18 " style="stroke-width: 1.42 ;&st7; " /><path d=" M 4002.83,  256.18  C 4000.33   256.18  3998.30   258.21  3998.30   260.71 " style="stroke-width: 1.42 ;&st7; " /><path d=" M 4002.83,  265.24  C 4005.33   265.24  4007.36   263.21  4007.36   260.71 " style="stroke-width: 1.42 ;&st7; " /><path d=" M 4432.29,  312.27  C 4432.29   309.76  4430.26   307.73  4427.76   307.73 " style="stroke-width: 1.42 ;&st7; " /><path d=" M 4427.76,  307.73  C 4425.26   307.73  4423.23   309.76  4423.23   312.27 " style="stroke-width: 1.42 ;&st7; " /><path d=" M 4423.23,  312.27  C 4423.23   314.77  4425.26   316.80  4427.76   316.80 " style="stroke-width: 1.42 ;&st7; " /><path d=" M 4427.76,  316.80  C 4430.26   316.80  4432.29   314.77  4432.29   312.27 " style="stroke-width: 1.42 ;&st7; " /><path d=" M 4398.30,  312.27  C 4398.30   309.76  4396.27   307.73  4393.77   307.73 " style="stroke-width: 1.42 ;&st7; " /><path d=" M 4393.77,  307.73  C 4391.26   307.73  4389.23   309.76  4389.23   312.27 " style="stroke-width: 1.42 ;&st7; " /><path d=" M 4389.23,  312.27  C 4389.23   314.77  4391.26   316.80  4393.77   316.80 " style="stroke-width: 1.42 ;&st7; " /><path d=" M 4393.77,  316.80  C 4396.27   316.80  4398.30   314.77  4398.30   312.27 " style="stroke-width: 1.42 ;&st7; " /><path d=" M 4253.82,  312.27  C 4253.82   309.76  4251.79   307.73  4249.29   307.73 " style="stroke-width: 1.42 ;&st7; " /><path d=" M 4249.29,  307.73  C 4246.79   307.73  4244.76   309.76  4244.76   312.27 " style="stroke-width: 1.42 ;&st7; " /><path d=" M 4244.76,  312.27  C 4244.76   314.77  4246.79   316.80  4249.29   316.80 " style="stroke-width: 1.42 ;&st7; " /><path d=" M 4249.29,  316.80  C 4251.79   316.80  4253.82   314.77  4253.82   312.27 " style="stroke-width: 1.42 ;&st7; " /><path d=" M 4364.30,  312.27  C 4364.30   309.76  4362.27   307.73  4359.77   307.73 " style="stroke-width: 1.42 ;&st7; " /><path d=" M 4359.77,  307.73  C 4357.27   307.73  4355.24   309.76  4355.24   312.27 " style="stroke-width: 1.42 ;&st7; " /><path d=" M 4355.24,  312.27  C 4355.24   314.77  4357.27   316.80  4359.77   316.80 " style="stroke-width: 1.42 ;&st7; " /><path d=" M 4359.77,  316.80  C 4362.27   316.80  4364.30   314.77  4364.30   312.27 " style="stroke-width: 1.42 ;&st7; " /><path d=" M 4287.82,  312.27  C 4287.82   309.76  4285.79   307.73  4283.28   307.73 " style="stroke-width: 1.42 ;&st7; " /><path d=" M 4283.28,  307.73  C 4280.78   307.73  4278.75   309.76  4278.75   312.27 " style="stroke-width: 1.42 ;&st7; " /><path d=" M 4278.75,  312.27  C 4278.75   314.77  4280.78   316.80  4283.28   316.80 " style="stroke-width: 1.42 ;&st7; " /><path d=" M 4283.28,  316.80  C 4285.79   316.80  4287.82   314.77  4287.82   312.27 " style="stroke-width: 1.42 ;&st7; " /><path d=" M 4321.81,  312.27  C 4321.81   309.76  4319.78   307.73  4317.28   307.73 " style="stroke-width: 1.42 ;&st7; " /><path d=" M 4317.28,  307.73  C 4314.78   307.73  4312.75   309.76  4312.75   312.27 " style="stroke-width: 1.42 ;&st7; " /><path d=" M 4312.75,  312.27  C 4312.75   314.77  4314.78   316.80  4317.28   316.80 " style="stroke-width: 1.42 ;&st7; " /><path d=" M 4317.28,  316.80  C 4319.78   316.80  4321.81   314.77  4321.81   312.27 " style="stroke-width: 1.42 ;&st7; " /><path d=" M 4109.35,  312.27  C 4109.35   309.76  4107.32   307.73  4104.81   307.73 " style="stroke-width: 1.42 ;&st7; " /><path d=" M 4104.81,  307.73  C 4102.31   307.73  4100.28   309.76  4100.28   312.27 " style="stroke-width: 1.42 ;&st7; " /><path d=" M 4100.28,  312.27  C 4100.28   314.77  4102.31   316.80  4104.81   316.80 " style="stroke-width: 1.42 ;&st7; " /><path d=" M 4104.81,  316.80  C 4107.32   316.80  4109.35   314.77  4109.35   312.27 " style="stroke-width: 1.42 ;&st7; " /><path d=" M 4066.85,  312.27  C 4066.85   309.76  4064.82   307.73  4062.32   307.73 " style="stroke-width: 1.42 ;&st7; " /><path d=" M 4062.32,  307.73  C 4059.82   307.73  4057.79   309.76  4057.79   312.27 " style="stroke-width: 1.42 ;&st7; " /><path d=" M 4057.79,  312.27  C 4057.79   314.77  4059.82   316.80  4062.32   316.80 " style="stroke-width: 1.42 ;&st7; " /><path d=" M 4062.32,  316.80  C 4064.82   316.80  4066.85   314.77  4066.85   312.27 " style="stroke-width: 1.42 ;&st7; " /><path d=" M 4466.29,  312.27  C 4466.29   309.76  4464.26   307.73  4461.75   307.73 " style="stroke-width: 1.42 ;&st7; " /><path d=" M 4461.75,  307.73  C 4459.25   307.73  4457.22   309.76  4457.22   312.27 " style="stroke-width: 1.42 ;&st7; " /><path d=" M 4457.22,  312.27  C 4457.22   314.77  4459.25   316.80  4461.75   316.80 " style="stroke-width: 1.42 ;&st7; " /><path d=" M 4461.75,  316.80  C 4464.26   316.80  4466.29   314.77  4466.29   312.27 " style="stroke-width: 1.42 ;&st7; " /><path d=" M 4053.82,  180.26  C 4055.78   180.26  4057.36   178.67  4057.36   176.71 " style="stroke-width: 0.85 ;&st7; " /><path d=" M 4057.36,  176.71  C 4057.36   174.76  4055.78   173.17  4053.82   173.17 " style="stroke-width: 0.85 ;&st7; " /><path d=" M 4053.82,  173.17  C 4052.83   173.17  4051.99   173.53  4051.29   174.24 " style="stroke-width: 0.85 ;&st7; " /><path d=" M 4051.29,  174.24  C 4052.66   175.63  4054.90   175.66  4056.30   174.29 " style="stroke-width: 0.85 ;&st7; " /><path d=" M 4056.30,  174.29  C 4057.70   172.92  4057.72   170.67  4056.35   169.28 " style="stroke-width: 0.85 ;&st7; " /><path d=" M 4056.35,  169.28  C 4054.98   167.88  4052.74   167.86  4051.34   169.23 " style="stroke-width: 0.85 ;&st7; " /><path d=" M 4051.34,  169.23  C 4051.33   169.24  4051.31   169.26  4051.29   169.28 " style="stroke-width: 0.85 ;&st7; " /><path d=" M 4051.29,  169.28  C 4052.66   170.67  4054.90   170.70  4056.30   169.33 " style="stroke-width: 0.85 ;&st7; " /><path d=" M 4056.30,  169.33  C 4057.70   167.96  4057.72   165.72  4056.35   164.32 " style="stroke-width: 0.85 ;&st7; " /><path d=" M 4056.35,  164.32  C 4055.66   163.61  4054.81   163.26  4053.82   163.26 " style="stroke-width: 0.85 ;&st7; " /><path d=" M 4058.36,  260.71  C 4058.36   258.21  4056.33   256.18  4053.82   256.18 " style="stroke-width: 1.42 ;&st7; " /><path d=" M 4053.82,  256.18  C 4051.32   256.18  4049.29   258.21  4049.29   260.71 " style="stroke-width: 1.42 ;&st7; " /><path d=" M 4049.29,  260.71  C 4049.29   263.21  4051.32   265.24  4053.82   265.24 " style="stroke-width: 1.42 ;&st7; " /><path d=" M 4053.82,  265.24  C 4056.33   265.24  4058.36   263.21  4058.36   260.71 " style="stroke-width: 1.42 ;&st7; " /><path d=" M 4104.81,  180.26  C 4106.77   180.26  4108.36   178.67  4108.36   176.71 " style="stroke-width: 0.85 ;&st7; " /><path d=" M 4108.36,  176.71  C 4108.36   174.76  4106.77   173.17  4104.81   173.17 " style="stroke-width: 0.85 ;&st7; " /><path d=" M 4104.81,  173.17  C 4103.82   173.17  4102.98   173.53  4102.28   174.24 " style="stroke-width: 0.85 ;&st7; " /><path d=" M 4102.28,  174.24  C 4103.65   175.63  4105.90   175.66  4107.29   174.29 " style="stroke-width: 0.85 ;&st7; " /><path d=" M 4107.29,  174.29  C 4108.69   172.92  4108.71   170.67  4107.34   169.28 " style="stroke-width: 0.85 ;&st7; " /><path d=" M 4107.34,  169.28  C 4105.97   167.88  4103.73   167.86  4102.34   169.23 " style="stroke-width: 0.85 ;&st7; " /><path d=" M 4102.34,  169.23  C 4102.32   169.24  4102.30   169.26  4102.28   169.28 " style="stroke-width: 0.85 ;&st7; " /><path d=" M 4102.28,  169.28  C 4103.65   170.67  4105.90   170.70  4107.29   169.33 " style="stroke-width: 0.85 ;&st7; " /><path d=" M 4107.29,  169.33  C 4108.69   167.96  4108.71   165.72  4107.34   164.32 " style="stroke-width: 0.85 ;&st7; " /><path d=" M 4107.34,  164.32  C 4106.65   163.61  4105.80   163.26  4104.81   163.26 " style="stroke-width: 0.85 ;&st7; " /><path d=" M 4109.35,  260.71  C 4109.35   258.21  4107.32   256.18  4104.81   256.18 " style="stroke-width: 1.42 ;&st7; " /><path d=" M 4104.81,  256.18  C 4102.31   256.18  4100.28   258.21  4100.28   260.71 " style="stroke-width: 1.42 ;&st7; " /><path d=" M 4100.28,  260.71  C 4100.28   263.21  4102.31   265.24  4104.81   265.24 " style="stroke-width: 1.42 ;&st7; " /><path d=" M 4104.81,  265.24  C 4107.32   265.24  4109.35   263.21  4109.35   260.71 " style="stroke-width: 1.42 ;&st7; " /><text style="&st18;" transform="matrix(&st16;  4000.5  262.68 )">B</text><text ewd:textID="34" style="&st18;" transform="matrix(&st17;  4026.05  191.28 )">Fuel Injector <tspan dy="6" x="0">Assembly No.6</tspan></text><text style="&st18;" transform="matrix(&st17;  4458.06  459.91 )">W-B</text><text style="&st18;" transform="matrix(&st16;  4459.42  314.24 )">A</text><text style="&st18;" transform="matrix(&st16;  4446.95  314.24 )">52</text><text style="&st18;" transform="matrix(&st16;  4456.95  304.04 )">EC</text><text style="&st18;" transform="matrix(&st16;  4047.03  151.07 )">2</text><text style="&st18;" transform="matrix(&st16;  4047.81  196.95 )">1</text><text style="&st18;" transform="matrix(&st16;  4039.02  262.68 )">83</text><text style="&st18;" transform="matrix(&st16;  4047.39  272.88 )">#70</text><text style="&st18;" transform="matrix(&st16;  4051.49  262.68 )">B</text><text style="&st18;" transform="matrix(&st17;  4050.13  139.98 )">L-R</text><text style="&st18;" transform="matrix(&st17;  4050.13  247.35 )">W</text><text style="&st18;" transform="matrix(&st17;  4069.93  191.28 )">a8</text><text style="&st18;" transform="matrix(&st16;  4098.03  151.07 )">2</text><text style="&st18;" transform="matrix(&st16;  4098.8  196.95 )">1</text><text style="&st18;" transform="matrix(&st16;  4086.83  262.68 )">106</text><text style="&st18;" transform="matrix(&st16;  4098.39  272.88 )">#80</text><text style="&st18;" transform="matrix(&st16;  4102.48  262.68 )">B</text><text style="&st18;" transform="matrix(&st17;  4101.12  139.98 )">L-R</text><text style="&st18;" transform="matrix(&st17;  4101.12  246.33 )">B</text><text style="&st18;" transform="matrix(&st17;  4120.92  191.28 )">a4</text><text style="&st18;" transform="matrix(&st16;  4026.0  57.58 )">B</text><text style="&st18;" transform="matrix(&st16;  4090.0  228.97 )">5</text><text style="&st18;" transform="matrix(&st16;  4039.01  228.97 )">5</text><text style="&st18;" transform="matrix(&st17;  4101.12  212.85 )">G-Y</text><text style="&st18;" transform="matrix(&st17;  4050.13  212.85 )">G-Y</text><text style="&st18;" transform="matrix(&st16;  4090.78  109.99 )">1</text><text style="&st18;" transform="matrix(&st16;  4039.79  109.99 )">1</text><text style="&st18;" transform="matrix(&st17;  4050.13  84.85 )">B</text><text style="&st18;" transform="matrix(&st16;  4076.99  57.58 )">B</text><text ewd:textID="46" style="&st18;" transform="matrix(&st17;  4128.03  497.23 )">Knock Control Sensor <tspan dy="6" x="0">(Bank 2 Sensor 2)</tspan></text><text style="&st18;" transform="matrix(&st17;  4424.07  459.91 )">W-B</text><text style="&st18;" transform="matrix(&st17;  4390.07  459.91 )">W-B</text><text style="&st18;" transform="matrix(&st16;  4245.37  304.04 )">E1</text><text style="&st18;" transform="matrix(&st16;  4425.43  314.24 )">B</text><text style="&st18;" transform="matrix(&st16;  4412.96  314.24 )">23</text><text style="&st18;" transform="matrix(&st16;  4391.43  314.24 )">B</text><text style="&st18;" transform="matrix(&st16;  4379.74  314.24 )">41</text><text style="&st18;" transform="matrix(&st16;  4235.26  314.24 )">81</text><text style="&st18;" transform="matrix(&st16;  4246.96  314.24 )">B</text><text style="&st18;" transform="matrix(&st17;  4313.58  457.01 )">BR</text><text style="&st18;" transform="matrix(&st16;  4387.87  304.04 )">E01</text><text style="&st18;" transform="matrix(&st16;  4421.47  304.04 )">E04</text><text ewd:textID="44" style="&st18;" transform="matrix(&st17;  4017.55  497.23 )">Knock Control Sensor <tspan dy="6" x="0">(Bank 1 Sensor 2)</tspan></text><text ewd:textID="35" style="&st18;" transform="matrix(&st17;  4077.04  191.28 )">Fuel Injector <tspan dy="6" x="0">Assembly No.7</tspan></text><text ewd:textID="36" style="&st18;" transform="matrix(&st17;  4128.03  191.28 )">Fuel Injector <tspan dy="6" x="0">Assembly No.8</tspan></text><text style="&st18;" transform="matrix(&st17;  4018.94  191.28 )">a3</text><text style="&st18;" transform="matrix(&st17;  4245.6  459.91 )">W-B</text><text style="&st18;" transform="matrix(&st16;  4314.95  314.24 )">B</text><text style="&st18;" transform="matrix(&st16;  4302.47  314.24 )">43</text><text style="&st18;" transform="matrix(&st16;  4310.99  304.04 )">E02</text><text style="&st18;" transform="matrix(&st17;  4356.08  459.91 )">W-B</text><text style="&st18;" transform="matrix(&st17;  4279.59  459.91 )">W-B</text><text style="&st18;" transform="matrix(&st16;  4357.44  314.24 )">B</text><text style="&st18;" transform="matrix(&st16;  4344.97  314.24 )">46</text><text style="&st18;" transform="matrix(&st16;  4280.95  314.24 )">B</text><text style="&st18;" transform="matrix(&st16;  4269.26  314.24 )">18</text><text style="&st18;" transform="matrix(&st16;  4274.49  304.04 )">ME01</text><text style="&st18;" transform="matrix(&st16;  4353.48  304.04 )">E05</text><text style="&st18;" transform="matrix(&st16;  4497.94  314.24 )">60</text><text style="&st18;" transform="matrix(&st16;  4493.98  356.45 )">32</text><text style="&st18;" transform="matrix(&st17;  4033.13  356.02 )">(*1)</text><text style="&st18;" transform="matrix(&st17;  4101.12  352.98 )">G</text><text style="&st18;" transform="matrix(&st16;  4045.11  314.24 )">115</text><text style="&st18;" transform="matrix(&st16;  4059.99  314.24 )">B</text><text style="&st18;" transform="matrix(&st16;  4053.21  304.04 )">KNK4</text><text style="&st18;" transform="matrix(&st16;  4095.7  304.04 )">EKN4</text><text style="&st18;" transform="matrix(&st16;  4102.48  314.24 )">B</text><text style="&st18;" transform="matrix(&st16;  4087.61  314.24 )">114</text><text style="&st18;" transform="matrix(&st16;  4098.03  502.9 )">2</text><text style="&st18;" transform="matrix(&st17;  4010.44  497.23 )">U5</text><text style="&st18;" transform="matrix(&st17;  4120.92  497.23 )">U6</text><text style="&st18;" transform="matrix(&st16;  4090.0  398.94 )">7</text><text style="&st18;" transform="matrix(&st16;  4047.51  398.94 )">8</text><text style="&st18;" transform="matrix(&st17;  4033.13  427.27 )">BR</text><text style="&st18;" transform="matrix(&st16;  4098.8  440.02 )">1</text><text style="&st18;" transform="matrix(&st17;  4058.63  425.82 )">W</text><text style="&st18;" transform="matrix(&st17;  4058.63  352.7 )">R</text><text style="&st18;" transform="matrix(&st17;  4101.12  424.8 )">B</text><text style="&st18;" transform="matrix(&st16;  4170.47  601.49 )">B</text><text style="&st18;" transform="matrix(&st16;  4119.48  601.49 )">B</text><text ewd:textID="1" style="&st18;" transform="matrix(&st16;  4017.3  20.75 )">* 1 :Shielded</text><text style="&st18;" transform="matrix(&st16;  4371.41  284.18 )">A38(A),C45(B)</text><text style="&st18;" transform="matrix(&st16;  4371.41  291.29 )">ECM</text></svg>