﻿<?xml version="1.0" encoding="utf-8"?>
<!DOCTYPE svg PUBLIC "-//W3C//DTD SVG 1.0//EN" "http://www.w3.org/TR/2001/REC-SVG-20010904/DTD/svg10.dtd"[
	<!ENTITY ns_flows "http://ns.adobe.com/Flows/1.0/">
	<!ENTITY ns_svg "http://www.w3.org/2000/svg">
	<!ENTITY ns_xlink "http://www.w3.org/1999/xlink">
	<!ENTITY st0 "font-size:7px;font-family:'MS-PGothic';adobe-font-script:japanese;">
	<!ENTITY st1 "font-size:6px;font-family:'ArialMT';">
	<!-- White fill  -->
	<!ENTITY st2 "fill:#FFFFFF;stroke:#000000; stroke-width:1.41;stroke-linecap:round;stroke-linejoin:round;">
	<!-- Yellow fill  -->
	<!ENTITY st3 "fill:#FFFFCC;stroke:#FFFFCC; stroke-width:0.1;stroke-linecap:round;stroke-linejoin:round;">
	<!-- Gray fill  -->
	<!ENTITY st4 "fill:#CCCCCC;stroke:#CCCCCC; stroke-width:0.1;stroke-linecap:round;stroke-linejoin:round;">
	<!-- Light-blue fill -->
	<!ENTITY st5 "fill:#CCECF4;stroke:#000000; stroke-width:1.133;stroke-linecap:round;stroke-linejoin:round;">
	<!ENTITY st6 "fill:none;stroke-linecap:butt; stroke-linejoin:round;">
	<!ENTITY st7 "fill:none;stroke:#000000;stroke-linecap:round;stroke-linejoin:round;">
	<!ENTITY st8 "enable-background:new    ;">
	<!-- Black fill -->
	<!ENTITY st9 "fill:#000000;stroke:#000000; stroke-linecap:round;stroke-linejoin:round;">
	<!-- SRS note   -->
	<!ENTITY st10 "font-size:9px;font-family:'ArialMT';">
	<!ENTITY st11 "font-size:9px;font-family:'Svg Symbol';">
	<!ENTITY st12 "font-size:6px;font-family:'Svg Symbol';">
	<!ENTITY st13 "fill:none;stroke:#ff0000;stroke-linecap:round;stroke-linejoin:round;">
	<!-- Yellow fill  -->
	<!ENTITY st14 "fill:#FFFF00;stroke:#FFFF00; stroke-width:0.1;stroke-linecap:round;stroke-linejoin:round;">
	<!ENTITY st15 "font-size:6px;font-family:'MS-PGothic';adobe-font-script:japanese;">
	<!ENTITY st16 "1.00 0.00 0.00 1.00">
	<!ENTITY st17 "0.00 -1.00 1.00 0.00">
	<!ENTITY st18 "font-size:6px;font-family:'Arial';">
	<!ENTITY st19 "font-size:9px;font-family:'Arial';">
	<!ENTITY st20 "font-size:6px;font-family:'MS-PGothic','MS PGothic';adobe-font-script:japanese;">
	<!ENTITY st21 "font-size:7px;font-family:'MS-PGothic','MS PGothic';adobe-font-script:japanese;">
	<!ATTLIST svg
		xmlns:ewd CDATA #FIXED "http://shcl.co.jp/ewd"
		xmlns:a CDATA #FIXED "http://ns.adobe.com/AdobeSVGViewerExtensions/3.0/"
		ewd:ver CDATA #IMPLIED
	>
	<!ATTLIST a
		ewd:lineID CDATA #IMPLIED
		ewd:groupID CDATA #IMPLIED
		ewd:figtype CDATA #IMPLIED
		ewd:code CDATA #IMPLIED
		ewd:figID CDATA #IMPLIED
		ewd:pinNo CDATA #IMPLIED
		ewd:comment CDATA #IMPLIED >
	<!ATTLIST g
		ewd:lineID CDATA #IMPLIED
		ewd:groupID CDATA #IMPLIED
		ewd:figtype CDATA #IMPLIED
		ewd:code CDATA #IMPLIED
		ewd:figID CDATA #IMPLIED
		ewd:pinNo CDATA #IMPLIED
		ewd:comment CDATA #IMPLIED >
	<!ATTLIST text
		ewd:textID CDATA #IMPLIED >
	<!ATTLIST title
		ewd:textID CDATA #IMPLIED >
]>
<!-- Generator: Shintec Hozumi YS   -->
<svg onload="call_execInitLoadProc_svg('system')" style="overflow:visible;  enable-background:new 0 0 8737.248 710.000" viewBox="0 0 8737.248 710.000" height="710.000" width="8737.248" xml:space="preserve" ewd:ver="L2.1.2.8" xmlns="&ns_svg;" xmlns:a="http://ns.adobe.com/AdobeSVGViewerExtensions/3.0/" xmlns:ewd="http://shcl.co.jp/ewd" xmlns:xlink="&ns_xlink;">
<path d=" M  905.10,  372.89  L  905.10,  376.86 " style="stroke-width: 1.42 ;&st7; " /><path d=" M  896.60,  376.86  L  896.60,  372.89 " style="stroke-width: 1.42 ;&st7; " /><path d=" M  896.60,  372.89  L  905.10,  372.89 " style="stroke-width: 1.42 ;&st7; " /><path d=" M  905.10,  395.55  L  905.10,  391.59 " style="stroke-width: 1.42 ;&st7; " /><path d=" M  896.60,  391.59  L  896.60,  395.55 " style="stroke-width: 1.42 ;&st7; " /><path d=" M  896.60,  395.55  L  905.10,  395.55 " style="stroke-width: 1.42 ;&st7; " /><path d=" M  764.87,  409.72  L  773.37,  409.72 " style="stroke-width: 1.42 ;&st7; " /><path d=" M  594.90,  409.72  L  603.40,  409.72 " style="stroke-width: 1.42 ;&st7; " /><path d=" M  603.40,  238.33  L  609.06,  260.99 " style="stroke-width: 1.42 ;&st7; " /><path d=" M  603.40,  265.24  L  603.40,  260.99 " style="stroke-width: 0.85 ;&st7; " /><path d=" M  603.40,  231.25  L  603.40,  235.50 " style="stroke-width: 0.85 ;&st7; " /><path d=" M  577.90,  231.25  L  577.90,  239.75 " style="stroke-width: 0.85 ;&st7; " /><path d=" M  577.90,  256.74  L  577.90,  265.24 " style="stroke-width: 0.85 ;&st7; " /><path d=" M  580.03,  197.25  L  575.78,  197.25 " style="stroke-width: 1.42 ;&st7; " /><path d=" M  580.03,  205.75  L  575.78,  205.75 " style="stroke-width: 1.42 ;&st7; " /><path d=" M  605.52,  197.25  L  601.27,  197.25 " style="stroke-width: 1.42 ;&st7; " /><path d=" M  605.52,  205.75  L  601.27,  205.75 " style="stroke-width: 1.42 ;&st7; " /><path d=" M  580.03,  290.74  L  575.78,  290.74 " style="stroke-width: 1.42 ;&st7; " /><path d=" M  580.03,  299.24  L  575.78,  299.24 " style="stroke-width: 1.42 ;&st7; " /><path d=" M  605.52,  290.74  L  601.27,  290.74 " style="stroke-width: 1.42 ;&st7; " /><path d=" M  605.52,  299.24  L  601.27,  299.24 " style="stroke-width: 1.42 ;&st7; " /><path d=" M  628.89,  409.72  L  637.39,  409.72 " style="stroke-width: 1.42 ;&st7; " /><path d=" M  662.89,  409.72  L  671.39,  409.72 " style="stroke-width: 1.42 ;&st7; " /><path d=" M  815.86,  443.71  L  807.37,  443.71 " style="stroke-width: 1.42 ;&st7; " /><path d=" M  849.86,  397.69  L  844.89,  392.72 " style="stroke-width: 1.42 ;&st7; " /><path d=" M  832.86,  404.75  L  837.83,  409.72 " style="stroke-width: 1.42 ;&st7; " /><path d=" M  844.89,  409.72  L  849.86,  404.75 " style="stroke-width: 1.42 ;&st7; " /><path d=" M  837.83,  392.72  L  832.86,  397.69 " style="stroke-width: 1.42 ;&st7; " /><path d=" M  611.90,  355.20  L  606.93,  350.23 " style="stroke-width: 1.42 ;&st7; " /><path d=" M  594.90,  362.26  L  599.87,  367.22 " style="stroke-width: 1.42 ;&st7; " /><path d=" M  606.93,  367.22  L  611.90,  362.26 " style="stroke-width: 1.42 ;&st7; " /><path d=" M  599.87,  350.23  L  594.90,  355.20 " style="stroke-width: 1.42 ;&st7; " /><path d=" M  781.87,  358.73  L  773.37,  358.73 " style="stroke-width: 1.42 ;&st7; " /><path d=" M  756.37,  265.24  L  756.37,  307.73  L  977.34,  307.73  L  977.34,  265.24  L  756.37,  265.24 " style="stroke-width: 1.42 ;&st7; " /><path d=" M  841.36,  697.25  L  841.36,  701.50 " style="stroke-width: 0.85 ;&st7; " /><path d=" M  832.86,  701.50  L  849.86,  701.50 " style="stroke-width: 0.85 ;&st7; " /><path d=" M  837.11,  704.33  L  845.61,  704.33 " style="stroke-width: 0.85 ;&st7; " /><path d=" M  838.53,  707.17  L  844.19,  707.17 " style="stroke-width: 0.85 ;&st7; " /><path d=" M  839.94,  710.00  L  842.78,  710.00 " style="stroke-width: 0.85 ;&st7; " /><path d=" M  900.85,  395.55  L  900.85,  409.72 " style="stroke-width: 0.85 ;&st7; " /><path d=" M  883.85,  358.73  L  883.85,  409.72  L  926.34,  409.72  L  926.34,  358.73  L  883.85,  358.73 " style="stroke-width: 1.42 ;&st7; " /><path d=" M  900.85,  358.73  L  900.85,  372.89 " style="stroke-width: 0.85 ;&st7; " /><path d=" M  769.12,  400.65  L  773.37,  404.90  L  777.62,  400.65 " style="stroke-width: 1.42 ;&st7; " /><path d=" M  777.62,  404.05  L  773.37,  408.30  L  769.12,  404.05 " style="stroke-width: 1.42 ;&st7; " /><path d=" M  777.62,  367.79  L  773.37,  363.54  L  769.12,  367.79 " style="stroke-width: 1.42 ;&st7; " /><path d=" M  777.62,  364.39  L  773.37,  360.14  L  769.12,  364.39 " style="stroke-width: 1.42 ;&st7; " /><path d=" M  599.15,  400.65  L  603.40,  404.90  L  607.65,  400.65 " style="stroke-width: 1.42 ;&st7; " /><path d=" M  607.65,  404.05  L  603.40,  408.30  L  599.15,  404.05 " style="stroke-width: 1.42 ;&st7; " /><path d=" M  611.90,  231.25  L  569.40,  231.25  L  569.40,  265.24  L  611.90,  265.24  L  611.90,  231.25 " style="stroke-width: 1.42 ;&st7; " /><path d=" M  577.90,  210.65  L  580.74,  213.48  L  580.74,  209.23  L  577.90,  206.40  L  575.07,  209.23  L  575.07,  213.48  L  577.90,  210.65 " style="stroke-width: 0.28 ;&st9;" /><path d=" M  577.90,  205.75  L  577.90,  231.25 " style="stroke-width: 0.85 ;&st7; " /><path d=" M  603.40,  210.65  L  606.23,  213.48  L  606.23,  209.23  L  603.40,  206.40  L  600.57,  209.23  L  600.57,  213.48  L  603.40,  210.65 " style="stroke-width: 0.28 ;&st9;" /><path d=" M  577.90,  265.24  L  577.90,  290.74 " style="stroke-width: 0.85 ;&st7; " /><path d=" M  577.90,  285.84  L  575.07,  283.01  L  575.07,  287.26  L  577.90,  290.09  L  580.74,  287.26  L  580.74,  283.01  L  577.90,  285.84 " style="stroke-width: 0.28 ;&st9;" /><path d=" M  603.40,  205.75  L  603.40,  231.25 " style="stroke-width: 0.85 ;&st7; " /><path d=" M  603.40,  285.84  L  600.57,  283.01  L  600.57,  287.26  L  603.40,  290.09  L  606.23,  287.26  L  606.23,  283.01  L  603.40,  285.84 " style="stroke-width: 0.28 ;&st9;" /><path d=" M  603.40,  265.24  L  603.40,  290.74 " style="stroke-width: 0.85 ;&st7; " /><path d=" M  633.14,  400.65  L  637.39,  404.90  L  641.64,  400.65 " style="stroke-width: 1.42 ;&st7; " /><path d=" M  641.64,  404.05  L  637.39,  408.30  L  633.14,  404.05 " style="stroke-width: 1.42 ;&st7; " /><path d=" M  667.14,  400.65  L  671.39,  404.90  L  675.64,  400.65 " style="stroke-width: 1.42 ;&st7; " /><path d=" M  675.64,  404.05  L  671.39,  408.30  L  667.14,  404.05 " style="stroke-width: 1.42 ;&st7; " /><path d=" M  811.61,  452.78  L  807.36,  448.53  L  803.12,  452.78 " style="stroke-width: 1.42 ;&st7; " /><path d=" M  811.61,  449.38  L  807.36,  445.13  L  803.12,  449.38 " style="stroke-width: 1.42 ;&st7; " /><path d=" M  807.36,  697.25  L  807.36,  701.50 " style="stroke-width: 0.85 ;&st7; " /><path d=" M  798.87,  701.50  L  815.86,  701.50 " style="stroke-width: 0.85 ;&st7; " /><path d=" M  803.12,  704.33  L  811.61,  704.33 " style="stroke-width: 0.85 ;&st7; " /><path d=" M  804.53,  707.17  L  810.20,  707.17 " style="stroke-width: 0.85 ;&st7; " /><path d=" M  805.95,  710.00  L  808.78,  710.00 " style="stroke-width: 0.85 ;&st7; " /><path d=" M  909.35,  384.22  C  909.35   379.53   905.54   375.72   900.85   375.72 " style="stroke-width: 1.42 ;&st7; " /><path d=" M  900.85,  375.72  C  896.16   375.72   892.35   379.53   892.35   384.22 " style="stroke-width: 1.42 ;&st7; " /><path d=" M  892.35,  384.22  C  892.35   388.91   896.16   392.72   900.85   392.72 " style="stroke-width: 1.42 ;&st7; " /><path d=" M  900.85,  392.72  C  905.54   392.72   909.35   388.91   909.35   384.22 " style="stroke-width: 1.42 ;&st7; " /><path d=" M  575.37,  250.72  C  576.74   252.12   578.99   252.14   580.38   250.77 " style="stroke-width: 0.85 ;&st7; " /><path d=" M  580.38,  250.77  C  581.78   249.40   581.80   247.16   580.43   245.77 " style="stroke-width: 0.85 ;&st7; " /><path d=" M  580.43,  245.77  C  579.06   244.37   576.82   244.35   575.42   245.71 " style="stroke-width: 0.85 ;&st7; " /><path d=" M  575.42,  245.71  C  575.41   245.73   575.39   245.75   575.37   245.77 " style="stroke-width: 0.85 ;&st7; " /><path d=" M  577.90,  256.74  C  579.86   256.74   581.44   255.16   581.44   253.20 " style="stroke-width: 0.85 ;&st7; " /><path d=" M  581.44,  253.20  C  581.44   251.25   579.86   249.66   577.90   249.66 " style="stroke-width: 0.85 ;&st7; " /><path d=" M  577.90,  249.66  C  576.91   249.66   576.07   250.02   575.37   250.72 " style="stroke-width: 0.85 ;&st7; " /><path d=" M  575.78,  197.25  C  573.43   197.25   571.53   199.15   571.53   201.50 " style="stroke-width: 1.42 ;&st7; " /><path d=" M  571.53,  201.50  C  571.53   203.85   573.43   205.75   575.78   205.75 " style="stroke-width: 1.42 ;&st7; " /><path d=" M  580.03,  205.75  C  582.37   205.75   584.28   203.85   584.28   201.50 " style="stroke-width: 1.42 ;&st7; " /><path d=" M  584.28,  201.50  C  584.28   199.15   582.37   197.25   580.03   197.25 " style="stroke-width: 1.42 ;&st7; " /><path d=" M  601.27,  197.25  C  598.93   197.25   597.03   199.15   597.03   201.50 " style="stroke-width: 1.42 ;&st7; " /><path d=" M  597.03,  201.50  C  597.03   203.85   598.93   205.75   601.27   205.75 " style="stroke-width: 1.42 ;&st7; " /><path d=" M  605.52,  205.75  C  607.87   205.75   609.77   203.85   609.77   201.50 " style="stroke-width: 1.42 ;&st7; " /><path d=" M  609.77,  201.50  C  609.77   199.15   607.87   197.25   605.52   197.25 " style="stroke-width: 1.42 ;&st7; " /><path d=" M  575.78,  290.74  C  573.43   290.74   571.53   292.64   571.53   294.99 " style="stroke-width: 1.42 ;&st7; " /><path d=" M  571.53,  294.99  C  571.53   297.33   573.43   299.24   575.78   299.24 " style="stroke-width: 1.42 ;&st7; " /><path d=" M  580.03,  299.24  C  582.37   299.24   584.28   297.33   584.28   294.99 " style="stroke-width: 1.42 ;&st7; " /><path d=" M  584.28,  294.99  C  584.28   292.64   582.37   290.74   580.03   290.74 " style="stroke-width: 1.42 ;&st7; " /><path d=" M  601.27,  290.74  C  598.93   290.74   597.03   292.64   597.03   294.99 " style="stroke-width: 1.42 ;&st7; " /><path d=" M  597.03,  294.99  C  597.03   297.33   598.93   299.24   601.27   299.24 " style="stroke-width: 1.42 ;&st7; " /><path d=" M  605.52,  299.24  C  607.87   299.24   609.77   297.33   609.77   294.99 " style="stroke-width: 1.42 ;&st7; " /><path d=" M  609.77,  294.99  C  609.77   292.64   607.87   290.74   605.52   290.74 " style="stroke-width: 1.42 ;&st7; " /><path d=" M  604.82,  259.58  C  604.82   258.79   604.18   258.16   603.40   258.16 " style="stroke-width: 0.85 ;&st7; " /><path d=" M  603.40,  258.16  C  602.62   258.16   601.98   258.79   601.98   259.58 " style="stroke-width: 0.85 ;&st7; " /><path d=" M  601.98,  259.58  C  601.98   260.36   602.62   260.99   603.40   260.99 " style="stroke-width: 0.85 ;&st7; " /><path d=" M  603.40,  260.99  C  604.18   260.99   604.82   260.36   604.82   259.58 " style="stroke-width: 0.85 ;&st7; " /><path d=" M  604.82,  236.91  C  604.82   236.13   604.18   235.50   603.40   235.50 " style="stroke-width: 0.85 ;&st7; " /><path d=" M  603.40,  235.50  C  602.62   235.50   601.98   236.13   601.98   236.91 " style="stroke-width: 0.85 ;&st7; " /><path d=" M  601.98,  236.91  C  601.98   237.69   602.62   238.33   603.40   238.33 " style="stroke-width: 0.85 ;&st7; " /><path d=" M  603.40,  238.33  C  604.18   238.33   604.82   237.69   604.82   236.91 " style="stroke-width: 0.85 ;&st7; " /><path d=" M  575.37,  245.77  C  576.74   247.16   578.99   247.19   580.38   245.82 " style="stroke-width: 0.85 ;&st7; " /><path d=" M  580.38,  245.82  C  581.78   244.45   581.80   242.20   580.43   240.81 " style="stroke-width: 0.85 ;&st7; " /><path d=" M  580.43,  240.81  C  579.74   240.10   578.89   239.74   577.90   239.74 " style="stroke-width: 0.85 ;&st7; " /><text style="&st18;" transform="matrix(&st16;  766.58  315.93 )">6</text><text style="&st18;" transform="matrix(&st17;  837.66  668.12 )">W-B</text><text ewd:textID="49" style="&st18;" transform="matrix(&st17;  992.05  310.26 )">Fuel Pump Control <tspan dy="6" x="0">ECU Assembly</tspan></text><text style="&st18;" transform="matrix(&st16;  894.06  417.91 )">4</text><text style="&st18;" transform="matrix(&st16;  834.57  315.93 )">3</text><text ewd:textID="68" style="&st18;" transform="matrix(&st17;  916.98  393.48 )">Pump</text><text style="&st18;" transform="matrix(&st16;  897.95  386.19 )">M</text><text style="&st18;" transform="matrix(&st16;  894.06  355.04 )">5</text><text style="&st18;" transform="matrix(&st16;  889.4  406.03 )">B2</text><text style="&st18;" transform="matrix(&st16;  769.03  304.04 )">+B</text><text style="&st18;" transform="matrix(&st16;  839.03  304.04 )">E</text><text style="&st18;" transform="matrix(&st16;  889.4  366.92 )">E2</text><text ewd:textID="50" style="&st18;" transform="matrix(&st17;  941.06  412.24 )">Fuel Sender <tspan dy="6" x="0">Gage Assembly (Main)</tspan></text><text style="&st18;" transform="matrix(&st17;  769.68  340.93 )">B-W</text><text style="&st18;" transform="matrix(&st17;  837.66  340.93 )">W-B</text><text style="&st18;" transform="matrix(&st17;  933.96  412.24 )">N1</text><text style="&st18;" transform="matrix(&st16;  894.06  315.93 )">2</text><text style="&st18;" transform="matrix(&st16;  953.55  315.93 )">5</text><text style="&st18;" transform="matrix(&st16;  953.42  304.04 )">FPC</text><text style="&st18;" transform="matrix(&st17;  956.64  336.58 )">W</text><text style="&st18;" transform="matrix(&st17;  863.16  340.93 )">B-W</text><text style="&st18;" transform="matrix(&st17;  897.15  340.93 )">W-B</text><text style="&st18;" transform="matrix(&st16;  894.39  304.04 )">FP-</text><text style="&st18;" transform="matrix(&st16;  860.84  315.93 )">1</text><text style="&st18;" transform="matrix(&st16;  862.4  304.04 )">FP</text><text style="&st18;" transform="matrix(&st17;  633.7  454.54 )">B</text><text style="&st18;" transform="matrix(&st17;  645.03  458.39 )">(*2)</text><text style="&st18;" transform="matrix(&st16;  758.56  415.94 )">9</text><text style="&st18;" transform="matrix(&st17;  769.67  386.55 )">B</text><text style="&st18;" transform="matrix(&st17;  984.95  310.26 )">N14</text><text style="&st18;" transform="matrix(&st17;  667.69  454.68 )">R</text><text style="&st18;" transform="matrix(&st17;  679.02  458.39 )">(*2)</text><text style="&st18;" transform="matrix(&st17;  599.7  386.2 )">L</text><text style="&st18;" transform="matrix(&st16;  584.63  415.94 )">24</text><text ewd:textID="14" style="&st18;" transform="matrix(&st17;  619.54  269.44 )">AI VLV Relay</text><text style="&st18;" transform="matrix(&st16;  571.89  273.43 )">1</text><text style="&st18;" transform="matrix(&st16;  596.61  273.43 )">5</text><text style="&st18;" transform="matrix(&st16;  571.11  227.56 )">2</text><text style="&st18;" transform="matrix(&st16;  596.6  227.56 )">3</text><text style="&st18;" transform="matrix(&st16;  576.31  203.47 )">1</text><text style="&st18;" transform="matrix(&st16;  601.81  203.47 )">1</text><text style="&st18;" transform="matrix(&st16;  576.31  296.96 )">1</text><text style="&st18;" transform="matrix(&st16;  601.81  296.96 )">1</text><text style="&st18;" transform="matrix(&st16;  619.4  415.94 )">21</text><text style="&st18;" transform="matrix(&st16;  652.62  415.94 )">22</text><text style="&st18;" transform="matrix(&st17;  574.21  326.71 )">L</text><text style="&st18;" transform="matrix(&st17;  633.7  327.06 )">B</text><text style="&st18;" transform="matrix(&st17;  667.69  327.2 )">R</text><text style="&st18;" transform="matrix(&st17;  599.7  326.71 )">L</text><text style="&st18;" transform="matrix(&st16;  728.55  431.52 )">B</text><text style="&st18;" transform="matrix(&st17;  599.7  454.19 )">L</text><text style="&st18;" transform="matrix(&st17;  585.54  330.91 )">(*2)</text><text style="&st18;" transform="matrix(&st17;  611.04  330.91 )">(*2)</text><text style="&st18;" transform="matrix(&st17;  645.03  330.91 )">(*2)</text><text style="&st18;" transform="matrix(&st17;  679.02  330.91 )">(*2)</text><text style="&st18;" transform="matrix(&st16;  789.37  441.43 )">10</text><text style="&st18;" transform="matrix(&st17;  803.67  668.12 )">W-B</text><text style="&st18;" transform="matrix(&st16;  812.41  397.52 )">W-B</text><text style="&st18;" transform="matrix(&st16;  758.56  356.45 )">3</text><text ewd:textID="2" style="&st18;" transform="matrix(&st16;  736.85  37.75 )">* 2 :w/ Air Injection Control Driver</text><text ewd:textID="3" style="&st18;" transform="matrix(&st16;  736.85  46.25 )">* 3 :w/ Air Injection Control Driver w/ AIR PMP HTR Relay</text><text style="&st18;" transform="matrix(&st16;  541.93  117.07 )">L</text><text style="&st18;" transform="matrix(&st16;  541.58  134.07 )">V</text><text style="&st18;" transform="matrix(&st16;  541.58  609.99 )">B</text><text style="&st18;" transform="matrix(&st16;  534.97  525.0 )">G(*3)</text><text style="&st18;" transform="matrix(&st16;  536.21  643.98 )">B-W</text><text style="&st18;" transform="matrix(&st16;  535.26  592.99 )">R(*3)</text><text style="&st18;" transform="matrix(&st16;  541.93  372.03 )">L</text><text style="&st18;" transform="matrix(&st16;  541.58  431.52 )">B</text></svg>