﻿<?xml version="1.0" encoding="utf-8"?>
<!DOCTYPE svg PUBLIC "-//W3C//DTD SVG 1.0//EN" "http://www.w3.org/TR/2001/REC-SVG-20010904/DTD/svg10.dtd"[
	<!ENTITY ns_flows "http://ns.adobe.com/Flows/1.0/">
	<!ENTITY ns_svg "http://www.w3.org/2000/svg">
	<!ENTITY ns_xlink "http://www.w3.org/1999/xlink">
	<!ENTITY st0 "font-size:7px;font-family:'MS-PGothic';adobe-font-script:japanese;">
	<!ENTITY st1 "font-size:6px;font-family:'ArialMT';">
	<!-- White fill  -->
	<!ENTITY st2 "fill:#FFFFFF;stroke:#000000; stroke-width:1.41;stroke-linecap:round;stroke-linejoin:round;">
	<!-- Yellow fill  -->
	<!ENTITY st3 "fill:#FFFFCC;stroke:#FFFFCC; stroke-width:0.1;stroke-linecap:round;stroke-linejoin:round;">
	<!-- Gray fill  -->
	<!ENTITY st4 "fill:#CCCCCC;stroke:#CCCCCC; stroke-width:0.1;stroke-linecap:round;stroke-linejoin:round;">
	<!-- Light-blue fill -->
	<!ENTITY st5 "fill:#CCECF4;stroke:#000000; stroke-width:1.133;stroke-linecap:round;stroke-linejoin:round;">
	<!ENTITY st6 "fill:none;stroke-linecap:butt; stroke-linejoin:round;">
	<!ENTITY st7 "fill:none;stroke:#000000;stroke-linecap:round;stroke-linejoin:round;">
	<!ENTITY st8 "enable-background:new    ;">
	<!-- Black fill -->
	<!ENTITY st9 "fill:#000000;stroke:#000000; stroke-linecap:round;stroke-linejoin:round;">
	<!-- SRS note   -->
	<!ENTITY st10 "font-size:9px;font-family:'ArialMT';">
	<!ENTITY st11 "font-size:9px;font-family:'Svg Symbol';">
	<!ENTITY st12 "font-size:6px;font-family:'Svg Symbol';">
	<!ENTITY st13 "fill:none;stroke:#ff0000;stroke-linecap:round;stroke-linejoin:round;">
	<!-- Yellow fill  -->
	<!ENTITY st14 "fill:#FFFF00;stroke:#FFFF00; stroke-width:0.1;stroke-linecap:round;stroke-linejoin:round;">
	<!ENTITY st15 "font-size:6px;font-family:'MS-PGothic';adobe-font-script:japanese;">
	<!ENTITY st16 "1.00 0.00 0.00 1.00">
	<!ENTITY st17 "0.00 -1.00 1.00 0.00">
	<!ENTITY st18 "font-size:6px;font-family:'Arial';">
	<!ENTITY st19 "font-size:9px;font-family:'Arial';">
	<!ENTITY st20 "font-size:6px;font-family:'MS-PGothic','MS PGothic';adobe-font-script:japanese;">
	<!ENTITY st21 "font-size:7px;font-family:'MS-PGothic','MS PGothic';adobe-font-script:japanese;">
	<!ATTLIST svg
		xmlns:ewd CDATA #FIXED "http://shcl.co.jp/ewd"
		xmlns:a CDATA #FIXED "http://ns.adobe.com/AdobeSVGViewerExtensions/3.0/"
		ewd:ver CDATA #IMPLIED
	>
	<!ATTLIST a
		ewd:lineID CDATA #IMPLIED
		ewd:groupID CDATA #IMPLIED
		ewd:figtype CDATA #IMPLIED
		ewd:code CDATA #IMPLIED
		ewd:figID CDATA #IMPLIED
		ewd:pinNo CDATA #IMPLIED
		ewd:comment CDATA #IMPLIED >
	<!ATTLIST g
		ewd:lineID CDATA #IMPLIED
		ewd:groupID CDATA #IMPLIED
		ewd:figtype CDATA #IMPLIED
		ewd:code CDATA #IMPLIED
		ewd:figID CDATA #IMPLIED
		ewd:pinNo CDATA #IMPLIED
		ewd:comment CDATA #IMPLIED >
	<!ATTLIST text
		ewd:textID CDATA #IMPLIED >
	<!ATTLIST title
		ewd:textID CDATA #IMPLIED >
]>
<!-- Generator: Shintec Hozumi YS   -->
<svg onload="call_execInitLoadProc_svg('system')" style="overflow:visible;  enable-background:new 0 0 8289.488 710.000" viewBox="0 0 8289.488 710.000" height="710.000" width="8289.488" xml:space="preserve" ewd:ver="L2.1.2.8" xmlns="&ns_svg;" xmlns:a="http://ns.adobe.com/AdobeSVGViewerExtensions/3.0/" xmlns:ewd="http://shcl.co.jp/ewd" xmlns:xlink="&ns_xlink;">
<path d=" M 3475.92,  469.21  L 3475.92,  452.21  L 3424.93,  452.21  L 3424.93,  477.71  L 3467.42,  477.71 " style="stroke:#000000;stroke-width: 0.85 ;&st7;stroke-dasharray:3, 1.5;" /><path d=" M 3399.43,  469.21  L 3399.43,  452.21  L 3331.44,  452.21  L 3331.44,  477.71  L 3390.93,  477.71 " style="stroke:#000000;stroke-width: 0.85 ;&st7;stroke-dasharray:3, 1.5;" /><path d=" M 3246.46,  477.71  L 3305.95,  477.71  L 3305.95,  452.21  L 3237.96,  452.21  L 3237.96,  469.21 " style="stroke:#000000;stroke-width: 0.85 ;&st7;stroke-dasharray:3, 1.5;" /><path d=" M 3000.00,  554.19  L 3000.00,  562.69 " style="stroke-width: 0.85 ;&st7; " /><path d=" M 3000.00,  579.69  L 3000.00,  588.19 " style="stroke-width: 0.85 ;&st7; " /><path d=" M 3263.45,  579.69  L 3263.45,  588.19 " style="stroke-width: 0.85 ;&st7; " /><path d=" M 3263.45,  554.19  L 3263.45,  562.69 " style="stroke-width: 0.85 ;&st7; " /><path d=" M 3348.44,  554.19  L 3348.44,  562.69 " style="stroke-width: 0.85 ;&st7; " /><path d=" M 3348.44,  579.69  L 3348.44,  588.19 " style="stroke-width: 0.85 ;&st7; " /><path d=" M 3450.42,  554.19  L 3441.92,  554.19 " style="stroke-width: 1.42 ;&st7; " /><path d=" M 3407.93,  154.76  L 3416.43,  154.76 " style="stroke-width: 1.42 ;&st7; " /><path d=" M 3458.92,  154.76  L 3467.42,  154.76 " style="stroke-width: 1.42 ;&st7; " /><path d=" M 3424.93,  112.27  L 3416.43,  112.27 " style="stroke-width: 1.42 ;&st7; " /><path d=" M 3475.92,  112.27  L 3467.42,  112.27 " style="stroke-width: 1.42 ;&st7; " /><path d=" M 3475.92,   69.77  L 3467.42,   69.77 " style="stroke-width: 1.42 ;&st7; " /><path d=" M 3424.93,   69.77  L 3416.43,   69.77 " style="stroke-width: 1.42 ;&st7; " /><path d=" M 3348.44,   15.26  L 3343.47,   10.28 " style="stroke-width: 1.42 ;&st7; " /><path d=" M 3331.44,   22.31  L 3336.42,   27.28 " style="stroke-width: 1.42 ;&st7; " /><path d=" M 3343.47,   27.28  L 3348.44,   22.31 " style="stroke-width: 1.42 ;&st7; " /><path d=" M 3336.42,   10.28  L 3331.44,   15.26 " style="stroke-width: 1.42 ;&st7; " /><path d=" M 3195.47,   15.26  L 3190.49,   10.28 " style="stroke-width: 1.42 ;&st7; " /><path d=" M 3178.47,   22.31  L 3183.44,   27.28 " style="stroke-width: 1.42 ;&st7; " /><path d=" M 3190.49,   27.28  L 3195.47,   22.31 " style="stroke-width: 1.42 ;&st7; " /><path d=" M 3183.44,   10.28  L 3178.47,   15.26 " style="stroke-width: 1.42 ;&st7; " /><path d=" M 3297.45,  117.24  L 3292.48,  112.27 " style="stroke-width: 1.42 ;&st7; " /><path d=" M 3280.45,  124.29  L 3285.42,  129.26 " style="stroke-width: 1.42 ;&st7; " /><path d=" M 3292.48,  129.26  L 3297.45,  124.29 " style="stroke-width: 1.42 ;&st7; " /><path d=" M 3285.42,  112.27  L 3280.45,  117.24 " style="stroke-width: 1.42 ;&st7; " /><path d=" M 3161.47,  117.24  L 3156.50,  112.27 " style="stroke-width: 1.42 ;&st7; " /><path d=" M 3144.47,  124.29  L 3149.45,  129.26 " style="stroke-width: 1.42 ;&st7; " /><path d=" M 3156.50,  129.26  L 3161.47,  124.29 " style="stroke-width: 1.42 ;&st7; " /><path d=" M 3149.45,  112.27  L 3144.47,  117.24 " style="stroke-width: 1.42 ;&st7; " /><path d=" M 3033.99,  117.24  L 3029.02,  112.27 " style="stroke-width: 1.42 ;&st7; " /><path d=" M 3017.00,  124.29  L 3021.97,  129.26 " style="stroke-width: 1.42 ;&st7; " /><path d=" M 3029.02,  129.26  L 3033.99,  124.29 " style="stroke-width: 1.42 ;&st7; " /><path d=" M 3021.97,  112.27  L 3017.00,  117.24 " style="stroke-width: 1.42 ;&st7; " /><path d=" M 3059.49,  474.18  L 3054.52,  469.21 " style="stroke-width: 1.42 ;&st7; " /><path d=" M 3042.49,  481.24  L 3047.46,  486.20 " style="stroke-width: 1.42 ;&st7; " /><path d=" M 3054.52,  486.20  L 3059.49,  481.24 " style="stroke-width: 1.42 ;&st7; " /><path d=" M 3047.46,  469.21  L 3042.49,  474.18 " style="stroke-width: 1.42 ;&st7; " /><path d=" M 3484.42,  474.18  L 3479.45,  469.21 " style="stroke-width: 1.42 ;&st7; " /><path d=" M 3467.42,  481.24  L 3472.39,  486.20 " style="stroke-width: 1.42 ;&st7; " /><path d=" M 3479.45,  486.20  L 3484.42,  481.24 " style="stroke-width: 1.42 ;&st7; " /><path d=" M 3472.39,  469.21  L 3467.42,  474.18 " style="stroke-width: 1.42 ;&st7; " /><path d=" M 3407.93,  474.18  L 3402.96,  469.21 " style="stroke-width: 1.42 ;&st7; " /><path d=" M 3390.93,  481.24  L 3395.91,  486.20 " style="stroke-width: 1.42 ;&st7; " /><path d=" M 3402.96,  486.20  L 3407.93,  481.24 " style="stroke-width: 1.42 ;&st7; " /><path d=" M 3395.91,  469.21  L 3390.93,  474.18 " style="stroke-width: 1.42 ;&st7; " /><path d=" M 3246.46,  474.18  L 3241.49,  469.21 " style="stroke-width: 1.42 ;&st7; " /><path d=" M 3229.46,  481.24  L 3234.43,  486.20 " style="stroke-width: 1.42 ;&st7; " /><path d=" M 3241.49,  486.20  L 3246.46,  481.24 " style="stroke-width: 1.42 ;&st7; " /><path d=" M 3234.43,  469.21  L 3229.46,  474.18 " style="stroke-width: 1.42 ;&st7; " /><path d=" M 3135.97,  171.76  L 3135.97,  205.75  L 3237.96,  205.75  L 3237.96,  171.76  L 3135.97,  171.76 " style="stroke-width: 1.42 ;&st7; " /><path d=" M 3271.95,  588.19  L 3271.95,  554.19  L 3254.95,  554.19  L 3254.95,  588.19  L 3271.95,  588.19 " style="stroke-width: 1.42 ;&st7; " /><path d=" M 3356.94,  588.19  L 3356.94,  554.19  L 3339.94,  554.19  L 3339.94,  588.19  L 3356.94,  588.19 " style="stroke-width: 1.42 ;&st7; " /><path d=" M 3195.46,  697.25  L 3195.46,  701.50 " style="stroke-width: 0.85 ;&st7; " /><path d=" M 3186.97,  701.50  L 3203.96,  701.50 " style="stroke-width: 0.85 ;&st7; " /><path d=" M 3191.22,  704.33  L 3199.71,  704.33 " style="stroke-width: 0.85 ;&st7; " /><path d=" M 3192.63,  707.17  L 3198.30,  707.17 " style="stroke-width: 0.85 ;&st7; " /><path d=" M 3194.05,  710.00  L 3196.88,  710.00 " style="stroke-width: 0.85 ;&st7; " /><path d=" M 3135.97,  528.70  L 3135.97,  554.19  L 3220.96,  554.19  L 3220.96,  528.70  L 3135.97,  528.70 " style="stroke-width: 1.42 ;&st7; " /><path d=" M 3144.47,  528.70  L 3144.47,  554.19 " style="stroke-width: 0.85 ;&st7; " /><path d=" M 3212.46,  554.19  L 3212.46,  528.70 " style="stroke-width: 0.85 ;&st7; " /><path d=" M 3144.47,  537.20  L 3212.46,  537.20 " style="stroke-width: 0.85 ;&st7; " /><path d=" M 3161.47,  537.20  L 3161.47,  554.19 " style="stroke-width: 0.85 ;&st7; " /><path d=" M 3424.93,  384.22  L 3424.93,  418.22  L 4113.31,  418.22  L 4113.31,  384.22  L 3424.93,  384.22 " style="stroke-width: 1.42 ;&st7; " /><path d=" M 3446.17,  563.26  L 3441.92,  559.01  L 3437.67,  563.26 " style="stroke-width: 1.42 ;&st7; " /><path d=" M 3446.17,  559.86  L 3441.92,  555.61  L 3437.67,  559.86 " style="stroke-width: 1.42 ;&st7; " /><path d=" M 3475.92,  697.25  L 3475.92,  701.50 " style="stroke-width: 0.85 ;&st7; " /><path d=" M 3467.42,  701.50  L 3484.42,  701.50 " style="stroke-width: 0.85 ;&st7; " /><path d=" M 3471.67,  704.33  L 3480.17,  704.33 " style="stroke-width: 0.85 ;&st7; " /><path d=" M 3473.08,  707.17  L 3478.75,  707.17 " style="stroke-width: 0.85 ;&st7; " /><path d=" M 3474.50,  710.00  L 3477.33,  710.00 " style="stroke-width: 0.85 ;&st7; " /><path d=" M 3178.47,  554.19  L 3178.47,  545.69  L 3195.46,  545.69  L 3195.46,  554.19 " style="stroke-width: 0.85 ;&st7; " /><path d=" M 3143.28,  536.19  L 3143.01,  536.66  L 3142.92,  537.20  L 3143.01,  537.73  L 3143.28,  538.20  L 3143.69,  538.54  L 3144.20,  538.73  L 3144.74,  538.73  L 3145.25,  538.54  L 3145.67,  538.20  L 3145.94,  537.73  L 3146.03,  537.20  L 3145.94,  536.66  L 3145.67,  536.19  L 3145.25,  535.85  L 3144.74,  535.66  L 3144.20,  535.66  L 3143.69,  535.85  L 3143.28,  536.19  L 3143.67,  536.90  L 3143.67,  537.49  L 3144.05,  537.93  L 3144.62,  538.03  L 3145.12,  537.74  L 3145.32,  537.20  L 3145.12,  536.65  L 3144.62,  536.36  L 3144.05,  536.46  L 3144.47,  537.20 " style="stroke-width: 0.85 ;&st7; " /><path d=" M 3160.28,  536.19  L 3160.01,  536.66  L 3159.91,  537.20  L 3160.01,  537.73  L 3160.28,  538.20  L 3160.69,  538.54  L 3161.20,  538.73  L 3161.74,  538.73  L 3162.25,  538.54  L 3162.66,  538.20  L 3162.94,  537.73  L 3163.03,  537.20  L 3162.94,  536.66  L 3162.66,  536.19  L 3162.25,  535.85  L 3161.74,  535.66  L 3161.20,  535.66  L 3160.69,  535.85  L 3160.28,  536.19  L 3160.67,  536.90  L 3160.67,  537.49  L 3161.05,  537.93  L 3161.62,  538.03  L 3162.12,  537.74  L 3162.32,  537.20  L 3162.12,  536.65  L 3161.62,  536.36  L 3161.05,  536.46  L 3161.47,  537.20 " style="stroke-width: 0.85 ;&st7; " /><path d=" M 3211.27,  536.19  L 3211.00,  536.66  L 3210.90,  537.20  L 3211.00,  537.73  L 3211.27,  538.20  L 3211.68,  538.54  L 3212.19,  538.73  L 3212.73,  538.73  L 3213.24,  538.54  L 3213.65,  538.20  L 3213.93,  537.73  L 3214.02,  537.20  L 3213.93,  536.66  L 3213.65,  536.19  L 3213.24,  535.85  L 3212.73,  535.66  L 3212.19,  535.66  L 3211.68,  535.85  L 3211.27,  536.19  L 3211.66,  536.90  L 3211.66,  537.49  L 3212.04,  537.93  L 3212.61,  538.03  L 3213.11,  537.74  L 3213.31,  537.20  L 3213.11,  536.65  L 3212.61,  536.36  L 3212.04,  536.46  L 3212.46,  537.20 " style="stroke-width: 0.85 ;&st7; " /><path d=" M 3195.44,  251.64  L 3203.99,  251.64 " style="stroke-width: 0.85 ;&st7;stroke-dasharray:3, 1.5;" /><path d=" M 3195.44,  260.71  L 3203.99,  260.71 " style="stroke-width: 0.85 ;&st7;stroke-dasharray:3, 1.5;" /><path d=" M 3348.41,  251.64  L 3569.43,  251.64 " style="stroke-width: 0.85 ;&st7;stroke-dasharray:3, 1.5;" /><path d=" M 3348.41,  260.71  L 3569.43,  260.71 " style="stroke-width: 0.85 ;&st7;stroke-dasharray:3, 1.5;" /><path d=" M 3399.43,  205.75  L 3399.43,  239.75  L 3535.41,  239.75  L 3535.41,  205.75  L 3399.43,  205.75 " style="stroke-width: 1.42 ;&st7; " /><path d=" M 3420.68,  149.09  L 3416.43,  153.34  L 3412.18,  149.09 " style="stroke-width: 1.42 ;&st7; " /><path d=" M 3412.18,  145.69  L 3416.43,  149.94  L 3420.68,  145.69 " style="stroke-width: 1.42 ;&st7; " /><path d=" M 3471.67,  149.09  L 3467.42,  153.34  L 3463.17,  149.09 " style="stroke-width: 1.42 ;&st7; " /><path d=" M 3463.17,  145.69  L 3467.42,  149.94  L 3471.67,  145.69 " style="stroke-width: 1.42 ;&st7; " /><path d=" M 3420.68,  121.33  L 3416.43,  117.08  L 3412.18,  121.33 " style="stroke-width: 1.42 ;&st7; " /><path d=" M 3420.68,  117.93  L 3416.43,  113.68  L 3412.18,  117.93 " style="stroke-width: 1.42 ;&st7; " /><path d=" M 3471.67,  121.33  L 3467.42,  117.08  L 3463.17,  121.33 " style="stroke-width: 1.42 ;&st7; " /><path d=" M 3471.67,  117.93  L 3467.42,  113.68  L 3463.17,  117.93 " style="stroke-width: 1.42 ;&st7; " /><path d=" M 3271.95,  171.76  L 3271.95,  205.75  L 3356.94,  205.75  L 3356.94,  171.76  L 3271.95,  171.76 " style="stroke-width: 1.42 ;&st7; " /><path d=" M 3471.67,   78.84  L 3467.42,   74.59  L 3463.17,   78.84 " style="stroke-width: 1.42 ;&st7; " /><path d=" M 3471.67,   75.44  L 3467.42,   71.19  L 3463.17,   75.44 " style="stroke-width: 1.42 ;&st7; " /><path d=" M 3420.68,   78.84  L 3416.43,   74.59  L 3412.18,   78.84 " style="stroke-width: 1.42 ;&st7; " /><path d=" M 3420.68,   75.44  L 3416.43,   71.19  L 3412.18,   75.44 " style="stroke-width: 1.42 ;&st7; " /><path d=" M 3229.43,  260.71  L 3322.97,  260.71 " style="stroke-width: 0.85 ;&st7;stroke-dasharray:3, 1.5;" /><path d=" M 3229.43,  251.64  L 3322.97,  251.64 " style="stroke-width: 0.85 ;&st7;stroke-dasharray:3, 1.5;" /><path d=" M 3191.50,  260.71  C 3191.50   258.21  3189.47   256.18  3186.97   256.18 " style="stroke-width: 1.42 ;&st7; " /><path d=" M 3186.97,  256.18  C 3184.46   256.18  3182.43   258.21  3182.43   260.71 " style="stroke-width: 1.42 ;&st7; " /><path d=" M 3182.43,  260.71  C 3182.43   263.21  3184.46   265.24  3186.97   265.24 " style="stroke-width: 1.42 ;&st7; " /><path d=" M 3186.97,  265.24  C 3189.47   265.24  3191.50   263.21  3191.50   260.71 " style="stroke-width: 1.42 ;&st7; " /><path d=" M 3191.50,  251.64  C 3191.50   249.14  3189.47   247.11  3186.97   247.11 " style="stroke-width: 1.42 ;&st7; " /><path d=" M 3186.97,  247.11  C 3184.46   247.11  3182.43   249.14  3182.43   251.64 " style="stroke-width: 1.42 ;&st7; " /><path d=" M 3182.43,  251.64  C 3182.43   254.15  3184.46   256.18  3186.97   256.18 " style="stroke-width: 1.42 ;&st7; " /><path d=" M 3186.97,  256.18  C 3189.47   256.18  3191.50   254.15  3191.50   251.64 " style="stroke-width: 1.42 ;&st7; " /><path d=" M 3225.49,  260.71  C 3225.49   258.21  3223.47   256.18  3220.96   256.18 " style="stroke-width: 1.42 ;&st7; " /><path d=" M 3220.96,  256.18  C 3218.46   256.18  3216.43   258.21  3216.43   260.71 " style="stroke-width: 1.42 ;&st7; " /><path d=" M 3216.43,  260.71  C 3216.43   263.21  3218.46   265.24  3220.96   265.24 " style="stroke-width: 1.42 ;&st7; " /><path d=" M 3220.96,  265.24  C 3223.47   265.24  3225.49   263.21  3225.49   260.71 " style="stroke-width: 1.42 ;&st7; " /><path d=" M 3225.49,  251.64  C 3225.49   249.14  3223.47   247.11  3220.96   247.11 " style="stroke-width: 1.42 ;&st7; " /><path d=" M 3220.96,  247.11  C 3218.46   247.11  3216.43   249.14  3216.43   251.64 " style="stroke-width: 1.42 ;&st7; " /><path d=" M 3216.43,  251.64  C 3216.43   254.15  3218.46   256.18  3220.96   256.18 " style="stroke-width: 1.42 ;&st7; " /><path d=" M 3220.96,  256.18  C 3223.47   256.18  3225.49   254.15  3225.49   251.64 " style="stroke-width: 1.42 ;&st7; " /><path d=" M 3002.48,  568.76  C 3003.87   567.39  3003.90   565.15  3002.53   563.75 " style="stroke-width: 0.85 ;&st7; " /><path d=" M 3002.53,  563.75  C 3001.84   563.05  3000.99   562.69  3000.00   562.69 " style="stroke-width: 0.85 ;&st7; " /><path d=" M 3002.48,  573.72  C 3003.87   572.35  3003.90   570.11  3002.53   568.71 " style="stroke-width: 0.85 ;&st7; " /><path d=" M 3002.53,  568.71  C 3001.16   567.31  2998.92   567.29  2997.52   568.66 " style="stroke-width: 0.85 ;&st7; " /><path d=" M 3000.00,  579.69  C 3001.95   579.69  3003.54   578.10  3003.54   576.15 " style="stroke-width: 0.85 ;&st7; " /><path d=" M 3003.54,  576.15  C 3003.54   574.19  3001.95   572.61  3000.00   572.61 " style="stroke-width: 0.85 ;&st7; " /><path d=" M 3000.00,  572.61  C 2999.01   572.61  2998.16   572.96  2997.47   573.67 " style="stroke-width: 0.85 ;&st7; " /><path d=" M 3263.45,  579.69  C 3265.41   579.69  3267.00   578.10  3267.00   576.15 " style="stroke-width: 0.85 ;&st7; " /><path d=" M 3267.00,  576.15  C 3267.00   574.19  3265.41   572.61  3263.45   572.61 " style="stroke-width: 0.85 ;&st7; " /><path d=" M 3263.45,  572.61  C 3262.46   572.61  3261.62   572.96  3260.93   573.67 " style="stroke-width: 0.85 ;&st7; " /><path d=" M 3260.92,  573.67  C 3262.29   575.07  3264.54   575.09  3265.93   573.72 " style="stroke-width: 0.85 ;&st7; " /><path d=" M 3265.93,  573.72  C 3267.33   572.35  3267.35   570.11  3265.98   568.71 " style="stroke-width: 0.85 ;&st7; " /><path d=" M 3265.98,  568.71  C 3264.62   567.31  3262.37   567.29  3260.98   568.66 " style="stroke-width: 0.85 ;&st7; " /><path d=" M 3260.98,  568.66  C 3260.96   568.68  3260.94   568.69  3260.92   568.71 " style="stroke-width: 0.85 ;&st7; " /><path d=" M 3260.92,  568.71  C 3262.29   570.11  3264.54   570.13  3265.93   568.76 " style="stroke-width: 0.85 ;&st7; " /><path d=" M 3265.93,  568.76  C 3267.33   567.39  3267.35   565.15  3265.98   563.75 " style="stroke-width: 0.85 ;&st7; " /><path d=" M 3265.98,  563.75  C 3265.29   563.05  3264.45   562.69  3263.45   562.69 " style="stroke-width: 0.85 ;&st7; " /><path d=" M 3345.91,  568.71  C 3347.28   570.11  3349.52   570.13  3350.92   568.76 " style="stroke-width: 0.85 ;&st7; " /><path d=" M 3350.92,  568.76  C 3352.32   567.39  3352.34   565.15  3350.97   563.75 " style="stroke-width: 0.85 ;&st7; " /><path d=" M 3350.97,  563.75  C 3350.28   563.05  3349.43   562.69  3348.44   562.69 " style="stroke-width: 0.85 ;&st7; " /><path d=" M 3345.91,  573.67  C 3347.28   575.07  3349.52   575.09  3350.92   573.72 " style="stroke-width: 0.85 ;&st7; " /><path d=" M 3350.92,  573.72  C 3352.32   572.35  3352.34   570.11  3350.97   568.71 " style="stroke-width: 0.85 ;&st7; " /><path d=" M 3350.97,  568.71  C 3349.60   567.31  3347.36   567.29  3345.96   568.66 " style="stroke-width: 0.85 ;&st7; " /><path d=" M 3345.96,  568.66  C 3345.94   568.68  3345.93   568.69  3345.91   568.71 " style="stroke-width: 0.85 ;&st7; " /><path d=" M 3348.44,  579.69  C 3350.40   579.69  3351.98   578.10  3351.98   576.15 " style="stroke-width: 0.85 ;&st7; " /><path d=" M 3351.98,  576.15  C 3351.98   574.19  3350.40   572.61  3348.44   572.61 " style="stroke-width: 0.85 ;&st7; " /><path d=" M 3348.44,  572.61  C 3347.45   572.61  3346.60   572.96  3345.91   573.67 " style="stroke-width: 0.85 ;&st7; " /><path d=" M 3004.53,  422.75  C 3004.53   420.24  3002.50   418.22  3000.00   418.22 " style="stroke-width: 1.42 ;&st7; " /><path d=" M 3000.00,  418.22  C 2997.50   418.22  2995.47   420.24  2995.47   422.75 " style="stroke-width: 1.42 ;&st7; " /><path d=" M 3000.00,  427.28  C 3002.50   427.28  3004.53   425.25  3004.53   422.75 " style="stroke-width: 1.42 ;&st7; " /><path d=" M 3030.03,  422.75  C 3030.03   420.24  3028.00   418.22  3025.49   418.22 " style="stroke-width: 1.42 ;&st7; " /><path d=" M 3025.49,  418.22  C 3022.99   418.22  3020.96   420.24  3020.96   422.75 " style="stroke-width: 1.42 ;&st7; " /><path d=" M 3020.96,  422.75  C 3020.96   425.25  3022.99   427.28  3025.49   427.28 " style="stroke-width: 1.42 ;&st7; " /><path d=" M 3025.49,  427.28  C 3028.00   427.28  3030.03   425.25  3030.03   422.75 " style="stroke-width: 1.42 ;&st7; " /><path d=" M 3267.99,  422.75  C 3267.99   420.24  3265.96   418.22  3263.45   418.22 " style="stroke-width: 1.42 ;&st7; " /><path d=" M 3263.45,  418.22  C 3260.95   418.22  3258.92   420.24  3258.92   422.75 " style="stroke-width: 1.42 ;&st7; " /><path d=" M 3258.92,  422.75  C 3258.92   425.25  3260.95   427.28  3263.45   427.28 " style="stroke-width: 1.42 ;&st7; " /><path d=" M 3263.45,  427.28  C 3265.96   427.28  3267.99   425.25  3267.99   422.75 " style="stroke-width: 1.42 ;&st7; " /><path d=" M 3352.97,  422.75  C 3352.97   420.24  3350.94   418.22  3348.44   418.22 " style="stroke-width: 1.42 ;&st7; " /><path d=" M 3348.44,  418.22  C 3345.94   418.22  3343.91   420.24  3343.91   422.75 " style="stroke-width: 1.42 ;&st7; " /><path d=" M 3343.91,  422.75  C 3343.91   425.25  3345.94   427.28  3348.44   427.28 " style="stroke-width: 1.42 ;&st7; " /><path d=" M 3348.44,  427.28  C 3350.94   427.28  3352.97   425.25  3352.97   422.75 " style="stroke-width: 1.42 ;&st7; " /><path d=" M 3378.47,  422.75  C 3378.47   420.24  3376.44   418.22  3373.94   418.22 " style="stroke-width: 1.42 ;&st7; " /><path d=" M 3373.94,  418.22  C 3371.43   418.22  3369.40   420.24  3369.40   422.75 " style="stroke-width: 1.42 ;&st7; " /><path d=" M 3369.40,  422.75  C 3369.40   425.25  3371.43   427.28  3373.94   427.28 " style="stroke-width: 1.42 ;&st7; " /><path d=" M 3373.94,  427.28  C 3376.44   427.28  3378.47   425.25  3378.47   422.75 " style="stroke-width: 1.42 ;&st7; " /><path d=" M 3446.46,  422.75  C 3446.46   420.24  3444.43   418.22  3441.92   418.22 " style="stroke-width: 1.42 ;&st7; " /><path d=" M 3441.92,  418.22  C 3439.42   418.22  3437.39   420.24  3437.39   422.75 " style="stroke-width: 1.42 ;&st7; " /><path d=" M 3437.39,  422.75  C 3437.39   425.25  3439.42   427.28  3441.92   427.28 " style="stroke-width: 1.42 ;&st7; " /><path d=" M 3441.92,  427.28  C 3444.43   427.28  3446.46   425.25  3446.46   422.75 " style="stroke-width: 1.42 ;&st7; " /><path d=" M 3030.03,  260.71  C 3030.03   258.21  3028.00   256.18  3025.49   256.18 " style="stroke-width: 1.42 ;&st7; " /><path d=" M 3025.49,  256.18  C 3022.99   256.18  3020.96   258.21  3020.96   260.71 " style="stroke-width: 1.42 ;&st7; " /><path d=" M 3020.96,  260.71  C 3020.96   263.21  3022.99   265.24  3025.49   265.24 " style="stroke-width: 1.42 ;&st7; " /><path d=" M 3025.49,  265.24  C 3028.00   265.24  3030.03   263.21  3030.03   260.71 " style="stroke-width: 1.42 ;&st7; " /><path d=" M 3030.03,  251.64  C 3030.03   249.14  3028.00   247.11  3025.49   247.11 " style="stroke-width: 1.42 ;&st7; " /><path d=" M 3025.49,  247.11  C 3022.99   247.11  3020.96   249.14  3020.96   251.64 " style="stroke-width: 1.42 ;&st7; " /><path d=" M 3020.96,  251.64  C 3020.96   254.15  3022.99   256.18  3025.49   256.18 " style="stroke-width: 1.42 ;&st7; " /><path d=" M 3025.49,  256.18  C 3028.00   256.18  3030.03   254.15  3030.03   251.64 " style="stroke-width: 1.42 ;&st7; " /><path d=" M 3293.48,  422.75  C 3293.48   420.24  3291.45   418.22  3288.95   418.22 " style="stroke-width: 1.42 ;&st7; " /><path d=" M 3288.95,  418.22  C 3286.45   418.22  3284.42   420.24  3284.42   422.75 " style="stroke-width: 1.42 ;&st7; " /><path d=" M 3284.42,  422.75  C 3284.42   425.25  3286.45   427.28  3288.95   427.28 " style="stroke-width: 1.42 ;&st7; " /><path d=" M 3288.95,  427.28  C 3291.45   427.28  3293.48   425.25  3293.48   422.75 " style="stroke-width: 1.42 ;&st7; " /><path d=" M 3344.47,  251.64  C 3344.47   249.14  3342.45   247.11  3339.94   247.11 " style="stroke-width: 1.42 ;&st7; " /><path d=" M 3339.94,  247.11  C 3337.44   247.11  3335.41   249.14  3335.41   251.64 " style="stroke-width: 1.42 ;&st7; " /><path d=" M 3335.41,  251.64  C 3335.41   254.15  3337.44   256.18  3339.94   256.18 " style="stroke-width: 1.42 ;&st7; " /><path d=" M 3339.94,  256.18  C 3342.45   256.18  3344.47   254.15  3344.47   251.64 " style="stroke-width: 1.42 ;&st7; " /><path d=" M 3344.47,  260.71  C 3344.47   258.21  3342.45   256.18  3339.94   256.18 " style="stroke-width: 1.42 ;&st7; " /><path d=" M 3339.94,  256.18  C 3337.44   256.18  3335.41   258.21  3335.41   260.71 " style="stroke-width: 1.42 ;&st7; " /><path d=" M 3335.41,  260.71  C 3335.41   263.21  3337.44   265.24  3339.94   265.24 " style="stroke-width: 1.42 ;&st7; " /><path d=" M 3339.94,  265.24  C 3342.45   265.24  3344.47   263.21  3344.47   260.71 " style="stroke-width: 1.42 ;&st7; " /><text style="&st18;" transform="matrix(&st16;  3080.18  15.09 )">BR</text><text style="&st18;" transform="matrix(&st16;  3011.47  262.68 )">91</text><text style="&st18;" transform="matrix(&st16;  3023.02  262.68 )">C</text><text style="&st18;" transform="matrix(&st16;  3023.16  253.61 )">B</text><text style="&st18;" transform="matrix(&st16;  3011.47  253.61 )">91</text><text style="&st18;" transform="matrix(&st16;  3286.62  424.72 )">A</text><text style="&st18;" transform="matrix(&st16;  3020.69  272.88 )">VC</text><text style="&st18;" transform="matrix(&st16;  3334.58  292.68 )">A38(A),A52(D),C45(B),C46(C)</text><text style="&st18;" transform="matrix(&st16;  3334.58  299.79 )">ECM</text><text style="&st18;" transform="matrix(&st16;  3172.16  262.68 )">89</text><text style="&st18;" transform="matrix(&st16;  3184.49  262.68 )">C</text><text style="&st18;" transform="matrix(&st16;  3184.64  253.61 )">B</text><text style="&st18;" transform="matrix(&st16;  3172.16  253.61 )">89</text><text style="&st18;" transform="matrix(&st16;  3177.57  272.88 )">EGS2</text><text style="&st18;" transform="matrix(&st16;  3206.16  262.68 )">42</text><text style="&st18;" transform="matrix(&st16;  3218.49  262.68 )">C</text><text style="&st18;" transform="matrix(&st16;  3218.63  253.61 )">B</text><text style="&st18;" transform="matrix(&st16;  3206.16  253.61 )">42</text><text style="&st18;" transform="matrix(&st16;  3211.85  272.88 )">ERS2</text><text style="&st18;" transform="matrix(&st16;  3256.67  550.5 )">2</text><text style="&st18;" transform="matrix(&st16;  3257.44  596.38 )">1</text><text style="&st18;" transform="matrix(&st16;  3342.43  596.38 )">1</text><text style="&st18;" transform="matrix(&st16;  3341.65  550.5 )">2</text><text style="&st18;" transform="matrix(&st16;  3023.16  424.72 )">B</text><text style="&st18;" transform="matrix(&st16;  3014.65  424.72 )">5</text><text style="&st18;" transform="matrix(&st16;  3261.12  424.72 )">A</text><text style="&st18;" transform="matrix(&st16;  3252.61  424.72 )">2</text><text style="&st18;" transform="matrix(&st16;  3346.11  424.72 )">B</text><text style="&st18;" transform="matrix(&st16;  3338.37  424.72 )">1</text><text style="&st18;" transform="matrix(&st16;  3371.6  424.72 )">B</text><text style="&st18;" transform="matrix(&st16;  3363.09  424.72 )">4</text><text style="&st18;" transform="matrix(&st17;  3021.8  468.31 )">W</text><text style="&st18;" transform="matrix(&st17;  3259.76  467.71 )">G</text><text style="&st18;" transform="matrix(&st17;  3285.25  466.94 )">L</text><text style="&st18;" transform="matrix(&st17;  3327.75  471.14 )">(*3)</text><text style="&st18;" transform="matrix(&st17;  3344.74  467.29 )">P</text><text style="&st18;" transform="matrix(&st17;  3370.24  466.94 )">L</text><text style="&st18;" transform="matrix(&st17;  3140.78  508.0 )">BR</text><text style="&st18;" transform="matrix(&st17;  3395.74  508.0 )">BR</text><text style="&st18;" transform="matrix(&st17;  3191.77  584.49 )">BR</text><text style="&st18;" transform="matrix(&st16;  3018.75  414.52 )">IJ5+</text><text style="&st18;" transform="matrix(&st16;  3256.71  414.52 )">IJ3-</text><text style="&st18;" transform="matrix(&st16;  3341.69  414.52 )">IJ8-</text><text style="&st18;" transform="matrix(&st16;  3367.19  414.52 )">IJ8+</text><text style="&st18;" transform="matrix(&st17;  3208.77  508.0 )">BR</text><text ewd:textID="40" style="&st18;" transform="matrix(&st17;  3245.31  590.71 )">Fuel Injector <tspan dy="6" x="0">Assembly No.3</tspan></text><text style="&st18;" transform="matrix(&st17;  3238.2  590.71 )">C142</text><text ewd:textID="45" style="&st18;" transform="matrix(&st17;  3330.3  590.71 )">Fuel Injector <tspan dy="6" x="0">Assembly No.8</tspan></text><text style="&st18;" transform="matrix(&st17;  3323.19  590.71 )">C145</text><text ewd:textID="57" style="&st18;" transform="matrix(&st16;  3158.95  519.05 )">Junction <tspan dy="6" x="0">Connector</tspan></text><text style="&st18;" transform="matrix(&st16;  3158.95  511.94 )">C94</text><text style="&st18;" transform="matrix(&st16;  3427.11  551.91 )">5</text><text style="&st18;" transform="matrix(&st16;  3439.59  424.72 )">A</text><text style="&st18;" transform="matrix(&st16;  3431.08  424.72 )">3</text><text style="&st18;" transform="matrix(&st17;  3438.23  468.31 )">W</text><text style="&st18;" transform="matrix(&st16;  3437.58  414.52 )">+B</text><text ewd:textID="62" style="&st18;" transform="matrix(&st17;  3006.22  208.28 )">No.1 EGR <tspan dy="6" x="-0.01">Valve Assembly</tspan></text><text ewd:textID="63" style="&st18;" transform="matrix(&st17;  3252.68  208.28 )">No.2 EGR <tspan dy="6" x="-0.01">Valve Assembly</tspan></text><text style="&st18;" transform="matrix(&st17;  3245.57  208.28 )">C88</text><text style="&st18;" transform="matrix(&st17;  3472.22  508.0 )">BR</text><text style="&st18;" transform="matrix(&st17;  3438.23  587.53 )">W-R</text><text style="&st18;" transform="matrix(&st16;  3282.2  414.52 )">IJ3+</text><text style="&st18;" transform="matrix(&st16;  3205.67  562.39 )">3</text><text style="&st18;" transform="matrix(&st16;  3185.5  562.39 )">21</text><text style="&st18;" transform="matrix(&st16;  3167.72  562.39 )">22</text><text style="&st18;" transform="matrix(&st16;  3152.28  562.39 )">11</text><text style="&st18;" transform="matrix(&st16;  3134.51  562.39 )">10</text><text style="&st18;" transform="matrix(&st16;  3205.67  525.01 )">6</text><text style="&st18;" transform="matrix(&st16;  3137.69  525.01 )">7</text><text style="&st18;" transform="matrix(&st17;  3217.27  239.09 )">R-W</text><text style="&st18;" transform="matrix(&st17;  3183.27  238.06 )">R-B</text><text style="&st18;" transform="matrix(&st16;  3182.66  179.39 )">E2</text><text style="&st18;" transform="matrix(&st16;  3216.62  179.39 )">+B</text><text style="&st18;" transform="matrix(&st16;  3213.4  202.05 )">EGR</text><text style="&st18;" transform="matrix(&st16;  3177.57  202.05 )">EGS2</text><text style="&st18;" transform="matrix(&st16;  3214.17  213.94 )">5</text><text style="&st18;" transform="matrix(&st16;  3180.18  213.94 )">4</text><text style="&st18;" transform="matrix(&st16;  3148.17  179.39 )">VC</text><text style="&st18;" transform="matrix(&st16;  3146.18  168.07 )">3</text><text style="&st18;" transform="matrix(&st17;  3149.28  148.59 )">B</text><text style="&st18;" transform="matrix(&st16;  3180.18  168.07 )">2</text><text style="&st18;" transform="matrix(&st17;  3140.78  584.49 )">BR</text><text style="&st18;" transform="matrix(&st17;  3157.78  584.49 )">BR</text><text style="&st18;" transform="matrix(&st17;  3208.77  584.49 )">BR</text><text style="&st18;" transform="matrix(&st16;  3128.13  643.98 )">W-R</text><text style="&st18;" transform="matrix(&st17;  3217.27  153.61 )">L-W</text><text style="&st18;" transform="matrix(&st17;  3021.8  148.59 )">B</text><text style="&st18;" transform="matrix(&st16;  3214.95  168.07 )">1</text><text style="&st18;" transform="matrix(&st17;  3421.23  471.14 )">(*3)</text><text style="&st18;" transform="matrix(&st16;  3278.1  424.72 )">4</text><text style="&st18;" transform="matrix(&st17;  3302.25  471.14 )">(*3)</text><text style="&st18;" transform="matrix(&st16;  3447.9  373.42 )">C150(A),C151(B),C152(C),C153(D)</text><text ewd:textID="54" style="&st18;" transform="matrix(&st16;  3447.9  380.52 )">Injector Driver (No.1)</text><text ewd:textID="55" style="&st18;" transform="matrix(&st16;  3209.94  380.52 )">Injector Driver (No.2)</text><text style="&st18;" transform="matrix(&st16;  3463.11  213.39 )">E2</text><text style="&st18;" transform="matrix(&st16;  3499.64  160.98 )">25</text><text style="&st18;" transform="matrix(&st16;  3411.63  213.39 )">VC</text><text style="&st18;" transform="matrix(&st16;  3409.64  202.06 )">3</text><text style="&st18;" transform="matrix(&st16;  3461.41  202.06 )">1</text><text style="&st18;" transform="matrix(&st17;  3412.73  182.59 )">B</text><text style="&st18;" transform="matrix(&st16;  3397.66  160.98 )">24</text><text style="&st18;" transform="matrix(&st17;  3463.73  185.06 )">BR</text><text style="&st18;" transform="matrix(&st16;  3448.65  160.98 )">26</text><text style="&st18;" transform="matrix(&st16;  3402.39  109.99 )">1</text><text style="&st18;" transform="matrix(&st16;  3449.43  109.99 )">10</text><text style="&st18;" transform="matrix(&st17;  3412.73  135.84 )">B</text><text style="&st18;" transform="matrix(&st17;  3463.73  138.32 )">BR</text><text style="&st18;" transform="matrix(&st16;  3284.15  179.39 )">VC</text><text style="&st18;" transform="matrix(&st17;  3364.55  208.28 )">C157</text><text ewd:textID="24" style="&st18;" transform="matrix(&st17;  3371.66  208.28 )">Differential <tspan dy="6" x="-0.01">Pressure Sensor LH</tspan></text><text style="&st18;" transform="matrix(&st16;  3335.63  179.39 )">E2</text><text style="&st18;" transform="matrix(&st16;  3333.93  168.07 )">1</text><text style="&st18;" transform="matrix(&st16;  3282.16  168.07 )">3</text><text style="&st18;" transform="matrix(&st17;  3336.25  151.06 )">BR</text><text style="&st18;" transform="matrix(&st16;  3394.63  15.09 )">BR</text><text style="&st18;" transform="matrix(&st16;  3261.12  117.07 )">B</text><text style="&st18;" transform="matrix(&st17;  3285.25  148.59 )">B</text><text style="&st18;" transform="matrix(&st16;  3077.64  83.07 )">L-W</text><text style="&st18;" transform="matrix(&st17;  3285.25  93.35 )">B</text><text style="&st18;" transform="matrix(&st16;  3325.14  262.68 )">70</text><text style="&st18;" transform="matrix(&st16;  3337.47  262.68 )">C</text><text style="&st18;" transform="matrix(&st16;  3337.61  253.61 )">B</text><text style="&st18;" transform="matrix(&st16;  3325.14  253.61 )">70</text><text style="&st18;" transform="matrix(&st16;  3330.97  272.88 )">PEX2</text><text style="&st18;" transform="matrix(&st17;  3336.25  233.72 )">R</text><text style="&st18;" transform="matrix(&st16;  3330.97  202.05 )">PEX2</text><text style="&st18;" transform="matrix(&st16;  3333.15  213.94 )">2</text><text style="&st18;" transform="matrix(&st17;  3412.73  93.35 )">B</text><text style="&st18;" transform="matrix(&st17;  3463.73  95.82 )">BR</text><text style="&st18;" transform="matrix(&st16;  3131.17  626.98 )">BR</text><text style="&st18;" transform="matrix(&st16;  3209.94  373.42 )">C154(A),C155(B),C156(C)</text><text style="&st18;" transform="matrix(&st17;  3497.72  471.14 )">(*3)</text><text style="&st18;" transform="matrix(&st17;  3183.27  151.06 )">BR</text><text style="&st18;" transform="matrix(&st16;  3258.65  15.09 )">BR</text><text style="&st18;" transform="matrix(&st16;  3133.64  117.07 )">B</text><text style="&st18;" transform="matrix(&st16;  3040.16  117.07 )">B</text><text style="&st18;" transform="matrix(&st16;  3082.65  117.07 )">B</text><text style="&st18;" transform="matrix(&st16;  3128.63  83.07 )">L-W</text><text style="&st18;" transform="matrix(&st16;  3452.61  67.49 )">7</text><text style="&st18;" transform="matrix(&st16;  3401.61  67.49 )">4</text><text style="&st18;" transform="matrix(&st16;  3131.17  15.09 )">BR</text><text style="&st18;" transform="matrix(&st16;  3031.44  262.68 )">(RHD)</text><text style="&st18;" transform="matrix(&st16;  3031.44  253.61 )">(LHD)</text><text style="&st18;" transform="matrix(&st16;  3131.17  474.01 )">BR</text><text style="&st18;" transform="matrix(&st16;  3080.18  474.01 )">BR</text><text style="&st18;" transform="matrix(&st16;  3080.18  626.98 )">BR</text><text style="&st18;" transform="matrix(&st16;  3077.14  643.98 )">W-R</text><text style="&st18;" transform="matrix(&st16;  3080.18  660.98 )">BR</text><text style="&st18;" transform="matrix(&st16;  3131.17  660.98 )">BR</text></svg>