﻿<?xml version="1.0" encoding="utf-8"?>
<!DOCTYPE svg PUBLIC "-//W3C//DTD SVG 1.0//EN" "http://www.w3.org/TR/2001/REC-SVG-20010904/DTD/svg10.dtd"[
	<!ENTITY ns_flows "http://ns.adobe.com/Flows/1.0/">
	<!ENTITY ns_svg "http://www.w3.org/2000/svg">
	<!ENTITY ns_xlink "http://www.w3.org/1999/xlink">
	<!ENTITY st0 "font-size:7px;font-family:'MS-PGothic';adobe-font-script:japanese;">
	<!ENTITY st1 "font-size:6px;font-family:'ArialMT';">
	<!-- White fill  -->
	<!ENTITY st2 "fill:#FFFFFF;stroke:#000000; stroke-width:1.41;stroke-linecap:round;stroke-linejoin:round;">
	<!-- Yellow fill  -->
	<!ENTITY st3 "fill:#FFFFCC;stroke:#FFFFCC; stroke-width:0.1;stroke-linecap:round;stroke-linejoin:round;">
	<!-- Gray fill  -->
	<!ENTITY st4 "fill:#CCCCCC;stroke:#CCCCCC; stroke-width:0.1;stroke-linecap:round;stroke-linejoin:round;">
	<!-- Light-blue fill -->
	<!ENTITY st5 "fill:#CCECF4;stroke:#000000; stroke-width:1.133;stroke-linecap:round;stroke-linejoin:round;">
	<!ENTITY st6 "fill:none;stroke-linecap:butt; stroke-linejoin:round;">
	<!ENTITY st7 "fill:none;stroke:#000000;stroke-linecap:round;stroke-linejoin:round;">
	<!ENTITY st8 "enable-background:new    ;">
	<!-- Black fill -->
	<!ENTITY st9 "fill:#000000;stroke:#000000; stroke-linecap:round;stroke-linejoin:round;">
	<!-- SRS note   -->
	<!ENTITY st10 "font-size:9px;font-family:'ArialMT';">
	<!ENTITY st11 "font-size:9px;font-family:'Svg Symbol';">
	<!ENTITY st12 "font-size:6px;font-family:'Svg Symbol';">
	<!ENTITY st13 "fill:none;stroke:#ff0000;stroke-linecap:round;stroke-linejoin:round;">
	<!-- Yellow fill  -->
	<!ENTITY st14 "fill:#FFFF00;stroke:#FFFF00; stroke-width:0.1;stroke-linecap:round;stroke-linejoin:round;">
	<!ENTITY st15 "font-size:6px;font-family:'MS-PGothic';adobe-font-script:japanese;">
	<!ENTITY st16 "1.00 0.00 0.00 1.00">
	<!ENTITY st17 "0.00 -1.00 1.00 0.00">
	<!ENTITY st18 "font-size:6px;font-family:'Arial';">
	<!ENTITY st19 "font-size:9px;font-family:'Arial';">
	<!ENTITY st20 "font-size:6px;font-family:'MS-PGothic','MS PGothic';adobe-font-script:japanese;">
	<!ENTITY st21 "font-size:7px;font-family:'MS-PGothic','MS PGothic';adobe-font-script:japanese;">
	<!ATTLIST svg
		xmlns:ewd CDATA #FIXED "http://shcl.co.jp/ewd"
		xmlns:a CDATA #FIXED "http://ns.adobe.com/AdobeSVGViewerExtensions/3.0/"
		ewd:ver CDATA #IMPLIED
	>
	<!ATTLIST a
		ewd:lineID CDATA #IMPLIED
		ewd:groupID CDATA #IMPLIED
		ewd:figtype CDATA #IMPLIED
		ewd:code CDATA #IMPLIED
		ewd:figID CDATA #IMPLIED
		ewd:pinNo CDATA #IMPLIED
		ewd:comment CDATA #IMPLIED >
	<!ATTLIST g
		ewd:lineID CDATA #IMPLIED
		ewd:groupID CDATA #IMPLIED
		ewd:figtype CDATA #IMPLIED
		ewd:code CDATA #IMPLIED
		ewd:figID CDATA #IMPLIED
		ewd:pinNo CDATA #IMPLIED
		ewd:comment CDATA #IMPLIED >
	<!ATTLIST text
		ewd:textID CDATA #IMPLIED >
	<!ATTLIST title
		ewd:textID CDATA #IMPLIED >
]>
<!-- Generator: Shintec Hozumi YS   -->
<svg onload="call_execInitLoadProc_svg('system')" style="overflow:visible;  enable-background:new 0 0 8807.901 710.000" viewBox="0 0 8807.901 710.000" height="710.000" width="8807.901" xml:space="preserve" ewd:ver="L2.1.2.8" xmlns="&ns_svg;" xmlns:a="http://ns.adobe.com/AdobeSVGViewerExtensions/3.0/" xmlns:ewd="http://shcl.co.jp/ewd" xmlns:xlink="&ns_xlink;">
<path d=" M  203.97,  448.68  L  198.99,  443.71 " style="stroke-width: 1.42 ;&st7; " /><path d=" M  186.97,  455.74  L  191.94,  460.71 " style="stroke-width: 1.42 ;&st7; " /><path d=" M  198.99,  460.71  L  203.97,  455.74 " style="stroke-width: 1.42 ;&st7; " /><path d=" M  191.94,  443.71  L  186.97,  448.68 " style="stroke-width: 1.42 ;&st7; " /><path d=" M  305.95,  474.18  L  300.98,  469.21 " style="stroke-width: 1.42 ;&st7; " /><path d=" M  288.95,  481.24  L  293.92,  486.20 " style="stroke-width: 1.42 ;&st7; " /><path d=" M  300.98,  486.20  L  305.95,  481.24 " style="stroke-width: 1.42 ;&st7; " /><path d=" M  293.92,  469.21  L  288.95,  474.18 " style="stroke-width: 1.42 ;&st7; " /><path d=" M  407.93,  176.73  L  402.96,  171.76 " style="stroke-width: 1.42 ;&st7; " /><path d=" M  390.93,  183.78  L  395.90,  188.75 " style="stroke-width: 1.42 ;&st7; " /><path d=" M  402.96,  188.75  L  407.93,  183.78 " style="stroke-width: 1.42 ;&st7; " /><path d=" M  395.90,  171.76  L  390.93,  176.73 " style="stroke-width: 1.42 ;&st7; " /><path d=" M  401.56,  367.22  L  397.31,  367.22 " style="stroke-width: 1.42 ;&st7; " /><path d=" M  401.56,  358.73  L  397.31,  358.73 " style="stroke-width: 1.42 ;&st7; " /><path d=" M  401.56,  273.74  L  397.31,  273.74 " style="stroke-width: 1.42 ;&st7; " /><path d=" M  401.56,  265.24  L  397.31,  265.24 " style="stroke-width: 1.42 ;&st7; " /><path d=" M  399.43,  328.98  L  399.43,  337.48 " style="stroke-width: 0.85 ;&st7; " /><path d=" M  161.47,  494.70  L  169.97,  494.70 " style="stroke-width: 1.42 ;&st7; " /><path d=" M  299.57,  341.73  L  295.33,  341.73 " style="stroke-width: 1.42 ;&st7; " /><path d=" M  263.46,   69.77  L  263.46,   78.27 " style="stroke-width: 0.85 ;&st7; " /><path d=" M  299.57,  333.23  L  295.33,  333.23 " style="stroke-width: 1.42 ;&st7; " /><path d=" M  325.07,  341.73  L  320.82,  341.73 " style="stroke-width: 1.42 ;&st7; " /><path d=" M  325.07,  333.23  L  320.82,  333.23 " style="stroke-width: 1.42 ;&st7; " /><path d=" M  322.95,  299.24  L  322.95,  307.73 " style="stroke-width: 0.85 ;&st7; " /><path d=" M  322.95,  273.74  L  322.95,  282.24 " style="stroke-width: 0.85 ;&st7; " /><path d=" M  297.45,  277.99  L  297.45,  273.74 " style="stroke-width: 0.85 ;&st7; " /><path d=" M  297.45,  307.73  L  297.45,  303.48 " style="stroke-width: 0.85 ;&st7; " /><path d=" M  299.57,  239.75  L  295.33,  239.75 " style="stroke-width: 1.42 ;&st7; " /><path d=" M  390.93,  494.70  L  399.43,  494.70 " style="stroke-width: 1.42 ;&st7; " /><path d=" M  299.57,  248.24  L  295.33,  248.24 " style="stroke-width: 1.42 ;&st7; " /><path d=" M  325.07,  239.75  L  320.82,  239.75 " style="stroke-width: 1.42 ;&st7; " /><path d=" M  325.07,  248.24  L  320.82,  248.24 " style="stroke-width: 1.42 ;&st7; " /><path d=" M  172.10,  341.73  L  167.85,  341.73 " style="stroke-width: 1.42 ;&st7; " /><path d=" M  169.97,   69.77  L  169.97,   78.27 " style="stroke-width: 0.85 ;&st7; " /><path d=" M  172.10,  333.23  L  167.85,  333.23 " style="stroke-width: 1.42 ;&st7; " /><path d=" M  197.59,  341.73  L  193.34,  341.73 " style="stroke-width: 1.42 ;&st7; " /><path d=" M  197.59,  333.23  L  193.34,  333.23 " style="stroke-width: 1.42 ;&st7; " /><path d=" M  195.47,  299.24  L  195.47,  307.73 " style="stroke-width: 0.85 ;&st7; " /><path d=" M  195.47,  273.74  L  195.47,  282.24 " style="stroke-width: 0.85 ;&st7; " /><path d=" M  169.97,  277.99  L  169.97,  273.74 " style="stroke-width: 0.85 ;&st7; " /><path d=" M  169.97,  307.73  L  169.97,  303.48 " style="stroke-width: 0.85 ;&st7; " /><path d=" M  197.59,  239.75  L  193.34,  239.75 " style="stroke-width: 1.42 ;&st7; " /><path d=" M  197.59,  248.24  L  193.34,  248.24 " style="stroke-width: 1.42 ;&st7; " /><path d=" M  297.45,  280.82  L  291.78,  303.48 " style="stroke-width: 1.42 ;&st7; " /><path d=" M  169.97,  280.82  L  164.31,  303.48 " style="stroke-width: 1.42 ;&st7; " /><path d=" M   76.49,  697.25  L   76.49,  701.50 " style="stroke-width: 0.85 ;&st7; " /><path d=" M   67.99,  701.50  L   84.99,  701.50 " style="stroke-width: 0.85 ;&st7; " /><path d=" M   72.24,  704.33  L   80.74,  704.33 " style="stroke-width: 0.85 ;&st7; " /><path d=" M   73.65,  707.17  L   79.32,  707.17 " style="stroke-width: 0.85 ;&st7; " /><path d=" M   75.07,  710.00  L   77.90,  710.00 " style="stroke-width: 0.85 ;&st7; " /><path d=" M  127.48,  605.18  L  127.48,  622.18 " style="stroke-width: 0.85 ;&st7; " /><path d=" M  118.98,  605.18  L  135.98,  605.18  L  135.98,  622.18  L  118.98,  622.18  L  118.98,  605.18 " style="stroke-width: 1.42 ;&st7; " /><path d=" M  126.06,  710.00  L  128.90,  710.00 " style="stroke-width: 0.85 ;&st7; " /><path d=" M  124.65,  707.17  L  130.31,  707.17 " style="stroke-width: 0.85 ;&st7; " /><path d=" M  123.23,  704.33  L  131.73,  704.33 " style="stroke-width: 0.85 ;&st7; " /><path d=" M  118.98,  701.50  L  135.98,  701.50 " style="stroke-width: 0.85 ;&st7; " /><path d=" M  127.48,  697.25  L  127.48,  701.50 " style="stroke-width: 0.85 ;&st7; " /><path d=" M  195.47,  248.24  L  195.47,  273.74 " style="stroke-width: 0.85 ;&st7; " /><path d=" M  195.47,  253.14  L  198.30,  255.97  L  198.30,  251.72  L  195.47,  248.89  L  192.63,  251.72  L  192.63,  255.97  L  195.47,  253.14 " style="stroke-width: 0.28 ;&st9;" /><path d=" M  169.97,  307.73  L  169.97,  333.23 " style="stroke-width: 0.85 ;&st7; " /><path d=" M  195.47,  307.73  L  195.47,  333.23 " style="stroke-width: 0.85 ;&st7; " /><path d=" M  203.97,  273.74  L  161.47,  273.74  L  161.47,  307.73  L  203.97,  307.73  L  203.97,  273.74 " style="stroke-width: 1.42 ;&st7; " /><path d=" M  169.97,   78.27  L  169.97,  273.74 " style="stroke-width: 0.85 ;&st7; " /><path d=" M  182.72,   78.27  L  182.72,   35.78  L  157.22,   35.78  L  157.22,   78.27  L  182.72,   78.27 " style="stroke-width: 1.42 ;&st7; " /><path d=" M  169.97,  328.33  L  167.14,  325.50  L  167.14,  329.75  L  169.97,  332.58  L  172.80,  329.75  L  172.80,  325.50  L  169.97,  328.33 " style="stroke-width: 0.28 ;&st9;" /><path d=" M  195.47,  328.33  L  192.63,  325.50  L  192.63,  329.75  L  195.47,  332.58  L  198.30,  329.75  L  198.30,  325.50  L  195.47,  328.33 " style="stroke-width: 0.28 ;&st9;" /><path d=" M  322.95,  248.24  L  322.95,  273.74 " style="stroke-width: 0.85 ;&st7; " /><path d=" M  322.95,  253.14  L  325.78,  255.97  L  325.78,  251.72  L  322.95,  248.89  L  320.11,  251.72  L  320.11,  255.97  L  322.95,  253.14 " style="stroke-width: 0.28 ;&st9;" /><path d=" M  297.45,  307.73  L  297.45,  333.23 " style="stroke-width: 0.85 ;&st7; " /><path d=" M  322.95,  307.73  L  322.95,  333.23 " style="stroke-width: 0.85 ;&st7; " /><path d=" M  297.45,  248.24  L  297.45,  273.74 " style="stroke-width: 0.85 ;&st7; " /><path d=" M  331.44,  273.74  L  288.95,  273.74  L  288.95,  307.73  L  331.44,  307.73  L  331.44,  273.74 " style="stroke-width: 1.42 ;&st7; " /><path d=" M  297.45,  253.14  L  300.28,  255.97  L  300.28,  251.72  L  297.45,  248.89  L  294.62,  251.72  L  294.62,  255.97  L  297.45,  253.14 " style="stroke-width: 0.28 ;&st9;" /><path d=" M  399.43,  294.99  L  399.43,  273.74 " style="stroke-width: 0.85 ;&st7; " /><path d=" M  399.43,  358.73  L  399.43,  337.48 " style="stroke-width: 0.85 ;&st7; " /><path d=" M  399.43,  353.83  L  396.60,  351.00  L  396.60,  355.25  L  399.43,  358.08  L  402.27,  355.25  L  402.27,  351.00  L  399.43,  353.83 " style="stroke-width: 0.28 ;&st9;" /><path d=" M  399.43,  278.63  L  402.27,  281.47  L  402.27,  277.22  L  399.43,  274.39  L  396.60,  277.22  L  396.60,  281.47  L  399.43,  278.63 " style="stroke-width: 0.28 ;&st9;" /><path d=" M  412.18,  337.48  L  412.18,  294.99  L  386.69,  294.99  L  386.69,  337.48  L  412.18,  337.48 " style="stroke-width: 1.42 ;&st7; " /><path d=" M  399.43,  294.99  L  399.43,  303.48 " style="stroke-width: 0.85 ;&st7; " /><path d=" M  174.22,  489.04  L  169.97,  493.29  L  165.72,  489.04 " style="stroke-width: 1.42 ;&st7; " /><path d=" M  165.72,  485.64  L  169.97,  489.89  L  174.22,  485.64 " style="stroke-width: 1.42 ;&st7; " /><path d=" M  263.46,   78.27  L  263.46,  265.24  L  297.45,  265.24 " style="stroke-width: 0.85 ;&st7; " /><path d=" M  276.20,   78.27  L  276.20,   35.78  L  250.71,   35.78  L  250.71,   78.27  L  276.20,   78.27 " style="stroke-width: 1.42 ;&st7; " /><path d=" M  297.45,  328.33  L  294.62,  325.50  L  294.62,  329.75  L  297.45,  332.58  L  300.28,  329.75  L  300.28,  325.50  L  297.45,  328.33 " style="stroke-width: 0.28 ;&st9;" /><path d=" M  296.26,  264.24  L  295.99,  264.71  L  295.89,  265.24  L  295.99,  265.77  L  296.26,  266.24  L  296.67,  266.59  L  297.18,  266.78  L  297.72,  266.78  L  298.23,  266.59  L  298.64,  266.24  L  298.91,  265.77  L  299.01,  265.24  L  298.91,  264.71  L  298.64,  264.24  L  298.23,  263.89  L  297.72,  263.71  L  297.18,  263.71  L  296.67,  263.89  L  296.26,  264.24  L  296.65,  264.95  L  296.65,  265.53  L  297.03,  265.98  L  297.60,  266.08  L  298.10,  265.79  L  298.30,  265.24  L  298.10,  264.69  L  297.60,  264.41  L  297.03,  264.50  L  297.45,  265.24 " style="stroke-width: 0.85 ;&st7; " /><path d=" M  395.18,  485.64  L  399.43,  489.89  L  403.68,  485.64 " style="stroke-width: 1.42 ;&st7; " /><path d=" M  403.68,  489.04  L  399.43,  493.29  L  395.18,  489.04 " style="stroke-width: 1.42 ;&st7; " /><path d=" M  322.95,  328.33  L  320.11,  325.50  L  320.11,  329.75  L  322.95,  332.58  L  325.78,  329.75  L  325.78,  325.50  L  322.95,  328.33 " style="stroke-width: 0.28 ;&st9;" /><path d=" M  264.87,   68.36  C  264.87    67.57   264.24    66.94   263.46    66.94 " style="stroke-width: 0.85 ;&st7; " /><path d=" M  263.46,   66.94  C  262.67    66.94   262.04    67.57   262.04    68.36 " style="stroke-width: 0.85 ;&st7; " /><path d=" M  262.04,   68.36  C  262.04    69.14   262.67    69.77   263.46    69.77 " style="stroke-width: 0.85 ;&st7; " /><path d=" M  263.46,   69.77  C  264.24    69.77   264.87    69.14   264.87    68.36 " style="stroke-width: 0.85 ;&st7; " /><path d=" M  264.87,   45.69  C  264.87    44.91   264.24    44.28   263.46    44.28 " style="stroke-width: 0.85 ;&st7; " /><path d=" M  263.46,   44.28  C  262.67    44.28   262.04    44.91   262.04    45.69 " style="stroke-width: 0.85 ;&st7; " /><path d=" M  262.04,   45.69  C  262.04    46.48   262.67    47.11   263.46    47.11 " style="stroke-width: 0.85 ;&st7; " /><path d=" M  263.46,   47.11  C  264.24    47.11   264.87    46.48   264.87    45.69 " style="stroke-width: 0.85 ;&st7; " /><path d=" M  263.46,   66.94  C  266.19    65.33   267.11    61.80   265.49    59.06 " style="stroke-width: 1.42 ;&st7; " /><path d=" M  265.49,   59.06  C  264.97    58.18   264.34    57.55   263.46    57.03 " style="stroke-width: 1.42 ;&st7; " /><path d=" M  263.46,   47.11  C  260.72    48.72   259.81    52.25   261.42    54.99 " style="stroke-width: 1.42 ;&st7; " /><path d=" M  261.42,   54.99  C  261.94    55.87   262.57    56.51   263.46    57.03 " style="stroke-width: 1.42 ;&st7; " /><path d=" M  303.82,  337.48  C  303.82   335.13   301.92   333.23   299.57   333.23 " style="stroke-width: 1.42 ;&st7; " /><path d=" M  299.57,  341.73  C  301.92   341.73   303.82   339.83   303.82   337.48 " style="stroke-width: 1.42 ;&st7; " /><path d=" M  291.08,  337.48  C  291.08   339.83   292.98   341.73   295.33   341.73 " style="stroke-width: 1.42 ;&st7; " /><path d=" M  295.33,  333.23  C  292.98   333.23   291.08   335.13   291.08   337.48 " style="stroke-width: 1.42 ;&st7; " /><path d=" M  400.85,  327.56  C  400.85   326.78   400.22   326.15   399.43   326.15 " style="stroke-width: 0.85 ;&st7; " /><path d=" M  399.43,  326.15  C  398.65   326.15   398.02   326.78   398.02   327.56 " style="stroke-width: 0.85 ;&st7; " /><path d=" M  398.02,  327.56  C  398.02   328.35   398.65   328.98   399.43   328.98 " style="stroke-width: 0.85 ;&st7; " /><path d=" M  399.43,  328.98  C  400.22   328.98   400.85   328.35   400.85   327.56 " style="stroke-width: 0.85 ;&st7; " /><path d=" M  400.85,  304.90  C  400.85   304.12   400.22   303.48   399.43   303.48 " style="stroke-width: 0.85 ;&st7; " /><path d=" M  399.43,  303.48  C  398.65   303.48   398.02   304.12   398.02   304.90 " style="stroke-width: 0.85 ;&st7; " /><path d=" M  398.02,  304.90  C  398.02   305.68   398.65   306.32   399.43   306.32 " style="stroke-width: 0.85 ;&st7; " /><path d=" M  399.43,  306.32  C  400.22   306.32   400.85   305.68   400.85   304.90 " style="stroke-width: 0.85 ;&st7; " /><path d=" M  399.43,  326.15  C  402.17   324.53   403.08   321.01   401.47   318.27 " style="stroke-width: 1.42 ;&st7; " /><path d=" M  401.47,  318.27  C  400.95   317.39   400.32   316.75   399.43   316.23 " style="stroke-width: 1.42 ;&st7; " /><path d=" M  399.43,  306.32  C  396.70   307.93   395.78   311.46   397.40   314.20 " style="stroke-width: 1.42 ;&st7; " /><path d=" M  397.40,  314.20  C  397.92   315.08   398.55   315.71   399.43   316.23 " style="stroke-width: 1.42 ;&st7; " /><path d=" M  397.31,  265.24  C  394.96   265.24   393.06   267.14   393.06   269.49 " style="stroke-width: 1.42 ;&st7; " /><path d=" M  393.06,  269.49  C  393.06   271.84   394.96   273.74   397.31   273.74 " style="stroke-width: 1.42 ;&st7; " /><path d=" M  401.56,  273.74  C  403.90   273.74   405.81   271.84   405.81   269.49 " style="stroke-width: 1.42 ;&st7; " /><path d=" M  405.81,  269.49  C  405.81   267.14   403.90   265.24   401.56   265.24 " style="stroke-width: 1.42 ;&st7; " /><path d=" M  397.31,  358.73  C  394.96   358.73   393.06   360.63   393.06   362.97 " style="stroke-width: 1.42 ;&st7; " /><path d=" M  393.06,  362.97  C  393.06   365.32   394.96   367.22   397.31   367.22 " style="stroke-width: 1.42 ;&st7; " /><path d=" M  401.56,  367.22  C  403.90   367.22   405.81   365.32   405.81   362.97 " style="stroke-width: 1.42 ;&st7; " /><path d=" M  405.81,  362.97  C  405.81   360.63   403.90   358.73   401.56   358.73 " style="stroke-width: 1.42 ;&st7; " /><path d=" M  329.32,  337.48  C  329.32   335.13   327.42   333.23   325.07   333.23 " style="stroke-width: 1.42 ;&st7; " /><path d=" M  325.07,  341.73  C  327.42   341.73   329.32   339.83   329.32   337.48 " style="stroke-width: 1.42 ;&st7; " /><path d=" M  316.57,  337.48  C  316.57   339.83   318.47   341.73   320.82   341.73 " style="stroke-width: 1.42 ;&st7; " /><path d=" M  320.82,  333.23  C  318.47   333.23   316.57   335.13   316.57   337.48 " style="stroke-width: 1.42 ;&st7; " /><path d=" M  303.82,  243.99  C  303.82   241.65   301.92   239.75   299.57   239.75 " style="stroke-width: 1.42 ;&st7; " /><path d=" M  322.95,  299.24  C  324.90   299.24   326.49   297.65   326.49   295.69 " style="stroke-width: 0.85 ;&st7; " /><path d=" M  326.49,  295.69  C  326.49   293.74   324.90   292.15   322.95   292.15 " style="stroke-width: 0.85 ;&st7; " /><path d=" M  322.95,  292.15  C  321.96   292.15   321.11   292.51   320.42   293.22 " style="stroke-width: 0.85 ;&st7; " /><path d=" M  320.42,  293.22  C  321.79   294.61   324.03   294.64   325.42   293.27 " style="stroke-width: 0.85 ;&st7; " /><path d=" M  325.42,  293.27  C  326.82   291.90   326.84   289.66   325.48   288.26 " style="stroke-width: 0.85 ;&st7; " /><path d=" M  325.48,  288.26  C  324.11   286.86   321.86   286.84   320.47   288.21 " style="stroke-width: 0.85 ;&st7; " /><path d=" M  320.47,  288.21  C  320.45   288.22   320.43   288.24   320.42   288.26 " style="stroke-width: 0.85 ;&st7; " /><path d=" M  320.42,  288.26  C  321.79   289.66   324.03   289.68   325.42   288.31 " style="stroke-width: 0.85 ;&st7; " /><path d=" M  325.42,  288.31  C  326.82   286.94   326.84   284.70   325.48   283.30 " style="stroke-width: 0.85 ;&st7; " /><path d=" M  325.48,  283.30  C  324.78   282.59   323.94   282.24   322.95   282.24 " style="stroke-width: 0.85 ;&st7; " /><path d=" M  298.87,  279.41  C  298.87   278.62   298.23   277.99   297.45   277.99 " style="stroke-width: 0.85 ;&st7; " /><path d=" M  297.45,  277.99  C  296.67   277.99   296.03   278.62   296.03   279.41 " style="stroke-width: 0.85 ;&st7; " /><path d=" M  296.03,  279.41  C  296.03   280.19   296.67   280.82   297.45   280.82 " style="stroke-width: 0.85 ;&st7; " /><path d=" M  297.45,  280.82  C  298.23   280.82   298.87   280.19   298.87   279.41 " style="stroke-width: 0.85 ;&st7; " /><path d=" M  298.87,  302.07  C  298.87   301.29   298.23   300.65   297.45   300.65 " style="stroke-width: 0.85 ;&st7; " /><path d=" M  297.45,  300.65  C  296.67   300.65   296.03   301.29   296.03   302.07 " style="stroke-width: 0.85 ;&st7; " /><path d=" M  296.03,  302.07  C  296.03   302.85   296.67   303.48   297.45   303.48 " style="stroke-width: 0.85 ;&st7; " /><path d=" M  297.45,  303.48  C  298.23   303.48   298.87   302.85   298.87   302.07 " style="stroke-width: 0.85 ;&st7; " /><path d=" M  295.33,  239.75  C  292.98   239.75   291.08   241.65   291.08   243.99 " style="stroke-width: 1.42 ;&st7; " /><path d=" M  325.07,  248.24  C  327.42   248.24   329.32   246.34   329.32   243.99 " style="stroke-width: 1.42 ;&st7; " /><path d=" M  316.57,  243.99  C  316.57   246.34   318.47   248.24   320.82   248.24 " style="stroke-width: 1.42 ;&st7; " /><path d=" M  329.32,  243.99  C  329.32   241.65   327.42   239.75   325.07   239.75 " style="stroke-width: 1.42 ;&st7; " /><path d=" M  320.82,  239.75  C  318.47   239.75   316.57   241.65   316.57   243.99 " style="stroke-width: 1.42 ;&st7; " /><path d=" M  299.57,  248.24  C  301.92   248.24   303.82   246.34   303.82   243.99 " style="stroke-width: 1.42 ;&st7; " /><path d=" M  291.08,  243.99  C  291.08   246.34   292.98   248.24   295.33   248.24 " style="stroke-width: 1.42 ;&st7; " /><path d=" M  171.39,   68.36  C  171.39    67.57   170.75    66.94   169.97    66.94 " style="stroke-width: 0.85 ;&st7; " /><path d=" M  169.97,   66.94  C  169.19    66.94   168.56    67.57   168.56    68.36 " style="stroke-width: 0.85 ;&st7; " /><path d=" M  168.56,   68.36  C  168.56    69.14   169.19    69.77   169.97    69.77 " style="stroke-width: 0.85 ;&st7; " /><path d=" M  169.97,   69.77  C  170.75    69.77   171.39    69.14   171.39    68.36 " style="stroke-width: 0.85 ;&st7; " /><path d=" M  171.39,   45.69  C  171.39    44.91   170.75    44.28   169.97    44.28 " style="stroke-width: 0.85 ;&st7; " /><path d=" M  169.97,   44.28  C  169.19    44.28   168.56    44.91   168.56    45.69 " style="stroke-width: 0.85 ;&st7; " /><path d=" M  168.56,   45.69  C  168.56    46.48   169.19    47.11   169.97    47.11 " style="stroke-width: 0.85 ;&st7; " /><path d=" M  169.97,   47.11  C  170.75    47.11   171.39    46.48   171.39    45.69 " style="stroke-width: 0.85 ;&st7; " /><path d=" M  169.97,   66.94  C  172.71    65.33   173.62    61.80   172.01    59.06 " style="stroke-width: 1.42 ;&st7; " /><path d=" M  172.01,   59.06  C  171.49    58.18   170.85    57.55   169.97    57.03 " style="stroke-width: 1.42 ;&st7; " /><path d=" M  169.97,   47.11  C  167.23    48.72   166.32    52.25   167.93    54.99 " style="stroke-width: 1.42 ;&st7; " /><path d=" M  167.93,   54.99  C  168.45    55.87   169.09    56.51   169.97    57.03 " style="stroke-width: 1.42 ;&st7; " /><path d=" M  176.35,  337.48  C  176.35   335.13   174.44   333.23   172.10   333.23 " style="stroke-width: 1.42 ;&st7; " /><path d=" M  172.10,  341.73  C  174.44   341.73   176.35   339.83   176.35   337.48 " style="stroke-width: 1.42 ;&st7; " /><path d=" M  163.60,  337.48  C  163.60   339.83   165.50   341.73   167.85   341.73 " style="stroke-width: 1.42 ;&st7; " /><path d=" M  167.85,  333.23  C  165.50   333.23   163.60   335.13   163.60   337.48 " style="stroke-width: 1.42 ;&st7; " /><path d=" M  201.84,  337.48  C  201.84   335.13   199.94   333.23   197.59   333.23 " style="stroke-width: 1.42 ;&st7; " /><path d=" M  197.59,  341.73  C  199.94   341.73   201.84   339.83   201.84   337.48 " style="stroke-width: 1.42 ;&st7; " /><path d=" M  189.09,  337.48  C  189.09   339.83   191.00   341.73   193.34   341.73 " style="stroke-width: 1.42 ;&st7; " /><path d=" M  193.34,  333.23  C  191.00   333.23   189.09   335.13   189.09   337.48 " style="stroke-width: 1.42 ;&st7; " /><path d=" M  195.47,  299.24  C  197.42   299.24   199.01   297.65   199.01   295.69 " style="stroke-width: 0.85 ;&st7; " /><path d=" M  199.01,  295.69  C  199.01   293.74   197.42   292.15   195.47   292.15 " style="stroke-width: 0.85 ;&st7; " /><path d=" M  195.47,  292.15  C  194.48   292.15   193.63   292.51   192.94   293.22 " style="stroke-width: 0.85 ;&st7; " /><path d=" M  192.94,  293.22  C  194.31   294.61   196.55   294.64   197.95   293.27 " style="stroke-width: 0.85 ;&st7; " /><path d=" M  197.95,  293.27  C  199.34   291.90   199.37   289.66   198.00   288.26 " style="stroke-width: 0.85 ;&st7; " /><path d=" M  198.00,  288.26  C  196.63   286.86   194.39   286.84   192.99   288.21 " style="stroke-width: 0.85 ;&st7; " /><path d=" M  192.99,  288.21  C  192.97   288.22   192.96   288.24   192.94   288.26 " style="stroke-width: 0.85 ;&st7; " /><path d=" M  192.94,  288.26  C  194.31   289.66   196.55   289.68   197.95   288.31 " style="stroke-width: 0.85 ;&st7; " /><path d=" M  197.95,  288.31  C  199.34   286.94   199.37   284.70   198.00   283.30 " style="stroke-width: 0.85 ;&st7; " /><path d=" M  198.00,  283.30  C  197.30   282.59   196.46   282.24   195.47   282.24 " style="stroke-width: 0.85 ;&st7; " /><path d=" M  171.39,  279.41  C  171.39   278.62   170.75   277.99   169.97   277.99 " style="stroke-width: 0.85 ;&st7; " /><path d=" M  169.97,  277.99  C  169.19   277.99   168.56   278.62   168.56   279.41 " style="stroke-width: 0.85 ;&st7; " /><path d=" M  168.56,  279.41  C  168.56   280.19   169.19   280.82   169.97   280.82 " style="stroke-width: 0.85 ;&st7; " /><path d=" M  169.97,  280.82  C  170.75   280.82   171.39   280.19   171.39   279.41 " style="stroke-width: 0.85 ;&st7; " /><path d=" M  171.39,  302.07  C  171.39   301.29   170.75   300.65   169.97   300.65 " style="stroke-width: 0.85 ;&st7; " /><path d=" M  169.97,  300.65  C  169.19   300.65   168.56   301.29   168.56   302.07 " style="stroke-width: 0.85 ;&st7; " /><path d=" M  168.56,  302.07  C  168.56   302.85   169.19   303.48   169.97   303.48 " style="stroke-width: 0.85 ;&st7; " /><path d=" M  169.97,  303.48  C  170.75   303.48   171.39   302.85   171.39   302.07 " style="stroke-width: 0.85 ;&st7; " /><path d=" M  197.59,  248.24  C  199.94   248.24   201.84   246.34   201.84   243.99 " style="stroke-width: 1.42 ;&st7; " /><path d=" M  189.09,  243.99  C  189.09   246.34   191.00   248.24   193.34   248.24 " style="stroke-width: 1.42 ;&st7; " /><path d=" M  201.84,  243.99  C  201.84   241.65   199.94   239.75   197.59   239.75 " style="stroke-width: 1.42 ;&st7; " /><path d=" M  193.34,  239.75  C  191.00   239.75   189.09   241.65   189.09   243.99 " style="stroke-width: 1.42 ;&st7; " /><text style="&st18;" transform="matrix(&st16;  485.22  643.98 )">B-W</text><text style="&st18;" transform="matrix(&st16;  490.59  558.99 )">B</text><text style="&st18;" transform="matrix(&st16;  485.57  542.0 )">L-W</text><text style="&st18;" transform="matrix(&st16;  490.59  176.56 )">B</text><text style="&st18;" transform="matrix(&st17;  143.59  624.71 )">A34</text><text ewd:textID="51" style="&st18;" transform="matrix(&st17;  150.69  624.71 )">Junction Connector</text><text style="&st18;" transform="matrix(&st16;  371.61  176.56 )">B</text><text style="&st18;" transform="matrix(&st17;  293.75  505.53 )">B</text><text style="&st18;" transform="matrix(&st17;  191.77  374.92 )">W-B</text><text style="&st18;" transform="matrix(&st17;  123.78  663.88 )">W-B</text><text style="&st18;" transform="matrix(&st17;  123.78  536.4 )">W-B</text><text style="&st18;" transform="matrix(&st16;  121.47  601.49 )">1</text><text style="&st18;" transform="matrix(&st16;  120.69  630.37 )">3</text><text style="&st18;" transform="matrix(&st17;  166.28  369.55 )">B</text><text style="&st18;" transform="matrix(&st16;  210.13  219.05 )">B</text><text ewd:textID="15" style="&st18;" transform="matrix(&st17;  158.06  306.28 )">A/F Relay</text><text style="&st18;" transform="matrix(&st16;  191.55  245.96 )">1A</text><text style="&st18;" transform="matrix(&st16;  182.78  245.96 )">2</text><text style="&st18;" transform="matrix(&st16;  187.28  56.17 )">15A <tspan dy="6" x="0">A/F</tspan></text><text style="&st18;" transform="matrix(&st16;  160.86  32.08 )">(BAT)</text><text style="&st18;" transform="matrix(&st16;  191.55  339.45 )">1A</text><text style="&st18;" transform="matrix(&st16;  182.78  339.45 )">3</text><text style="&st18;" transform="matrix(&st16;  166.05  339.45 )">1A</text><text style="&st18;" transform="matrix(&st16;  157.28  339.45 )">4</text><text style="&st18;" transform="matrix(&st16;  485.08  159.56 )">W-R</text><text style="&st18;" transform="matrix(&st16;  490.94  142.56 )">L</text><text style="&st18;" transform="matrix(&st16;  416.74  312.55 )">7.5A <tspan dy="6" x="0">EFI </tspan><tspan dy="6" x="0">NO.2</tspan></text><text style="&st18;" transform="matrix(&st17;  225.77  369.55 )">B</text><text style="&st18;" transform="matrix(&st17;  344.75  369.55 )">B</text><text style="&st18;" transform="matrix(&st17;  166.28  536.4 )">B-W</text><text style="&st18;" transform="matrix(&st17;  395.74  250.57 )">B</text><text style="&st18;" transform="matrix(&st17;  319.25  374.92 )">W-B</text><text style="&st18;" transform="matrix(&st17;  293.75  369.55 )">B</text><text style="&st18;" transform="matrix(&st17;  319.25  213.59 )">W-R</text><text style="&st18;" transform="matrix(&st17;  293.75  207.73 )">L</text><text ewd:textID="35" style="&st18;" transform="matrix(&st17;  285.54  306.24 )">EFI Relay</text><text style="&st18;" transform="matrix(&st16;  319.03  245.96 )">1B</text><text style="&st18;" transform="matrix(&st16;  310.26  245.96 )">2</text><text style="&st18;" transform="matrix(&st16;  293.53  245.96 )">1B</text><text style="&st18;" transform="matrix(&st16;  285.54  245.96 )">1</text><text style="&st18;" transform="matrix(&st16;  397.84  364.94 )">1</text><text style="&st18;" transform="matrix(&st16;  397.84  271.46 )">1</text><text style="&st18;" transform="matrix(&st16;  392.64  345.67 )">2</text><text style="&st18;" transform="matrix(&st16;  393.42  291.3 )">1</text><text style="&st18;" transform="matrix(&st16;  155.16  500.92 )">2</text><text style="&st18;" transform="matrix(&st17;  395.74  536.04 )">L-W</text><text style="&st18;" transform="matrix(&st17;  395.74  437.19 )">L</text><text style="&st18;" transform="matrix(&st16;  280.76  56.17 )">25A <tspan dy="6" x="0">EFI MAIN</tspan></text><text style="&st18;" transform="matrix(&st16;  254.34  32.08 )">(BAT)</text><text style="&st18;" transform="matrix(&st16;  319.03  339.45 )">1B</text><text style="&st18;" transform="matrix(&st16;  310.26  339.45 )">3</text><text style="&st18;" transform="matrix(&st16;  293.53  339.45 )">1B</text><text style="&st18;" transform="matrix(&st16;  284.76  339.45 )">4</text><text style="&st18;" transform="matrix(&st16;  381.44  500.92 )">14</text><text style="&st18;" transform="matrix(&st17;  72.79  663.88 )">W-B</text><text style="&st18;" transform="matrix(&st17;  84.12  665.92 )">(RHD)</text><text style="&st18;" transform="matrix(&st17;  135.12  665.43 )">(LHD)</text><text style="&st18;" transform="matrix(&st16;  163.18  86.47 )">2</text><text style="&st18;" transform="matrix(&st16;  256.67  86.47 )">2</text></svg>