﻿<?xml version="1.0" encoding="utf-8"?>
<!DOCTYPE svg PUBLIC "-//W3C//DTD SVG 1.0//EN" "http://www.w3.org/TR/2001/REC-SVG-20010904/DTD/svg10.dtd"[
	<!ENTITY ns_flows "http://ns.adobe.com/Flows/1.0/">
	<!ENTITY ns_svg "http://www.w3.org/2000/svg">
	<!ENTITY ns_xlink "http://www.w3.org/1999/xlink">
	<!ENTITY st0 "font-size:7px;font-family:'MS-PGothic';adobe-font-script:japanese;">
	<!ENTITY st1 "font-size:6px;font-family:'ArialMT';">
	<!-- White fill  -->
	<!ENTITY st2 "fill:#FFFFFF;stroke:#000000; stroke-width:1.41;stroke-linecap:round;stroke-linejoin:round;">
	<!-- Yellow fill  -->
	<!ENTITY st3 "fill:#FFFFCC;stroke:#FFFFCC; stroke-width:0.1;stroke-linecap:round;stroke-linejoin:round;">
	<!-- Gray fill  -->
	<!ENTITY st4 "fill:#CCCCCC;stroke:#CCCCCC; stroke-width:0.1;stroke-linecap:round;stroke-linejoin:round;">
	<!-- Light-blue fill -->
	<!ENTITY st5 "fill:#CCECF4;stroke:#000000; stroke-width:1.133;stroke-linecap:round;stroke-linejoin:round;">
	<!ENTITY st6 "fill:none;stroke-linecap:butt; stroke-linejoin:round;">
	<!ENTITY st7 "fill:none;stroke:#000000;stroke-linecap:round;stroke-linejoin:round;">
	<!ENTITY st8 "enable-background:new    ;">
	<!-- Black fill -->
	<!ENTITY st9 "fill:#000000;stroke:#000000; stroke-linecap:round;stroke-linejoin:round;">
	<!-- SRS note   -->
	<!ENTITY st10 "font-size:9px;font-family:'ArialMT';">
	<!ENTITY st11 "font-size:9px;font-family:'Svg Symbol';">
	<!ENTITY st12 "font-size:6px;font-family:'Svg Symbol';">
	<!ENTITY st13 "fill:none;stroke:#ff0000;stroke-linecap:round;stroke-linejoin:round;">
	<!-- Yellow fill  -->
	<!ENTITY st14 "fill:#FFFF00;stroke:#FFFF00; stroke-width:0.1;stroke-linecap:round;stroke-linejoin:round;">
	<!ENTITY st15 "font-size:6px;font-family:'MS-PGothic';adobe-font-script:japanese;">
	<!ENTITY st16 "1.00 0.00 0.00 1.00">
	<!ENTITY st17 "0.00 -1.00 1.00 0.00">
	<!ENTITY st18 "font-size:6px;font-family:'Arial';">
	<!ENTITY st19 "font-size:9px;font-family:'Arial';">
	<!ENTITY st20 "font-size:6px;font-family:'MS-PGothic','MS PGothic';adobe-font-script:japanese;">
	<!ENTITY st21 "font-size:7px;font-family:'MS-PGothic','MS PGothic';adobe-font-script:japanese;">
	<!ATTLIST svg
		xmlns:ewd CDATA #FIXED "http://shcl.co.jp/ewd"
		xmlns:a CDATA #FIXED "http://ns.adobe.com/AdobeSVGViewerExtensions/3.0/"
		ewd:ver CDATA #IMPLIED
	>
	<!ATTLIST a
		ewd:lineID CDATA #IMPLIED
		ewd:groupID CDATA #IMPLIED
		ewd:figtype CDATA #IMPLIED
		ewd:code CDATA #IMPLIED
		ewd:figID CDATA #IMPLIED
		ewd:pinNo CDATA #IMPLIED
		ewd:comment CDATA #IMPLIED >
	<!ATTLIST g
		ewd:lineID CDATA #IMPLIED
		ewd:groupID CDATA #IMPLIED
		ewd:figtype CDATA #IMPLIED
		ewd:code CDATA #IMPLIED
		ewd:figID CDATA #IMPLIED
		ewd:pinNo CDATA #IMPLIED
		ewd:comment CDATA #IMPLIED >
	<!ATTLIST text
		ewd:textID CDATA #IMPLIED >
	<!ATTLIST title
		ewd:textID CDATA #IMPLIED >
]>
<!-- Generator: Shintec Hozumi YS   -->
<svg onload="call_execInitLoadProc_svg('system')" style="overflow:visible;  enable-background:new 0 0 8737.248 710.000" viewBox="0 0 8737.248 710.000" height="710.000" width="8737.248" xml:space="preserve" ewd:ver="L2.1.2.8" xmlns="&ns_svg;" xmlns:a="http://ns.adobe.com/AdobeSVGViewerExtensions/3.0/" xmlns:ewd="http://shcl.co.jp/ewd" xmlns:xlink="&ns_xlink;">
<path d=" M 6367.56,  103.77  L 6363.31,  103.77 " style="stroke-width: 1.42 ;&st7; " /><path d=" M 6367.56,   95.27  L 6363.31,   95.27 " style="stroke-width: 1.42 ;&st7; " /><path d=" M 6365.44,   69.77  L 6365.44,   95.27 " style="stroke-width: 0.85 ;&st7; " /><path d=" M 6399.43,  392.72  L 6390.93,  392.72 " style="stroke-width: 1.42 ;&st7; " /><path d=" M 6299.57,  103.77  L 6295.32,  103.77 " style="stroke-width: 1.42 ;&st7; " /><path d=" M 6299.57,   95.27  L 6295.32,   95.27 " style="stroke-width: 1.42 ;&st7; " /><path d=" M 6297.45,   69.77  L 6297.45,   95.27 " style="stroke-width: 0.85 ;&st7; " /><path d=" M 6025.49,  528.70  L 6033.99,  528.70 " style="stroke-width: 1.42 ;&st7; " /><path d=" M 6161.47,  409.72  L 6152.97,  409.72 " style="stroke-width: 1.42 ;&st7; " /><path d=" M 6348.44,  579.69  L 6339.94,  579.69 " style="stroke-width: 1.42 ;&st7; " /><path d=" M 6008.50,  431.69  L 6003.52,  426.71 " style="stroke-width: 1.42 ;&st7; " /><path d=" M 6003.52,  443.71  L 6008.50,  438.74 " style="stroke-width: 1.42 ;&st7; " /><path d=" M 6365.43,   90.37  L 6362.60,   87.54  L 6362.60,   91.79  L 6365.43,   94.62  L 6368.27,   91.79  L 6368.27,   87.54  L 6365.43,   90.37 " style="stroke-width: 0.28 ;&st9;" /><path d=" M 6378.18,   78.27  L 6378.18,   35.78  L 6352.69,   35.78  L 6352.69,   78.27  L 6378.18,   78.27 " style="stroke-width: 1.42 ;&st7; " /><path d=" M 6280.45,  154.76  L 6416.43,  154.76  L 6416.43,  188.75  L 6280.45,  188.75  L 6280.45,  154.76 " style="stroke-width: 1.42 ;&st7; " /><path d=" M 6322.94,  443.71  L 6322.94,  477.71  L 6450.42,  477.71  L 6450.42,  443.71  L 6322.94,  443.71 " style="stroke-width: 1.42 ;&st7; " /><path d=" M 6399.43,  329.26  L 6509.94,  329.26 " style="stroke-width: 0.85 ;&st7;stroke-dasharray:3, 1.5;" /><path d=" M 6382.43,  401.22  L 6399.43,  401.22  L 6399.43,  392.72  L 6382.43,  392.72  L 6382.43,  401.22 " style="stroke-width: 1.42 ;&st7; " /><path d=" M 6395.18,  383.65  L 6390.93,  387.90  L 6386.68,  383.65 " style="stroke-width: 1.42 ;&st7; " /><path d=" M 6395.18,  387.05  L 6390.93,  391.30  L 6386.68,  387.05 " style="stroke-width: 1.42 ;&st7; " /><path d=" M 6373.93,  251.64  L 6467.42,  251.64 " style="stroke-width: 0.85 ;&st7;stroke-dasharray:3, 1.5;" /><path d=" M 6310.19,   78.27  L 6310.19,   35.78  L 6284.70,   35.78  L 6284.70,   78.27  L 6310.19,   78.27 " style="stroke-width: 1.42 ;&st7; " /><path d=" M 6297.45,   90.37  L 6294.61,   87.54  L 6294.61,   91.79  L 6297.45,   94.62  L 6300.28,   91.79  L 6300.28,   87.54  L 6297.45,   90.37 " style="stroke-width: 0.28 ;&st9;" /><path d=" M 6151.78,  459.71  L 6151.50,  460.18  L 6151.41,  460.71  L 6151.50,  461.24  L 6151.78,  461.71  L 6152.19,  462.06  L 6152.70,  462.24  L 6153.24,  462.24  L 6153.75,  462.06  L 6154.16,  461.71  L 6154.43,  461.24  L 6154.53,  460.71  L 6154.43,  460.18  L 6154.16,  459.71  L 6153.75,  459.36  L 6153.24,  459.17  L 6152.70,  459.17  L 6152.19,  459.36  L 6151.78,  459.71  L 6152.17,  460.42  L 6152.17,  461.00  L 6152.54,  461.44  L 6153.12,  461.54  L 6153.62,  461.26  L 6153.82,  460.71  L 6153.62,  460.16  L 6153.12,  459.87  L 6152.54,  459.97  L 6152.97,  460.71 " style="stroke-width: 0.85 ;&st7; " /><path d=" M 6101.98,  469.21  L 6161.47,  469.21 " style="stroke-width: 1.13 ;&st7;stroke-dasharray:3, 1.5;" /><path d=" M 6101.98,  452.21  L 6161.47,  452.21 " style="stroke-width: 1.13 ;&st7;stroke-dasharray:3, 1.5;" /><path d=" M 6152.97,  460.71  L 6110.48,  460.71  L 6110.48,  477.71 " style="stroke-width: 0.85 ;&st7; " /><path d=" M 6152.97,  443.71  L 6152.97,  477.71 " style="stroke-width: 0.85 ;&st7; " /><path d=" M 6101.98,  443.71  L 6101.98,  477.71  L 6161.47,  477.71  L 6161.47,  443.71  L 6101.98,  443.71 " style="stroke-width: 1.42 ;&st7; " /><path d=" M 6127.47,  545.69  L 6178.47,  545.69 " style="stroke-width: 0.85 ;&st7; " /><path d=" M 6127.47,  562.69  L 6178.47,  562.69 " style="stroke-width: 0.85 ;&st7; " /><path d=" M 6144.47,  579.69  L 6144.47,  528.70 " style="stroke-width: 0.85 ;&st7; " /><path d=" M 6161.47,  579.69  L 6161.47,  528.70 " style="stroke-width: 0.85 ;&st7; " /><path d=" M 6168.55,  554.19  L 6154.39,  554.19 " style="stroke-width: 0.85 ;&st7; " /><path d=" M 6168.55,  571.19  L 6154.39,  571.19 " style="stroke-width: 0.85 ;&st7; " /><path d=" M 6127.47,  528.70  L 6127.47,  579.69  L 6178.47,  579.69  L 6178.47,  528.70  L 6127.47,  528.70 " style="stroke-width: 1.42 ;&st7; " /><path d=" M 6029.74,  519.63  L 6033.99,  523.88  L 6038.24,  519.63 " style="stroke-width: 1.42 ;&st7; " /><path d=" M 6038.24,  523.03  L 6033.99,  527.28  L 6029.74,  523.03 " style="stroke-width: 1.42 ;&st7; " /><path d=" M 6157.22,  415.38  L 6152.97,  411.13  L 6148.72,  415.38 " style="stroke-width: 1.42 ;&st7; " /><path d=" M 6157.22,  418.78  L 6152.97,  414.53  L 6148.72,  418.78 " style="stroke-width: 1.42 ;&st7; " /><path d=" M 6344.19,  585.35  L 6339.94,  581.10  L 6335.69,  585.35 " style="stroke-width: 1.42 ;&st7; " /><path d=" M 6344.19,  588.75  L 6339.94,  584.50  L 6335.69,  588.75 " style="stroke-width: 1.42 ;&st7; " /><path d=" M 6008.49,  329.26  L 6038.27,  329.26 " style="stroke-width: 0.85 ;&st7;stroke-dasharray:3, 1.5;" /><path d=" M 6008.49,  338.33  L 6038.27,  338.33 " style="stroke-width: 0.85 ;&st7;stroke-dasharray:3, 1.5;" /><path d=" M 6373.93,  260.71  L 6467.42,  260.71 " style="stroke-width: 0.85 ;&st7;stroke-dasharray:3, 1.5;" /><path d=" M 6492.91,  260.71  L 6514.16,  260.71 " style="stroke-width: 0.85 ;&st7;stroke-dasharray:3, 1.5;" /><path d=" M 6492.91,  251.64  L 6514.16,  251.64 " style="stroke-width: 0.85 ;&st7;stroke-dasharray:3, 1.5;" /><path d=" M 6399.40,  338.33  L 6509.91,  338.33 " style="stroke-width: 0.85 ;&st7;stroke-dasharray:3, 1.5;" /><path d=" M 6305.94,  251.64  L 6348.44,  251.64 " style="stroke-width: 0.85 ;&st7;stroke-dasharray:3, 1.5;" /><path d=" M 6305.94,  260.71  L 6348.46,  260.71 " style="stroke-width: 0.85 ;&st7;stroke-dasharray:3, 1.5;" /><path d=" M 6301.98,  260.71  C 6301.98   258.21  6299.95   256.18  6297.45   256.18 " style="stroke-width: 1.42 ;&st7; " /><path d=" M 6297.45,  256.18  C 6294.94   256.18  6292.92   258.21  6292.92   260.71 " style="stroke-width: 1.42 ;&st7; " /><path d=" M 6292.92,  260.71  C 6292.92   263.21  6294.94   265.24  6297.45   265.24 " style="stroke-width: 1.42 ;&st7; " /><path d=" M 6297.45,  265.24  C 6299.95   265.24  6301.98   263.21  6301.98   260.71 " style="stroke-width: 1.42 ;&st7; " /><path d=" M 6004.53,  329.26  C 6004.53   326.76  6002.50   324.73  6000.00   324.73 " style="stroke-width: 1.42 ;&st7; " /><path d=" M 6000.00,  324.73  C 5997.49   324.73  5995.46   326.76  5995.46   329.26 " style="stroke-width: 1.42 ;&st7; " /><path d=" M 6000.00,  333.80  C 6002.50   333.80  6004.53   331.77  6004.53   329.26 " style="stroke-width: 1.42 ;&st7; " /><path d=" M 6395.46,  329.26  C 6395.46   326.76  6393.44   324.73  6390.93   324.73 " style="stroke-width: 1.42 ;&st7; " /><path d=" M 6390.93,  324.73  C 6388.43   324.73  6386.40   326.76  6386.40   329.26 " style="stroke-width: 1.42 ;&st7; " /><path d=" M 6386.40,  329.26  C 6386.40   331.77  6388.43   333.80  6390.93   333.80 " style="stroke-width: 1.42 ;&st7; " /><path d=" M 6390.93,  333.80  C 6393.44   333.80  6395.46   331.77  6395.46   329.26 " style="stroke-width: 1.42 ;&st7; " /><path d=" M 6064.02,  329.26  C 6064.02   326.76  6061.99   324.73  6059.49   324.73 " style="stroke-width: 1.42 ;&st7; " /><path d=" M 6059.49,  324.73  C 6056.98   324.73  6054.95   326.76  6054.95   329.26 " style="stroke-width: 1.42 ;&st7; " /><path d=" M 6054.95,  329.26  C 6054.95   331.77  6056.98   333.80  6059.49   333.80 " style="stroke-width: 1.42 ;&st7; " /><path d=" M 6059.49,  333.80  C 6061.99   333.80  6064.02   331.77  6064.02   329.26 " style="stroke-width: 1.42 ;&st7; " /><path d=" M 6371.81,   99.52  C 6371.81    97.17  6369.91    95.27  6367.56    95.27 " style="stroke-width: 1.42 ;&st7; " /><path d=" M 6367.56,  103.77  C 6369.91   103.77  6371.81   101.87  6371.81    99.52 " style="stroke-width: 1.42 ;&st7; " /><path d=" M 6359.06,   99.52  C 6359.06   101.87  6360.96   103.77  6363.31   103.77 " style="stroke-width: 1.42 ;&st7; " /><path d=" M 6363.31,   95.27  C 6360.96    95.27  6359.06    97.17  6359.06    99.52 " style="stroke-width: 1.42 ;&st7; " /><path d=" M 6366.85,   68.36  C 6366.85    67.57  6366.22    66.94  6365.44    66.94 " style="stroke-width: 0.85 ;&st7; " /><path d=" M 6365.44,   66.94  C 6364.65    66.94  6364.02    67.57  6364.02    68.36 " style="stroke-width: 0.85 ;&st7; " /><path d=" M 6364.02,   68.36  C 6364.02    69.14  6364.65    69.77  6365.44    69.77 " style="stroke-width: 0.85 ;&st7; " /><path d=" M 6365.44,   69.77  C 6366.22    69.77  6366.85    69.14  6366.85    68.36 " style="stroke-width: 0.85 ;&st7; " /><path d=" M 6366.85,   45.69  C 6366.85    44.91  6366.22    44.28  6365.44    44.28 " style="stroke-width: 0.85 ;&st7; " /><path d=" M 6365.44,   44.28  C 6364.65    44.28  6364.02    44.91  6364.02    45.69 " style="stroke-width: 0.85 ;&st7; " /><path d=" M 6364.02,   45.69  C 6364.02    46.48  6364.65    47.11  6365.44    47.11 " style="stroke-width: 0.85 ;&st7; " /><path d=" M 6365.44,   47.11  C 6366.22    47.11  6366.85    46.48  6366.85    45.69 " style="stroke-width: 0.85 ;&st7; " /><path d=" M 6365.44,   66.94  C 6368.17    65.33  6369.09    61.80  6367.47    59.06 " style="stroke-width: 1.42 ;&st7; " /><path d=" M 6367.47,   59.06  C 6366.95    58.18  6366.32    57.55  6365.44    57.03 " style="stroke-width: 1.42 ;&st7; " /><path d=" M 6365.44,   47.11  C 6362.70    48.72  6361.79    52.25  6363.40    54.99 " style="stroke-width: 1.42 ;&st7; " /><path d=" M 6363.40,   54.99  C 6363.92    55.87  6364.55    56.51  6365.44    57.03 " style="stroke-width: 1.42 ;&st7; " /><path d=" M 6369.97,  260.71  C 6369.97   258.21  6367.94   256.18  6365.44   256.18 " style="stroke-width: 1.42 ;&st7; " /><path d=" M 6365.44,  256.18  C 6362.93   256.18  6360.90   258.21  6360.90   260.71 " style="stroke-width: 1.42 ;&st7; " /><path d=" M 6360.90,  260.71  C 6360.90   263.21  6362.93   265.24  6365.44   265.24 " style="stroke-width: 1.42 ;&st7; " /><path d=" M 6365.44,  265.24  C 6367.94   265.24  6369.97   263.21  6369.97   260.71 " style="stroke-width: 1.42 ;&st7; " /><path d=" M 6488.95,  260.71  C 6488.95   258.21  6486.92   256.18  6484.42   256.18 " style="stroke-width: 1.42 ;&st7; " /><path d=" M 6484.42,  256.18  C 6481.91   256.18  6479.88   258.21  6479.88   260.71 " style="stroke-width: 1.42 ;&st7; " /><path d=" M 6479.88,  260.71  C 6479.88   263.21  6481.91   265.24  6484.42   265.24 " style="stroke-width: 1.42 ;&st7; " /><path d=" M 6484.42,  265.24  C 6486.92   265.24  6488.95   263.21  6488.95   260.71 " style="stroke-width: 1.42 ;&st7; " /><path d=" M 6488.95,  251.64  C 6488.95   249.14  6486.92   247.11  6484.42   247.11 " style="stroke-width: 1.42 ;&st7; " /><path d=" M 6484.42,  247.11  C 6481.91   247.11  6479.88   249.14  6479.88   251.64 " style="stroke-width: 1.42 ;&st7; " /><path d=" M 6479.88,  251.64  C 6479.88   254.15  6481.91   256.18  6484.42   256.18 " style="stroke-width: 1.42 ;&st7; " /><path d=" M 6484.42,  256.18  C 6486.92   256.18  6488.95   254.15  6488.95   251.64 " style="stroke-width: 1.42 ;&st7; " /><path d=" M 6303.82,   99.52  C 6303.82    97.17  6301.92    95.27  6299.57    95.27 " style="stroke-width: 1.42 ;&st7; " /><path d=" M 6299.57,  103.77  C 6301.92   103.77  6303.82   101.87  6303.82    99.52 " style="stroke-width: 1.42 ;&st7; " /><path d=" M 6291.07,   99.52  C 6291.07   101.87  6292.98   103.77  6295.32   103.77 " style="stroke-width: 1.42 ;&st7; " /><path d=" M 6295.32,   95.27  C 6292.98    95.27  6291.07    97.17  6291.07    99.52 " style="stroke-width: 1.42 ;&st7; " /><path d=" M 6298.86,   68.36  C 6298.86    67.57  6298.23    66.94  6297.45    66.94 " style="stroke-width: 0.85 ;&st7; " /><path d=" M 6297.45,   66.94  C 6296.67    66.94  6296.03    67.57  6296.03    68.36 " style="stroke-width: 0.85 ;&st7; " /><path d=" M 6296.03,   68.36  C 6296.03    69.14  6296.67    69.77  6297.45    69.77 " style="stroke-width: 0.85 ;&st7; " /><path d=" M 6297.45,   69.77  C 6298.23    69.77  6298.86    69.14  6298.86    68.36 " style="stroke-width: 0.85 ;&st7; " /><path d=" M 6298.86,   45.69  C 6298.86    44.91  6298.23    44.28  6297.45    44.28 " style="stroke-width: 0.85 ;&st7; " /><path d=" M 6297.45,   44.28  C 6296.67    44.28  6296.03    44.91  6296.03    45.69 " style="stroke-width: 0.85 ;&st7; " /><path d=" M 6296.03,   45.69  C 6296.03    46.48  6296.67    47.11  6297.45    47.11 " style="stroke-width: 0.85 ;&st7; " /><path d=" M 6297.45,   47.11  C 6298.23    47.11  6298.86    46.48  6298.86    45.69 " style="stroke-width: 0.85 ;&st7; " /><path d=" M 6297.45,   66.94  C 6300.19    65.33  6301.10    61.80  6299.48    59.06 " style="stroke-width: 1.42 ;&st7; " /><path d=" M 6299.48,   59.06  C 6298.97    58.18  6298.33    57.55  6297.45    57.03 " style="stroke-width: 1.42 ;&st7; " /><path d=" M 6297.45,   47.11  C 6294.71    48.72  6293.80    52.25  6295.41    54.99 " style="stroke-width: 1.42 ;&st7; " /><path d=" M 6295.41,   54.99  C 6295.93    55.87  6296.57    56.51  6297.45    57.03 " style="stroke-width: 1.42 ;&st7; " /><path d=" M 6157.50,  439.18  C 6157.50   436.68  6155.48   434.65  6152.97   434.65 " style="stroke-width: 1.42 ;&st7; " /><path d=" M 6152.97,  434.65  C 6150.47   434.65  6148.44   436.68  6148.44   439.18 " style="stroke-width: 1.42 ;&st7; " /><path d=" M 6148.44,  439.18  C 6148.44   441.68  6150.47   443.71  6152.97   443.71 " style="stroke-width: 1.42 ;&st7; " /><path d=" M 6152.97,  443.71  C 6155.48   443.71  6157.50   441.68  6157.50   439.18 " style="stroke-width: 1.42 ;&st7; " /><path d=" M 6157.50,  482.24  C 6157.50   479.73  6155.48   477.71  6152.97   477.71 " style="stroke-width: 1.42 ;&st7; " /><path d=" M 6152.97,  477.71  C 6150.47   477.71  6148.44   479.73  6148.44   482.24 " style="stroke-width: 1.42 ;&st7; " /><path d=" M 6148.44,  482.24  C 6148.44   484.74  6150.47   486.77  6152.97   486.77 " style="stroke-width: 1.42 ;&st7; " /><path d=" M 6152.97,  486.77  C 6155.48   486.77  6157.50   484.74  6157.50   482.24 " style="stroke-width: 1.42 ;&st7; " /><path d=" M 6115.01,  482.24  C 6115.01   479.73  6112.98   477.71  6110.48   477.71 " style="stroke-width: 1.42 ;&st7; " /><path d=" M 6110.48,  477.71  C 6107.98   477.71  6105.95   479.73  6105.95   482.24 " style="stroke-width: 1.42 ;&st7; " /><path d=" M 6105.95,  482.24  C 6105.95   484.74  6107.98   486.77  6110.48   486.77 " style="stroke-width: 1.42 ;&st7; " /><path d=" M 6110.48,  486.77  C 6112.98   486.77  6115.01   484.74  6115.01   482.24 " style="stroke-width: 1.42 ;&st7; " /><path d=" M 6154.39,  554.19  C 6154.39   553.41  6153.75   552.78  6152.97   552.78 " style="stroke-width: 0.85 ;&st7; " /><path d=" M 6152.97,  552.78  C 6152.19   552.78  6151.56   553.41  6151.56   554.19 " style="stroke-width: 0.85 ;&st7; " /><path d=" M 6151.56,  554.19  C 6151.56   554.97  6152.19   555.61  6152.97   555.61 " style="stroke-width: 0.85 ;&st7; " /><path d=" M 6152.97,  555.61  C 6153.75   555.61  6154.39   554.97  6154.39   554.19 " style="stroke-width: 0.85 ;&st7; " /><path d=" M 6171.39,  554.19  C 6171.39   553.41  6170.75   552.78  6169.97   552.78 " style="stroke-width: 0.85 ;&st7; " /><path d=" M 6169.97,  552.78  C 6169.19   552.78  6168.55   553.41  6168.55   554.19 " style="stroke-width: 0.85 ;&st7; " /><path d=" M 6168.55,  554.19  C 6168.55   554.97  6169.19   555.61  6169.97   555.61 " style="stroke-width: 0.85 ;&st7; " /><path d=" M 6169.97,  555.61  C 6170.75   555.61  6171.39   554.97  6171.39   554.19 " style="stroke-width: 0.85 ;&st7; " /><path d=" M 6154.39,  571.19  C 6154.39   570.41  6153.75   569.77  6152.97   569.77 " style="stroke-width: 0.85 ;&st7; " /><path d=" M 6152.97,  569.77  C 6152.19   569.77  6151.56   570.41  6151.56   571.19 " style="stroke-width: 0.85 ;&st7; " /><path d=" M 6151.56,  571.19  C 6151.56   571.97  6152.19   572.61  6152.97   572.61 " style="stroke-width: 0.85 ;&st7; " /><path d=" M 6152.97,  572.61  C 6153.75   572.61  6154.39   571.97  6154.39   571.19 " style="stroke-width: 0.85 ;&st7; " /><path d=" M 6171.39,  571.19  C 6171.39   570.41  6170.75   569.77  6169.97   569.77 " style="stroke-width: 0.85 ;&st7; " /><path d=" M 6169.97,  569.77  C 6169.19   569.77  6168.55   570.41  6168.55   571.19 " style="stroke-width: 0.85 ;&st7; " /><path d=" M 6168.55,  571.19  C 6168.55   571.97  6169.19   572.61  6169.97   572.61 " style="stroke-width: 0.85 ;&st7; " /><path d=" M 6169.97,  572.61  C 6170.75   572.61  6171.39   571.97  6171.39   571.19 " style="stroke-width: 0.85 ;&st7; " /><path d=" M 6395.46,  482.24  C 6395.46   479.73  6393.44   477.71  6390.93   477.71 " style="stroke-width: 1.42 ;&st7; " /><path d=" M 6390.93,  477.71  C 6388.43   477.71  6386.40   479.73  6386.40   482.24 " style="stroke-width: 1.42 ;&st7; " /><path d=" M 6386.40,  482.24  C 6386.40   484.74  6388.43   486.77  6390.93   486.77 " style="stroke-width: 1.42 ;&st7; " /><path d=" M 6390.93,  486.77  C 6393.44   486.77  6395.46   484.74  6395.46   482.24 " style="stroke-width: 1.42 ;&st7; " /><path d=" M 6344.47,  439.18  C 6344.47   436.68  6342.44   434.65  6339.94   434.65 " style="stroke-width: 1.42 ;&st7; " /><path d=" M 6339.94,  434.65  C 6337.44   434.65  6335.41   436.68  6335.41   439.18 " style="stroke-width: 1.42 ;&st7; " /><path d=" M 6335.41,  439.18  C 6335.41   441.68  6337.44   443.71  6339.94   443.71 " style="stroke-width: 1.42 ;&st7; " /><path d=" M 6339.94,  443.71  C 6342.44   443.71  6344.47   441.68  6344.47   439.18 " style="stroke-width: 1.42 ;&st7; " /><path d=" M 6344.47,  482.24  C 6344.47   479.73  6342.44   477.71  6339.94   477.71 " style="stroke-width: 1.42 ;&st7; " /><path d=" M 6339.94,  477.71  C 6337.44   477.71  6335.41   479.73  6335.41   482.24 " style="stroke-width: 1.42 ;&st7; " /><path d=" M 6335.41,  482.24  C 6335.41   484.74  6337.44   486.77  6339.94   486.77 " style="stroke-width: 1.42 ;&st7; " /><path d=" M 6339.94,  486.77  C 6342.44   486.77  6344.47   484.74  6344.47   482.24 " style="stroke-width: 1.42 ;&st7; " /><path d=" M 6395.46,  439.18  C 6395.46   436.68  6393.44   434.65  6390.93   434.65 " style="stroke-width: 1.42 ;&st7; " /><path d=" M 6390.93,  434.65  C 6388.43   434.65  6386.40   436.68  6386.40   439.18 " style="stroke-width: 1.42 ;&st7; " /><path d=" M 6386.40,  439.18  C 6386.40   441.68  6388.43   443.71  6390.93   443.71 " style="stroke-width: 1.42 ;&st7; " /><path d=" M 6390.93,  443.71  C 6393.44   443.71  6395.46   441.68  6395.46   439.18 " style="stroke-width: 1.42 ;&st7; " /><path d=" M 6437.96,  482.24  C 6437.96   479.73  6435.93   477.71  6433.43   477.71 " style="stroke-width: 1.42 ;&st7; " /><path d=" M 6433.43,  477.71  C 6430.92   477.71  6428.89   479.73  6428.89   482.24 " style="stroke-width: 1.42 ;&st7; " /><path d=" M 6428.89,  482.24  C 6428.89   484.74  6430.92   486.77  6433.43   486.77 " style="stroke-width: 1.42 ;&st7; " /><path d=" M 6433.43,  486.77  C 6435.93   486.77  6437.96   484.74  6437.96   482.24 " style="stroke-width: 1.42 ;&st7; " /><path d=" M 6301.98,  251.64  C 6301.98   249.14  6299.95   247.11  6297.45   247.11 " style="stroke-width: 1.42 ;&st7; " /><path d=" M 6297.45,  247.11  C 6294.94   247.11  6292.92   249.14  6292.92   251.64 " style="stroke-width: 1.42 ;&st7; " /><path d=" M 6292.92,  251.64  C 6292.92   254.15  6294.94   256.18  6297.45   256.18 " style="stroke-width: 1.42 ;&st7; " /><path d=" M 6297.45,  256.18  C 6299.95   256.18  6301.98   254.15  6301.98   251.64 " style="stroke-width: 1.42 ;&st7; " /><path d=" M 6004.53,  338.33  C 6004.53   335.83  6002.50   333.80  6000.00   333.80 " style="stroke-width: 1.42 ;&st7; " /><path d=" M 6000.00,  333.80  C 5997.49   333.80  5995.46   335.83  5995.46   338.33 " style="stroke-width: 1.42 ;&st7; " /><path d=" M 6000.00,  342.86  C 6002.50   342.86  6004.53   340.83  6004.53   338.33 " style="stroke-width: 1.42 ;&st7; " /><path d=" M 6395.46,  338.33  C 6395.46   335.83  6393.44   333.80  6390.93   333.80 " style="stroke-width: 1.42 ;&st7; " /><path d=" M 6390.93,  333.80  C 6388.43   333.80  6386.40   335.83  6386.40   338.33 " style="stroke-width: 1.42 ;&st7; " /><path d=" M 6386.40,  338.33  C 6386.40   340.83  6388.43   342.86  6390.93   342.86 " style="stroke-width: 1.42 ;&st7; " /><path d=" M 6390.93,  342.86  C 6393.44   342.86  6395.46   340.83  6395.46   338.33 " style="stroke-width: 1.42 ;&st7; " /><path d=" M 6064.02,  338.33  C 6064.02   335.83  6061.99   333.80  6059.49   333.80 " style="stroke-width: 1.42 ;&st7; " /><path d=" M 6059.49,  333.80  C 6056.98   333.80  6054.95   335.83  6054.95   338.33 " style="stroke-width: 1.42 ;&st7; " /><path d=" M 6054.95,  338.33  C 6054.95   340.83  6056.98   342.86  6059.49   342.86 " style="stroke-width: 1.42 ;&st7; " /><path d=" M 6059.49,  342.86  C 6061.99   342.86  6064.02   340.83  6064.02   338.33 " style="stroke-width: 1.42 ;&st7; " /><path d=" M 6369.97,  251.64  C 6369.97   249.14  6367.94   247.11  6365.44   247.11 " style="stroke-width: 1.42 ;&st7; " /><path d=" M 6365.44,  247.11  C 6362.93   247.11  6360.90   249.14  6360.90   251.64 " style="stroke-width: 1.42 ;&st7; " /><path d=" M 6360.90,  251.64  C 6360.90   254.15  6362.93   256.18  6365.44   256.18 " style="stroke-width: 1.42 ;&st7; " /><path d=" M 6365.44,  256.18  C 6367.94   256.18  6369.97   254.15  6369.97   251.64 " style="stroke-width: 1.42 ;&st7; " /><text style="&st18;" transform="matrix(&st16;  6382.74  53.34 )">10A <tspan dy="6" x="0">IG2 </tspan><tspan dy="6" x="0">NO.1</tspan></text><text style="&st18;" transform="matrix(&st16;  6360.99  101.49 )">2H</text><text style="&st18;" transform="matrix(&st16;  6363.11  162.39 )">B</text><text style="&st18;" transform="matrix(&st16;  6363.46  185.06 )">L</text><text style="&st18;" transform="matrix(&st17;  6361.74  216.58 )">P</text><text style="&st18;" transform="matrix(&st16;  6358.65  151.07 )">5</text><text style="&st18;" transform="matrix(&st16;  6358.65  196.95 )">4</text><text style="&st18;" transform="matrix(&st16;  6290.66  196.95 )">2</text><text style="&st18;" transform="matrix(&st16;  6291.44  151.07 )">1</text><text style="&st18;" transform="matrix(&st16;  6357.38  272.88 )">ST1-</text><text style="&st18;" transform="matrix(&st16;  6350.63  262.68 )">35</text><text style="&st18;" transform="matrix(&st16;  6362.96  262.68 )">D</text><text style="&st18;" transform="matrix(&st17;  6424.04  191.28 )">A73</text><text style="&st18;" transform="matrix(&st16;  6359.36  32.08 )">(IG)</text><text style="&st18;" transform="matrix(&st16;  6294.92  292.68 )">A38(A),A52(D),C45(B),C46(C)</text><text style="&st18;" transform="matrix(&st16;  6294.92  299.79 )">ECM</text><text style="&st18;" transform="matrix(&st16;  6290.67  272.88 )">STP</text><text style="&st18;" transform="matrix(&st17;  6293.75  233.72 )">R</text><text style="&st18;" transform="matrix(&st16;  6294.98  262.68 )">D</text><text style="&st18;" transform="matrix(&st16;  6282.64  262.68 )">36</text><text style="&st18;" transform="matrix(&st16;  6383.37  321.03 )">NEO</text><text style="&st18;" transform="matrix(&st17;  6387.24  360.7 )">L</text><text style="&st18;" transform="matrix(&st16;  6388.6  331.23 )">A</text><text style="&st18;" transform="matrix(&st16;  6380.08  331.23 )">7</text><text style="&st18;" transform="matrix(&st16;  6051.33  321.03 )">NSW</text><text style="&st18;" transform="matrix(&st17;  6055.79  360.7 )">L</text><text style="&st18;" transform="matrix(&st16;  6057.16  331.23 )">B</text><text style="&st18;" transform="matrix(&st16;  6041.5  331.23 )">120</text><text style="&st18;" transform="matrix(&st17;  6361.74  131.59 )">B</text><text style="&st18;" transform="matrix(&st16;  6348.79  101.49 )">22</text><text style="&st18;" transform="matrix(&st17;  6387.24  420.19 )">L</text><text style="&st18;" transform="matrix(&st16;  6295.12  253.61 )">A</text><text style="&st18;" transform="matrix(&st16;  6282.62  253.61 )">36</text><text style="&st18;" transform="matrix(&st16;  6372.16  398.94 )">48</text><text style="&st18;" transform="matrix(&st16;  6295.12  162.39 )">B</text><text style="&st18;" transform="matrix(&st16;  6295.47  185.06 )">L</text><text style="&st18;" transform="matrix(&st16;  6481.94  272.88 )">R</text><text style="&st18;" transform="matrix(&st16;  6469.58  262.68 )">26</text><text style="&st18;" transform="matrix(&st16;  6481.94  262.68 )">C</text><text style="&st18;" transform="matrix(&st16;  6469.58  253.61 )">26</text><text style="&st18;" transform="matrix(&st16;  6482.09  253.61 )">B</text><text style="&st18;" transform="matrix(&st17;  6480.72  216.23 )">L</text><text style="&st18;" transform="matrix(&st16;  6391.73  185.06 )">GND</text><text style="&st18;" transform="matrix(&st16;  6392.64  196.95 )">3</text><text style="&st18;" transform="matrix(&st16;  6388.46  340.3 )">D</text><text style="&st18;" transform="matrix(&st16;  6380.06  340.3 )">7</text><text style="&st18;" transform="matrix(&st16;  6057.01  340.3 )">C</text><text style="&st18;" transform="matrix(&st16;  6041.48  340.3 )">120</text><text style="&st18;" transform="matrix(&st16;  6363.11  253.61 )">A</text><text style="&st18;" transform="matrix(&st16;  6350.6  253.61 )">35</text><text ewd:textID="74" style="&st18;" transform="matrix(&st17;  6431.15  191.28 )">Stop Light <tspan dy="6" x="0">Switch Assembly</tspan></text><text style="&st18;" transform="matrix(&st16;  6430.95  484.21 )">C</text><text style="&st18;" transform="matrix(&st16;  6422.55  484.21 )">8</text><text style="&st18;" transform="matrix(&st16;  6424.17  474.01 )">CANL</text><text style="&st18;" transform="matrix(&st17;  6446.73  549.81 )">W(LHD)</text><text style="&st18;" transform="matrix(&st17;  6429.73  550.3 )">W(RHD)</text><text style="&st18;" transform="matrix(&st17;  6404.24  548.78 )">B(LHD)</text><text style="&st18;" transform="matrix(&st17;  6387.24  549.28 )">B(RHD)</text><text style="&st18;" transform="matrix(&st16;  6193.13  635.48 )">B</text><text style="&st18;" transform="matrix(&st16;  6244.13  635.48 )">B</text><text style="&st18;" transform="matrix(&st16;  6192.99  618.48 )">R</text><text style="&st18;" transform="matrix(&st16;  6243.98  618.48 )">R</text><text style="&st18;" transform="matrix(&st16;  6193.49  372.03 )">L</text><text style="&st18;" transform="matrix(&st16;  6244.48  372.03 )">L</text><text style="&st18;" transform="matrix(&st17;  6395.74  221.95 )">W-B</text><text style="&st18;" transform="matrix(&st16;  6065.46  340.3 )">(RHD)</text><text style="&st18;" transform="matrix(&st16;  6065.46  331.23 )">(LHD)</text><text style="&st18;" transform="matrix(&st16;  6314.75  56.17 )">10A <tspan dy="6" x="0">STOP</tspan></text><text style="&st18;" transform="matrix(&st16;  6295.86  101.49 )">1</text><text style="&st18;" transform="matrix(&st16;  6288.33  32.08 )">(BAT)</text><text style="&st18;" transform="matrix(&st17;  6293.75  131.24 )">L</text><text style="&st18;" transform="matrix(&st16;  6290.66  86.47 )">2</text><text style="&st18;" transform="matrix(&st17;  6030.3  565.16 )">R</text><text style="&st18;" transform="matrix(&st16;  6388.46  484.21 )">C</text><text style="&st18;" transform="matrix(&st16;  6380.06  484.21 )">7</text><text style="&st18;" transform="matrix(&st16;  6325.89  441.15 )">10</text><text style="&st18;" transform="matrix(&st16;  6337.61  441.15 )">A</text><text style="&st18;" transform="matrix(&st17;  6336.24  415.94 )">L</text><text style="&st18;" transform="matrix(&st16;  6330.69  451.35 )">STAR</text><text style="&st18;" transform="matrix(&st16;  6325.89  484.21 )">12</text><text style="&st18;" transform="matrix(&st16;  6337.61  484.21 )">A</text><text style="&st18;" transform="matrix(&st17;  6336.24  543.92 )">R</text><text style="&st18;" transform="matrix(&st16;  6333.16  474.01 )">STA</text><text style="&st18;" transform="matrix(&st16;  6321.95  568.91 )">17</text><text style="&st18;" transform="matrix(&st17;  6336.24  599.16 )">R</text><text style="&st18;" transform="matrix(&st16;  6381.18  474.01 )">CANH</text><text style="&st18;" transform="matrix(&st16;  6016.0  534.92 )">31</text><text style="&st18;" transform="matrix(&st17;  6030.3  505.67 )">R</text><text style="&st18;" transform="matrix(&st17;  6106.78  505.18 )">L</text><text style="&st18;" transform="matrix(&st16;  6167.44  539.16 )">L</text><text style="&st18;" transform="matrix(&st16;  6150.45  539.16 )">B</text><text style="&st18;" transform="matrix(&st16;  6133.5  573.16 )">N</text><text style="&st18;" transform="matrix(&st16;  6133.45  556.16 )">P</text><text ewd:textID="65" style="&st18;" transform="matrix(&st17;  6193.19  579.38 )">Park/Neutral <tspan dy="6" x="0">Position Switch</tspan></text><text style="&st18;" transform="matrix(&st17;  6186.08  579.38 )">C24</text><text ewd:textID="54" style="&st18;" transform="matrix(&st17;  6092.34  480.23 )">Junction <tspan dy="6" x="0">Connector</tspan></text><text style="&st18;" transform="matrix(&st17;  6085.23  480.23 )">A37(A),C44(B)</text><text style="&st18;" transform="matrix(&st17;  6149.28  505.18 )">L</text><text style="&st18;" transform="matrix(&st16;  6108.15  484.21 )">B</text><text style="&st18;" transform="matrix(&st16;  6096.42  484.21 )">19</text><text style="&st18;" transform="matrix(&st16;  6150.64  484.21 )">B</text><text style="&st18;" transform="matrix(&st16;  6138.14  484.21 )">22</text><text style="&st18;" transform="matrix(&st16;  6150.64  441.15 )">A</text><text style="&st18;" transform="matrix(&st16;  6138.92  441.15 )">15</text><text style="&st18;" transform="matrix(&st16;  6162.88  407.44 )">(RHD)</text><text style="&st18;" transform="matrix(&st16;  6162.88  398.94 )">(LHD)</text><text style="&st18;" transform="matrix(&st16;  6134.98  398.94 )">18</text><text style="&st18;" transform="matrix(&st16;  6134.98  407.44 )">18</text><text style="&st18;" transform="matrix(&st17;  6149.28  428.69 )">L</text><text style="&st18;" transform="matrix(&st16;  6349.85  577.41 )">(RHD)</text><text style="&st18;" transform="matrix(&st16;  6349.85  568.91 )">(LHD)</text><text style="&st18;" transform="matrix(&st16;  6321.95  577.41 )">17</text><text style="&st18;" transform="matrix(&st16;  6376.88  441.15 )">14</text><text style="&st18;" transform="matrix(&st16;  6388.6  441.15 )">A</text><text style="&st18;" transform="matrix(&st16;  6386.13  451.35 )">NE</text><text ewd:textID="29" style="&st18;" transform="matrix(&st17;  6465.14  480.23 )">Certification ECU <tspan dy="6" x="0">Assembly</tspan></text><text style="&st18;" transform="matrix(&st17;  6458.32  480.23 )">E128(A),E130(C)</text><text style="&st18;" transform="matrix(&st16;  6146.18  525.01 )">4</text><text style="&st18;" transform="matrix(&st16;  6163.18  587.88 )">5</text></svg>