﻿<?xml version="1.0" encoding="utf-8"?>
<!DOCTYPE svg PUBLIC "-//W3C//DTD SVG 1.0//EN" "http://www.w3.org/TR/2001/REC-SVG-20010904/DTD/svg10.dtd"[
	<!ENTITY ns_flows "http://ns.adobe.com/Flows/1.0/">
	<!ENTITY ns_svg "http://www.w3.org/2000/svg">
	<!ENTITY ns_xlink "http://www.w3.org/1999/xlink">
	<!ENTITY st0 "font-size:7px;font-family:'MS-PGothic';adobe-font-script:japanese;">
	<!ENTITY st1 "font-size:6px;font-family:'ArialMT';">
	<!-- White fill  -->
	<!ENTITY st2 "fill:#FFFFFF;stroke:#000000; stroke-width:1.41;stroke-linecap:round;stroke-linejoin:round;">
	<!-- Yellow fill  -->
	<!ENTITY st3 "fill:#FFFFCC;stroke:#FFFFCC; stroke-width:0.1;stroke-linecap:round;stroke-linejoin:round;">
	<!-- Gray fill  -->
	<!ENTITY st4 "fill:#CCCCCC;stroke:#CCCCCC; stroke-width:0.1;stroke-linecap:round;stroke-linejoin:round;">
	<!-- Light-blue fill -->
	<!ENTITY st5 "fill:#CCECF4;stroke:#000000; stroke-width:1.133;stroke-linecap:round;stroke-linejoin:round;">
	<!ENTITY st6 "fill:none;stroke-linecap:butt; stroke-linejoin:round;">
	<!ENTITY st7 "fill:none;stroke:#000000;stroke-linecap:round;stroke-linejoin:round;">
	<!ENTITY st8 "enable-background:new    ;">
	<!-- Black fill -->
	<!ENTITY st9 "fill:#000000;stroke:#000000; stroke-linecap:round;stroke-linejoin:round;">
	<!-- SRS note   -->
	<!ENTITY st10 "font-size:9px;font-family:'ArialMT';">
	<!ENTITY st11 "font-size:9px;font-family:'Svg Symbol';">
	<!ENTITY st12 "font-size:6px;font-family:'Svg Symbol';">
	<!ENTITY st13 "fill:none;stroke:#ff0000;stroke-linecap:round;stroke-linejoin:round;">
	<!-- Yellow fill  -->
	<!ENTITY st14 "fill:#FFFF00;stroke:#FFFF00; stroke-width:0.1;stroke-linecap:round;stroke-linejoin:round;">
	<!ENTITY st15 "font-size:6px;font-family:'MS-PGothic';adobe-font-script:japanese;">
	<!ENTITY st16 "1.00 0.00 0.00 1.00">
	<!ENTITY st17 "0.00 -1.00 1.00 0.00">
	<!ENTITY st18 "font-size:6px;font-family:'Arial';">
	<!ENTITY st19 "font-size:9px;font-family:'Arial';">
	<!ENTITY st20 "font-size:6px;font-family:'MS-PGothic','MS PGothic';adobe-font-script:japanese;">
	<!ENTITY st21 "font-size:7px;font-family:'MS-PGothic','MS PGothic';adobe-font-script:japanese;">
	<!ATTLIST svg
		xmlns:ewd CDATA #FIXED "http://shcl.co.jp/ewd"
		xmlns:a CDATA #FIXED "http://ns.adobe.com/AdobeSVGViewerExtensions/3.0/"
		ewd:ver CDATA #IMPLIED
	>
	<!ATTLIST a
		ewd:lineID CDATA #IMPLIED
		ewd:groupID CDATA #IMPLIED
		ewd:figtype CDATA #IMPLIED
		ewd:code CDATA #IMPLIED
		ewd:figID CDATA #IMPLIED
		ewd:pinNo CDATA #IMPLIED
		ewd:comment CDATA #IMPLIED >
	<!ATTLIST g
		ewd:lineID CDATA #IMPLIED
		ewd:groupID CDATA #IMPLIED
		ewd:figtype CDATA #IMPLIED
		ewd:code CDATA #IMPLIED
		ewd:figID CDATA #IMPLIED
		ewd:pinNo CDATA #IMPLIED
		ewd:comment CDATA #IMPLIED >
	<!ATTLIST text
		ewd:textID CDATA #IMPLIED >
	<!ATTLIST title
		ewd:textID CDATA #IMPLIED >
]>
<!-- Generator: Shintec Hozumi YS   -->
<svg onload="call_execInitLoadProc_svg('system')" style="overflow:visible;  enable-background:new 0 0 967.422 710.000" viewBox="0 0 967.422 710.000" height="710.000" width="967.422" xml:space="preserve" ewd:ver="L2.1.2.8" xmlns="&ns_svg;" xmlns:a="http://ns.adobe.com/AdobeSVGViewerExtensions/3.0/" xmlns:ewd="http://shcl.co.jp/ewd" xmlns:xlink="&ns_xlink;">
<path d=" M  382.44,  214.25  L  390.93,  214.25 " style="stroke-width: 1.42 ;&st7; " /><path d=" M  331.44,  214.25  L  339.94,  214.25 " style="stroke-width: 1.42 ;&st7; " /><path d=" M  257.08,  180.26  L  252.83,  180.26 " style="stroke-width: 1.42 ;&st7; " /><path d=" M  257.08,  171.76  L  252.83,  171.76 " style="stroke-width: 1.42 ;&st7; " /><path d=" M  257.08,  137.76  L  252.83,  137.76 " style="stroke-width: 1.42 ;&st7; " /><path d=" M  257.08,  129.26  L  252.83,  129.26 " style="stroke-width: 1.42 ;&st7; " /><path d=" M  257.08,  103.77  L  252.83,  103.77 " style="stroke-width: 1.42 ;&st7; " /><path d=" M  257.08,   95.27  L  252.83,   95.27 " style="stroke-width: 1.42 ;&st7; " /><path d=" M  254.96,   69.77  L  254.96,   95.27 " style="stroke-width: 0.85 ;&st7; " /><path d=" M   59.49,  171.76  L   67.99,  171.76 " style="stroke-width: 1.42 ;&st7; " /><path d=" M   70.11,  103.77  L   65.86,  103.77 " style="stroke-width: 1.42 ;&st7; " /><path d=" M   70.11,   95.27  L   65.86,   95.27 " style="stroke-width: 1.42 ;&st7; " /><path d=" M   67.99,   69.77  L   67.99,   95.27 " style="stroke-width: 0.85 ;&st7; " /><path d=" M  433.43,  579.69  L  441.93,  579.69 " style="stroke-width: 1.42 ;&st7; " /><path d=" M  433.43,  469.21  L  441.93,  469.21 " style="stroke-width: 1.42 ;&st7; " /><path d=" M  203.97,  460.71  L  212.46,  460.71 " style="stroke-width: 0.85 ;&st7; " /><path d=" M  229.46,  460.71  L  237.96,  460.71 " style="stroke-width: 0.85 ;&st7; " /><path d=" M  441.93,  401.22  L  441.93,  418.22 " style="stroke-width: 0.85 ;&st7; " /><path d=" M  433.43,  401.22  L  450.42,  401.22  L  450.42,  418.22  L  433.43,  418.22  L  433.43,  401.22 " style="stroke-width: 1.42 ;&st7; " /><path d=" M   67.99,   90.37  L   65.16,   87.54  L   65.16,   91.79  L   67.99,   94.62  L   70.82,   91.79  L   70.82,   87.54  L   67.99,   90.37 " style="stroke-width: 0.28 ;&st9;" /><path d=" M   55.24,   35.78  L   55.24,   78.27  L   80.74,   78.27  L   80.74,   35.78  L   55.24,   35.78 " style="stroke-width: 1.42 ;&st7; " /><path d=" M   63.74,  162.69  L   67.99,  166.94  L   72.24,  162.69 " style="stroke-width: 1.42 ;&st7; " /><path d=" M   72.24,  166.09  L   67.99,  170.34  L   63.74,  166.09 " style="stroke-width: 1.42 ;&st7; " /><path d=" M   59.49,  231.25  L  118.98,  231.25  L  118.98,  248.24  L   59.49,  248.24  L   59.49,  231.25 " style="stroke-width: 1.42 ;&st7; " /><path d=" M   67.99,  231.25  L   67.99,  239.75  L  110.48,  239.75  L  110.48,  231.25 " style="stroke-width: 0.85 ;&st7; " /><path d=" M  186.97,  205.75  L  203.97,  205.75  L  203.97,  222.75  L  186.97,  222.75  L  186.97,  205.75 " style="stroke-width: 1.42 ;&st7; " /><path d=" M  195.47,  205.75  L  195.47,  222.75 " style="stroke-width: 0.85 ;&st7; " /><path d=" M  254.96,   90.37  L  252.12,   87.54  L  252.12,   91.79  L  254.96,   94.62  L  257.79,   91.79  L  257.79,   87.54  L  254.96,   90.37 " style="stroke-width: 0.28 ;&st9;" /><path d=" M  242.21,   35.78  L  242.21,   78.27  L  267.71,   78.27  L  267.71,   35.78  L  242.21,   35.78 " style="stroke-width: 1.42 ;&st7; " /><path d=" M  254.96,  142.66  L  257.79,  145.49  L  257.79,  141.24  L  254.96,  138.41  L  252.12,  141.24  L  252.12,  145.49  L  254.96,  142.66 " style="stroke-width: 0.28 ;&st9;" /><path d=" M  254.96,  166.86  L  252.12,  164.03  L  252.12,  168.28  L  254.96,  171.11  L  257.79,  168.28  L  257.79,  164.03  L  254.96,  166.86 " style="stroke-width: 0.28 ;&st9;" /><path d=" M  254.96,  171.76  L  254.96,  137.76 " style="stroke-width: 0.85 ;&st7; " /><path d=" M  246.46,  214.25  L  263.46,  214.25  L  263.46,  231.25  L  246.46,  231.25  L  246.46,  214.25 " style="stroke-width: 1.42 ;&st7; " /><path d=" M  254.96,  214.25  L  254.96,  231.25 " style="stroke-width: 0.85 ;&st7; " /><path d=" M  152.97,  273.74  L  152.97,  316.23  L  849.86,  316.23  L  849.86,  273.74  L  152.97,  273.74 " style="stroke-width: 1.42 ;&st7; " /><path d=" M  344.19,  208.58  L  339.94,  212.83  L  335.69,  208.58 " style="stroke-width: 1.42 ;&st7; " /><path d=" M  335.69,  205.18  L  339.94,  209.43  L  344.19,  205.18 " style="stroke-width: 1.42 ;&st7; " /><path d=" M  395.18,  208.58  L  390.93,  212.83  L  386.69,  208.58 " style="stroke-width: 1.42 ;&st7; " /><path d=" M  386.69,  205.18  L  390.93,  209.43  L  395.18,  205.18 " style="stroke-width: 1.42 ;&st7; " /><path d=" M  322.95,  639.18  L  322.95,  673.17  L  356.94,  673.17  L  356.94,  639.18  L  322.95,  639.18 " style="stroke-width: 1.42 ;&st7; " /><path d=" M  348.41,  116.80  L  373.94,  116.80 " style="stroke-width: 0.85 ;&st7;stroke-dasharray:3, 1.5;" /><path d=" M  348.41,  125.86  L  373.94,  125.86 " style="stroke-width: 0.85 ;&st7;stroke-dasharray:3, 1.5;" /><path d=" M  322.95,   78.27  L  322.95,  112.27  L  407.93,  112.27  L  407.93,   78.27  L  322.95,   78.27 " style="stroke-width: 1.42 ;&st7; " /><path d=" M  339.94,  401.22  L  339.94,  418.22 " style="stroke-width: 0.85 ;&st7; " /><path d=" M  331.44,  401.22  L  331.44,  418.22  L  348.44,  418.22  L  348.44,  401.22  L  331.44,  401.22 " style="stroke-width: 1.42 ;&st7; " /><path d=" M  352.38,  218.50  L  370.00,  218.50 " style="stroke-width: 0.85 ;&st7;stroke-dasharray:3, 1.5;" /><path d=" M  352.38,  227.00  L  370.00,  227.00 " style="stroke-width: 0.85 ;&st7;stroke-dasharray:3, 1.5;" /><path d=" M  416.43,  639.18  L  416.43,  673.17  L  467.42,  673.17  L  467.42,  639.18  L  416.43,  639.18 " style="stroke-width: 1.42 ;&st7; " /><path d=" M  437.68,  570.62  L  441.93,  574.87  L  446.18,  570.62 " style="stroke-width: 1.42 ;&st7; " /><path d=" M  446.18,  574.02  L  441.93,  578.27  L  437.68,  574.02 " style="stroke-width: 1.42 ;&st7; " /><path d=" M  437.68,  460.14  L  441.93,  464.39  L  446.18,  460.14 " style="stroke-width: 1.42 ;&st7; " /><path d=" M  446.18,  463.54  L  441.93,  467.79  L  437.68,  463.54 " style="stroke-width: 1.42 ;&st7; " /><path d=" M  152.97,  401.22  L  152.97,  486.20  L  288.95,  486.20  L  288.95,  401.22  L  152.97,  401.22 " style="stroke-width: 1.42 ;&st7; " /><path d=" M  203.97,  469.21  L  237.96,  469.21  L  237.96,  452.21  L  203.97,  452.21  L  203.97,  469.21 " style="stroke-width: 1.42 ;&st7; " /><path d=" M  152.97,  435.21  L  288.95,  435.21 " style="stroke-width: 1.42 ;&st7; " /><path d=" M  271.95,  435.21  L  271.95,  460.71  L  237.96,  460.71 " style="stroke-width: 0.85 ;&st7; " /><path d=" M  203.97,  460.71  L  169.97,  460.71  L  169.97,  435.21 " style="stroke-width: 0.85 ;&st7; " /><path d=" M  248.58,   99.52  C  248.58   101.87   250.49   103.77   252.83   103.77 " style="stroke-width: 1.42 ;&st7; " /><path d=" M  261.33,  176.01  C  261.33   173.66   259.43   171.76   257.08   171.76 " style="stroke-width: 1.42 ;&st7; " /><path d=" M  257.08,  180.26  C  259.43   180.26   261.33   178.35   261.33   176.01 " style="stroke-width: 1.42 ;&st7; " /><path d=" M  248.58,  176.01  C  248.58   178.35   250.49   180.26   252.83   180.26 " style="stroke-width: 1.42 ;&st7; " /><path d=" M  252.83,  171.76  C  250.49   171.76   248.58   173.66   248.58   176.01 " style="stroke-width: 1.42 ;&st7; " /><path d=" M  261.33,  133.51  C  261.33   131.17   259.43   129.26   257.08   129.26 " style="stroke-width: 1.42 ;&st7; " /><path d=" M  257.08,  137.76  C  259.43   137.76   261.33   135.86   261.33   133.51 " style="stroke-width: 1.42 ;&st7; " /><path d=" M  248.58,  133.51  C  248.58   135.86   250.49   137.76   252.83   137.76 " style="stroke-width: 1.42 ;&st7; " /><path d=" M  252.83,  129.26  C  250.49   129.26   248.58   131.17   248.58   133.51 " style="stroke-width: 1.42 ;&st7; " /><path d=" M  261.33,   99.52  C  261.33    97.17   259.43    95.27   257.08    95.27 " style="stroke-width: 1.42 ;&st7; " /><path d=" M  257.08,  103.77  C  259.43   103.77   261.33   101.87   261.33    99.52 " style="stroke-width: 1.42 ;&st7; " /><path d=" M  252.83,   95.27  C  250.49    95.27   248.58    97.17   248.58    99.52 " style="stroke-width: 1.42 ;&st7; " /><path d=" M  256.37,   68.36  C  256.37    67.57   255.74    66.94   254.96    66.94 " style="stroke-width: 0.85 ;&st7; " /><path d=" M  254.96,   66.94  C  254.18    66.94   253.54    67.57   253.54    68.36 " style="stroke-width: 0.85 ;&st7; " /><path d=" M  253.54,   68.36  C  253.54    69.14   254.18    69.77   254.96    69.77 " style="stroke-width: 0.85 ;&st7; " /><path d=" M  254.96,   69.77  C  255.74    69.77   256.37    69.14   256.37    68.36 " style="stroke-width: 0.85 ;&st7; " /><path d=" M  256.37,   45.69  C  256.37    44.91   255.74    44.28   254.96    44.28 " style="stroke-width: 0.85 ;&st7; " /><path d=" M  254.96,   44.28  C  254.18    44.28   253.54    44.91   253.54    45.69 " style="stroke-width: 0.85 ;&st7; " /><path d=" M  253.54,   45.69  C  253.54    46.48   254.18    47.11   254.96    47.11 " style="stroke-width: 0.85 ;&st7; " /><path d=" M  254.96,   47.11  C  255.74    47.11   256.37    46.48   256.37    45.69 " style="stroke-width: 0.85 ;&st7; " /><path d=" M  254.96,   66.94  C  257.70    65.33   258.61    61.80   256.99    59.06 " style="stroke-width: 1.42 ;&st7; " /><path d=" M  256.99,   59.06  C  256.47    58.18   255.84    57.55   254.96    57.03 " style="stroke-width: 1.42 ;&st7; " /><path d=" M  254.96,   47.11  C  252.22    48.72   251.31    52.25   252.92    54.99 " style="stroke-width: 1.42 ;&st7; " /><path d=" M  252.92,   54.99  C  253.44    55.87   254.08    56.51   254.96    57.03 " style="stroke-width: 1.42 ;&st7; " /><path d=" M   74.36,   99.52  C   74.36    97.17    72.46    95.27    70.11    95.27 " style="stroke-width: 1.42 ;&st7; " /><path d=" M   70.11,  103.77  C   72.46   103.77    74.36   101.87    74.36    99.52 " style="stroke-width: 1.42 ;&st7; " /><path d=" M   61.61,   99.52  C   61.61   101.87    63.52   103.77    65.86   103.77 " style="stroke-width: 1.42 ;&st7; " /><path d=" M   65.86,   95.27  C   63.52    95.27    61.61    97.17    61.61    99.52 " style="stroke-width: 1.42 ;&st7; " /><path d=" M   69.41,   68.36  C   69.41    67.57    68.77    66.94    67.99    66.94 " style="stroke-width: 0.85 ;&st7; " /><path d=" M   67.99,   66.94  C   67.21    66.94    66.57    67.57    66.57    68.36 " style="stroke-width: 0.85 ;&st7; " /><path d=" M   66.57,   68.36  C   66.57    69.14    67.21    69.77    67.99    69.77 " style="stroke-width: 0.85 ;&st7; " /><path d=" M   67.99,   69.77  C   68.77    69.77    69.41    69.14    69.41    68.36 " style="stroke-width: 0.85 ;&st7; " /><path d=" M   69.41,   45.69  C   69.41    44.91    68.77    44.28    67.99    44.28 " style="stroke-width: 0.85 ;&st7; " /><path d=" M   67.99,   44.28  C   67.21    44.28    66.57    44.91    66.57    45.69 " style="stroke-width: 0.85 ;&st7; " /><path d=" M   66.57,   45.69  C   66.57    46.48    67.21    47.11    67.99    47.11 " style="stroke-width: 0.85 ;&st7; " /><path d=" M   67.99,   47.11  C   68.77    47.11    69.41    46.48    69.41    45.69 " style="stroke-width: 0.85 ;&st7; " /><path d=" M   67.99,   66.94  C   70.73    65.33    71.64    61.80    70.03    59.06 " style="stroke-width: 1.42 ;&st7; " /><path d=" M   70.03,   59.06  C   69.51    58.18    68.87    57.55    67.99    57.03 " style="stroke-width: 1.42 ;&st7; " /><path d=" M   67.99,   47.11  C   65.25    48.72    64.34    52.25    65.95    54.99 " style="stroke-width: 1.42 ;&st7; " /><path d=" M   65.95,   54.99  C   66.47    55.87    67.11    56.51    67.99    57.03 " style="stroke-width: 1.42 ;&st7; " /><path d=" M  344.48,  125.86  C  344.48   123.36   342.45   121.33   339.94   121.33 " style="stroke-width: 1.42 ;&st7; " /><path d=" M  339.94,  121.33  C  337.44   121.33   335.41   123.36   335.41   125.86 " style="stroke-width: 1.42 ;&st7; " /><path d=" M  335.41,  125.86  C  335.41   128.37   337.44   130.40   339.94   130.40 " style="stroke-width: 1.42 ;&st7; " /><path d=" M  339.94,  130.40  C  342.45   130.40   344.48   128.37   344.48   125.86 " style="stroke-width: 1.42 ;&st7; " /><path d=" M  344.48,  116.80  C  344.48   114.30   342.45   112.27   339.94   112.27 " style="stroke-width: 1.42 ;&st7; " /><path d=" M  339.94,  112.27  C  337.44   112.27   335.41   114.30   335.41   116.80 " style="stroke-width: 1.42 ;&st7; " /><path d=" M  335.41,  116.80  C  335.41   119.30   337.44   121.33   339.94   121.33 " style="stroke-width: 1.42 ;&st7; " /><path d=" M  339.94,  121.33  C  342.45   121.33   344.48   119.30   344.48   116.80 " style="stroke-width: 1.42 ;&st7; " /><path d=" M  395.47,  125.86  C  395.47   123.36   393.44   121.33   390.93   121.33 " style="stroke-width: 1.42 ;&st7; " /><path d=" M  390.93,  121.33  C  388.43   121.33   386.40   123.36   386.40   125.86 " style="stroke-width: 1.42 ;&st7; " /><path d=" M  386.40,  125.86  C  386.40   128.37   388.43   130.40   390.93   130.40 " style="stroke-width: 1.42 ;&st7; " /><path d=" M  390.93,  130.40  C  393.44   130.40   395.47   128.37   395.47   125.86 " style="stroke-width: 1.42 ;&st7; " /><path d=" M  395.47,  116.80  C  395.47   114.30   393.44   112.27   390.93   112.27 " style="stroke-width: 1.42 ;&st7; " /><path d=" M  390.93,  112.27  C  388.43   112.27   386.40   114.30   386.40   116.80 " style="stroke-width: 1.42 ;&st7; " /><path d=" M  386.40,  116.80  C  386.40   119.30   388.43   121.33   390.93   121.33 " style="stroke-width: 1.42 ;&st7; " /><path d=" M  390.93,  121.33  C  393.44   121.33   395.47   119.30   395.47   116.80 " style="stroke-width: 1.42 ;&st7; " /><path d=" M  218.48,  463.24  C  219.88   461.87   219.90   459.63   218.54   458.23 " style="stroke-width: 0.85 ;&st7; " /><path d=" M  218.54,  458.23  C  217.17   456.83   214.92   456.81   213.53   458.18 " style="stroke-width: 0.85 ;&st7; " /><path d=" M  213.53,  458.18  C  212.82   458.87   212.46   459.72   212.46   460.71 " style="stroke-width: 0.85 ;&st7; " /><path d=" M  223.44,  463.24  C  224.84   461.87   224.86   459.63   223.49   458.23 " style="stroke-width: 0.85 ;&st7; " /><path d=" M  223.49,  458.23  C  222.12   456.83   219.88   456.81   218.48   458.18 " style="stroke-width: 0.85 ;&st7; " /><path d=" M  218.48,  458.18  C  217.09   459.55   217.06   461.79   218.43   463.19 " style="stroke-width: 0.85 ;&st7; " /><path d=" M  218.43,  463.19  C  218.45   463.21   218.47   463.22   218.48   463.24 " style="stroke-width: 0.85 ;&st7; " /><path d=" M  229.46,  460.71  C  229.46   458.75   227.88   457.17   225.92   457.17 " style="stroke-width: 0.85 ;&st7; " /><path d=" M  225.92,  457.17  C  223.96   457.17   222.38   458.75   222.38   460.71 " style="stroke-width: 0.85 ;&st7; " /><path d=" M  222.38,  460.71  C  222.38   461.70   222.73   462.54   223.44   463.24 " style="stroke-width: 0.85 ;&st7; " /><text style="&st18;" transform="matrix(&st16;  184.72  230.94 )">96</text><text style="&st18;" transform="matrix(&st16;  163.96  270.05 )">1</text><text style="&st18;" transform="matrix(&st17;  64.29  144.58 )">B-R</text><text style="&st18;" transform="matrix(&st17;  64.29  208.08 )">B</text><text style="&st18;" transform="matrix(&st17;  191.77  246.33 )">B</text><text style="&st18;" transform="matrix(&st17;  251.26  254.82 )">B</text><text style="&st18;" transform="matrix(&st17;  251.26  195.33 )">B</text><text style="&st18;" transform="matrix(&st17;  251.26  118.85 )">B</text><text style="&st18;" transform="matrix(&st16;  61.2  86.47 )">2</text><text style="&st18;" transform="matrix(&st16;  329.98  270.05 )">12</text><text style="&st18;" transform="matrix(&st16;  333.51  281.37 )">EFII</text><text style="&st18;" transform="matrix(&st16;  382.74  281.37 )">EFIO</text><text style="&st18;" transform="matrix(&st16;  380.97  270.05 )">13</text><text style="&st18;" transform="matrix(&st17;  387.24  254.97 )">R</text><text style="&st18;" transform="matrix(&st16;  165.63  281.37 )">+B</text><text style="&st18;" transform="matrix(&st17;  387.24  179.0 )">R-G</text><text style="&st18;" transform="matrix(&st16;  321.17  228.97 )">27</text><text style="&st18;" transform="matrix(&st16;  321.17  220.47 )">27</text><text style="&st18;" transform="matrix(&st16;  400.85  228.97 )">(RHD)</text><text style="&st18;" transform="matrix(&st16;  400.85  220.47 )">(LHD)</text><text style="&st18;" transform="matrix(&st16;  372.16  228.97 )">28</text><text style="&st18;" transform="matrix(&st16;  372.16  220.47 )">28</text><text style="&st18;" transform="matrix(&st17;  336.25  179.6 )">W-R</text><text style="&st18;" transform="matrix(&st16;  160.93  312.54 )">TXCT</text><text style="&st18;" transform="matrix(&st16;  163.18  324.43 )">4</text><text style="&st18;" transform="matrix(&st17;  166.28  363.46 )">LG</text><text style="&st18;" transform="matrix(&st17;  200.27  361.06 )">P</text><text style="&st18;" transform="matrix(&st16;  194.0  324.43 )">14</text><text style="&st18;" transform="matrix(&st16;  197.18  312.54 )">VC5</text><text style="&st18;" transform="matrix(&st16;  227.93  312.54 )">CODE</text><text style="&st18;" transform="matrix(&st16;  227.99  324.43 )">15</text><text style="&st18;" transform="matrix(&st17;  234.26  361.06 )">V</text><text ewd:textID="9" style="&st18;" transform="matrix(&st16;  424.41  655.32 )">SECURITY <tspan dy="6" x="0">Indicator</tspan></text><text style="&st18;" transform="matrix(&st16;  248.17  270.05 )">2</text><text style="&st18;" transform="matrix(&st16;  251.21  281.37 )">IG</text><text style="&st18;" transform="matrix(&st17;  271.07  233.77 )">E61</text><text ewd:textID="8" style="&st18;" transform="matrix(&st17;  278.17  233.77 )">Junction <tspan dy="6" x="0">Connector</tspan></text><text style="&st18;" transform="matrix(&st17;  211.58  225.27 )">E58</text><text ewd:textID="8" style="&st18;" transform="matrix(&st17;  218.68  225.27 )">Junction <tspan dy="6" x="0">Connector</tspan></text><text style="&st18;" transform="matrix(&st16;  56.97  255.85 )">E61</text><text ewd:textID="8" style="&st18;" transform="matrix(&st16;  56.97  262.96 )">Junction Connector</text><text style="&st18;" transform="matrix(&st16;  244.21  210.56 )">45</text><text style="&st18;" transform="matrix(&st16;  244.21  239.44 )">95</text><text style="&st18;" transform="matrix(&st16;  239.09  177.98 )">17</text><text style="&st18;" transform="matrix(&st16;  250.51  177.98 )">2D</text><text style="&st18;" transform="matrix(&st16;  239.09  135.48 )">15</text><text style="&st18;" transform="matrix(&st16;  250.65  135.48 )">2B</text><text style="&st18;" transform="matrix(&st16;  248.88  32.08 )">(IG)</text><text style="&st18;" transform="matrix(&st17;  336.25  255.85 )">W</text><text style="&st18;" transform="matrix(&st16;  253.37  101.49 )">1</text><text style="&st18;" transform="matrix(&st16;  272.26  56.17 )">10A <tspan dy="6" x="0">IGN</tspan></text><text style="&st18;" transform="matrix(&st17;  268.26  363.39 )">SB</text><text style="&st18;" transform="matrix(&st16;  184.72  202.06 )">76</text><text style="&st18;" transform="matrix(&st16;  100.51  227.56 )">12</text><text style="&st18;" transform="matrix(&st16;  248.17  86.47 )">2</text><text style="&st18;" transform="matrix(&st16;  58.02  227.56 )">13</text><text style="&st18;" transform="matrix(&st16;  49.22  177.98 )">40</text><text style="&st18;" transform="matrix(&st16;  58.88  32.08 )">(BAT)</text><text style="&st18;" transform="matrix(&st16;  66.4  101.49 )">1</text><text style="&st18;" transform="matrix(&st16;  85.29  56.17 )">7.5A <tspan dy="6" x="0">IMB</tspan></text><text style="&st18;" transform="matrix(&st16;  265.17  324.43 )">5</text><text style="&st18;" transform="matrix(&st16;  261.92  312.54 )">AGND</text><text style="&st18;" transform="matrix(&st17;  336.25  361.2 )">R</text><text style="&st18;" transform="matrix(&st16;  333.15  324.43 )">9</text><text style="&st18;" transform="matrix(&st16;  337.47  312.54 )">D</text><text style="&st18;" transform="matrix(&st17;  438.23  361.06 )">V</text><text style="&st18;" transform="matrix(&st16;  435.14  324.43 )">8</text><text style="&st18;" transform="matrix(&st16;  435.99  312.54 )">IND</text><text style="&st18;" transform="matrix(&st16;  431.18  426.41 )">93</text><text style="&st18;" transform="matrix(&st16;  431.18  397.53 )">83</text><text style="&st18;" transform="matrix(&st17;  438.23  446.04 )">V</text><text ewd:textID="8" style="&st18;" transform="matrix(&st17;  465.14  420.74 )">Junction <tspan dy="6" x="0">Connector</tspan></text><text style="&st18;" transform="matrix(&st17;  458.04  420.74 )">E59</text><text style="&st18;" transform="matrix(&st16;  396.88  118.77 )">(LHD)</text><text style="&st18;" transform="matrix(&st16;  377.66  127.83 )">11</text><text style="&st18;" transform="matrix(&st16;  325.89  127.83 )">10</text><text style="&st18;" transform="matrix(&st16;  337.47  127.83 )">D</text><text style="&st18;" transform="matrix(&st16;  325.92  118.77 )">10</text><text style="&st18;" transform="matrix(&st16;  337.61  118.77 )">A</text><text style="&st18;" transform="matrix(&st16;  388.46  127.83 )">D</text><text style="&st18;" transform="matrix(&st16;  377.68  118.77 )">11</text><text style="&st18;" transform="matrix(&st16;  388.6  118.77 )">A</text><text style="&st18;" transform="matrix(&st16;  333.3  108.57 )">IMO</text><text style="&st18;" transform="matrix(&st16;  386.06  108.57 )">IMI</text><text style="&st18;" transform="matrix(&st16;  396.88  127.83 )">(RHD)</text><text style="&st18;" transform="matrix(&st16;  328.92  74.58 )">ECM</text><text style="&st18;" transform="matrix(&st16;  328.92  67.47 )">A38(A),A52(D)</text><text ewd:textID="12" style="&st18;" transform="matrix(&st16;  430.9  264.09 )">Transponder Key <tspan dy="6" x="0">ECU Assembly</tspan></text><text style="&st18;" transform="matrix(&st16;  430.9  256.99 )">E96</text><text style="&st18;" transform="matrix(&st16;  333.15  635.49 )">7</text><text style="&st18;" transform="matrix(&st17;  356.05  420.74 )">E60</text><text style="&st18;" transform="matrix(&st16;  334.64  646.81 )">SIL</text><text style="&st18;" transform="matrix(&st17;  336.25  467.43 )">R</text><text ewd:textID="8" style="&st18;" transform="matrix(&st17;  363.16  420.74 )">Junction <tspan dy="6" x="0">Connector</tspan></text><text style="&st18;" transform="matrix(&st16;  329.98  426.41 )">16</text><text style="&st18;" transform="matrix(&st16;  329.2  397.53 )">76</text><text style="&st18;" transform="matrix(&st16;  320.42  687.89 )">DLC3</text><text style="&st18;" transform="matrix(&st16;  320.42  680.78 )">E22</text><text style="&st18;" transform="matrix(&st17;  438.23  611.76 )">V</text><text style="&st18;" transform="matrix(&st16;  435.14  635.49 )">9</text><text style="&st18;" transform="matrix(&st16;  437.62  646.81 )">LP</text><text ewd:textID="5" style="&st18;" transform="matrix(&st16;  413.91  687.89 )">Clock Assembly</text><text style="&st18;" transform="matrix(&st16;  413.91  680.78 )">g1</text><text style="&st18;" transform="matrix(&st16;  427.11  585.91 )">9</text><text style="&st18;" transform="matrix(&st17;  438.23  560.77 )">V</text><text style="&st18;" transform="matrix(&st16;  423.93  475.43 )">10</text><text style="&st18;" transform="matrix(&st16;  265.17  397.53 )">7</text><text style="&st18;" transform="matrix(&st16;  231.17  397.53 )">4</text><text style="&st18;" transform="matrix(&st16;  227.93  408.85 )">CODE</text><text style="&st18;" transform="matrix(&st16;  197.18  408.85 )">VC5</text><text style="&st18;" transform="matrix(&st16;  197.95  397.53 )">1</text><text style="&st18;" transform="matrix(&st16;  163.18  397.53 )">5</text><text style="&st18;" transform="matrix(&st16;  160.93  408.85 )">TXCT</text><text style="&st18;" transform="matrix(&st16;  261.92  408.85 )">AGND</text><text ewd:textID="10" style="&st18;" transform="matrix(&st16;  150.45  500.92 )">Transponder Key Amplifier</text><text style="&st18;" transform="matrix(&st16;  150.45  493.81 )">E95</text><text ewd:textID="11" style="&st18;" transform="matrix(&st16;  186.52  476.84 )">Transponder Key Coil</text><text style="&st18;" transform="matrix(&st16;  263.05  431.52 )">ANT2</text><text style="&st18;" transform="matrix(&st16;  161.46  431.52 )">ANT1</text><text style="&st18;" transform="matrix(&st17;  177.61  250.18 )">(*2)</text><text style="&st18;" transform="matrix(&st17;  166.28  246.33 )">B</text><text style="&st18;" transform="matrix(&st17;  203.1  249.79 )">(*1)</text><text style="&st18;" transform="matrix(&st16;  142.14  185.06 )">B</text><text style="&st18;" transform="matrix(&st16;  138.68  196.39 )">(*1)</text><text style="&st18;" transform="matrix(&st16;  142.14  210.55 )">B</text><text style="&st18;" transform="matrix(&st16;  138.29  221.88 )">(*2)</text><text style="&st18;" transform="matrix(&st17;  75.62  143.94 )">(*3)</text><text style="&st18;" transform="matrix(&st17;  38.8  140.09 )">B</text><text style="&st18;" transform="matrix(&st17;  50.13  143.94 )">(*4)</text><text style="&st18;" transform="matrix(&st17;  347.58  177.94 )">(*3)</text><text style="&st18;" transform="matrix(&st17;  310.75  175.11 )">W</text><text style="&st18;" transform="matrix(&st17;  322.08  177.94 )">(*4)</text><text style="&st18;" transform="matrix(&st17;  412.73  174.23 )">R</text><text style="&st18;" transform="matrix(&st17;  424.07  177.94 )">(*4)</text><text style="&st18;" transform="matrix(&st17;  398.57  177.94 )">(*3)</text></svg>