﻿<?xml version="1.0" encoding="utf-8"?>
<!DOCTYPE svg PUBLIC "-//W3C//DTD SVG 1.0//EN" "http://www.w3.org/TR/2001/REC-SVG-20010904/DTD/svg10.dtd"[
	<!ENTITY ns_flows "http://ns.adobe.com/Flows/1.0/">
	<!ENTITY ns_svg "http://www.w3.org/2000/svg">
	<!ENTITY ns_xlink "http://www.w3.org/1999/xlink">
	<!ENTITY st0 "font-size:7px;font-family:'MS-PGothic';adobe-font-script:japanese;">
	<!ENTITY st1 "font-size:6px;font-family:'ArialMT';">
	<!-- White fill  -->
	<!ENTITY st2 "fill:#FFFFFF;stroke:#000000; stroke-width:1.41;stroke-linecap:round;stroke-linejoin:round;">
	<!-- Yellow fill  -->
	<!ENTITY st3 "fill:#FFFFCC;stroke:#FFFFCC; stroke-width:0.1;stroke-linecap:round;stroke-linejoin:round;">
	<!-- Gray fill  -->
	<!ENTITY st4 "fill:#CCCCCC;stroke:#CCCCCC; stroke-width:0.1;stroke-linecap:round;stroke-linejoin:round;">
	<!-- Light-blue fill -->
	<!ENTITY st5 "fill:#CCECF4;stroke:#000000; stroke-width:1.133;stroke-linecap:round;stroke-linejoin:round;">
	<!ENTITY st6 "fill:none;stroke-linecap:butt; stroke-linejoin:round;">
	<!ENTITY st7 "fill:none;stroke:#000000;stroke-linecap:round;stroke-linejoin:round;">
	<!ENTITY st8 "enable-background:new    ;">
	<!-- Black fill -->
	<!ENTITY st9 "fill:#000000;stroke:#000000; stroke-linecap:round;stroke-linejoin:round;">
	<!-- SRS note   -->
	<!ENTITY st10 "font-size:9px;font-family:'ArialMT';">
	<!ENTITY st11 "font-size:9px;font-family:'Svg Symbol';">
	<!ENTITY st12 "font-size:6px;font-family:'Svg Symbol';">
	<!ENTITY st13 "fill:none;stroke:#ff0000;stroke-linecap:round;stroke-linejoin:round;">
	<!-- Yellow fill  -->
	<!ENTITY st14 "fill:#FFFF00;stroke:#FFFF00; stroke-width:0.1;stroke-linecap:round;stroke-linejoin:round;">
	<!ENTITY st15 "font-size:6px;font-family:'MS-PGothic';adobe-font-script:japanese;">
	<!ENTITY st16 "1.00 0.00 0.00 1.00">
	<!ENTITY st17 "0.00 -1.00 1.00 0.00">
	<!ENTITY st18 "font-size:6px;font-family:'Arial';">
	<!ENTITY st19 "font-size:9px;font-family:'Arial';">
	<!ENTITY st20 "font-size:6px;font-family:'MS-PGothic','MS PGothic';adobe-font-script:japanese;">
	<!ENTITY st21 "font-size:7px;font-family:'MS-PGothic','MS PGothic';adobe-font-script:japanese;">
	<!ATTLIST svg
		xmlns:ewd CDATA #FIXED "http://shcl.co.jp/ewd"
		xmlns:a CDATA #FIXED "http://ns.adobe.com/AdobeSVGViewerExtensions/3.0/"
		ewd:ver CDATA #IMPLIED
	>
	<!ATTLIST a
		ewd:lineID CDATA #IMPLIED
		ewd:groupID CDATA #IMPLIED
		ewd:figtype CDATA #IMPLIED
		ewd:code CDATA #IMPLIED
		ewd:figID CDATA #IMPLIED
		ewd:pinNo CDATA #IMPLIED
		ewd:comment CDATA #IMPLIED >
	<!ATTLIST g
		ewd:lineID CDATA #IMPLIED
		ewd:groupID CDATA #IMPLIED
		ewd:figtype CDATA #IMPLIED
		ewd:code CDATA #IMPLIED
		ewd:figID CDATA #IMPLIED
		ewd:pinNo CDATA #IMPLIED
		ewd:comment CDATA #IMPLIED >
	<!ATTLIST text
		ewd:textID CDATA #IMPLIED >
	<!ATTLIST title
		ewd:textID CDATA #IMPLIED >
]>
<!-- Generator: Shintec Hozumi YS   -->
<svg onload="call_execInitLoadProc_svg('system')" style="overflow:visible;  enable-background:new 0 0 3075.070 710.000" viewBox="0 0 3075.070 710.000" height="710.000" width="3075.070" xml:space="preserve" ewd:ver="L2.1.2.8" xmlns="&ns_svg;" xmlns:a="http://ns.adobe.com/AdobeSVGViewerExtensions/3.0/" xmlns:ewd="http://shcl.co.jp/ewd" xmlns:xlink="&ns_xlink;"><script type="text/javascript" xlink:href="../../../../../system/js/ewd/fig/svgfig.js" xmlns:xlink="http://www.w3.org/1999/xlink" /><defs><font horiz-adv-x="1229"><font-face font-family="Svg Symbol" units-per-em="2048" panose-1="5 5 1 2 1 7 6 2 5 7" ascent="2059" descent="450" alphabetic="0" /><missing-glyph d="M 103,0 l 0,1280 1024,0 0,-1280 -1024,0 z m 32,32 l 960,0 0,1216 -960,0 0,-1216 z" /><glyph unicode="" horiz-adv-x="1573" d="M 1517,0 l -567,0 24,279 q 141,59 207.5,168 66.5,109 66.5,306    0,272 -132.5,417.5 -132.5,145.5 -333.5,145.5 -194,0 -328,-147.5 -134,-147.5 -134,-401.5 0,-200 68.5,-319 68.5,-119     206.5,-169 l 25,-279 -564,0 0,279 35,0 q 3,-61 32,-83 45,-35 137,-35 l 270,0 0,70 q -210,61 -324.5,209 -114.5,148     -114.5,349 0,252 186.5,425 186.5,173 504.5,173 195,0 358.5,-73.5 163.5,-73.5 252,-214.5 88.5,-141 88.5,-310 0,-207     -121.5,-360.5 -121.5,-153.5 -317.5,-197.5 l -8,-70 275,0 q 92,0 128,28 36,28 42,90 l 38,0 0,-279 z" /></font></defs>
<g id="ewd_top"><a ewd:code="A14,A85" ewd:figID="1" ewd:figtype="conn" style="cursor:pointer;"><path d=" M 2145.89,  435.21  L 2145.89,  392.72  L 2171.39,  392.72  L 2171.39,  435.21  L 2145.89,  435.21 " style="&st5;" /><title ewd:textID="12">Ambient Temperature Sensor</title></a><a ewd:code="FUSE41" ewd:figID="2" ewd:figtype="rb" style="cursor:pointer;"><path d=" M 1202.55,   35.78  L 1202.55,   78.27  L 1228.04,   78.27  L 1228.04,   35.78  L 1202.55,   35.78 " style="&st5;" /></a><a ewd:code="z70" ewd:figID="3" ewd:figtype="conn" style="cursor:pointer;"><path d=" M 1733.71,  350.23  L 1784.70,  350.23  L 1784.70,  299.24  L 1733.71,  299.24  L 1733.71,  350.23 " style="&st5;" /><title ewd:textID="27">Washer Nozzle Sub-Assembly LH</title></a><a ewd:code="E119" ewd:figID="4" ewd:figtype="conn" style="cursor:pointer;"><path d=" M 2694.05,  171.76  L 2694.05,  367.22  L 3042.49,  367.22  L 3042.49,  171.76  L 2694.05,  171.76 " style="&st5;" /><title ewd:textID="13">Combination Meter Assembly</title></a><a ewd:code="A24" ewd:figID="5" ewd:figtype="conn" style="cursor:pointer;"><path d=" M 2736.54,  579.69  L 2949.01,  579.69  L 2949.01,  545.69  L 2736.54,  545.69  L 2736.54,  579.69 " style="&st5;" /><title ewd:textID="24">Skid Control ECU with Actuator Assembly</title></a><a ewd:code="FUSE74" ewd:figID="6" ewd:figtype="rb" style="cursor:pointer;"><path d=" M  386.69,   78.27  L  386.69,   35.78  L  361.19,   35.78  L  361.19,   78.27  L  386.69,   78.27 " style="&st5;" /></a><a ewd:code="L71" ewd:figID="7" ewd:figtype="conn" style="cursor:pointer;"><path d=" M 1249.29,  426.71  L 1300.28,  426.71  L 1300.28,  443.71  L 1249.29,  443.71  L 1249.29,  426.71 " style="&st5;" /><title ewd:textID="16">Junction Connector</title></a><a ewd:code="R11" ewd:figID="8" ewd:figtype="conn" style="cursor:pointer;"><path d=" M   50.99,  154.76  L  127.48,  154.76  L  127.48,  188.75  L   50.99,  188.75  L   50.99,  154.76 " style="&st5;" /><title ewd:textID="23">Rain Sensor</title></a><a ewd:code="z69" ewd:figID="9" ewd:figtype="conn" style="cursor:pointer;"><path d=" M 1827.19,  350.23  L 1878.19,  350.23  L 1878.19,  299.24  L 1827.19,  299.24  L 1827.19,  350.23 " style="&st5;" /><title ewd:textID="28">Washer Nozzle Sub-Assembly RH</title></a><a ewd:code="E136" ewd:figID="10" ewd:figtype="conn" style="cursor:pointer;"><path d=" M 1946.17,  290.74  L 2005.66,  290.74  L 2005.66,  307.73  L 1946.17,  307.73  L 1946.17,  290.74 " style="&st5;" /><title ewd:textID="16">Junction Connector</title></a><a ewd:code="L50,L51" ewd:figID="11" ewd:figtype="conn" style="cursor:pointer;"><path d=" M 1070.82,  248.24  L 1070.82,  299.24  L 1359.77,  299.24  L 1359.77,  248.24  L 1070.82,  248.24 " style="&st5;" /><title ewd:textID="18">No.2 Multiplex Network Body ECU</title></a><a ewd:code="E135" ewd:figID="12" ewd:figtype="conn" style="cursor:pointer;"><path d=" M 2345.61,  333.23  L 2345.61,  358.73  L 2396.60,  358.73  L 2396.60,  333.23  L 2345.61,  333.23 " style="&st5;" /><title ewd:textID="16">Junction Connector</title></a><a ewd:code="R7" ewd:figID="13" ewd:figtype="conn" style="cursor:pointer;"><path d=" M    8.50,   69.77  L  195.47,   69.77  L  195.47,  103.77  L    8.50,  103.77  L    8.50,   69.77 " style="&st5;" /><title ewd:textID="21">Overhead Module</title></a><a ewd:code="A22" ewd:figID="14" ewd:figtype="conn" style="cursor:pointer;"><path d=" M  815.86,  588.19  L  815.86,  469.21  L  985.84,  469.21  L  985.84,  588.19  L  815.86,  588.19 " style="&st5;" /><title ewd:textID="31">Windshield Wiper Motor Assembly</title></a><a ewd:code="E134" ewd:figID="15" ewd:figtype="conn" style="cursor:pointer;"><path d=" M 1946.17,  197.25  L 2005.66,  197.25  L 2005.66,  214.25  L 1946.17,  214.25  L 1946.17,  197.25 " style="&st5;" /><title ewd:textID="16">Junction Connector</title></a><a ewd:code="E117-A,E118-B" ewd:figID="16" ewd:figtype="conn" style="cursor:pointer;"><path d=" M 1937.68,  129.26  L 2014.16,  129.26  L 2014.16,   86.77  L 1937.68,   86.77  L 1937.68,  129.26 " style="&st5;" /><title ewd:textID="17">Main Body ECU</title></a><a ewd:code="E15,E16" ewd:figID="17" ewd:figtype="conn" style="cursor:pointer;"><path d=" M  237.96,  435.21  L  764.87,  435.21  L  764.87,  579.69  L  237.96,  579.69  L  237.96,  435.21 " style="&st5;" /><title ewd:textID="32">Windshield Wiper Switch Assembly</title></a><a ewd:code="A37,C44" ewd:figID="18" ewd:figtype="conn" style="cursor:pointer;"><path d=" M 3000.00,  571.19  L 3000.00,  596.69  L 3017.00,  596.69  L 3017.00,  571.19  L 3000.00,  571.19 " style="&st5;" /><title ewd:textID="16">Junction Connector</title></a><a ewd:code="A75" ewd:figID="19" ewd:figtype="conn" style="cursor:pointer;"><path d=" M 1750.71,  656.18  L 1767.70,  656.18  L 1767.70,  673.17  L 1750.71,  673.17  L 1750.71,  656.18 " style="&st5;" /><title ewd:textID="16">Junction Connector</title></a><a ewd:code="E133" ewd:figID="20" ewd:figtype="conn" style="cursor:pointer;"><path d=" M 2345.61,  197.25  L 2345.61,  222.75  L 2532.58,  222.75  L 2532.58,  197.25  L 2345.61,  197.25 " style="&st5;" /><title ewd:textID="16">Junction Connector</title></a><a ewd:code="E147" ewd:figID="21" ewd:figtype="conn" style="cursor:pointer;"><path d=" M   93.48,  282.24  L  671.39,  282.24  L  671.39,  316.23  L   93.48,  316.23  L   93.48,  282.24 " style="&st5;" /><title ewd:textID="30">Windshield Wiper ECU</title></a><a ewd:code="FUSE42" ewd:figID="22" ewd:figtype="rb" style="cursor:pointer;"><path d=" M 2698.30,   35.78  L 2698.30,   78.27  L 2723.79,   78.27  L 2723.79,   35.78  L 2698.30,   35.78 " style="&st5;" /></a><a ewd:code="A16" ewd:figID="23" ewd:figtype="conn" style="cursor:pointer;"><path d=" M  369.69,  155.90  L  369.69,  155.90  L  369.69,  151.93  L  378.19,  151.93  L  378.19,  155.90  C  379.54   156.68   380.52   157.65   381.30   159.01  L  381.30,  159.01  C  383.65   163.07   382.25   168.27   378.19   170.62  L  378.19,  170.62  L  378.19,  174.59  L  369.69,  174.59  L  369.69,  170.62  C  368.33   169.84   367.36   168.86   366.58   167.50  L  366.58,  167.50  C  364.23   163.44   365.63   158.24   369.69   155.90 " style="&st5;" /><title ewd:textID="29">Windshield Washer Motor and Pump Assembly</title></a><a ewd:code="E35,E81" ewd:figID="24" ewd:figtype="conn" style="cursor:pointer;"><path d=" M 2099.15,  239.75  L 2099.15,  282.24  L 2320.11,  282.24  L 2320.11,  239.75  L 2099.15,  239.75 " style="&st5;" /><title ewd:textID="11">A/C Amplifier Assembly</title></a><a ewd:code="2" ewd:figID="25" ewd:figtype="jb" style="cursor:pointer;"><path d=" M  229.46,   35.78  L  229.46,  112.27  L  297.45,  112.27  L  297.45,   35.78  L  229.46,   35.78 " style="&st4;" /></a><a ewd:code="2" ewd:figID="26" ewd:figtype="jb" style="cursor:pointer;"><path d=" M  543.91,   35.78  L  543.91,  112.27  L  934.84,  112.27  L  934.84,   35.78  L  543.91,   35.78 " style="&st4;" /></a><a ewd:code="3" ewd:figID="27" ewd:figtype="jb" style="cursor:pointer;"><path d=" M 1393.77,  316.23  L 1393.77,  426.71  L 1487.25,  426.71  L 1487.25,  316.23  L 1393.77,  316.23 " style="&st4;" /></a><a ewd:code="3" ewd:figID="28" ewd:figtype="jb" style="cursor:pointer;"><path d=" M 1070.82,   35.78  L 1070.82,  112.27  L 1181.30,  112.27  L 1181.30,   35.78  L 1070.82,   35.78 " style="&st4;" /></a><a ewd:code="2" ewd:figID="29" ewd:figtype="jb" style="cursor:pointer;"><path d=" M 2847.02,  103.77  L 2906.51,  103.77  L 2906.51,   35.78  L 2847.02,   35.78  L 2847.02,  103.77 " style="&st4;" /></a><a ewd:code="2" ewd:figID="30" ewd:figtype="jb" style="cursor:pointer;"><path d=" M 1274.79,   35.78  L 1274.79,  112.27  L 1334.28,  112.27  L 1334.28,   35.78  L 1274.79,   35.78 " style="&st4;" /></a><a ewd:code="3" ewd:figID="31" ewd:figtype="jb" style="cursor:pointer;"><path d=" M 1410.76,  120.77  L 1478.75,  120.77  L 1478.75,   35.78  L 1410.76,   35.78  L 1410.76,  120.77 " style="&st4;" /></a><a ewd:code="FUSE74" ewd:figID="32" ewd:figtype="fuse" style="cursor:pointer;"><path d=" M  386.69,   78.27  L  386.69,   35.78  L  361.19,   35.78  L  361.19,   78.27  L  386.69,   78.27 " style="&st7;" /></a><a ewd:code="FUSE165" ewd:figID="33" ewd:figtype="fuse" style="cursor:pointer;"><path d=" M 1279.04,   35.78  L 1279.04,   78.27  L 1304.53,   78.27  L 1304.53,   35.78  L 1279.04,   35.78 " style="&st7;" /></a><a ewd:code="FUSE41" ewd:figID="34" ewd:figtype="fuse" style="cursor:pointer;"><path d=" M 1202.55,   35.78  L 1202.55,   78.27  L 1228.04,   78.27  L 1228.04,   35.78  L 1202.55,   35.78 " style="&st7;" /></a><a ewd:code="FUSE209" ewd:figID="35" ewd:figtype="fuse" style="cursor:pointer;"><path d=" M 1415.01,   35.78  L 1415.01,   78.27  L 1440.51,   78.27  L 1440.51,   35.78  L 1415.01,   35.78 " style="&st7;" /></a><a ewd:code="FUSE220" ewd:figID="36" ewd:figtype="fuse" style="cursor:pointer;"><path d=" M 1075.07,   35.78  L 1075.07,   78.27  L 1100.57,   78.27  L 1100.57,   35.78  L 1075.07,   35.78 " style="&st7;" /></a><a ewd:code="FUSE164" ewd:figID="37" ewd:figtype="fuse" style="cursor:pointer;"><path d=" M  233.71,   35.78  L  233.71,   78.27  L  259.21,   78.27  L  259.21,   35.78  L  233.71,   35.78 " style="&st7;" /></a><a ewd:code="FUSE42" ewd:figID="38" ewd:figtype="fuse" style="cursor:pointer;"><path d=" M 2698.30,   35.78  L 2698.30,   78.27  L 2723.79,   78.27  L 2723.79,   35.78  L 2698.30,   35.78 " style="&st7;" /></a><a ewd:code="FUSE205" ewd:figID="39" ewd:figtype="fuse" style="cursor:pointer;"><path d=" M  548.16,   35.78  L  548.16,   78.27  L  573.65,   78.27  L  573.65,   35.78  L  548.16,   35.78 " style="&st7;" /></a><a ewd:code="FUSE219" ewd:figID="40" ewd:figtype="fuse" style="cursor:pointer;"><path d=" M 1134.56,   35.78  L 1134.56,   78.27  L 1160.06,   78.27  L 1160.06,   35.78  L 1134.56,   35.78 " style="&st7;" /></a><a ewd:code="FUSE142" ewd:figID="41" ewd:figtype="fuse" style="cursor:pointer;"><path d=" M 2851.27,   35.78  L 2851.27,   78.27  L 2876.77,   78.27  L 2876.77,   35.78  L 2851.27,   35.78 " style="&st7;" /></a><a ewd:lineID="1" style="cursor:pointer;"><path d=" M   25.50,  245.98  L   25.50,  248.24  L   33.99,  256.74  L   50.99,  256.74  L   50.99,  443.71  L  101.98,  443.71 " style="stroke:#000000;stroke-width: 5.10 ;&st6;" /><path d=" M   25.50,  245.98  L   25.50,  248.24  L   33.99,  256.74  L   50.99,  256.74  L   50.99,  443.71  L  101.98,  443.71 " style="stroke:#FFFFFF;stroke-width: 4.53 ;&st6;" /><path d=" M   25.50,  245.98  L   25.50,  248.24  L   33.99,  256.74  L   50.99,  256.74  L   50.99,  443.71  L  101.98,  443.71 " style="stroke:#000000;stroke-width: 1.13 ;&st6;" /></a><a ewd:lineID="2" style="cursor:pointer;"><path d=" M  110.48,  681.67  L  110.48,  673.17  L   93.48,  656.18  L   25.50,  656.18  L   25.50,  245.98 " style="stroke:#000000;stroke-width: 5.10 ;&st6;" /><path d=" M  110.48,  681.67  L  110.48,  673.17  L   93.48,  656.18  L   25.50,  656.18  L   25.50,  245.98 " style="stroke:#FFFFFF;stroke-width: 4.53 ;&st6;" /><path d=" M  110.48,  681.67  L  110.48,  673.17  L   93.48,  656.18  L   25.50,  656.18  L   25.50,  245.98 " style="stroke:#000000;stroke-width: 1.13 ;&st6;" /></a><a ewd:lineID="3" style="cursor:pointer;"><path d=" M   25.50,  103.77  L   25.50,  231.25 " style="stroke:#000000;stroke-width: 5.10 ;&st6;" /><path d=" M   25.50,  103.77  L   25.50,  231.25 " style="stroke:#FFFFFF;stroke-width: 4.53 ;&st6;" /><path d=" M   25.50,  103.77  L   25.50,  231.25 " style="stroke:#000000;stroke-width: 1.13 ;&st6;" /></a><a ewd:lineID="4" style="cursor:pointer;"><path d=" M   67.99,  103.77  L   67.99,  154.76 " style="stroke:#56077D;stroke-width: 5.10 ;&st6;" /></a><a ewd:lineID="5" style="cursor:pointer;"><path d=" M  110.48,  681.67  L  110.48,  452.21 " style="stroke:#000000;stroke-width: 5.10 ;&st6;" /><path d=" M  110.48,  681.67  L  110.48,  452.21 " style="stroke:#FFFFFF;stroke-width: 4.53 ;&st6;" /><path d=" M  110.48,  681.67  L  110.48,  452.21 " style="stroke:#000000;stroke-width: 1.13 ;&st6;" /></a><a ewd:lineID="6" style="cursor:pointer;"><path d=" M  110.48,  316.23  L  110.48,  435.21 " style="stroke:#000000;stroke-width: 5.10 ;&st6;" /><path d=" M  110.48,  316.23  L  110.48,  435.21 " style="stroke:#FFFFFF;stroke-width: 4.53 ;&st6;" /><path d=" M  110.48,  316.23  L  110.48,  435.21 " style="stroke:#000000;stroke-width: 1.13 ;&st6;" /></a><a ewd:lineID="7" style="cursor:pointer;"><path d=" M  110.48,  245.98  L  110.48,  282.24 " style="stroke:#000000;stroke-width: 5.10 ;&st6;" /></a><a ewd:lineID="8" style="cursor:pointer;"><path d=" M  110.48,  188.75  L  110.48,  231.25 " style="stroke:#000000;stroke-width: 5.10 ;&st6;" /></a><a ewd:lineID="9" style="cursor:pointer;"><path d=" M  110.48,  103.77  L  110.48,  154.76 " style="stroke:#000000;stroke-width: 5.10 ;&st6;" /><path d=" M  110.48,  103.77  L  110.48,  154.76 " style="stroke:#FFFFFF;stroke-width: 4.53 ;&st6;" /></a><a ewd:lineID="10" style="cursor:pointer;"><path d=" M  152.97,  316.23  L  152.97,  630.68  L 2711.05,  630.68  L 2711.05,  376.29 " style="stroke:#00A0C6;stroke-width: 5.10 ;&st6;" /></a><a ewd:lineID="11" style="cursor:pointer;"><path d=" M  237.96,  239.75  L  178.47,  239.75  L  178.47,  186.49 " style="stroke:#000000;stroke-width: 5.10 ;&st6;" /></a><a ewd:lineID="12" style="cursor:pointer;"><path d=" M  178.47,  103.77  L  178.47,  171.76 " style="stroke:#000000;stroke-width: 5.10 ;&st6;" /></a><a ewd:lineID="13" style="cursor:pointer;"><path d=" M  203.97,  484.22  L  203.97,  613.68  L  407.93,  613.68  L  407.93,  597.82 " style="stroke:#000000;stroke-width: 5.10 ;&st6;" /><path d=" M  203.97,  484.22  L  203.97,  613.68  L  407.93,  613.68  L  407.93,  597.82 " style="stroke:#FFFFFF;stroke-width: 4.53 ;&st6;" /></a><a ewd:lineID="14" style="cursor:pointer;"><path d=" M  203.97,  392.72  L  203.97,  469.21 " style="stroke:#000000;stroke-width: 5.10 ;&st6;" /><path d=" M  203.97,  392.72  L  203.97,  469.21 " style="stroke:#FFFFFF;stroke-width: 4.53 ;&st6;" /></a><a ewd:lineID="15" style="cursor:pointer;"><path d=" M  203.97,  316.23  L  203.97,  377.71 " style="stroke:#000000;stroke-width: 5.10 ;&st6;" /><path d=" M  203.97,  316.23  L  203.97,  377.71 " style="stroke:#FFFFFF;stroke-width: 4.53 ;&st6;" /></a><a ewd:lineID="16" style="cursor:pointer;"><path d=" M  246.46,  248.24  L  246.46,  282.24 " style="stroke:#000000;stroke-width: 5.10 ;&st6;" /></a><a ewd:lineID="17" style="cursor:pointer;"><path d=" M  246.46,  112.27  L  246.46,  231.25 " style="stroke:#000000;stroke-width: 5.10 ;&st6;" /></a><a ewd:lineID="18" style="cursor:pointer;"><path d=" M  305.95,  417.08  L  305.95,  350.23  L  722.38,  350.23  L  722.38,  180.26  L  569.40,  180.26 " style="stroke:#000000;stroke-width: 5.10 ;&st6;" /></a><a ewd:lineID="19" style="cursor:pointer;"><path d=" M  339.94,  417.08  L  339.94,  384.22  L  756.37,  384.22  L  756.37,  239.75 " style="stroke:#FF0000;stroke-width: 5.10 ;&st6;" /></a><a ewd:lineID="20" style="cursor:pointer;"><path d=" M  892.35,  401.22  L  892.35,  367.22  L  373.94,  367.22  L  373.94,  417.08 " style="stroke:#008837;stroke-width: 5.10 ;&st6;" /></a><a ewd:lineID="21" style="cursor:pointer;"><path d=" M  373.94,  256.74  L  373.94,  282.24 " style="stroke:#00A0C6;stroke-width: 5.10 ;&st6;" /></a><a ewd:lineID="22" style="cursor:pointer;"><path d=" M  373.94,  222.75  L  373.94,  239.75 " style="stroke:#00A0C6;stroke-width: 5.10 ;&st6;" /></a><a ewd:lineID="23" style="cursor:pointer;"><path d=" M  373.94,  174.59  L  373.94,  208.02 " style="stroke:#00A0C6;stroke-width: 5.10 ;&st6;" /></a><a ewd:lineID="24" style="cursor:pointer;"><path d=" M  373.94,  112.27  L  373.94,  151.93 " style="stroke:#FF0000;stroke-width: 5.10 ;&st6;" /></a><a ewd:lineID="25" style="cursor:pointer;"><path d=" M  696.88,  417.08  L  696.88,  248.24  L  382.44,  248.24 " style="stroke:#00A0C6;stroke-width: 5.10 ;&st6;" /></a><a ewd:lineID="26" style="cursor:pointer;"><path d=" M  441.93,  316.23  L  441.93,  417.08 " style="stroke:#00A0C6;stroke-width: 5.10 ;&st6;" /></a><a ewd:lineID="27" style="cursor:pointer;"><path d=" M  475.92,  316.23  L  475.92,  417.08 " style="stroke:#FF0000;stroke-width: 5.10 ;&st6;" /></a><a ewd:lineID="28" style="cursor:pointer;"><path d=" M  560.91,  188.75  L  560.91,  282.24 " style="stroke:#000000;stroke-width: 5.10 ;&st6;" /></a><a ewd:lineID="29" style="cursor:pointer;"><path d=" M  560.91,  171.76  L  560.91,  112.27 " style="stroke:#000000;stroke-width: 5.10 ;&st6;" /></a><a ewd:lineID="30" style="cursor:pointer;"><path d=" M  586.40,  282.24  L  586.40,  205.75  L  968.84,  205.75  L  968.84,  250.23 " style="stroke:#000000;stroke-width: 5.10 ;&st6;" /><path d=" M  586.40,  282.24  L  586.40,  205.75  L  968.84,  205.75  L  968.84,  250.23 " style="stroke:#FFFFFF;stroke-width: 4.53 ;&st6;" /></a><a ewd:lineID="31" style="cursor:pointer;"><path d=" M  620.40,  316.23  L  620.40,  417.08 " style="stroke:#000000;stroke-width: 5.10 ;&st6;" /><path d=" M  620.40,  316.23  L  620.40,  417.08 " style="stroke:#FFFFFF;stroke-width: 4.53 ;&st6;" /></a><a ewd:lineID="32" style="cursor:pointer;"><path d=" M  654.39,  316.23  L  654.39,  417.08 " style="stroke:#FF0000;stroke-width: 5.10 ;&st6;" /></a><a ewd:lineID="33" style="cursor:pointer;"><path d=" M  747.88,  231.25  L  654.39,  231.25  L  654.39,  282.24 " style="stroke:#FF0000;stroke-width: 5.10 ;&st6;" /></a><a ewd:lineID="34" style="cursor:pointer;"><path d=" M  739.38,  597.82  L  739.38,  681.67 " style="stroke:#000000;stroke-width: 5.10 ;&st6;" /><path d=" M  739.38,  597.82  L  739.38,  681.67 " style="stroke:#FFFFFF;stroke-width: 4.53 ;&st6;" /><path d=" M  739.38,  597.82  L  739.38,  681.67 " style="stroke:#000000;stroke-width: 1.13 ;&st6;" /></a><a ewd:lineID="35" style="cursor:pointer;"><path d=" M  832.86,  401.22  L  832.86,  231.25  L  764.87,  231.25 " style="stroke:#FF0000;stroke-width: 5.10 ;&st6;" /></a><a ewd:lineID="36" style="cursor:pointer;"><path d=" M  832.86,  606.32  L  832.86,  681.67 " style="stroke:#000000;stroke-width: 5.10 ;&st6;" /><path d=" M  832.86,  606.32  L  832.86,  681.67 " style="stroke:#FFFFFF;stroke-width: 4.53 ;&st6;" /><path d=" M  832.86,  606.32  L  832.86,  681.67 " style="stroke:#000000;stroke-width: 1.13 ;&st6;" /></a><a ewd:lineID="37" style="cursor:pointer;"><path d=" M  832.86,  424.45  L  832.86,  451.08 " style="stroke:#FF0000;stroke-width: 5.10 ;&st6;" /></a><a ewd:lineID="38" style="cursor:pointer;"><path d=" M  892.35,  424.45  L  892.35,  451.08 " style="stroke:#008837;stroke-width: 5.10 ;&st6;" /></a><a ewd:lineID="39" style="cursor:pointer;"><path d=" M  926.35,  112.27  L  926.35,  451.08 " style="stroke:#000000;stroke-width: 5.10 ;&st6;" /></a><a ewd:lineID="40" style="cursor:pointer;"><path d=" M  968.84,  424.73  L  968.84,  451.08 " style="stroke:#000000;stroke-width: 5.10 ;&st6;" /><path d=" M  968.84,  424.73  L  968.84,  451.08 " style="stroke:#FFFFFF;stroke-width: 4.53 ;&st6;" /></a><a ewd:lineID="41" style="cursor:pointer;"><path d=" M  968.84,  331.25  L  968.84,  401.22 " style="stroke:#000000;stroke-width: 5.10 ;&st6;" /><path d=" M  968.84,  331.25  L  968.84,  401.22 " style="stroke:#FFFFFF;stroke-width: 4.53 ;&st6;" /></a><a ewd:lineID="42" style="cursor:pointer;"><path d=" M  968.84,  316.23  L  968.84,  265.24 " style="stroke:#000000;stroke-width: 5.10 ;&st6;" /><path d=" M  968.84,  316.23  L  968.84,  265.24 " style="stroke:#FFFFFF;stroke-width: 4.53 ;&st6;" /></a><a ewd:lineID="43" style="cursor:pointer;"><path d=" M 1087.82,  239.18  L 1087.82,  112.27 " style="stroke:#BFB1C5;stroke-width: 5.10 ;&st6;" /><path d=" M 1087.82,  239.18  L 1087.82,  112.27 " style="stroke:#FFFFFF;stroke-width: 2.27 ;&st6;" /><path d=" M 1087.82,  239.18  L 1087.82,  112.27 " style="stroke:#000000;stroke-width: 1.13 ;&st6;" /></a><a ewd:lineID="44" style="cursor:pointer;"><path d=" M 1147.31,  681.67  L 1147.31,  452.21 " style="stroke:#000000;stroke-width: 5.10 ;&st6;" /><path d=" M 1147.31,  681.67  L 1147.31,  452.21 " style="stroke:#FFFFFF;stroke-width: 4.53 ;&st6;" /><path d=" M 1147.31,  681.67  L 1147.31,  452.21 " style="stroke:#000000;stroke-width: 1.13 ;&st6;" /></a><a ewd:lineID="45" style="cursor:pointer;"><path d=" M 1147.31,  384.22  L 1147.31,  435.21 " style="stroke:#000000;stroke-width: 5.10 ;&st6;" /><path d=" M 1147.31,  384.22  L 1147.31,  435.21 " style="stroke:#FFFFFF;stroke-width: 4.53 ;&st6;" /><path d=" M 1147.31,  384.22  L 1147.31,  435.21 " style="stroke:#000000;stroke-width: 1.13 ;&st6;" /></a><a ewd:lineID="46" style="cursor:pointer;"><path d=" M 1147.31,  308.30  L 1147.31,  367.22 " style="stroke:#000000;stroke-width: 5.10 ;&st6;" /><path d=" M 1147.31,  308.30  L 1147.31,  367.22 " style="stroke:#FFFFFF;stroke-width: 4.53 ;&st6;" /><path d=" M 1147.31,  308.30  L 1147.31,  367.22 " style="stroke:#000000;stroke-width: 1.13 ;&st6;" /></a><a ewd:lineID="47" style="cursor:pointer;"><path d=" M 1147.31,  112.27  L 1147.31,  239.18 " style="stroke:#BFB1C5;stroke-width: 5.10 ;&st6;" /><path d=" M 1147.31,  112.27  L 1147.31,  239.18 " style="stroke:#FFFFFF;stroke-width: 1.13 ;&st6;" /></a><a ewd:lineID="48" style="cursor:pointer;"><path d=" M 1172.80,  308.30  L 1172.80,  375.72  L 1155.81,  375.72 " style="stroke:#000000;stroke-width: 5.10 ;&st6;" /><path d=" M 1172.80,  308.30  L 1172.80,  375.72  L 1155.81,  375.72 " style="stroke:#FFFFFF;stroke-width: 4.53 ;&st6;" /><path d=" M 1172.80,  308.30  L 1172.80,  375.72  L 1155.81,  375.72 " style="stroke:#000000;stroke-width: 1.13 ;&st6;" /></a><a ewd:lineID="49" style="cursor:pointer;"><path d=" M 1215.30,  194.99  L 1215.30,  239.18 " style="stroke:#FF0000;stroke-width: 5.10 ;&st6;" /></a><a ewd:lineID="50" style="cursor:pointer;"><path d=" M 1215.30,  112.27  L 1215.30,  180.26 " style="stroke:#FF0000;stroke-width: 5.10 ;&st6;" /></a><a ewd:lineID="51" style="cursor:pointer;"><path d=" M 1257.79,  443.71  L 1257.79,  596.69  L 1997.17,  596.69  L 1997.17,  407.73 " style="stroke:#000000;stroke-width: 5.10 ;&st6;" /><path d=" M 1257.79,  443.71  L 1257.79,  596.69  L 1997.17,  596.69  L 1997.17,  407.73 " style="stroke:#FFFFFF;stroke-width: 4.53 ;&st6;" /></a><a ewd:lineID="52" style="cursor:pointer;"><path d=" M 1257.79,  308.30  L 1257.79,  426.71 " style="stroke:#7FC97F;stroke-width: 5.10 ;&st6;" /></a><a ewd:lineID="53" style="cursor:pointer;"><path d=" M 1291.78,  443.71  L 1291.78,  571.19  L 1954.67,  571.19  L 1954.67,  407.45 " style="stroke:#00A0C6;stroke-width: 5.10 ;&st6;" /></a><a ewd:lineID="54" style="cursor:pointer;"><path d=" M 1291.78,  308.30  L 1291.78,  426.71 " style="stroke:#00A0C6;stroke-width: 5.10 ;&st6;" /></a><a ewd:lineID="55" style="cursor:pointer;"><path d=" M 1291.78,  194.99  L 1291.78,  239.18 " style="stroke:#000000;stroke-width: 5.10 ;&st6;" /></a><a ewd:lineID="56" style="cursor:pointer;"><path d=" M 1291.78,  112.27  L 1291.78,  180.26 " style="stroke:#000000;stroke-width: 5.10 ;&st6;" /></a><a ewd:lineID="57" style="cursor:pointer;"><path d=" M 1427.76,  426.71  L 1427.76,  477.71  L 1342.78,  477.71  L 1342.78,  308.30 " style="stroke:#999999;stroke-width: 5.10 ;&st6;" /></a><a ewd:lineID="58" style="cursor:pointer;"><path d=" M 1427.76,  120.77  L 1427.76,  316.23 " style="stroke:#F668B2;stroke-width: 5.10 ;&st6;" /></a><a ewd:lineID="59" style="cursor:pointer;"><path d=" M 1453.26,  426.71  L 1453.26,  477.71  L 1614.73,  477.71  L 1614.73,  460.71 " style="stroke:#BFB1C5;stroke-width: 5.10 ;&st6;" /><path d=" M 1453.26,  426.71  L 1453.26,  477.71  L 1614.73,  477.71  L 1614.73,  460.71 " style="stroke:#FFFFFF;stroke-width: 2.27 ;&st6;" /><path d=" M 1453.26,  426.71  L 1453.26,  477.71  L 1614.73,  477.71  L 1614.73,  460.71 " style="stroke:#000000;stroke-width: 1.13 ;&st6;" /></a><a ewd:lineID="60" style="cursor:pointer;"><path d=" M 1470.25,  120.77  L 1470.25,  316.23 " style="stroke:#008837;stroke-width: 5.10 ;&st6;" /></a><a ewd:lineID="61" style="cursor:pointer;"><path d=" M 1614.73,  445.98  L 1614.73,  356.46 " style="stroke:#000000;stroke-width: 5.10 ;&st6;" /></a><a ewd:lineID="62" style="cursor:pointer;"><path d=" M 1614.73,  341.73  L 1614.73,  222.75  L 1674.22,  222.75 " style="stroke:#000000;stroke-width: 5.10 ;&st6;" /></a><a ewd:lineID="63" style="cursor:pointer;"><path d=" M 1697.45,  222.75  L 1750.71,  222.75 " style="stroke:#000000;stroke-width: 5.10 ;&st6;" /></a><a ewd:lineID="64" style="cursor:pointer;"><path d=" M 1759.21,  500.93  L 1759.21,  656.18 " style="stroke:#000000;stroke-width: 5.10 ;&st6;" /><path d=" M 1759.21,  500.93  L 1759.21,  656.18 " style="stroke:#FFFFFF;stroke-width: 4.53 ;&st6;" /><path d=" M 1759.21,  500.93  L 1759.21,  656.18 " style="stroke:#000000;stroke-width: 1.13 ;&st6;" /></a><a ewd:lineID="65" style="cursor:pointer;"><path d=" M 1759.21,  435.21  L 1759.21,  486.20 " style="stroke:#000000;stroke-width: 5.10 ;&st6;" /><path d=" M 1759.21,  435.21  L 1759.21,  486.20 " style="stroke:#FFFFFF;stroke-width: 4.53 ;&st6;" /><path d=" M 1759.21,  435.21  L 1759.21,  486.20 " style="stroke:#000000;stroke-width: 1.13 ;&st6;" /></a><a ewd:lineID="66" style="cursor:pointer;"><path d=" M 1759.21,  418.22  L 1759.21,  350.23 " style="stroke:#000000;stroke-width: 5.10 ;&st6;" /><path d=" M 1759.21,  418.22  L 1759.21,  350.23 " style="stroke:#FFFFFF;stroke-width: 4.53 ;&st6;" /><path d=" M 1759.21,  418.22  L 1759.21,  350.23 " style="stroke:#000000;stroke-width: 1.13 ;&st6;" /></a><a ewd:lineID="67" style="cursor:pointer;"><path d=" M 1759.21,  299.24  L 1759.21,  231.25 " style="stroke:#000000;stroke-width: 5.10 ;&st6;" /></a><a ewd:lineID="68" style="cursor:pointer;"><path d=" M 1767.70,  426.71  L 1852.69,  426.71  L 1852.69,  350.23 " style="stroke:#000000;stroke-width: 5.10 ;&st6;" /><path d=" M 1767.70,  426.71  L 1852.69,  426.71  L 1852.69,  350.23 " style="stroke:#FFFFFF;stroke-width: 4.53 ;&st6;" /><path d=" M 1767.70,  426.71  L 1852.69,  426.71  L 1852.69,  350.23 " style="stroke:#000000;stroke-width: 1.13 ;&st6;" /></a><a ewd:lineID="69" style="cursor:pointer;"><path d=" M 1767.70,  222.75  L 1852.69,  222.75  L 1852.69,  299.24 " style="stroke:#000000;stroke-width: 5.10 ;&st6;" /></a><a ewd:lineID="70" style="cursor:pointer;"><path d=" M 1954.67,  307.73  L 1954.67,  392.72 " style="stroke:#00A0C6;stroke-width: 5.10 ;&st6;" /></a><a ewd:lineID="71" style="cursor:pointer;"><path d=" M 1954.67,  214.25  L 1954.67,  290.74 " style="stroke:#00A0C6;stroke-width: 5.10 ;&st6;" /></a><a ewd:lineID="72" style="cursor:pointer;"><path d=" M 1954.67,  197.25  L 1954.67,  138.33 " style="stroke:#00A0C6;stroke-width: 5.10 ;&st6;" /></a><a ewd:lineID="73" style="cursor:pointer;"><path d=" M 2388.10,  197.25  L 2388.10,   44.28  L 1954.67,   44.28  L 1954.67,   77.71 " style="stroke:#000000;stroke-width: 5.10 ;&st6;" /><path d=" M 2388.10,  197.25  L 2388.10,   44.28  L 1954.67,   44.28  L 1954.67,   77.71 " style="stroke:#FFFFFF;stroke-width: 4.53 ;&st6;" /></a><a ewd:lineID="74" style="cursor:pointer;"><path d=" M 1997.17,  307.73  L 1997.17,  392.72 " style="stroke:#000000;stroke-width: 5.10 ;&st6;" /><path d=" M 1997.17,  307.73  L 1997.17,  392.72 " style="stroke:#FFFFFF;stroke-width: 4.53 ;&st6;" /></a><a ewd:lineID="75" style="cursor:pointer;"><path d=" M 1997.17,  214.25  L 1997.17,  290.74 " style="stroke:#000000;stroke-width: 5.10 ;&st6;" /><path d=" M 1997.17,  214.25  L 1997.17,  290.74 " style="stroke:#FFFFFF;stroke-width: 4.53 ;&st6;" /></a><a ewd:lineID="76" style="cursor:pointer;"><path d=" M 1997.17,  197.25  L 1997.17,  138.33 " style="stroke:#999999;stroke-width: 5.10 ;&st6;" /></a><a ewd:lineID="77" style="cursor:pointer;"><path d=" M 2354.11,  197.25  L 2354.11,   61.28  L 1997.17,   61.28  L 1997.17,   77.71 " style="stroke:#008837;stroke-width: 5.10 ;&st6;" /></a><a ewd:lineID="78" style="cursor:pointer;"><path d=" M 2116.15,  347.96  L 2116.15,  503.20  L 2158.64,  503.20  L 2158.64,  453.34 " style="stroke:#008837;stroke-width: 5.10 ;&st6;" /></a><a ewd:lineID="79" style="cursor:pointer;"><path d=" M 2116.15,  300.37  L 2116.15,  333.23 " style="stroke:#008837;stroke-width: 5.10 ;&st6;" /></a><a ewd:lineID="80" style="cursor:pointer;"><path d=" M 2158.64,  347.96  L 2158.64,  374.59 " style="stroke:#56077D;stroke-width: 5.10 ;&st6;" /></a><a ewd:lineID="81" style="cursor:pointer;"><path d=" M 2158.64,  300.37  L 2158.64,  333.23 " style="stroke:#56077D;stroke-width: 5.10 ;&st6;" /></a><a ewd:lineID="82" style="cursor:pointer;"><path d=" M 2388.10,  358.73  L 2388.10,  579.69  L 2252.12,  579.69  L 2252.12,  300.37 " style="stroke:#000000;stroke-width: 5.10 ;&st6;" /><path d=" M 2388.10,  358.73  L 2388.10,  579.69  L 2252.12,  579.69  L 2252.12,  300.37 " style="stroke:#FFFFFF;stroke-width: 4.53 ;&st6;" /></a><a ewd:lineID="83" style="cursor:pointer;"><path d=" M 2524.08,  222.75  L 2524.08,  613.68  L 2226.63,  613.68  L 2226.63,  316.23  L 2243.63,  316.23  L 2252.12,  307.73  L 2252.12,  300.37 " style="stroke:#000000;stroke-width: 5.10 ;&st6;" /><path d=" M 2524.08,  222.75  L 2524.08,  613.68  L 2226.63,  613.68  L 2226.63,  316.23  L 2243.63,  316.23  L 2252.12,  307.73  L 2252.12,  300.37 " style="stroke:#FFFFFF;stroke-width: 4.53 ;&st6;" /></a><a ewd:lineID="84" style="cursor:pointer;"><path d=" M 2354.11,  358.73  L 2354.11,  562.69  L 2303.12,  562.69  L 2303.12,  300.37 " style="stroke:#008837;stroke-width: 5.10 ;&st6;" /></a><a ewd:lineID="85" style="cursor:pointer;"><path d=" M 2490.08,  222.75  L 2490.08,  596.69  L 2277.62,  596.69  L 2277.62,  316.23  L 2294.62,  316.23  L 2303.12,  307.73  L 2303.12,  300.37 " style="stroke:#008837;stroke-width: 5.10 ;&st6;" /></a><a ewd:lineID="86" style="cursor:pointer;"><path d=" M 2354.11,  333.23  L 2354.11,  222.75 " style="stroke:#99D9E8;stroke-width: 5.10 ;&st6;" /></a><a ewd:lineID="87" style="cursor:pointer;"><path d=" M 2388.10,  222.75  L 2388.10,  333.23 " style="stroke:#000000;stroke-width: 5.10 ;&st6;" /><path d=" M 2388.10,  222.75  L 2388.10,  333.23 " style="stroke:#FFFFFF;stroke-width: 4.53 ;&st6;" /></a><a ewd:lineID="88" style="cursor:pointer;"><path d=" M 2711.05,  103.77  L 2711.05,  146.26  L 2753.54,  146.26  L 2753.54,  103.77  L 2796.03,  103.77  L 2796.03,  114.53 " style="stroke:#56077D;stroke-width: 5.10 ;&st6;" /></a><a ewd:lineID="89" style="cursor:pointer;"><path d=" M 2753.54,  588.75  L 2753.54,  630.68 " style="stroke:#56077D;stroke-width: 5.10 ;&st6;" /></a><a ewd:lineID="90" style="cursor:pointer;"><path d=" M 2753.54,  483.94  L 2753.54,  536.63 " style="stroke:#56077D;stroke-width: 5.10 ;&st6;" /></a><a ewd:lineID="91" style="cursor:pointer;"><path d=" M 2753.54,  460.71  L 2753.54,  452.21  L 2736.54,  435.21  L 2736.54,  401.22  L 2753.54,  384.22  L 2753.54,  376.29 " style="stroke:#56077D;stroke-width: 5.10 ;&st6;" /></a><a ewd:lineID="92" style="cursor:pointer;"><path d=" M 2753.54,  460.71  L 2753.54,  376.29 " style="stroke:#000000;stroke-width: 5.10 ;&st6;" /><path d=" M 2753.54,  460.71  L 2753.54,  376.29 " style="stroke:#FFFFFF;stroke-width: 4.53 ;&st6;" /></a><a ewd:lineID="93" style="cursor:pointer;"><path d=" M 2779.04,  588.75  L 2779.04,  630.68 " style="stroke:#7FC97F;stroke-width: 5.10 ;&st6;" /></a><a ewd:lineID="94" style="cursor:pointer;"><path d=" M 2796.03,  162.69  L 2796.03,  129.26 " style="stroke:#56077D;stroke-width: 5.10 ;&st6;" /></a><a ewd:lineID="95" style="cursor:pointer;"><path d=" M 2804.53,  588.75  L 2804.53,  630.68 " style="stroke:#000000;stroke-width: 5.10 ;&st6;" /></a><a ewd:lineID="96" style="cursor:pointer;"><path d=" M 2830.03,  588.75  L 2830.03,  630.68 " style="stroke:#00A0C6;stroke-width: 5.10 ;&st6;" /></a><a ewd:lineID="97" style="cursor:pointer;"><path d=" M 2855.52,  588.75  L 2855.52,  630.68 " style="stroke:#000000;stroke-width: 5.10 ;&st6;" /></a><a ewd:lineID="98" style="cursor:pointer;"><path d=" M 2864.02,  103.77  L 2864.02,  162.69 " style="stroke:#C3AF96;stroke-width: 5.10 ;&st6;" /></a><a ewd:lineID="99" style="cursor:pointer;"><path d=" M 2881.02,  588.75  L 2881.02,  630.68 " style="stroke:#000000;stroke-width: 5.10 ;&st6;" /><path d=" M 2881.02,  588.75  L 2881.02,  630.68 " style="stroke:#FFFFFF;stroke-width: 4.53 ;&st6;" /></a><a ewd:lineID="100" style="cursor:pointer;"><path d=" M 2906.51,  588.75  L 2906.51,  630.68 " style="stroke:#FF0000;stroke-width: 5.10 ;&st6;" /></a><a ewd:lineID="101" style="cursor:pointer;"><path d=" M 2932.01,  588.75  L 2932.01,  630.68 " style="stroke:#008837;stroke-width: 5.10 ;&st6;" /></a><a ewd:lineID="102" style="cursor:pointer;"><path d=" M 2957.51,  681.67  L 2957.51,  630.68  L 3000.00,  630.68  L 3008.50,  622.18  L 3008.50,  614.82 " style="stroke:#992903;stroke-width: 5.10 ;&st6;" /></a><a ewd:lineID="103" style="cursor:pointer;"><path d=" M 3008.50,  614.82  L 3008.50,  681.67 " style="stroke:#992903;stroke-width: 5.10 ;&st6;" /></a><a ewd:lineID="104" style="cursor:pointer;"><path d=" M 3059.49,  681.67  L 3059.49,  630.68  L 3017.00,  630.68  L 3008.50,  622.18  L 3008.50,  614.82 " style="stroke:#992903;stroke-width: 5.10 ;&st6;" /></a><a ewd:lineID="105" style="cursor:pointer;"><path d=" M 3008.50,  458.44  L 3008.50,  553.06 " style="stroke:#992903;stroke-width: 5.10 ;&st6;" /></a><a ewd:lineID="106" style="cursor:pointer;"><path d=" M 3008.50,  376.29  L 3008.50,  435.21 " style="stroke:#992903;stroke-width: 5.10 ;&st6;" /></a><a ewd:code="RE3" ewd:figID="42" ewd:figtype="w2w" ewd:pinNo="19" style="cursor:pointer;"><path d=" M  118.98,  231.25  L  101.98,  231.25  L  101.98,  239.75  L  118.98,  239.75  L  118.98,  231.25 " style="&st2;" /><text style="&st8;" transform="matrix(&st16;  103.34  237.99 )"><tspan style="&st18;" x="0" y="0">RE3</tspan></text></a><a ewd:code="RE3" ewd:figID="43" ewd:figtype="w2w" ewd:pinNo="16" style="cursor:pointer;"><path d=" M  186.97,  171.76  L  169.97,  171.76  L  169.97,  180.26  L  186.97,  180.26  L  186.97,  171.76 " style="&st2;" /><text style="&st8;" transform="matrix(&st16;  171.33  178.5 )"><tspan style="&st18;" x="0" y="0">RE3</tspan></text></a><a ewd:code="EA2" ewd:figID="44" ewd:figtype="w2w" ewd:pinNo="10" style="cursor:pointer;"><path d=" M 2167.14,  333.23  L 2150.14,  333.23  L 2150.14,  341.73  L 2167.14,  341.73  L 2167.14,  333.23 " style="&st2;" /><text style="&st8;" transform="matrix(&st16;  2151.65  339.97 )"><tspan style="&st18;" x="0" y="0">EA2</tspan></text></a><a ewd:code="EA2" ewd:figID="45" ewd:figtype="w2w" ewd:pinNo="9" style="cursor:pointer;"><path d=" M 2124.65,  333.23  L 2107.65,  333.23  L 2107.65,  341.73  L 2124.65,  341.73  L 2124.65,  333.23 " style="&st2;" /><text style="&st8;" transform="matrix(&st16;  2109.16  339.97 )"><tspan style="&st18;" x="0" y="0">EA2</tspan></text></a><a ewd:code="EL1" ewd:figID="46" ewd:figtype="w2w" ewd:pinNo="6" style="cursor:pointer;"><path d=" M 1300.28,  180.26  L 1283.29,  180.26  L 1283.29,  188.75  L 1300.28,  188.75  L 1300.28,  180.26 " style="&st2;" /><text style="&st8;" transform="matrix(&st16;  1285.57  187.0 )"><tspan style="&st18;" x="0" y="0">EL1</tspan></text></a><a ewd:code="AL1" ewd:figID="47" ewd:figtype="w2w" ewd:pinNo="1" style="cursor:pointer;"><path d=" M 1223.80,  180.26  L 1206.80,  180.26  L 1206.80,  188.75  L 1223.80,  188.75  L 1223.80,  180.26 " style="&st2;" /><text style="&st8;" transform="matrix(&st16;  1209.09  187.0 )"><tspan style="&st18;" x="0" y="0">AL1</tspan></text></a><a ewd:code="EL5" ewd:figID="48" ewd:figtype="w2w" ewd:pinNo="16" style="cursor:pointer;"><path d=" M 1963.17,  392.72  L 1946.17,  392.72  L 1946.17,  401.22  L 1963.17,  401.22  L 1963.17,  392.72 " style="&st2;" /><text style="&st8;" transform="matrix(&st16;  1948.06  399.46 )"><tspan style="&st18;" x="0" y="0">EL5</tspan></text></a><a ewd:code="EL5" ewd:figID="49" ewd:figtype="w2w" ewd:pinNo="5" style="cursor:pointer;"><path d=" M 2005.66,  392.72  L 1988.67,  392.72  L 1988.67,  401.22  L 2005.66,  401.22  L 2005.66,  392.72 " style="&st2;" /><text style="&st8;" transform="matrix(&st16;  1990.55  399.46 )"><tspan style="&st18;" x="0" y="0">EL5</tspan></text></a><a ewd:code="EA1" ewd:figID="50" ewd:figtype="w2w" ewd:pinNo="3" style="cursor:pointer;"><path d=" M 2762.04,  460.71  L 2745.04,  460.71  L 2745.04,  469.21  L 2762.04,  469.21  L 2762.04,  460.71 " style="&st2;" /><text style="&st8;" transform="matrix(&st16;  2746.96  467.45 )"><tspan style="&st18;" x="0" y="0">EA1</tspan></text></a><a ewd:code="EA1" ewd:figID="51" ewd:figtype="w2w" ewd:pinNo="49" style="cursor:pointer;"><path d=" M  382.44,  214.25  L  365.44,  214.25  L  365.44,  222.75  L  382.44,  222.75  L  382.44,  214.25 " style="&st2;" /><text style="&st8;" transform="matrix(&st16;  367.36  220.99 )"><tspan style="&st18;" x="0" y="0">EA1</tspan></text></a><a ewd:code="RE1" ewd:figID="52" ewd:figtype="w2w" ewd:pinNo="5" style="cursor:pointer;"><path d=" M   33.99,  231.25  L   17.00,  231.25  L   17.00,  239.75  L   33.99,  239.75  L   33.99,  231.25 " style="&st2;" /><text style="&st8;" transform="matrix(&st16;  18.77  237.99 )"><tspan style="&st18;" x="0" y="0">RE1</tspan></text></a><a ewd:code="RE1" ewd:figID="53" ewd:figtype="w2w" ewd:pinNo="9" style="cursor:pointer;"><path d=" M  212.46,  469.21  L  195.47,  469.21  L  195.47,  477.71  L  212.46,  477.71  L  212.46,  469.21 " style="&st2;" /><text style="&st8;" transform="matrix(&st16;  197.24  475.95 )"><tspan style="&st18;" x="0" y="0">RE1</tspan></text></a><a ewd:code="RE1" ewd:figID="54" ewd:figtype="w2w" ewd:pinNo="13" style="cursor:pointer;"><path d=" M  212.46,  384.22  L  195.47,  384.22  L  195.47,  392.72  L  212.46,  392.72  L  212.46,  384.22 " style="&st2;" /><text style="&st8;" transform="matrix(&st16;  197.24  390.96 )"><tspan style="&st18;" x="0" y="0">RE1</tspan></text></a><a ewd:code="RE3" ewd:figID="55" ewd:figtype="w2w" ewd:pinNo="11" style="cursor:pointer;"><path d=" M  977.34,  256.74  L  960.34,  256.74  L  960.34,  265.24  L  977.34,  265.24  L  977.34,  256.74 " style="&st2;" /><text style="&st8;" transform="matrix(&st16;  961.7  263.49 )"><tspan style="&st18;" x="0" y="0">RE3</tspan></text></a><a ewd:code="RE3" ewd:figID="56" ewd:figtype="w2w" ewd:pinNo="1" style="cursor:pointer;"><path d=" M  977.34,  316.23  L  960.34,  316.23  L  960.34,  324.73  L  977.34,  324.73  L  977.34,  316.23 " style="&st2;" /><text style="&st8;" transform="matrix(&st16;  961.7  322.98 )"><tspan style="&st18;" x="0" y="0">RE3</tspan></text></a><a ewd:code="EA1" ewd:figID="57" ewd:figtype="w2w" ewd:pinNo="43" style="cursor:pointer;"><path d=" M  977.34,  401.22  L  960.34,  401.22  L  960.34,  409.72  L  977.34,  409.72  L  977.34,  401.22 " style="&st2;" /><text style="&st8;" transform="matrix(&st16;  962.26  407.96 )"><tspan style="&st18;" x="0" y="0">EA1</tspan></text></a><a ewd:code="EA4" ewd:figID="58" ewd:figtype="w2w" ewd:pinNo="4" style="cursor:pointer;"><path d=" M  977.34,  409.72  L  960.34,  409.72  L  960.34,  418.22  L  977.34,  418.22  L  977.34,  409.72 " style="&st2;" /><text style="&st8;" transform="matrix(&st16;  961.85  416.46 )"><tspan style="&st18;" x="0" y="0">EA4</tspan></text></a><a ewd:code="EA1" ewd:figID="59" ewd:figtype="w2w" ewd:pinNo="61" style="cursor:pointer;"><path d=" M  900.85,  401.22  L  883.85,  401.22  L  883.85,  409.72  L  900.85,  409.72  L  900.85,  401.22 " style="&st2;" /><text style="&st8;" transform="matrix(&st16;  885.77  407.96 )"><tspan style="&st18;" x="0" y="0">EA1</tspan></text></a><a ewd:code="EA4" ewd:figID="60" ewd:figtype="w2w" ewd:pinNo="5" style="cursor:pointer;"><path d=" M  900.85,  409.72  L  883.85,  409.72  L  883.85,  418.22  L  900.85,  418.22  L  900.85,  409.72 " style="&st2;" /><text style="&st8;" transform="matrix(&st16;  885.36  416.46 )"><tspan style="&st18;" x="0" y="0">EA4</tspan></text></a><a ewd:code="EA1" ewd:figID="61" ewd:figtype="w2w" ewd:pinNo="41" style="cursor:pointer;"><path d=" M  841.36,  401.22  L  824.36,  401.22  L  824.36,  409.72  L  841.36,  409.72  L  841.36,  401.22 " style="&st2;" /><text style="&st8;" transform="matrix(&st16;  826.28  407.96 )"><tspan style="&st18;" x="0" y="0">EA1</tspan></text></a><a ewd:code="EA4" ewd:figID="62" ewd:figtype="w2w" ewd:pinNo="29" style="cursor:pointer;"><path d=" M  841.36,  409.72  L  824.36,  409.72  L  824.36,  418.22  L  841.36,  418.22  L  841.36,  409.72 " style="&st2;" /><text style="&st8;" transform="matrix(&st16;  825.87  416.46 )"><tspan style="&st18;" x="0" y="0">EA4</tspan></text></a><a ewd:code="EA3" ewd:figID="63" ewd:figtype="w2w" ewd:pinNo="68" style="cursor:pointer;"><path d=" M 1623.23,  452.21  L 1606.23,  452.21  L 1606.23,  460.71  L 1623.23,  460.71  L 1623.23,  452.21 " style="&st2;" /><text style="&st8;" transform="matrix(&st16;  1607.74  458.95 )"><tspan style="&st18;" x="0" y="0">EA3</tspan></text></a><a ewd:code="zA1" ewd:figID="64" ewd:figtype="w2w" ewd:pinNo="6" style="cursor:pointer;"><path d=" M 1623.23,  341.73  L 1606.23,  341.73  L 1606.23,  350.23  L 1623.23,  350.23  L 1623.23,  341.73 " style="&st2;" /><text style="&st8;" transform="matrix(&st16;  1608.74  348.47 )"><tspan style="&st18;" x="0" y="0">zA1</tspan></text></a><a ewd:code="zA1" ewd:figID="65" ewd:figtype="w2w" ewd:pinNo="3" style="cursor:pointer;"><path d=" M 1767.70,  486.20  L 1750.71,  486.20  L 1750.71,  494.70  L 1767.70,  494.70  L 1767.70,  486.20 " style="&st2;" /><text style="&st8;" transform="matrix(&st16;  1753.22  492.95 )"><tspan style="&st18;" x="0" y="0">zA1</tspan></text></a><a ewd:code="zz1" ewd:figID="66" ewd:figtype="w2w" ewd:pinNo="2" style="cursor:pointer;"><path d=" M 1691.22,  218.50  L 1674.22,  218.50  L 1674.22,  227.00  L 1691.22,  227.00  L 1691.22,  218.50 " style="&st2;" /><text style="&st8;" transform="matrix(&st16;  1677.33  225.24 )"><tspan style="&st18;" x="0" y="0">zz1</tspan></text></a><a ewd:code="EA1" ewd:figID="67" ewd:figtype="w2w" ewd:pinNo="67" style="cursor:pointer;"><path d=" M 3017.00,  443.71  L 3000.00,  443.71  L 3000.00,  452.21  L 3017.00,  452.21  L 3017.00,  443.71 " style="&st2;" /><text style="&st8;" transform="matrix(&st16;  3001.92  450.45 )"><tspan style="&st18;" x="0" y="0">EA1</tspan></text></a><a ewd:code="EA3" ewd:figID="68" ewd:figtype="w2w" ewd:pinNo="67" style="cursor:pointer;"><path d=" M 3017.00,  435.21  L 3000.00,  435.21  L 3000.00,  443.71  L 3017.00,  443.71  L 3017.00,  435.21 " style="&st2;" /><text style="&st8;" transform="matrix(&st16;  3001.51  441.96 )"><tspan style="&st18;" x="0" y="0">EA3</tspan></text></a><a ewd:code="EA1" ewd:figID="69" ewd:figtype="w2w" ewd:pinNo="46" style="cursor:pointer;"><path d=" M 2804.53,  120.77  L 2787.53,  120.77  L 2787.53,  129.26  L 2804.53,  129.26  L 2804.53,  120.77 " style="&st2;" /><text style="&st8;" transform="matrix(&st16;  2789.45  127.51 )"><tspan style="&st18;" x="0" y="0">EA1</tspan></text></a><a ewd:code="EA4" ewd:figID="70" ewd:figtype="w2w" ewd:pinNo="23" style="cursor:pointer;"><path d=" M 2762.04,  469.21  L 2745.04,  469.21  L 2745.04,  477.71  L 2762.04,  477.71  L 2762.04,  469.21 " style="&st2;" /><text style="&st8;" transform="matrix(&st16;  2746.55  475.95 )"><tspan style="&st18;" x="0" y="0">EA4</tspan></text></a><a ewd:code="A4" ewd:figID="71" ewd:figtype="gp" style="cursor:pointer;"><path d=" M  822.24,  681.67  L  843.48,  681.67  L  832.86,  697.25  L  822.24,  681.67 " style="&st2;" /><text style="&st8;" transform="matrix(&st16;  828.32  689.83 )"><tspan style="&st18;" x="0" y="0">A4</tspan></text></a><a ewd:code="C7" ewd:figID="72" ewd:figtype="gp" style="cursor:pointer;"><path d=" M 2946.88,  681.67  L 2968.13,  681.67  L 2957.51,  697.25  L 2946.88,  681.67 " style="&st2;" /><text style="&st8;" transform="matrix(&st16;  2952.82  689.83 )"><tspan style="&st18;" x="0" y="0">C7</tspan></text></a><a ewd:code="C1" ewd:figID="73" ewd:figtype="gp" style="cursor:pointer;"><path d=" M 2997.87,  681.67  L 3019.12,  681.67  L 3008.50,  697.25  L 2997.87,  681.67 " style="&st2;" /><text style="&st8;" transform="matrix(&st16;  3004.22  689.83 )"><tspan style="&st18;" x="0" y="0">C1</tspan></text></a><a ewd:code="A5" ewd:figID="74" ewd:figtype="gp" style="cursor:pointer;"><path d=" M 1748.58,  681.67  L 1769.83,  681.67  L 1759.21,  697.25  L 1748.58,  681.67 " style="&st2;" /><text style="&st8;" transform="matrix(&st16;  1754.67  689.83 )"><tspan style="&st18;" x="0" y="0">A5</tspan></text></a><a ewd:code="E5" ewd:figID="75" ewd:figtype="gp" style="cursor:pointer;"><path d=" M   99.86,  681.67  L  121.10,  681.67  L  110.48,  697.25  L   99.86,  681.67 " style="&st2;" /><text style="&st8;" transform="matrix(&st16;  105.95  689.83 )"><tspan style="&st18;" x="0" y="0">E5</tspan></text></a><a ewd:code="E5" ewd:figID="76" ewd:figtype="gp" style="cursor:pointer;"><path d=" M  728.75,  681.67  L  750.00,  681.67  L  739.38,  697.25  L  728.75,  681.67 " style="&st2;" /><text style="&st8;" transform="matrix(&st16;  734.84  689.83 )"><tspan style="&st18;" x="0" y="0">E5</tspan></text></a><a ewd:code="C8" ewd:figID="77" ewd:figtype="gp" style="cursor:pointer;"><path d=" M 3048.87,  681.67  L 3070.11,  681.67  L 3059.49,  697.25  L 3048.87,  681.67 " style="&st2;" /><text style="&st8;" transform="matrix(&st16;  3054.8  689.83 )"><tspan style="&st18;" x="0" y="0">C8</tspan></text></a><a ewd:code="L3" ewd:figID="78" ewd:figtype="gp" style="cursor:pointer;"><path d=" M 1136.69,  681.67  L 1157.93,  681.67  L 1147.31,  697.25  L 1136.69,  681.67 " style="&st2;" /><text style="&st8;" transform="matrix(&st16;  1143.14  689.83 )"><tspan style="&st18;" x="0" y="0">L3</tspan></text></a><a ewd:code="13573" ewd:figID="79" ewd:figtype="sp" style="cursor:pointer;"><path d=" M 1754.96,  214.25  L 1763.46,  214.25  L 1767.70,  218.50  L 1767.70,  227.00  L 1763.46,  231.25  L 1754.96,  231.25  L 1750.71,  227.00  L 1750.71,  218.50  L 1754.96,  214.25 " style="&st2;" /></a><a ewd:code="13261" ewd:figID="80" ewd:figtype="sp" style="cursor:pointer;"><path d=" M  369.69,  239.75  L  378.19,  239.75  L  382.44,  243.99  L  382.44,  252.49  L  378.19,  256.74  L  369.69,  256.74  L  365.44,  252.49  L  365.44,  243.99  L  369.69,  239.75 " style="&st2;" /></a><a ewd:code="13633" ewd:figID="81" ewd:figtype="sp" style="cursor:pointer;"><path d=" M 1754.96,  418.22  L 1763.46,  418.22  L 1767.70,  422.46  L 1767.70,  430.96  L 1763.46,  435.21  L 1754.96,  435.21  L 1750.71,  430.96  L 1750.71,  422.46  L 1754.96,  418.22 " style="&st2;" /></a><a ewd:code="13201" ewd:figID="82" ewd:figtype="sp" style="cursor:pointer;"><path d=" M  242.21,  231.25  L  250.71,  231.25  L  254.96,  235.50  L  254.96,  243.99  L  250.71,  248.24  L  242.21,  248.24  L  237.96,  243.99  L  237.96,  235.50  L  242.21,  231.25 " style="&st2;" /></a><a ewd:code="13333" ewd:figID="83" ewd:figtype="sp" style="cursor:pointer;"><path d=" M  556.66,  171.76  L  565.16,  171.76  L  569.40,  176.01  L  569.40,  184.50  L  565.16,  188.75  L  556.66,  188.75  L  552.41,  184.50  L  552.41,  176.01  L  556.66,  171.76 " style="&st2;" /></a><a ewd:code="18733" ewd:figID="84" ewd:figtype="sp" style="cursor:pointer;"><path d=" M 1143.06,  367.22  L 1151.56,  367.22  L 1155.81,  371.47  L 1155.81,  379.97  L 1151.56,  384.22  L 1143.06,  384.22  L 1138.81,  379.97  L 1138.81,  371.47  L 1143.06,  367.22 " style="&st2;" /></a><a ewd:code="13489" ewd:figID="85" ewd:figtype="sp" style="cursor:pointer;"><path d=" M  106.23,  435.21  L  114.73,  435.21  L  118.98,  439.46  L  118.98,  447.96  L  114.73,  452.21  L  106.23,  452.21  L  101.98,  447.96  L  101.98,  439.46  L  106.23,  435.21 " style="&st2;" /></a><a ewd:code="18781" ewd:figID="86" ewd:figtype="sp" style="cursor:pointer;"><path d=" M 1143.06,  435.21  L 1151.56,  435.21  L 1155.81,  439.46  L 1155.81,  447.96  L 1151.56,  452.21  L 1143.06,  452.21  L 1138.81,  447.96  L 1138.81,  439.46  L 1143.06,  435.21 " style="&st2;" /></a><a ewd:code="13405" ewd:figID="87" ewd:figtype="sp" style="cursor:pointer;"><path d=" M  752.12,  222.75  L  760.62,  222.75  L  764.87,  227.00  L  764.87,  235.50  L  760.62,  239.75  L  752.12,  239.75  L  747.88,  235.50  L  747.88,  227.00  L  752.12,  222.75 " style="&st2;" /></a></g></svg>