﻿<?xml version="1.0" encoding="utf-8"?>
<!DOCTYPE svg PUBLIC "-//W3C//DTD SVG 1.0//EN" "http://www.w3.org/TR/2001/REC-SVG-20010904/DTD/svg10.dtd"[
	<!ENTITY ns_flows "http://ns.adobe.com/Flows/1.0/">
	<!ENTITY ns_svg "http://www.w3.org/2000/svg">
	<!ENTITY ns_xlink "http://www.w3.org/1999/xlink">
	<!ENTITY st0 "font-size:7px;font-family:'MS-PGothic';adobe-font-script:japanese;">
	<!ENTITY st1 "font-size:6px;font-family:'ArialMT';">
	<!-- White fill  -->
	<!ENTITY st2 "fill:#FFFFFF;stroke:#000000; stroke-width:1.41;stroke-linecap:round;stroke-linejoin:round;">
	<!-- Yellow fill  -->
	<!ENTITY st3 "fill:#FFFFCC;stroke:#FFFFCC; stroke-width:0.1;stroke-linecap:round;stroke-linejoin:round;">
	<!-- Gray fill  -->
	<!ENTITY st4 "fill:#CCCCCC;stroke:#CCCCCC; stroke-width:0.1;stroke-linecap:round;stroke-linejoin:round;">
	<!-- Light-blue fill -->
	<!ENTITY st5 "fill:#CCECF4;stroke:#000000; stroke-width:1.133;stroke-linecap:round;stroke-linejoin:round;">
	<!ENTITY st6 "fill:none;stroke-linecap:butt; stroke-linejoin:round;">
	<!ENTITY st7 "fill:none;stroke:#000000;stroke-linecap:round;stroke-linejoin:round;">
	<!ENTITY st8 "enable-background:new    ;">
	<!-- Black fill -->
	<!ENTITY st9 "fill:#000000;stroke:#000000; stroke-linecap:round;stroke-linejoin:round;">
	<!-- SRS note   -->
	<!ENTITY st10 "font-size:9px;font-family:'ArialMT';">
	<!ENTITY st11 "font-size:9px;font-family:'Svg Symbol';">
	<!ENTITY st12 "font-size:6px;font-family:'Svg Symbol';">
	<!ENTITY st13 "fill:none;stroke:#ff0000;stroke-linecap:round;stroke-linejoin:round;">
	<!-- Yellow fill  -->
	<!ENTITY st14 "fill:#FFFF00;stroke:#FFFF00; stroke-width:0.1;stroke-linecap:round;stroke-linejoin:round;">
	<!ENTITY st15 "font-size:6px;font-family:'MS-PGothic';adobe-font-script:japanese;">
	<!ENTITY st16 "1.00 0.00 0.00 1.00">
	<!ENTITY st17 "0.00 -1.00 1.00 0.00">
	<!ENTITY st18 "font-size:6px;font-family:'Arial';">
	<!ENTITY st19 "font-size:9px;font-family:'Arial';">
	<!ENTITY st20 "font-size:6px;font-family:'MS-PGothic','MS PGothic';adobe-font-script:japanese;">
	<!ENTITY st21 "font-size:7px;font-family:'MS-PGothic','MS PGothic';adobe-font-script:japanese;">
	<!ATTLIST svg
		xmlns:ewd CDATA #FIXED "http://shcl.co.jp/ewd"
		xmlns:a CDATA #FIXED "http://ns.adobe.com/AdobeSVGViewerExtensions/3.0/"
		ewd:ver CDATA #IMPLIED
	>
	<!ATTLIST a
		ewd:lineID CDATA #IMPLIED
		ewd:groupID CDATA #IMPLIED
		ewd:figtype CDATA #IMPLIED
		ewd:code CDATA #IMPLIED
		ewd:figID CDATA #IMPLIED
		ewd:pinNo CDATA #IMPLIED
		ewd:comment CDATA #IMPLIED >
	<!ATTLIST g
		ewd:lineID CDATA #IMPLIED
		ewd:groupID CDATA #IMPLIED
		ewd:figtype CDATA #IMPLIED
		ewd:code CDATA #IMPLIED
		ewd:figID CDATA #IMPLIED
		ewd:pinNo CDATA #IMPLIED
		ewd:comment CDATA #IMPLIED >
	<!ATTLIST text
		ewd:textID CDATA #IMPLIED >
	<!ATTLIST title
		ewd:textID CDATA #IMPLIED >
]>
<!-- Generator: Shintec Hozumi YS   -->
<svg onload="call_execInitLoadProc_svg('system')" style="overflow:visible;  enable-background:new 0 0 3595.608 710.000" viewBox="0 0 3595.608 710.000" height="710.000" width="3595.608" xml:space="preserve" ewd:ver="L2.1.2.8" xmlns="&ns_svg;" xmlns:a="http://ns.adobe.com/AdobeSVGViewerExtensions/3.0/" xmlns:ewd="http://shcl.co.jp/ewd" xmlns:xlink="&ns_xlink;">
<path d=" M 2898.02,  537.20  L 2889.52,  537.20 " style="stroke-width: 1.42 ;&st7; " /><path d=" M 2876.77,  248.24  L 2868.27,  248.24 " style="stroke-width: 0.85 ;&st7; " /><path d=" M 2798.16,  171.76  L 2793.91,  171.76 " style="stroke-width: 1.42 ;&st7; " /><path d=" M 2755.66,  171.76  L 2751.42,  171.76 " style="stroke-width: 1.42 ;&st7; " /><path d=" M 2755.66,  180.26  L 2751.42,  180.26 " style="stroke-width: 1.42 ;&st7; " /><path d=" M 2755.66,  137.76  L 2751.42,  137.76 " style="stroke-width: 1.42 ;&st7; " /><path d=" M 2755.66,  129.26  L 2751.42,  129.26 " style="stroke-width: 1.42 ;&st7; " /><path d=" M 2753.54,  103.77  L 2753.54,  129.26 " style="stroke-width: 0.85 ;&st7; " /><path d=" M 2898.02,  171.76  L 2906.51,  171.76 " style="stroke-width: 1.42 ;&st7; " /><path d=" M 2908.64,  137.76  L 2904.39,  137.76 " style="stroke-width: 1.42 ;&st7; " /><path d=" M 2908.64,  129.26  L 2904.39,  129.26 " style="stroke-width: 1.42 ;&st7; " /><path d=" M 2906.51,  103.77  L 2906.51,  129.26 " style="stroke-width: 0.85 ;&st7; " /><path d=" M 2910.76,  248.24  L 2902.27,  248.24 " style="stroke-width: 0.85 ;&st7; " /><path d=" M 2834.28,  248.24  L 2825.78,  248.24 " style="stroke-width: 0.85 ;&st7; " /><path d=" M 2798.16,  180.26  L 2793.91,  180.26 " style="stroke-width: 1.42 ;&st7; " /><path d=" M 2515.58,  180.26  L 2524.08,  180.26 " style="stroke-width: 1.42 ;&st7; " /><path d=" M 2526.20,  137.76  L 2521.95,  137.76 " style="stroke-width: 1.42 ;&st7; " /><path d=" M 2526.20,  129.26  L 2521.95,  129.26 " style="stroke-width: 1.42 ;&st7; " /><path d=" M 2524.08,  103.77  L 2524.08,  112.27 " style="stroke-width: 0.85 ;&st7; " /><path d=" M 2893.77,  546.26  L 2889.52,  542.01  L 2885.27,  546.26 " style="stroke-width: 1.42 ;&st7; " /><path d=" M 2893.77,  542.86  L 2889.52,  538.61  L 2885.27,  542.86 " style="stroke-width: 1.42 ;&st7; " /><path d=" M 2745.04,  367.22  L 2745.04,  401.22 " style="stroke-width: 0.85 ;&st7; " /><path d=" M 2711.05,  222.75  L 2711.05,  401.22  L 2957.50,  401.22  L 2957.50,  222.75  L 2711.05,  222.75 " style="stroke-width: 1.42 ;&st7; " /><path d=" M 2830.03,  307.73  L 2728.04,  307.73  L 2728.04,  324.73  L 2923.51,  324.73  L 2923.51,  307.73  L 2821.53,  307.73 " style="stroke-width: 1.42 ;&st7; " /><path d=" M 2881.02,  701.50  L 2898.01,  701.50 " style="stroke-width: 0.85 ;&st7; " /><path d=" M 2885.27,  704.33  L 2893.77,  704.33 " style="stroke-width: 0.85 ;&st7; " /><path d=" M 2886.68,  707.17  L 2892.35,  707.17 " style="stroke-width: 0.85 ;&st7; " /><path d=" M 2888.10,  710.00  L 2890.93,  710.00 " style="stroke-width: 0.85 ;&st7; " /><path d=" M 2881.02,  571.19  L 2881.02,  596.69  L 2898.01,  596.69  L 2898.01,  571.19  L 2881.02,  571.19 " style="stroke-width: 1.42 ;&st7; " /><path d=" M 2881.02,  579.69  L 2898.01,  579.69 " style="stroke-width: 1.13 ;&st7;stroke-dasharray:3, 1.5;" /><path d=" M 2881.02,  588.19  L 2898.01,  588.19 " style="stroke-width: 1.13 ;&st7;stroke-dasharray:3, 1.5;" /><path d=" M 2889.52,  571.19  L 2889.52,  596.69 " style="stroke-width: 0.85 ;&st7; " /><path d=" M 2881.02,  460.71  L 2881.02,  477.71  L 2898.01,  477.71  L 2898.01,  460.71  L 2881.02,  460.71 " style="stroke-width: 1.42 ;&st7; " /><path d=" M 2889.52,  460.71  L 2889.52,  477.71 " style="stroke-width: 0.85 ;&st7; " /><path d=" M 2906.51,  124.37  L 2903.68,  121.54  L 2903.68,  125.79  L 2906.51,  128.62  L 2909.35,  125.79  L 2909.35,  121.54  L 2906.51,  124.37 " style="stroke-width: 0.28 ;&st9;" /><path d=" M 2893.77,   69.77  L 2893.77,  112.27  L 2919.26,  112.27  L 2919.26,   69.77  L 2893.77,   69.77 " style="stroke-width: 1.42 ;&st7; " /><path d=" M 2910.76,  166.09  L 2906.51,  170.34  L 2902.26,  166.09 " style="stroke-width: 1.42 ;&st7; " /><path d=" M 2902.26,  162.69  L 2906.51,  166.94  L 2910.76,  162.69 " style="stroke-width: 1.42 ;&st7; " /><path d=" M 2753.54,  124.37  L 2750.71,  121.54  L 2750.71,  125.79  L 2753.54,  128.62  L 2756.37,  125.79  L 2756.37,  121.54  L 2753.54,  124.37 " style="stroke-width: 0.28 ;&st9;" /><path d=" M 2906.51,  367.22  L 2906.51,  358.73  L 2889.52,  358.73 " style="stroke-width: 0.85 ;&st7; " /><path d=" M 2889.52,  324.73  L 2889.52,  401.22 " style="stroke-width: 0.85 ;&st7; " /><path d=" M 2898.01,  367.22  L 2915.01,  367.22 " style="stroke-width: 0.85 ;&st7; " /><path d=" M 2902.26,  370.06  L 2910.76,  370.06 " style="stroke-width: 0.85 ;&st7; " /><path d=" M 2903.68,  372.89  L 2909.35,  372.89 " style="stroke-width: 0.85 ;&st7; " /><path d=" M 2905.10,  375.72  L 2907.93,  375.72 " style="stroke-width: 0.85 ;&st7; " /><path d=" M 2888.32,  357.72  L 2888.05,  358.19  L 2887.96,  358.73  L 2888.05,  359.26  L 2888.32,  359.73  L 2888.74,  360.07  L 2889.24,  360.26  L 2889.79,  360.26  L 2890.30,  360.07  L 2890.71,  359.73  L 2890.98,  359.26  L 2891.07,  358.73  L 2890.98,  358.19  L 2890.71,  357.72  L 2890.30,  357.38  L 2889.79,  357.19  L 2889.24,  357.19  L 2888.74,  357.38  L 2888.32,  357.72  L 2888.72,  358.43  L 2888.72,  359.02  L 2889.09,  359.46  L 2889.66,  359.56  L 2890.17,  359.27  L 2890.37,  358.73  L 2890.17,  358.18  L 2889.66,  357.89  L 2889.09,  357.99  L 2889.52,  358.73 " style="stroke-width: 0.85 ;&st7; " /><path d=" M 2872.52,  265.24  L 2872.52,  231.25  L 2906.51,  231.25 " style="stroke-width: 0.85 ;&st7; " /><path d=" M 2830.03,  248.24  L 2824.36,  239.75  L 2835.69,  239.75  L 2830.03,  248.24 " style="stroke-width: 0.28 ;&st9;" /><path d=" M 2830.03,  222.75  L 2830.03,  265.24 " style="stroke-width: 0.85 ;&st7; " /><path d=" M 2906.51,  248.24  L 2900.85,  239.75  L 2912.18,  239.75  L 2906.51,  248.24 " style="stroke-width: 0.28 ;&st9;" /><path d=" M 2906.51,  222.75  L 2906.51,  307.73 " style="stroke-width: 0.85 ;&st7; " /><path d=" M 2728.04,  256.74  L 2796.03,  256.74  L 2796.03,  290.74  L 2728.04,  290.74  L 2728.04,  256.74 " style="stroke-width: 1.42 ;&st7; " /><path d=" M 2828.83,  264.24  L 2828.56,  264.71  L 2828.47,  265.24  L 2828.56,  265.77  L 2828.83,  266.24  L 2829.25,  266.59  L 2829.75,  266.78  L 2830.30,  266.78  L 2830.80,  266.59  L 2831.22,  266.24  L 2831.49,  265.77  L 2831.58,  265.24  L 2831.49,  264.71  L 2831.22,  264.24  L 2830.80,  263.89  L 2830.30,  263.71  L 2829.75,  263.71  L 2829.25,  263.89  L 2828.83,  264.24  L 2829.23,  264.95  L 2829.23,  265.53  L 2829.60,  265.98  L 2830.17,  266.08  L 2830.68,  265.79  L 2830.88,  265.24  L 2830.68,  264.69  L 2830.17,  264.41  L 2829.60,  264.50  L 2830.03,  265.24 " style="stroke-width: 0.85 ;&st7; " /><path d=" M 2872.52,  248.24  L 2866.85,  239.75  L 2878.18,  239.75  L 2872.52,  248.24 " style="stroke-width: 0.28 ;&st9;" /><path d=" M 2905.32,  230.24  L 2905.05,  230.71  L 2904.96,  231.25  L 2905.05,  231.78  L 2905.32,  232.25  L 2905.73,  232.60  L 2906.24,  232.78  L 2906.78,  232.78  L 2907.29,  232.60  L 2907.71,  232.25  L 2907.98,  231.78  L 2908.07,  231.25  L 2907.98,  230.71  L 2907.71,  230.24  L 2907.29,  229.90  L 2906.78,  229.71  L 2906.24,  229.71  L 2905.73,  229.90  L 2905.32,  230.24  L 2905.71,  230.96  L 2905.71,  231.54  L 2906.09,  231.98  L 2906.66,  232.08  L 2907.16,  231.79  L 2907.36,  231.25  L 2907.16,  230.70  L 2906.66,  230.41  L 2906.09,  230.51  L 2906.51,  231.25 " style="stroke-width: 0.85 ;&st7; " /><path d=" M 2905.32,  281.24  L 2905.05,  281.71  L 2904.96,  282.24  L 2905.05,  282.77  L 2905.32,  283.24  L 2905.73,  283.59  L 2906.24,  283.77  L 2906.78,  283.77  L 2907.29,  283.59  L 2907.71,  283.24  L 2907.98,  282.77  L 2908.07,  282.24  L 2907.98,  281.71  L 2907.71,  281.24  L 2907.29,  280.89  L 2906.78,  280.70  L 2906.24,  280.70  L 2905.73,  280.89  L 2905.32,  281.24  L 2905.71,  281.95  L 2905.71,  282.53  L 2906.09,  282.97  L 2906.66,  283.07  L 2907.16,  282.79  L 2907.36,  282.24  L 2907.16,  281.69  L 2906.66,  281.40  L 2906.09,  281.50  L 2906.51,  282.24 " style="stroke-width: 0.85 ;&st7; " /><path d=" M 2889.52,  697.25  L 2889.52,  701.50 " style="stroke-width: 0.85 ;&st7; " /><path d=" M 2872.52,  265.24  L 2796.03,  265.24 " style="stroke-width: 0.85 ;&st7; " /><path d=" M 2906.51,  282.24  L 2796.03,  282.24 " style="stroke-width: 0.85 ;&st7; " /><path d=" M 2753.54,  180.26  L 2753.54,  197.25  L 2796.03,  197.25  L 2796.03,  180.26 " style="stroke-width: 0.85 ;&st7; " /><path d=" M 2796.03,  185.15  L 2798.86,  187.98  L 2798.86,  183.73  L 2796.03,  180.90  L 2793.20,  183.73  L 2793.20,  187.98  L 2796.03,  185.15 " style="stroke-width: 0.28 ;&st9;" /><path d=" M 2753.54,  185.15  L 2756.37,  187.98  L 2756.37,  183.73  L 2753.54,  180.90  L 2750.71,  183.73  L 2750.71,  187.98  L 2753.54,  185.15 " style="stroke-width: 0.28 ;&st9;" /><path d=" M 2787.53,  112.27  L 2787.53,  129.26  L 2838.52,  129.26  L 2838.52,  112.27  L 2787.53,  112.27 " style="stroke-width: 1.42 ;&st7; " /><path d=" M 2796.03,  129.26  L 2796.03,  120.77  L 2830.03,  120.77  L 2830.03,  129.26 " style="stroke-width: 0.85 ;&st7; " /><path d=" M 2740.79,   69.77  L 2740.79,  112.27  L 2766.29,  112.27  L 2766.29,   69.77  L 2740.79,   69.77 " style="stroke-width: 1.42 ;&st7; " /><path d=" M 2519.83,  171.19  L 2524.08,  175.44  L 2528.33,  171.19 " style="stroke-width: 1.42 ;&st7; " /><path d=" M 2528.33,  174.59  L 2524.08,  178.84  L 2519.83,  174.59 " style="stroke-width: 1.42 ;&st7; " /><path d=" M 2524.08,  112.27  L 2524.08,  129.26 " style="stroke-width: 0.85 ;&st7; " /><path d=" M 2524.08,  124.37  L 2521.24,  121.54  L 2521.24,  125.79  L 2524.08,  128.62  L 2526.91,  125.79  L 2526.91,  121.54  L 2524.08,  124.37 " style="stroke-width: 0.28 ;&st9;" /><path d=" M 2511.33,   69.77  L 2511.33,  112.27  L 2536.83,  112.27  L 2536.83,   69.77  L 2511.33,   69.77 " style="stroke-width: 1.42 ;&st7; " /><path d=" M 2507.08,  231.25  L 2507.08,  282.24 " style="stroke-width: 0.85 ;&st7; " /><path d=" M 2779.03,  324.73  L 2779.03,  341.73 " style="stroke-width: 0.85 ;&st7; " /><path d=" M 2779.03,  367.22  L 2779.03,  401.22 " style="stroke-width: 0.85 ;&st7; " /><path d=" M 2745.04,  324.73  L 2745.04,  341.73 " style="stroke-width: 0.85 ;&st7; " /><path d=" M 2736.54,  341.73  L 2736.54,  367.22  L 2787.53,  367.22  L 2787.53,  341.73  L 2736.54,  341.73 " style="stroke-width: 1.42 ;&st7; " /><path d=" M 2515.58,  350.23  L 2515.58,  367.22 " style="stroke-width: 0.85 ;&st7; " /><path d=" M 2813.03,  401.22  L 2813.03,  384.22  L 2821.53,  384.22  L 2822.94,  381.39  L 2825.78,  387.05  L 2828.61,  381.39  L 2831.44,  387.05  L 2834.28,  381.39  L 2837.11,  387.05  L 2838.52,  384.22  L 2847.02,  384.22  L 2847.02,  401.22 " style="stroke-width: 0.85 ;&st7; " /><path d=" M 2837.11,  710.00  L 2839.94,  710.00 " style="stroke-width: 0.85 ;&st7; " /><path d=" M 2835.69,  707.17  L 2841.36,  707.17 " style="stroke-width: 0.85 ;&st7; " /><path d=" M 2834.28,  704.33  L 2842.77,  704.33 " style="stroke-width: 0.85 ;&st7; " /><path d=" M 2830.03,  701.50  L 2847.02,  701.50 " style="stroke-width: 0.85 ;&st7; " /><path d=" M 2838.52,  697.25  L 2838.52,  701.50 " style="stroke-width: 0.85 ;&st7; " /><path d=" M 2524.08,  100.94  C 2526.82    99.32  2527.73    95.79  2526.12    93.06 " style="stroke-width: 1.42 ;&st7; " /><path d=" M 2526.12,   93.06  C 2525.60    92.17  2524.96    91.54  2524.08    91.02 " style="stroke-width: 1.42 ;&st7; " /><path d=" M 2524.08,   81.11  C 2521.34    82.72  2520.43    86.25  2522.04    88.98 " style="stroke-width: 1.42 ;&st7; " /><path d=" M 2522.04,   88.98  C 2522.56    89.87  2523.20    90.50  2524.08    91.02 " style="stroke-width: 1.42 ;&st7; " /><path d=" M 2520.11,  456.18  C 2520.11   453.67  2518.08   451.64  2515.58   451.64 " style="stroke-width: 1.42 ;&st7; " /><path d=" M 2515.58,  451.64  C 2513.08   451.64  2511.05   453.67  2511.05   456.18 " style="stroke-width: 1.42 ;&st7; " /><path d=" M 2511.05,  456.18  C 2511.05   458.68  2513.08   460.71  2515.58   460.71 " style="stroke-width: 1.42 ;&st7; " /><path d=" M 2515.58,  460.71  C 2518.08   460.71  2520.11   458.68  2520.11   456.18 " style="stroke-width: 1.42 ;&st7; " /><path d=" M 2525.49,  256.74  C 2525.49   255.96  2524.86   255.33  2524.08   255.33 " style="stroke-width: 0.85 ;&st7; " /><path d=" M 2524.08,  255.33  C 2523.30   255.33  2522.66   255.96  2522.66   256.74 " style="stroke-width: 0.85 ;&st7; " /><path d=" M 2522.66,  256.74  C 2522.66   257.52  2523.30   258.16  2524.08   258.16 " style="stroke-width: 0.85 ;&st7; " /><path d=" M 2524.08,  258.16  C 2524.86   258.16  2525.49   257.52  2525.49   256.74 " style="stroke-width: 0.85 ;&st7; " /><path d=" M 2783.57,  405.75  C 2783.57   403.25  2781.54   401.22  2779.04   401.22 " style="stroke-width: 1.42 ;&st7; " /><path d=" M 2779.04,  401.22  C 2776.53   401.22  2774.50   403.25  2774.50   405.75 " style="stroke-width: 1.42 ;&st7; " /><path d=" M 2774.50,  405.75  C 2774.50   408.25  2776.53   410.28  2779.04   410.28 " style="stroke-width: 1.42 ;&st7; " /><path d=" M 2779.04,  410.28  C 2781.54   410.28  2783.57   408.25  2783.57   405.75 " style="stroke-width: 1.42 ;&st7; " /><path d=" M 2749.57,  405.75  C 2749.57   403.25  2747.54   401.22  2745.04   401.22 " style="stroke-width: 1.42 ;&st7; " /><path d=" M 2745.04,  401.22  C 2742.54   401.22  2740.51   403.25  2740.51   405.75 " style="stroke-width: 1.42 ;&st7; " /><path d=" M 2740.51,  405.75  C 2740.51   408.25  2742.54   410.28  2745.04   410.28 " style="stroke-width: 1.42 ;&st7; " /><path d=" M 2745.04,  410.28  C 2747.54   410.28  2749.57   408.25  2749.57   405.75 " style="stroke-width: 1.42 ;&st7; " /><path d=" M 2520.11,  428.98  C 2520.11   426.48  2518.08   424.45  2515.58   424.45 " style="stroke-width: 1.42 ;&st7; " /><path d=" M 2515.58,  424.45  C 2513.08   424.45  2511.05   426.48  2511.05   428.98 " style="stroke-width: 1.42 ;&st7; " /><path d=" M 2511.05,  428.98  C 2511.05   431.48  2513.08   433.51  2515.58   433.51 " style="stroke-width: 1.42 ;&st7; " /><path d=" M 2515.58,  433.51  C 2518.08   433.51  2520.11   431.48  2520.11   428.98 " style="stroke-width: 1.42 ;&st7; " /><path d=" M 2520.11,  438.05  C 2520.11   435.54  2518.08   433.51  2515.58   433.51 " style="stroke-width: 1.42 ;&st7; " /><path d=" M 2515.58,  433.51  C 2513.08   433.51  2511.05   435.54  2511.05   438.05 " style="stroke-width: 1.42 ;&st7; " /><path d=" M 2511.05,  438.05  C 2511.05   440.55  2513.08   442.58  2515.58   442.58 " style="stroke-width: 1.42 ;&st7; " /><path d=" M 2515.58,  442.58  C 2518.08   442.58  2520.11   440.55  2520.11   438.05 " style="stroke-width: 1.42 ;&st7; " /><path d=" M 2520.11,  371.76  C 2520.11   369.25  2518.08   367.22  2515.58   367.22 " style="stroke-width: 1.42 ;&st7; " /><path d=" M 2515.58,  367.22  C 2513.08   367.22  2511.05   369.25  2511.05   371.76 " style="stroke-width: 1.42 ;&st7; " /><path d=" M 2511.05,  371.76  C 2511.05   374.26  2513.08   376.29  2515.58   376.29 " style="stroke-width: 1.42 ;&st7; " /><path d=" M 2515.58,  376.29  C 2518.08   376.29  2520.11   374.26  2520.11   371.76 " style="stroke-width: 1.42 ;&st7; " /><path d=" M 2520.11,  345.69  C 2520.11   343.19  2518.08   341.16  2515.58   341.16 " style="stroke-width: 1.42 ;&st7; " /><path d=" M 2515.58,  341.16  C 2513.08   341.16  2511.05   343.19  2511.05   345.69 " style="stroke-width: 1.42 ;&st7; " /><path d=" M 2511.05,  345.69  C 2511.05   348.20  2513.08   350.23  2515.58   350.23 " style="stroke-width: 1.42 ;&st7; " /><path d=" M 2515.58,  350.23  C 2518.08   350.23  2520.11   348.20  2520.11   345.69 " style="stroke-width: 1.42 ;&st7; " /><path d=" M 2817.56,  405.75  C 2817.56   403.25  2815.53   401.22  2813.03   401.22 " style="stroke-width: 1.42 ;&st7; " /><path d=" M 2813.03,  401.22  C 2810.53   401.22  2808.50   403.25  2808.50   405.75 " style="stroke-width: 1.42 ;&st7; " /><path d=" M 2808.50,  405.75  C 2808.50   408.25  2810.53   410.28  2813.03   410.28 " style="stroke-width: 1.42 ;&st7; " /><path d=" M 2813.03,  410.28  C 2815.53   410.28  2817.56   408.25  2817.56   405.75 " style="stroke-width: 1.42 ;&st7; " /><path d=" M 2851.56,  405.75  C 2851.56   403.25  2849.53   401.22  2847.02   401.22 " style="stroke-width: 1.42 ;&st7; " /><path d=" M 2847.02,  401.22  C 2844.52   401.22  2842.49   403.25  2842.49   405.75 " style="stroke-width: 1.42 ;&st7; " /><path d=" M 2842.49,  405.75  C 2842.49   408.25  2844.52   410.28  2847.02   410.28 " style="stroke-width: 1.42 ;&st7; " /><path d=" M 2847.02,  410.28  C 2849.53   410.28  2851.56   408.25  2851.56   405.75 " style="stroke-width: 1.42 ;&st7; " /><path d=" M 2525.49,  273.74  C 2525.49   272.96  2524.86   272.32  2524.08   272.32 " style="stroke-width: 0.85 ;&st7; " /><path d=" M 2524.08,  272.32  C 2523.30   272.32  2522.66   272.96  2522.66   273.74 " style="stroke-width: 0.85 ;&st7; " /><path d=" M 2522.66,  273.74  C 2522.66   274.52  2523.30   275.16  2524.08   275.16 " style="stroke-width: 0.85 ;&st7; " /><path d=" M 2524.08,  275.16  C 2524.86   275.16  2525.49   274.52  2525.49   273.74 " style="stroke-width: 0.85 ;&st7; " /><path d=" M 2894.05,  619.35  C 2894.05   616.85  2892.02   614.82  2889.52   614.82 " style="stroke-width: 1.42 ;&st7; " /><path d=" M 2889.52,  614.82  C 2887.01   614.82  2884.98   616.85  2884.98   619.35 " style="stroke-width: 1.42 ;&st7; " /><path d=" M 2884.98,  619.35  C 2884.98   621.85  2887.01   623.88  2889.52   623.88 " style="stroke-width: 1.42 ;&st7; " /><path d=" M 2889.52,  623.88  C 2892.02   623.88  2894.05   621.85  2894.05   619.35 " style="stroke-width: 1.42 ;&st7; " /><path d=" M 2520.11,  447.11  C 2520.11   444.61  2518.08   442.58  2515.58   442.58 " style="stroke-width: 1.42 ;&st7; " /><path d=" M 2515.58,  442.58  C 2513.08   442.58  2511.05   444.61  2511.05   447.11 " style="stroke-width: 1.42 ;&st7; " /><path d=" M 2511.05,  447.11  C 2511.05   449.61  2513.08   451.64  2515.58   451.64 " style="stroke-width: 1.42 ;&st7; " /><path d=" M 2515.58,  451.64  C 2518.08   451.64  2520.11   449.61  2520.11   447.11 " style="stroke-width: 1.42 ;&st7; " /><path d=" M 2894.05,  610.28  C 2894.05   607.78  2892.02   605.75  2889.52   605.75 " style="stroke-width: 1.42 ;&st7; " /><path d=" M 2889.52,  605.75  C 2887.01   605.75  2884.98   607.78  2884.98   610.28 " style="stroke-width: 1.42 ;&st7; " /><path d=" M 2884.98,  610.28  C 2884.98   612.79  2887.01   614.82  2889.52   614.82 " style="stroke-width: 1.42 ;&st7; " /><path d=" M 2889.52,  614.82  C 2892.02   614.82  2894.05   612.79  2894.05   610.28 " style="stroke-width: 1.42 ;&st7; " /><path d=" M 2894.05,  566.66  C 2894.05   564.15  2892.02   562.12  2889.52   562.12 " style="stroke-width: 1.42 ;&st7; " /><path d=" M 2889.52,  562.12  C 2887.01   562.12  2884.98   564.15  2884.98   566.66 " style="stroke-width: 1.42 ;&st7; " /><path d=" M 2884.98,  566.66  C 2884.98   569.16  2887.01   571.19  2889.52   571.19 " style="stroke-width: 1.42 ;&st7; " /><path d=" M 2889.52,  571.19  C 2892.02   571.19  2894.05   569.16  2894.05   566.66 " style="stroke-width: 1.42 ;&st7; " /><path d=" M 2911.05,  218.22  C 2911.05   215.71  2909.02   213.68  2906.51   213.68 " style="stroke-width: 1.42 ;&st7; " /><path d=" M 2906.51,  213.68  C 2904.01   213.68  2901.98   215.71  2901.98   218.22 " style="stroke-width: 1.42 ;&st7; " /><path d=" M 2901.98,  218.22  C 2901.98   220.72  2904.01   222.75  2906.51   222.75 " style="stroke-width: 1.42 ;&st7; " /><path d=" M 2906.51,  222.75  C 2909.02   222.75  2911.05   220.72  2911.05   218.22 " style="stroke-width: 1.42 ;&st7; " /><path d=" M 2900.14,  133.51  C 2900.14   135.86  2902.04   137.76  2904.39   137.76 " style="stroke-width: 1.42 ;&st7; " /><path d=" M 2907.93,   79.69  C 2907.93    78.91  2907.30    78.27  2906.51    78.27 " style="stroke-width: 0.85 ;&st7; " /><path d=" M 2906.51,   78.27  C 2905.73    78.27  2905.10    78.91  2905.10    79.69 " style="stroke-width: 0.85 ;&st7; " /><path d=" M 2905.10,   79.69  C 2905.10    80.47  2905.73    81.11  2906.51    81.11 " style="stroke-width: 0.85 ;&st7; " /><path d=" M 2906.51,   81.11  C 2907.30    81.11  2907.93    80.47  2907.93    79.69 " style="stroke-width: 0.85 ;&st7; " /><path d=" M 2834.56,  218.22  C 2834.56   215.71  2832.53   213.68  2830.03   213.68 " style="stroke-width: 1.42 ;&st7; " /><path d=" M 2830.03,  213.68  C 2827.52   213.68  2825.49   215.71  2825.49   218.22 " style="stroke-width: 1.42 ;&st7; " /><path d=" M 2825.49,  218.22  C 2825.49   220.72  2827.52   222.75  2830.03   222.75 " style="stroke-width: 1.42 ;&st7; " /><path d=" M 2830.03,  222.75  C 2832.53   222.75  2834.56   220.72  2834.56   218.22 " style="stroke-width: 1.42 ;&st7; " /><path d=" M 2904.39,  129.26  C 2902.04   129.26  2900.14   131.17  2900.14   133.51 " style="stroke-width: 1.42 ;&st7; " /><path d=" M 2907.93,  102.35  C 2907.93   101.57  2907.30   100.94  2906.51   100.94 " style="stroke-width: 0.85 ;&st7; " /><path d=" M 2906.51,  100.94  C 2905.73   100.94  2905.10   101.57  2905.10   102.35 " style="stroke-width: 0.85 ;&st7; " /><path d=" M 2905.10,  102.35  C 2905.10   103.13  2905.73   103.77  2906.51   103.77 " style="stroke-width: 0.85 ;&st7; " /><path d=" M 2906.51,  103.77  C 2907.30   103.77  2907.93   103.13  2907.93   102.35 " style="stroke-width: 0.85 ;&st7; " /><path d=" M 2908.64,  137.76  C 2910.99   137.76  2912.89   135.86  2912.89   133.51 " style="stroke-width: 1.42 ;&st7; " /><path d=" M 2906.51,  100.94  C 2909.25    99.32  2910.16    95.79  2908.55    93.06 " style="stroke-width: 1.42 ;&st7; " /><path d=" M 2908.55,   93.06  C 2908.03    92.17  2907.40    91.54  2906.51    91.02 " style="stroke-width: 1.42 ;&st7; " /><path d=" M 2894.05,  405.75  C 2894.05   403.25  2892.02   401.22  2889.52   401.22 " style="stroke-width: 1.42 ;&st7; " /><path d=" M 2889.52,  401.22  C 2887.01   401.22  2884.98   403.25  2884.98   405.75 " style="stroke-width: 1.42 ;&st7; " /><path d=" M 2884.98,  405.75  C 2884.98   408.25  2887.01   410.28  2889.52   410.28 " style="stroke-width: 1.42 ;&st7; " /><path d=" M 2889.52,  410.28  C 2892.02   410.28  2894.05   408.25  2894.05   405.75 " style="stroke-width: 1.42 ;&st7; " /><path d=" M 2906.51,   81.11  C 2903.78    82.72  2902.86    86.25  2904.48    88.98 " style="stroke-width: 1.42 ;&st7; " /><path d=" M 2904.48,   88.98  C 2905.00    89.87  2905.63    90.50  2906.51    91.02 " style="stroke-width: 1.42 ;&st7; " /><path d=" M 2894.05,  601.22  C 2894.05   598.71  2892.02   596.69  2889.52   596.69 " style="stroke-width: 1.42 ;&st7; " /><path d=" M 2889.52,  596.69  C 2887.01   596.69  2884.98   598.71  2884.98   601.22 " style="stroke-width: 1.42 ;&st7; " /><path d=" M 2884.98,  601.22  C 2884.98   603.72  2887.01   605.75  2889.52   605.75 " style="stroke-width: 1.42 ;&st7; " /><path d=" M 2889.52,  605.75  C 2892.02   605.75  2894.05   603.72  2894.05   601.22 " style="stroke-width: 1.42 ;&st7; " /><path d=" M 2802.41,  176.01  C 2802.41   173.66  2800.50   171.76  2798.16   171.76 " style="stroke-width: 1.42 ;&st7; " /><path d=" M 2798.16,  180.26  C 2800.50   180.26  2802.41   178.35  2802.41   176.01 " style="stroke-width: 1.42 ;&st7; " /><path d=" M 2789.66,  176.01  C 2789.66   178.35  2791.56   180.26  2793.91   180.26 " style="stroke-width: 1.42 ;&st7; " /><path d=" M 2793.91,  171.76  C 2791.56   171.76  2789.66   173.66  2789.66   176.01 " style="stroke-width: 1.42 ;&st7; " /><path d=" M 2751.42,  171.76  C 2749.07   171.76  2747.17   173.66  2747.17   176.01 " style="stroke-width: 1.42 ;&st7; " /><path d=" M 2747.17,  176.01  C 2747.17   178.35  2749.07   180.26  2751.42   180.26 " style="stroke-width: 1.42 ;&st7; " /><path d=" M 2755.66,  180.26  C 2758.01   180.26  2759.91   178.35  2759.91   176.01 " style="stroke-width: 1.42 ;&st7; " /><path d=" M 2759.91,  176.01  C 2759.91   173.66  2758.01   171.76  2755.66   171.76 " style="stroke-width: 1.42 ;&st7; " /><path d=" M 2759.91,  133.51  C 2759.91   131.17  2758.01   129.26  2755.66   129.26 " style="stroke-width: 1.42 ;&st7; " /><path d=" M 2755.66,  137.76  C 2758.01   137.76  2759.91   135.86  2759.91   133.51 " style="stroke-width: 1.42 ;&st7; " /><path d=" M 2747.17,  133.51  C 2747.17   135.86  2749.07   137.76  2751.42   137.76 " style="stroke-width: 1.42 ;&st7; " /><path d=" M 2751.42,  129.26  C 2749.07   129.26  2747.17   131.17  2747.17   133.51 " style="stroke-width: 1.42 ;&st7; " /><path d=" M 2754.96,  102.35  C 2754.96   101.57  2754.32   100.94  2753.54   100.94 " style="stroke-width: 0.85 ;&st7; " /><path d=" M 2753.54,  100.94  C 2752.76   100.94  2752.12   101.57  2752.12   102.35 " style="stroke-width: 0.85 ;&st7; " /><path d=" M 2752.12,  102.35  C 2752.12   103.13  2752.76   103.77  2753.54   103.77 " style="stroke-width: 0.85 ;&st7; " /><path d=" M 2753.54,  103.77  C 2754.32   103.77  2754.96   103.13  2754.96   102.35 " style="stroke-width: 0.85 ;&st7; " /><path d=" M 2754.96,   79.69  C 2754.96    78.91  2754.32    78.27  2753.54    78.27 " style="stroke-width: 0.85 ;&st7; " /><path d=" M 2753.54,   78.27  C 2752.76    78.27  2752.12    78.91  2752.12    79.69 " style="stroke-width: 0.85 ;&st7; " /><path d=" M 2752.12,   79.69  C 2752.12    80.47  2752.76    81.11  2753.54    81.11 " style="stroke-width: 0.85 ;&st7; " /><path d=" M 2753.54,   81.11  C 2754.32    81.11  2754.96    80.47  2754.96    79.69 " style="stroke-width: 0.85 ;&st7; " /><path d=" M 2753.54,  100.94  C 2756.28    99.32  2757.19    95.79  2755.58    93.06 " style="stroke-width: 1.42 ;&st7; " /><path d=" M 2755.58,   93.06  C 2755.06    92.17  2754.42    91.54  2753.54    91.02 " style="stroke-width: 1.42 ;&st7; " /><path d=" M 2753.54,   81.11  C 2750.80    82.72  2749.89    86.25  2751.50    88.98 " style="stroke-width: 1.42 ;&st7; " /><path d=" M 2751.50,   88.98  C 2752.02    89.87  2752.66    90.50  2753.54    91.02 " style="stroke-width: 1.42 ;&st7; " /><path d=" M 2912.89,  133.51  C 2912.89   131.17  2910.99   129.26  2908.64   129.26 " style="stroke-width: 1.42 ;&st7; " /><path d=" M 2530.45,  133.51  C 2530.45   131.17  2528.55   129.26  2526.20   129.26 " style="stroke-width: 1.42 ;&st7; " /><path d=" M 2526.20,  137.76  C 2528.55   137.76  2530.45   135.86  2530.45   133.51 " style="stroke-width: 1.42 ;&st7; " /><path d=" M 2517.70,  133.51  C 2517.70   135.86  2519.61   137.76  2521.95   137.76 " style="stroke-width: 1.42 ;&st7; " /><path d=" M 2521.95,  129.26  C 2519.61   129.26  2517.70   131.17  2517.70   133.51 " style="stroke-width: 1.42 ;&st7; " /><path d=" M 2525.49,  102.35  C 2525.49   101.57  2524.86   100.94  2524.08   100.94 " style="stroke-width: 0.85 ;&st7; " /><path d=" M 2524.08,  100.94  C 2523.30   100.94  2522.66   101.57  2522.66   102.35 " style="stroke-width: 0.85 ;&st7; " /><path d=" M 2522.66,  102.35  C 2522.66   103.13  2523.30   103.77  2524.08   103.77 " style="stroke-width: 0.85 ;&st7; " /><path d=" M 2524.08,  103.77  C 2524.86   103.77  2525.49   103.13  2525.49   102.35 " style="stroke-width: 0.85 ;&st7; " /><path d=" M 2525.49,   79.69  C 2525.49    78.91  2524.86    78.27  2524.08    78.27 " style="stroke-width: 0.85 ;&st7; " /><path d=" M 2524.08,   78.27  C 2523.30    78.27  2522.66    78.91  2522.66    79.69 " style="stroke-width: 0.85 ;&st7; " /><path d=" M 2522.66,   79.69  C 2522.66    80.47  2523.30    81.11  2524.08    81.11 " style="stroke-width: 0.85 ;&st7; " /><path d=" M 2524.08,   81.11  C 2524.86    81.11  2525.49    80.47  2525.49    79.69 " style="stroke-width: 0.85 ;&st7; " /><text style="&st18;" transform="matrix(&st16;  2521.53  430.95 )">(LHD *10,*9)</text><text style="&st18;" transform="matrix(&st16;  2521.53  440.01 )">(RHD *10)</text><text style="&st18;" transform="matrix(&st16;  2504.73  430.95 )">2</text><text style="&st18;" transform="matrix(&st16;  2513.25  430.95 )">B</text><text style="&st18;" transform="matrix(&st16;  2504.73  440.01 )">2</text><text style="&st18;" transform="matrix(&st16;  2513.11  440.01 )">C</text><text style="&st18;" transform="matrix(&st16;  2521.53  449.08 )">(LHD *4)</text><text style="&st18;" transform="matrix(&st16;  2521.53  458.14 )">(RHD *4)</text><text style="&st18;" transform="matrix(&st16;  2501.55  449.08 )">31</text><text style="&st18;" transform="matrix(&st16;  2513.25  449.08 )">B</text><text style="&st18;" transform="matrix(&st16;  2895.49  603.19 )">(*9,*10)</text><text style="&st18;" transform="matrix(&st16;  2887.19  612.25 )">B</text><text style="&st18;" transform="matrix(&st16;  2875.46  612.25 )">13</text><text style="&st18;" transform="matrix(&st16;  2895.49  612.25 )">(*8)</text><text style="&st18;" transform="matrix(&st17;  2885.82  665.23 )">BR</text><text style="&st18;" transform="matrix(&st16;  2870.75  534.92 )">67</text><text style="&st18;" transform="matrix(&st16;  2870.75  526.42 )">67</text><text style="&st18;" transform="matrix(&st16;  2899.43  526.42 )">(LHD)</text><text style="&st18;" transform="matrix(&st16;  2899.43  534.92 )">(RHD)</text><text style="&st18;" transform="matrix(&st17;  2897.15  666.61 )">(*4)</text><text style="&st18;" transform="matrix(&st16;  2887.19  407.72 )">A</text><text style="&st18;" transform="matrix(&st16;  2875.46  407.72 )">15</text><text ewd:textID="25" style="&st18;" transform="matrix(&st16;  2747.05  270.06 )">Power <tspan dy="6" x="0">Supply </tspan><tspan dy="6" x="0">Circuit</tspan></text><text style="&st18;" transform="matrix(&st16;  2815.97  220.18 )">17</text><text style="&st18;" transform="matrix(&st16;  2827.7  220.18 )">A</text><text style="&st18;" transform="matrix(&st16;  2892.46  220.18 )">18</text><text style="&st18;" transform="matrix(&st16;  2904.18  220.18 )">A</text><text style="&st18;" transform="matrix(&st16;  2892.35  397.53 )">ET</text><text style="&st18;" transform="matrix(&st16;  2832.86  230.94 )">B</text><text style="&st18;" transform="matrix(&st16;  2909.35  230.94 )">IG+</text><text style="&st18;" transform="matrix(&st17;  2885.82  431.52 )">BR</text><text style="&st18;" transform="matrix(&st17;  2885.82  559.0 )">BR</text><text style="&st18;" transform="matrix(&st16;  2887.19  568.63 )">A</text><text style="&st18;" transform="matrix(&st16;  2875.46  568.63 )">19</text><text style="&st18;" transform="matrix(&st16;  2887.19  603.19 )">B</text><text style="&st18;" transform="matrix(&st16;  2875.46  603.19 )">14</text><text style="&st18;" transform="matrix(&st17;  2885.82  508.0 )">BR</text><text ewd:textID="18" style="&st18;" transform="matrix(&st16;  2901.16  474.01 )">Junction Connector</text><text style="&st18;" transform="matrix(&st16;  2901.16  466.9 )">E60</text><text ewd:textID="18" style="&st18;" transform="matrix(&st16;  2901.16  580.24 )">Junction <tspan dy="6" x="0">Connector</tspan></text><text style="&st18;" transform="matrix(&st16;  2901.16  573.13 )">A37(A),C44(B)</text><text style="&st18;" transform="matrix(&st16;  2923.82  90.16 )">5A <tspan dy="6" x="0">MET</tspan></text><text style="&st18;" transform="matrix(&st16;  2904.92  135.48 )">1</text><text style="&st18;" transform="matrix(&st16;  2899.73  120.46 )">2</text><text style="&st18;" transform="matrix(&st16;  2900.44  66.08 )">(IG)</text><text style="&st18;" transform="matrix(&st16;  2887.74  177.98 )">33</text><text style="&st18;" transform="matrix(&st17;  2902.82  152.84 )">B</text><text style="&st18;" transform="matrix(&st17;  2902.82  195.33 )">B</text><text style="&st18;" transform="matrix(&st16;  2770.85  90.16 )">5A <tspan dy="6" x="0">ECU-B1</tspan></text><text style="&st18;" transform="matrix(&st16;  2751.95  135.48 )">1</text><text style="&st18;" transform="matrix(&st16;  2746.75  120.46 )">2</text><text style="&st18;" transform="matrix(&st16;  2744.43  66.08 )">(BAT)</text><text style="&st18;" transform="matrix(&st16;  2737.67  177.98 )">13</text><text style="&st18;" transform="matrix(&st16;  2749.23  177.98 )">2B</text><text style="&st18;" transform="matrix(&st16;  2791.58  177.98 )">2D</text><text style="&st18;" transform="matrix(&st16;  2780.16  177.98 )">14</text><text style="&st18;" transform="matrix(&st16;  2785.29  137.46 )">86</text><text style="&st18;" transform="matrix(&st16;  2819.28  137.46 )">26</text><text style="&st18;" transform="matrix(&st17;  2749.84  157.23 )">R</text><text style="&st18;" transform="matrix(&st17;  2792.34  157.23 )">R</text><text style="&st18;" transform="matrix(&st17;  2826.33  157.23 )">R</text><text ewd:textID="18" style="&st18;" transform="matrix(&st17;  2853.24  131.79 )">Junction Connector</text><text style="&st18;" transform="matrix(&st17;  2846.14  131.79 )">E59</text><text style="&st18;" transform="matrix(&st16;  2902.77  315.37 )">IG</text><text style="&st18;" transform="matrix(&st16;  2783.26  267.21 )">+B</text><text style="&st18;" transform="matrix(&st16;  2780.43  284.21 )">IG+</text><text style="&st18;" transform="matrix(&st16;  2505.31  186.47 )">25</text><text style="&st18;" transform="matrix(&st17;  2520.38  208.51 )">G</text><text style="&st18;" transform="matrix(&st17;  2520.38  157.51 )">G</text><text style="&st18;" transform="matrix(&st16;  2518.0  66.08 )">(IG)</text><text style="&st18;" transform="matrix(&st16;  2507.43  135.48 )">23</text><text style="&st18;" transform="matrix(&st16;  2519.77  135.48 )">2B</text><text style="&st18;" transform="matrix(&st16;  2541.38  90.16 )">10A <tspan dy="6" x="0">BK/UP LP</tspan></text><text style="&st18;" transform="matrix(&st16;  2513.25  468.34 )">P</text><text style="&st18;" transform="matrix(&st16;  2501.55  458.14 )">31</text><text style="&st18;" transform="matrix(&st16;  2513.11  458.14 )">C</text><text style="&st18;" transform="matrix(&st16;  2517.28  227.56 )">2</text><text style="&st18;" transform="matrix(&st16;  2519.27  241.71 )">RB</text><text style="&st18;" transform="matrix(&st17;  2548.69  284.76 )">C24</text><text ewd:textID="24" style="&st18;" transform="matrix(&st17;  2555.79  284.76 )">Park/Neutral Position Switch</text><text style="&st18;" transform="matrix(&st17;  2775.34  429.04 )">B</text><text style="&st18;" transform="matrix(&st17;  2741.35  429.04 )">V</text><text style="&st18;" transform="matrix(&st16;  2781.87  397.53 )">CANL</text><text style="&st18;" transform="matrix(&st16;  2747.87  397.53 )">CANH</text><text style="&st18;" transform="matrix(&st16;  2776.7  407.72 )">A</text><text style="&st18;" transform="matrix(&st16;  2764.2  407.72 )">26</text><text style="&st18;" transform="matrix(&st16;  2742.71  407.72 )">A</text><text style="&st18;" transform="matrix(&st16;  2730.21  407.72 )">25</text><text style="&st18;" transform="matrix(&st16;  2754.76  356.45 )">CAN</text><text style="&st18;" transform="matrix(&st17;  2843.33  429.19 )">R</text><text style="&st18;" transform="matrix(&st17;  2511.88  327.58 )">G-B</text><text style="&st18;" transform="matrix(&st16;  2504.7  373.73 )">5</text><text style="&st18;" transform="matrix(&st16;  2513.25  373.73 )">B</text><text style="&st18;" transform="matrix(&st16;  2504.7  347.66 )">6</text><text style="&st18;" transform="matrix(&st16;  2513.25  347.66 )">B</text><text ewd:textID="18" style="&st18;" transform="matrix(&st17;  2538.8  369.75 )">Junction <tspan dy="6" x="0">Connector</tspan></text><text style="&st18;" transform="matrix(&st17;  2531.69  369.75 )">C44(B)</text><text style="&st18;" transform="matrix(&st17;  2511.88  404.07 )">G-B</text><text style="&st18;" transform="matrix(&st16;  2802.93  407.72 )">1</text><text style="&st18;" transform="matrix(&st16;  2810.7  407.72 )">A</text><text style="&st18;" transform="matrix(&st16;  2836.15  407.72 )">2</text><text style="&st18;" transform="matrix(&st16;  2844.69  407.72 )">A</text><text style="&st18;" transform="matrix(&st16;  2815.86  397.53 )">MPX+</text><text style="&st18;" transform="matrix(&st16;  2849.86  397.53 )">MPX-</text><text style="&st18;" transform="matrix(&st17;  2809.33  431.45 )">LG</text><text style="&st18;" transform="matrix(&st16;  2561.84  592.99 )">LG</text><text style="&st18;" transform="matrix(&st16;  2564.1  609.99 )">R</text><text style="&st18;" transform="matrix(&st16;  2612.83  592.99 )">LG</text><text style="&st18;" transform="matrix(&st16;  2615.09  609.99 )">R</text><text ewd:textID="15" style="&st18;" transform="matrix(&st17;  2707.35  403.74 )">Combination Meter Assembly</text><text style="&st18;" transform="matrix(&st17;  2700.24  403.74 )">E7(A)</text><text style="&st18;" transform="matrix(&st16;  2564.24  550.5 )">V</text><text style="&st18;" transform="matrix(&st16;  2564.24  575.99 )">B</text><text style="&st18;" transform="matrix(&st16;  2615.23  575.99 )">B</text><text style="&st18;" transform="matrix(&st16;  2615.23  550.5 )">V</text><text style="&st18;" transform="matrix(&st16;  2615.23  40.58 )">B</text><text style="&st18;" transform="matrix(&st16;  2612.9  23.58 )">BE</text><text style="&st18;" transform="matrix(&st16;  2561.91  23.58 )">BE</text><text style="&st18;" transform="matrix(&st16;  2564.24  40.58 )">B</text><text style="&st18;" transform="matrix(&st16;  2887.19  621.32 )">B</text><text style="&st18;" transform="matrix(&st16;  2875.46  621.32 )">18</text><text style="&st18;" transform="matrix(&st16;  2895.49  621.32 )">(*7)</text><text style="&st18;" transform="matrix(&st16;  2878.77  485.9 )">74</text><text style="&st18;" transform="matrix(&st17;  2834.83  665.23 )">BR</text><text style="&st18;" transform="matrix(&st17;  2846.16  673.07 )">(*9,*10)</text><text style="&st18;" transform="matrix(&st16;  2878.77  457.02 )">34</text></svg>