﻿<?xml version="1.0" encoding="utf-8"?>
<!DOCTYPE svg PUBLIC "-//W3C//DTD SVG 1.0//EN" "http://www.w3.org/TR/2001/REC-SVG-20010904/DTD/svg10.dtd"[
	<!ENTITY ns_flows "http://ns.adobe.com/Flows/1.0/">
	<!ENTITY ns_svg "http://www.w3.org/2000/svg">
	<!ENTITY ns_xlink "http://www.w3.org/1999/xlink">
	<!ENTITY st0 "font-size:7px;font-family:'MS-PGothic';adobe-font-script:japanese;">
	<!ENTITY st1 "font-size:6px;font-family:'ArialMT';">
	<!-- White fill  -->
	<!ENTITY st2 "fill:#FFFFFF;stroke:#000000; stroke-width:1.41;stroke-linecap:round;stroke-linejoin:round;">
	<!-- Yellow fill  -->
	<!ENTITY st3 "fill:#FFFFCC;stroke:#FFFFCC; stroke-width:0.1;stroke-linecap:round;stroke-linejoin:round;">
	<!-- Gray fill  -->
	<!ENTITY st4 "fill:#CCCCCC;stroke:#CCCCCC; stroke-width:0.1;stroke-linecap:round;stroke-linejoin:round;">
	<!-- Light-blue fill -->
	<!ENTITY st5 "fill:#CCECF4;stroke:#000000; stroke-width:1.133;stroke-linecap:round;stroke-linejoin:round;">
	<!ENTITY st6 "fill:none;stroke-linecap:butt; stroke-linejoin:round;">
	<!ENTITY st7 "fill:none;stroke:#000000;stroke-linecap:round;stroke-linejoin:round;">
	<!ENTITY st8 "enable-background:new    ;">
	<!-- Black fill -->
	<!ENTITY st9 "fill:#000000;stroke:#000000; stroke-linecap:round;stroke-linejoin:round;">
	<!-- SRS note   -->
	<!ENTITY st10 "font-size:9px;font-family:'ArialMT';">
	<!ENTITY st11 "font-size:9px;font-family:'Svg Symbol';">
	<!ENTITY st12 "font-size:6px;font-family:'Svg Symbol';">
	<!ENTITY st13 "fill:none;stroke:#ff0000;stroke-linecap:round;stroke-linejoin:round;">
	<!-- Yellow fill  -->
	<!ENTITY st14 "fill:#FFFF00;stroke:#FFFF00; stroke-width:0.1;stroke-linecap:round;stroke-linejoin:round;">
	<!ENTITY st15 "font-size:6px;font-family:'MS-PGothic';adobe-font-script:japanese;">
	<!ENTITY st16 "1.00 0.00 0.00 1.00">
	<!ENTITY st17 "0.00 -1.00 1.00 0.00">
	<!ENTITY st18 "font-size:6px;font-family:'Arial';">
	<!ENTITY st19 "font-size:9px;font-family:'Arial';">
	<!ENTITY st20 "font-size:6px;font-family:'MS-PGothic','MS PGothic';adobe-font-script:japanese;">
	<!ENTITY st21 "font-size:7px;font-family:'MS-PGothic','MS PGothic';adobe-font-script:japanese;">
	<!ATTLIST svg
		xmlns:ewd CDATA #FIXED "http://shcl.co.jp/ewd"
		xmlns:a CDATA #FIXED "http://ns.adobe.com/AdobeSVGViewerExtensions/3.0/"
		ewd:ver CDATA #IMPLIED
	>
	<!ATTLIST a
		ewd:lineID CDATA #IMPLIED
		ewd:groupID CDATA #IMPLIED
		ewd:figtype CDATA #IMPLIED
		ewd:code CDATA #IMPLIED
		ewd:figID CDATA #IMPLIED
		ewd:pinNo CDATA #IMPLIED
		ewd:comment CDATA #IMPLIED >
	<!ATTLIST g
		ewd:lineID CDATA #IMPLIED
		ewd:groupID CDATA #IMPLIED
		ewd:figtype CDATA #IMPLIED
		ewd:code CDATA #IMPLIED
		ewd:figID CDATA #IMPLIED
		ewd:pinNo CDATA #IMPLIED
		ewd:comment CDATA #IMPLIED >
	<!ATTLIST text
		ewd:textID CDATA #IMPLIED >
	<!ATTLIST title
		ewd:textID CDATA #IMPLIED >
]>
<!-- Generator: Shintec Hozumi YS   -->
<svg onload="call_execInitLoadProc_svg('system')" style="overflow:visible;  enable-background:new 0 0 10362.970 710.000" viewBox="0 0 10362.970 710.000" height="710.000" width="10362.970" xml:space="preserve" ewd:ver="L2.1.2.8" xmlns="&ns_svg;" xmlns:a="http://ns.adobe.com/AdobeSVGViewerExtensions/3.0/" xmlns:ewd="http://shcl.co.jp/ewd" xmlns:xlink="&ns_xlink;">
<path d=" M  688.38,  256.74  L  739.38,  256.74 " style="stroke:#000000;stroke-width: 0.85 ;&st7;stroke-dasharray:3, 1.5;" /><path d=" M  751.40,  392.72  L  756.37,  387.75 " style="stroke-width: 1.42 ;&st7; " /><path d=" M  739.38,  387.75  L  744.35,  392.72 " style="stroke-width: 1.42 ;&st7; " /><path d=" M  756.37,  380.69  L  751.40,  375.72 " style="stroke-width: 1.42 ;&st7; " /><path d=" M  744.35,  375.72  L  739.38,  380.69 " style="stroke-width: 1.42 ;&st7; " /><path d=" M  858.36,  363.70  L  853.38,  358.73 " style="stroke-width: 1.42 ;&st7; " /><path d=" M  841.36,  370.75  L  846.33,  375.72 " style="stroke-width: 1.42 ;&st7; " /><path d=" M  853.38,  375.72  L  858.36,  370.75 " style="stroke-width: 1.42 ;&st7; " /><path d=" M  846.33,  358.73  L  841.36,  363.70 " style="stroke-width: 1.42 ;&st7; " /><path d=" M  905.10,  320.48  L  909.35,  320.48 " style="stroke-width: 1.42 ;&st7; " /><path d=" M  905.10,  439.46  L  909.35,  439.46 " style="stroke-width: 1.42 ;&st7; " /><path d=" M  909.35,  447.96  L  905.10,  447.96 " style="stroke-width: 1.42 ;&st7; " /><path d=" M  905.10,  473.46  L  909.35,  473.46 " style="stroke-width: 1.42 ;&st7; " /><path d=" M  909.35,  481.95  L  905.10,  481.95 " style="stroke-width: 1.42 ;&st7; " /><path d=" M  909.35,  328.98  L  905.10,  328.98 " style="stroke-width: 1.42 ;&st7; " /><path d=" M  905.10,  362.97  L  909.35,  362.97 " style="stroke-width: 1.42 ;&st7; " /><path d=" M  909.35,  371.47  L  905.10,  371.47 " style="stroke-width: 1.42 ;&st7; " /><path d=" M  905.10,  277.99  L  909.35,  277.99 " style="stroke-width: 1.42 ;&st7; " /><path d=" M  909.35,  286.49  L  905.10,  286.49 " style="stroke-width: 1.42 ;&st7; " /><path d=" M  858.36,  321.20  L  853.38,  316.23 " style="stroke-width: 1.42 ;&st7; " /><path d=" M  841.36,  328.26  L  846.33,  333.23 " style="stroke-width: 1.42 ;&st7; " /><path d=" M  853.38,  333.23  L  858.36,  328.26 " style="stroke-width: 1.42 ;&st7; " /><path d=" M  846.33,  316.23  L  841.36,  321.20 " style="stroke-width: 1.42 ;&st7; " /><path d=" M  751.40,  494.70  L  756.37,  489.73 " style="stroke-width: 1.42 ;&st7; " /><path d=" M  739.38,  489.73  L  744.35,  494.70 " style="stroke-width: 1.42 ;&st7; " /><path d=" M  756.37,  482.68  L  751.40,  477.71 " style="stroke-width: 1.42 ;&st7; " /><path d=" M  744.35,  477.71  L  739.38,  482.68 " style="stroke-width: 1.42 ;&st7; " /><path d=" M  905.10,  405.47  L  909.35,  405.47 " style="stroke-width: 1.42 ;&st7; " /><path d=" M  909.35,  413.97  L  905.10,  413.97 " style="stroke-width: 1.42 ;&st7; " /><path d=" M  756.37,  312.71  L  751.40,  307.73 " style="stroke-width: 1.42 ;&st7; " /><path d=" M  739.38,  319.76  L  744.35,  324.73 " style="stroke-width: 1.42 ;&st7; " /><path d=" M  751.40,  324.73  L  756.37,  319.76 " style="stroke-width: 1.42 ;&st7; " /><path d=" M  744.35,  307.73  L  739.38,  312.71 " style="stroke-width: 1.42 ;&st7; " /><path d=" M  756.37,  253.22  L  751.40,  248.24 " style="stroke-width: 1.42 ;&st7; " /><path d=" M  739.38,  260.27  L  744.35,  265.24 " style="stroke-width: 1.42 ;&st7; " /><path d=" M  751.40,  265.24  L  756.37,  260.27 " style="stroke-width: 1.42 ;&st7; " /><path d=" M  744.35,  248.24  L  739.38,  253.22 " style="stroke-width: 1.42 ;&st7; " /><path d=" M  713.88,  168.23  L  708.91,  163.26 " style="stroke-width: 1.42 ;&st7; " /><path d=" M  696.88,  175.29  L  701.85,  180.26 " style="stroke-width: 1.42 ;&st7; " /><path d=" M  708.91,  180.26  L  713.88,  175.29 " style="stroke-width: 1.42 ;&st7; " /><path d=" M  701.85,  163.26  L  696.88,  168.23 " style="stroke-width: 1.42 ;&st7; " /><path d=" M  713.88,  120.77  L  705.38,  120.77 " style="stroke-width: 1.42 ;&st7; " /><path d=" M  713.88,   49.25  L  708.91,   44.28 " style="stroke-width: 1.42 ;&st7; " /><path d=" M  696.88,   56.31  L  701.85,   61.28 " style="stroke-width: 1.42 ;&st7; " /><path d=" M  708.91,   61.28  L  713.88,   56.31 " style="stroke-width: 1.42 ;&st7; " /><path d=" M  701.85,   44.28  L  696.88,   49.25 " style="stroke-width: 1.42 ;&st7; " /><path d=" M  905.10,  193.00  L  909.35,  193.00 " style="stroke-width: 1.42 ;&st7; " /><path d=" M  909.35,  201.50  L  905.10,  201.50 " style="stroke-width: 1.42 ;&st7; " /><path d=" M  905.10,  235.50  L  909.35,  235.50 " style="stroke-width: 1.42 ;&st7; " /><path d=" M  909.35,  243.99  L  905.10,  243.99 " style="stroke-width: 1.42 ;&st7; " /><path d=" M  905.10,  150.51  L  909.35,  150.51 " style="stroke-width: 1.42 ;&st7; " /><path d=" M  909.35,  159.01  L  905.10,  159.01 " style="stroke-width: 1.42 ;&st7; " /><path d=" M  858.36,  193.73  L  853.38,  188.75 " style="stroke-width: 1.42 ;&st7; " /><path d=" M  841.36,  200.78  L  846.33,  205.75 " style="stroke-width: 1.42 ;&st7; " /><path d=" M  853.38,  205.75  L  858.36,  200.78 " style="stroke-width: 1.42 ;&st7; " /><path d=" M  846.33,  188.75  L  841.36,  193.73 " style="stroke-width: 1.42 ;&st7; " /><path d=" M  526.91,  341.73  L  526.91,  367.22  L  611.90,  367.22  L  611.90,  341.73  L  526.91,  341.73 " style="stroke-width: 1.42 ;&st7; " /><path d=" M  526.91,  375.72  L  526.91,  401.22  L  611.90,  401.22  L  611.90,  375.72  L  526.91,  375.72 " style="stroke-width: 1.42 ;&st7; " /><path d=" M  526.91,  409.72  L  526.91,  435.21  L  611.90,  435.21  L  611.90,  409.72  L  526.91,  409.72 " style="stroke-width: 1.42 ;&st7; " /><path d=" M  526.91,  571.19  L  526.91,  596.69  L  611.90,  596.69  L  611.90,  571.19  L  526.91,  571.19 " style="stroke-width: 1.42 ;&st7; " /><path d=" M  526.91,  605.18  L  526.91,  630.68  L  611.90,  630.68  L  611.90,  605.18  L  526.91,  605.18 " style="stroke-width: 1.42 ;&st7; " /><path d=" M  526.91,  647.68  L  526.91,  673.17  L  611.90,  673.17  L  611.90,  647.68  L  526.91,  647.68 " style="stroke-width: 1.42 ;&st7; " /><path d=" M  943.34,  630.68  L  943.34,  664.67  L 1028.33,  664.67  L 1028.33,  630.68  L  943.34,  630.68 " style="stroke-width: 1.42 ;&st7; " /><path d=" M  943.34,  579.69  L  943.34,  613.68  L 1028.33,  613.68  L 1028.33,  579.69  L  943.34,  579.69 " style="stroke-width: 1.42 ;&st7; " /><path d=" M  943.34,  537.20  L  943.34,  562.69  L 1028.33,  562.69  L 1028.33,  537.20  L  943.34,  537.20 " style="stroke-width: 1.42 ;&st7; " /><path d=" M  943.34,  469.21  L  943.34,  494.70  L 1028.33,  494.70  L 1028.33,  469.21  L  943.34,  469.21 " style="stroke-width: 1.42 ;&st7; " /><path d=" M  943.34,  435.21  L  943.34,  460.71  L 1028.33,  460.71  L 1028.33,  435.21  L  943.34,  435.21 " style="stroke-width: 1.42 ;&st7; " /><path d=" M  943.34,  401.22  L  943.34,  426.71  L 1028.33,  426.71  L 1028.33,  401.22  L  943.34,  401.22 " style="stroke-width: 1.42 ;&st7; " /><path d=" M  943.34,  273.74  L  943.34,  299.24  L 1028.33,  299.24  L 1028.33,  273.74  L  943.34,  273.74 " style="stroke-width: 1.42 ;&st7; " /><path d=" M  943.34,  358.73  L  943.34,  384.22  L 1028.33,  384.22  L 1028.33,  358.73  L  943.34,  358.73 " style="stroke-width: 1.42 ;&st7; " /><path d=" M  730.88,  697.25  L  730.88,  701.50 " style="stroke-width: 0.85 ;&st7; " /><path d=" M  722.38,  701.50  L  739.38,  701.50 " style="stroke-width: 0.85 ;&st7; " /><path d=" M  726.63,  704.33  L  735.13,  704.33 " style="stroke-width: 0.85 ;&st7; " /><path d=" M  728.04,  707.17  L  733.71,  707.17 " style="stroke-width: 0.85 ;&st7; " /><path d=" M  729.46,  710.00  L  732.29,  710.00 " style="stroke-width: 0.85 ;&st7; " /><path d=" M  790.37,  697.25  L  790.37,  701.50 " style="stroke-width: 0.85 ;&st7; " /><path d=" M  781.87,  701.50  L  798.87,  701.50 " style="stroke-width: 0.85 ;&st7; " /><path d=" M  786.12,  704.33  L  794.62,  704.33 " style="stroke-width: 0.85 ;&st7; " /><path d=" M  787.53,  707.17  L  793.20,  707.17 " style="stroke-width: 0.85 ;&st7; " /><path d=" M  788.95,  710.00  L  791.78,  710.00 " style="stroke-width: 0.85 ;&st7; " /><path d=" M  781.87,  163.26  L  798.87,  163.26  L  798.87,  647.68  L  781.87,  647.68  L  781.87,  163.26 " style="stroke-width: 1.42 ;&st7; " /><path d=" M  790.37,  647.68  L  790.37,  171.76  L  781.87,  171.76 " style="stroke-width: 0.85 ;&st7; " /><path d=" M  790.37,  681.67  L  790.37,  647.68 " style="stroke-width: 0.85 ;&st7; " /><path d=" M  943.34,  409.72  L  913.60,  409.72 " style="stroke-width: 0.85 ;&st7; " /><path d=" M  918.49,  443.71  L  921.33,  440.88  L  917.08,  440.88  L  914.24,  443.71  L  917.08,  446.54  L  921.33,  446.54  L  918.49,  443.71 " style="stroke-width: 0.28 ;&st9;" /><path d=" M  918.49,  477.71  L  921.33,  474.87  L  917.08,  474.87  L  914.24,  477.71  L  917.08,  480.54  L  921.33,  480.54  L  918.49,  477.71 " style="stroke-width: 0.28 ;&st9;" /><path d=" M  943.34,  443.71  L  913.60,  443.71 " style="stroke-width: 0.85 ;&st7; " /><path d=" M  943.34,  477.71  L  913.60,  477.71 " style="stroke-width: 0.85 ;&st7; " /><path d=" M  926.34,  477.71  L  926.34,  545.69  L  943.34,  545.69 " style="stroke-width: 0.85 ;&st7; " /><path d=" M  925.15,  476.70  L  924.88,  477.17  L  924.79,  477.71  L  924.88,  478.24  L  925.15,  478.71  L  925.57,  479.05  L  926.07,  479.24  L  926.62,  479.24  L  927.12,  479.05  L  927.54,  478.71  L  927.81,  478.24  L  927.90,  477.71  L  927.81,  477.17  L  927.54,  476.70  L  927.12,  476.36  L  926.62,  476.17  L  926.07,  476.17  L  925.57,  476.36  L  925.15,  476.70  L  925.55,  477.41  L  925.55,  478.00  L  925.92,  478.44  L  926.49,  478.54  L  927.00,  478.25  L  927.19,  477.71  L  927.00,  477.16  L  926.49,  476.87  L  925.92,  476.97  L  926.34,  477.71 " style="stroke-width: 0.85 ;&st7; " /><path d=" M  789.17,  366.22  L  788.90,  366.69  L  788.81,  367.22  L  788.90,  367.76  L  789.17,  368.23  L  789.59,  368.57  L  790.10,  368.76  L  790.64,  368.76  L  791.15,  368.57  L  791.56,  368.23  L  791.83,  367.76  L  791.93,  367.22  L  791.83,  366.69  L  791.56,  366.22  L  791.15,  365.88  L  790.64,  365.69  L  790.10,  365.69  L  789.59,  365.88  L  789.17,  366.22  L  789.57,  366.93  L  789.57,  367.52  L  789.94,  367.96  L  790.51,  368.06  L  791.02,  367.77  L  791.22,  367.22  L  791.02,  366.68  L  790.51,  366.39  L  789.94,  366.49  L  790.37,  367.22 " style="stroke-width: 0.85 ;&st7; " /><path d=" M  789.17,  476.70  L  788.90,  477.17  L  788.81,  477.71  L  788.90,  478.24  L  789.17,  478.71  L  789.59,  479.05  L  790.10,  479.24  L  790.64,  479.24  L  791.15,  479.05  L  791.56,  478.71  L  791.83,  478.24  L  791.93,  477.71  L  791.83,  477.17  L  791.56,  476.70  L  791.15,  476.36  L  790.64,  476.17  L  790.10,  476.17  L  789.59,  476.36  L  789.17,  476.70  L  789.57,  477.41  L  789.57,  478.00  L  789.94,  478.44  L  790.51,  478.54  L  791.02,  478.25  L  791.22,  477.71  L  791.02,  477.16  L  790.51,  476.87  L  789.94,  476.97  L  790.37,  477.71 " style="stroke-width: 0.85 ;&st7; " /><path d=" M  789.17,  587.18  L  788.90,  587.65  L  788.81,  588.19  L  788.90,  588.72  L  789.17,  589.19  L  789.59,  589.54  L  790.10,  589.72  L  790.64,  589.72  L  791.15,  589.54  L  791.56,  589.19  L  791.83,  588.72  L  791.93,  588.19  L  791.83,  587.65  L  791.56,  587.18  L  791.15,  586.84  L  790.64,  586.65  L  790.10,  586.65  L  789.59,  586.84  L  789.17,  587.18  L  789.57,  587.90  L  789.57,  588.48  L  789.94,  588.92  L  790.51,  589.02  L  791.02,  588.73  L  791.22,  588.19  L  791.02,  587.64  L  790.51,  587.35  L  789.94,  587.45  L  790.37,  588.19 " style="stroke-width: 0.85 ;&st7; " /><path d=" M  789.17,  638.18  L  788.90,  638.65  L  788.81,  639.18  L  788.90,  639.71  L  789.17,  640.18  L  789.59,  640.53  L  790.10,  640.71  L  790.64,  640.71  L  791.15,  640.53  L  791.56,  640.18  L  791.83,  639.71  L  791.93,  639.18  L  791.83,  638.65  L  791.56,  638.18  L  791.15,  637.83  L  790.64,  637.64  L  790.10,  637.64  L  789.59,  637.83  L  789.17,  638.18  L  789.57,  638.89  L  789.57,  639.47  L  789.94,  639.92  L  790.51,  640.01  L  791.02,  639.73  L  791.22,  639.18  L  791.02,  638.63  L  790.51,  638.34  L  789.94,  638.44  L  790.37,  639.18 " style="stroke-width: 0.85 ;&st7; " /><path d=" M  790.37,  367.22  L  798.87,  367.22 " style="stroke-width: 0.85 ;&st7; " /><path d=" M  790.37,  477.71  L  798.87,  477.71 " style="stroke-width: 0.85 ;&st7; " /><path d=" M  790.37,  588.19  L  798.87,  588.19 " style="stroke-width: 0.85 ;&st7; " /><path d=" M  790.37,  639.18  L  798.87,  639.18 " style="stroke-width: 0.85 ;&st7; " /><path d=" M  918.49,  324.73  L  921.33,  321.90  L  917.08,  321.90  L  914.24,  324.73  L  917.08,  327.56  L  921.33,  327.56  L  918.49,  324.73 " style="stroke-width: 0.28 ;&st9;" /><path d=" M  943.34,  324.73  L  913.60,  324.73 " style="stroke-width: 0.85 ;&st7; " /><path d=" M  918.49,  367.22  L  921.33,  364.39  L  917.08,  364.39  L  914.24,  367.22  L  917.08,  370.06  L  921.33,  370.06  L  918.49,  367.22 " style="stroke-width: 0.28 ;&st9;" /><path d=" M  943.34,  367.22  L  913.60,  367.22 " style="stroke-width: 0.85 ;&st7; " /><path d=" M  943.34,  316.23  L  943.34,  341.73  L 1028.33,  341.73  L 1028.33,  316.23  L  943.34,  316.23 " style="stroke-width: 1.42 ;&st7; " /><path d=" M  918.49,  282.24  L  921.33,  279.41  L  917.08,  279.41  L  914.24,  282.24  L  917.08,  285.07  L  921.33,  285.07  L  918.49,  282.24 " style="stroke-width: 0.28 ;&st9;" /><path d=" M  943.34,  282.24  L  913.60,  282.24 " style="stroke-width: 0.85 ;&st7; " /><path d=" M  943.34,  503.20  L  943.34,  528.70  L 1028.33,  528.70  L 1028.33,  503.20  L  943.34,  503.20 " style="stroke-width: 1.42 ;&st7; " /><path d=" M  925.15,  510.70  L  924.88,  511.17  L  924.79,  511.70  L  924.88,  512.23  L  925.15,  512.70  L  925.57,  513.05  L  926.07,  513.24  L  926.62,  513.24  L  927.12,  513.05  L  927.54,  512.70  L  927.81,  512.23  L  927.90,  511.70  L  927.81,  511.17  L  927.54,  510.70  L  927.12,  510.35  L  926.62,  510.16  L  926.07,  510.16  L  925.57,  510.35  L  925.15,  510.70  L  925.55,  511.41  L  925.55,  511.99  L  925.92,  512.44  L  926.49,  512.54  L  927.00,  512.25  L  927.19,  511.70  L  927.00,  511.15  L  926.49,  510.86  L  925.92,  510.96  L  926.34,  511.70 " style="stroke-width: 0.85 ;&st7; " /><path d=" M  943.34,  511.70  L  926.34,  511.70 " style="stroke-width: 0.85 ;&st7; " /><path d=" M  918.49,  409.72  L  921.33,  406.88  L  917.08,  406.88  L  914.24,  409.72  L  917.08,  412.55  L  921.33,  412.55  L  918.49,  409.72 " style="stroke-width: 0.28 ;&st9;" /><path d=" M  526.91,  307.73  L  526.91,  333.23  L  611.90,  333.23  L  611.90,  307.73  L  526.91,  307.73 " style="stroke-width: 1.42 ;&st7; " /><path d=" M  526.91,  273.74  L  526.91,  299.24  L  611.90,  299.24  L  611.90,  273.74  L  526.91,  273.74 " style="stroke-width: 1.42 ;&st7; " /><path d=" M  526.91,  197.25  L  526.91,  222.75  L  611.90,  222.75  L  611.90,  197.25  L  526.91,  197.25 " style="stroke-width: 1.42 ;&st7; " /><path d=" M  526.91,  163.26  L  526.91,  188.75  L  611.90,  188.75  L  611.90,  163.26  L  526.91,  163.26 " style="stroke-width: 1.42 ;&st7; " /><path d=" M  526.91,  112.27  L  526.91,  154.76  L  611.90,  154.76  L  611.90,  112.27  L  526.91,  112.27 " style="stroke-width: 1.42 ;&st7; " /><path d=" M  709.63,  129.83  L  705.38,  125.58  L  701.13,  129.83 " style="stroke-width: 1.42 ;&st7; " /><path d=" M  709.63,  126.43  L  705.38,  122.18  L  701.13,  126.43 " style="stroke-width: 1.42 ;&st7; " /><path d=" M  526.91,   44.28  L  526.91,   69.77  L  611.90,   69.77  L  611.90,   44.28  L  526.91,   44.28 " style="stroke-width: 1.42 ;&st7; " /><path d=" M  526.91,   78.27  L  526.91,  103.77  L  611.90,  103.77  L  611.90,   78.27  L  526.91,   78.27 " style="stroke-width: 1.42 ;&st7; " /><path d=" M  943.34,   95.27  L  943.34,  129.26  L 1028.33,  129.26  L 1028.33,   95.27  L  943.34,   95.27 " style="stroke-width: 1.42 ;&st7; " /><path d=" M  943.34,  146.26  L  943.34,  171.76  L 1028.33,  171.76  L 1028.33,  146.26  L  943.34,  146.26 " style="stroke-width: 1.42 ;&st7; " /><path d=" M  943.34,  231.25  L  943.34,  256.74  L 1028.33,  256.74  L 1028.33,  231.25  L  943.34,  231.25 " style="stroke-width: 1.42 ;&st7; " /><path d=" M  918.49,  197.25  L  921.33,  194.42  L  917.08,  194.42  L  914.24,  197.25  L  917.08,  200.09  L  921.33,  200.09  L  918.49,  197.25 " style="stroke-width: 0.28 ;&st9;" /><path d=" M  943.34,  197.25  L  913.60,  197.25 " style="stroke-width: 0.85 ;&st7; " /><path d=" M  918.49,  239.75  L  921.33,  236.91  L  917.08,  236.91  L  914.24,  239.75  L  917.08,  242.58  L  921.33,  242.58  L  918.49,  239.75 " style="stroke-width: 0.28 ;&st9;" /><path d=" M  943.34,  239.75  L  913.60,  239.75 " style="stroke-width: 0.85 ;&st7; " /><path d=" M  943.34,  188.75  L  943.34,  214.25  L 1028.33,  214.25  L 1028.33,  188.75  L  943.34,  188.75 " style="stroke-width: 1.42 ;&st7; " /><path d=" M  918.49,  154.76  L  921.33,  151.93  L  917.08,  151.93  L  914.24,  154.76  L  917.08,  157.59  L  921.33,  157.59  L  918.49,  154.76 " style="stroke-width: 0.28 ;&st9;" /><path d=" M  943.34,  154.76  L  913.60,  154.76 " style="stroke-width: 0.85 ;&st7; " /><path d=" M  526.91,  443.71  L  526.91,  469.21  L  611.90,  469.21  L  611.90,  443.71  L  526.91,  443.71 " style="stroke-width: 1.42 ;&st7; " /><path d=" M  526.91,  477.71  L  526.91,  503.20  L  611.90,  503.20  L  611.90,  477.71  L  526.91,  477.71 " style="stroke-width: 1.42 ;&st7; " /><path d=" M  526.91,  511.70  L  526.91,  537.20  L  611.90,  537.20  L  611.90,  511.70  L  526.91,  511.70 " style="stroke-width: 1.42 ;&st7; " /><path d=" M  905.10,  439.46  C  902.75   439.46   900.85   441.36   900.85   443.71 " style="stroke-width: 1.42 ;&st7; " /><path d=" M  900.85,  443.71  C  900.85   446.06   902.75   447.96   905.10   447.96 " style="stroke-width: 1.42 ;&st7; " /><path d=" M  909.35,  447.96  C  911.69   447.96   913.60   446.06   913.60   443.71 " style="stroke-width: 1.42 ;&st7; " /><path d=" M  913.60,  443.71  C  913.60   441.36   911.69   439.46   909.35   439.46 " style="stroke-width: 1.42 ;&st7; " /><path d=" M  905.10,  473.46  C  902.75   473.46   900.85   475.36   900.85   477.71 " style="stroke-width: 1.42 ;&st7; " /><path d=" M  900.85,  477.71  C  900.85   480.05   902.75   481.95   905.10   481.95 " style="stroke-width: 1.42 ;&st7; " /><path d=" M  909.35,  481.95  C  911.69   481.95   913.60   480.05   913.60   477.71 " style="stroke-width: 1.42 ;&st7; " /><path d=" M  913.60,  477.71  C  913.60   475.36   911.69   473.46   909.35   473.46 " style="stroke-width: 1.42 ;&st7; " /><path d=" M  905.10,  320.48  C  902.75   320.48   900.85   322.38   900.85   324.73 " style="stroke-width: 1.42 ;&st7; " /><path d=" M  900.85,  324.73  C  900.85   327.08   902.75   328.98   905.10   328.98 " style="stroke-width: 1.42 ;&st7; " /><path d=" M  909.35,  328.98  C  911.69   328.98   913.60   327.08   913.60   324.73 " style="stroke-width: 1.42 ;&st7; " /><path d=" M  913.60,  324.73  C  913.60   322.38   911.69   320.48   909.35   320.48 " style="stroke-width: 1.42 ;&st7; " /><path d=" M  905.10,  362.97  C  902.75   362.97   900.85   364.88   900.85   367.22 " style="stroke-width: 1.42 ;&st7; " /><path d=" M  900.85,  367.22  C  900.85   369.57   902.75   371.47   905.10   371.47 " style="stroke-width: 1.42 ;&st7; " /><path d=" M  909.35,  371.47  C  911.69   371.47   913.60   369.57   913.60   367.22 " style="stroke-width: 1.42 ;&st7; " /><path d=" M  913.60,  367.22  C  913.60   364.88   911.69   362.97   909.35   362.97 " style="stroke-width: 1.42 ;&st7; " /><path d=" M  905.10,  277.99  C  902.75   277.99   900.85   279.89   900.85   282.24 " style="stroke-width: 1.42 ;&st7; " /><path d=" M  900.85,  282.24  C  900.85   284.58   902.75   286.49   905.10   286.49 " style="stroke-width: 1.42 ;&st7; " /><path d=" M  909.35,  286.49  C  911.69   286.49   913.60   284.58   913.60   282.24 " style="stroke-width: 1.42 ;&st7; " /><path d=" M  913.60,  282.24  C  913.60   279.89   911.69   277.99   909.35   277.99 " style="stroke-width: 1.42 ;&st7; " /><path d=" M  905.10,  405.47  C  902.75   405.47   900.85   407.37   900.85   409.72 " style="stroke-width: 1.42 ;&st7; " /><path d=" M  900.85,  409.72  C  900.85   412.06   902.75   413.97   905.10   413.97 " style="stroke-width: 1.42 ;&st7; " /><path d=" M  909.35,  413.97  C  911.69   413.97   913.60   412.06   913.60   409.72 " style="stroke-width: 1.42 ;&st7; " /><path d=" M  913.60,  409.72  C  913.60   407.37   911.69   405.47   909.35   405.47 " style="stroke-width: 1.42 ;&st7; " /><path d=" M  905.10,  193.00  C  902.75   193.00   900.85   194.91   900.85   197.25 " style="stroke-width: 1.42 ;&st7; " /><path d=" M  900.85,  197.25  C  900.85   199.60   902.75   201.50   905.10   201.50 " style="stroke-width: 1.42 ;&st7; " /><path d=" M  909.35,  201.50  C  911.69   201.50   913.60   199.60   913.60   197.25 " style="stroke-width: 1.42 ;&st7; " /><path d=" M  913.60,  197.25  C  913.60   194.91   911.69   193.00   909.35   193.00 " style="stroke-width: 1.42 ;&st7; " /><path d=" M  905.10,  235.50  C  902.75   235.50   900.85   237.40   900.85   239.75 " style="stroke-width: 1.42 ;&st7; " /><path d=" M  900.85,  239.75  C  900.85   242.09   902.75   243.99   905.10   243.99 " style="stroke-width: 1.42 ;&st7; " /><path d=" M  909.35,  243.99  C  911.69   243.99   913.60   242.09   913.60   239.75 " style="stroke-width: 1.42 ;&st7; " /><path d=" M  913.60,  239.75  C  913.60   237.40   911.69   235.50   909.35   235.50 " style="stroke-width: 1.42 ;&st7; " /><path d=" M  905.10,  150.51  C  902.75   150.51   900.85   152.41   900.85   154.76 " style="stroke-width: 1.42 ;&st7; " /><path d=" M  900.85,  154.76  C  900.85   157.11   902.75   159.01   905.10   159.01 " style="stroke-width: 1.42 ;&st7; " /><path d=" M  909.35,  159.01  C  911.69   159.01   913.60   157.11   913.60   154.76 " style="stroke-width: 1.42 ;&st7; " /><path d=" M  913.60,  154.76  C  913.60   152.41   911.69   150.51   909.35   150.51 " style="stroke-width: 1.42 ;&st7; " /><path d=" M  688.53,  249.26  C  686.62   251.40   686.56   254.53   688.39   256.74 " style="stroke-width: 1.42 ;&st7; " /><path d=" M  688.24,  264.23  C  690.15   262.09   690.21   258.95   688.38   256.74 " style="stroke-width: 1.42 ;&st7; " /><text style="&st18;" transform="matrix(&st16;  589.85  352.2 )">(GND)</text><text ewd:textID="229" style="&st18;" transform="matrix(&st16;  528.64  357.86 )">Stop Light Control <tspan dy="6" x="0">Relay Assembly</tspan></text><text style="&st18;" transform="matrix(&st16;  528.64  350.76 )">A39</text><text style="&st18;" transform="matrix(&st16;  600.59  386.19 )">(E)</text><text style="&st18;" transform="matrix(&st16;  528.64  384.75 )">A23</text><text style="&st18;" transform="matrix(&st16;  600.59  420.18 )">(E)</text><text ewd:textID="257" style="&st18;" transform="matrix(&st16;  528.64  425.85 )">Windshield Wiper Motor <tspan dy="6" x="0">Assembly</tspan></text><text style="&st18;" transform="matrix(&st16;  528.64  418.74 )">A22</text><text style="&st18;" transform="matrix(&st16;  595.64  581.66 )">(EC)</text><text style="&st18;" transform="matrix(&st16;  528.64  587.32 )">ECM</text><text style="&st18;" transform="matrix(&st16;  528.64  580.22 )">A38</text><text style="&st18;" transform="matrix(&st16;  585.9  615.65 )">(GND2)</text><text ewd:textID="222" style="&st18;" transform="matrix(&st16;  528.64  621.32 )">Skid Control ECU with <tspan dy="6" x="0">Actuator Assembly</tspan></text><text style="&st18;" transform="matrix(&st16;  528.64  614.21 )">A24</text><text style="&st18;" transform="matrix(&st16;  589.85  658.14 )">(GND)</text><text ewd:textID="93" style="&st18;" transform="matrix(&st16;  528.64  663.81 )">Four Wheel Drive <tspan dy="6" x="0">Control ECU</tspan></text><text style="&st18;" transform="matrix(&st16;  528.64  656.7 )">A28</text><text style="&st18;" transform="matrix(&st16;  945.33  641.15 )">(SGND)</text><text style="&st18;" transform="matrix(&st16;  970.56  639.71 )">A72</text><text ewd:textID="158" style="&st18;" transform="matrix(&st16;  970.56  646.81 )">Millimeter Wave <tspan dy="6" x="0">Radar Sensor </tspan><tspan dy="6" x="0">Assembly</tspan></text><text style="&st18;" transform="matrix(&st16;  945.33  590.16 )">(EC)</text><text style="&st18;" transform="matrix(&st16;  970.56  588.72 )">A82</text><text ewd:textID="244" style="&st18;" transform="matrix(&st16;  970.56  595.82 )">Transmission <tspan dy="6" x="0">Control ECU </tspan><tspan dy="6" x="0">Assembly</tspan></text><text ewd:textID="84" style="&st18;" transform="matrix(&st16;  970.56  553.33 )">EFI MAIN <tspan dy="6" x="0">NO.1 Relay</tspan></text><text ewd:textID="36" style="&st18;" transform="matrix(&st16;  970.56  485.34 )">A/F Relay</text><text ewd:textID="89" style="&st18;" transform="matrix(&st16;  970.56  451.35 )">FUEL PMP Relay</text><text ewd:textID="85" style="&st18;" transform="matrix(&st16;  970.56  417.35 )">EFI MAIN <tspan dy="6" x="0">NO.2 Relay</tspan></text><text style="&st18;" transform="matrix(&st16;  945.33  284.21 )">(E)</text><text ewd:textID="117" style="&st18;" transform="matrix(&st16;  970.56  289.87 )">H-LP CLN Relay</text><text style="&st18;" transform="matrix(&st16;  945.33  369.19 )">(-S)</text><text ewd:textID="213" style="&st18;" transform="matrix(&st16;  970.56  374.86 )">ST Relay</text><text style="&st18;" transform="matrix(&st16;  655.19  346.53 )">W-B</text><text style="&st18;" transform="matrix(&st16;  655.19  380.52 )">W-B</text><text style="&st18;" transform="matrix(&st16;  655.19  414.52 )">W-B</text><text style="&st18;" transform="matrix(&st16;  655.19  575.99 )">W-B</text><text style="&st18;" transform="matrix(&st16;  655.19  609.99 )">W-B</text><text style="&st18;" transform="matrix(&st16;  655.19  652.48 )">W-B</text><text style="&st18;" transform="matrix(&st16;  761.42  660.98 )">W-B</text><text style="&st18;" transform="matrix(&st17;  744.18  561.89 )">W-B</text><text style="&st18;" transform="matrix(&st16;  801.7  635.49 )">2</text><text style="&st18;" transform="matrix(&st16;  801.7  584.5 )">4</text><text style="&st18;" transform="matrix(&st16;  801.7  474.02 )">7</text><text style="&st18;" transform="matrix(&st16;  801.7  363.53 )">5</text><text style="&st18;" transform="matrix(&st16;  903.16  445.68 )">1R</text><text style="&st18;" transform="matrix(&st16;  905.25  436.47 )">7</text><text style="&st18;" transform="matrix(&st16;  903.3  479.67 )">1S</text><text style="&st18;" transform="matrix(&st16;  905.25  470.47 )">4</text><text style="&st18;" transform="matrix(&st17;  771.35  284.76 )">A75</text><text style="&st18;" transform="matrix(&st16;  816.66  363.53 )">W-B</text><text style="&st18;" transform="matrix(&st16;  876.15  321.03 )">W-B</text><text style="&st18;" transform="matrix(&st16;  876.15  440.01 )">W-B</text><text style="&st18;" transform="matrix(&st16;  876.15  474.01 )">W-B</text><text style="&st18;" transform="matrix(&st16;  876.15  584.49 )">W-B</text><text style="&st18;" transform="matrix(&st16;  879.05  635.48 )">BR</text><text ewd:textID="149" style="&st18;" transform="matrix(&st17;  778.17  284.76 )">Junction Connector</text><text ewd:textID="111" style="&st18;" transform="matrix(&st16;  528.64  391.86 )">Front Wiper Deicer <tspan dy="6" x="0">(Windshield Glass)</tspan></text><text style="&st18;" transform="matrix(&st16;  905.63  326.7 )">1</text><text style="&st18;" transform="matrix(&st16;  905.63  369.19 )">1</text><text style="&st18;" transform="matrix(&st16;  945.33  326.7 )">(-S)</text><text ewd:textID="133" style="&st18;" transform="matrix(&st16;  970.56  332.37 )">IG1 Relay</text><text style="&st18;" transform="matrix(&st16;  905.63  284.21 )">1</text><text style="&st18;" transform="matrix(&st16;  876.15  278.54 )">W-B</text><text style="&st18;" transform="matrix(&st16;  876.15  363.53 )">W-B</text><text style="&st18;" transform="matrix(&st16;  876.15  406.02 )">W-B</text><text ewd:textID="134" style="&st18;" transform="matrix(&st16;  970.56  519.33 )">IG2 MAIN Relay</text><text style="&st18;" transform="matrix(&st17;  846.16  353.68 )">W-B</text><text style="&st18;" transform="matrix(&st16;  903.3  411.69 )">1P</text><text style="&st18;" transform="matrix(&st16;  904.04  402.48 )">11</text><text style="&st18;" transform="matrix(&st17;  744.18  357.93 )">W-B</text><text style="&st18;" transform="matrix(&st16;  600.59  318.2 )">(E)</text><text style="&st18;" transform="matrix(&st16;  528.64  316.76 )">A45</text><text style="&st18;" transform="matrix(&st16;  600.59  284.21 )">(E)</text><text style="&st18;" transform="matrix(&st16;  528.64  282.77 )">A16</text><text style="&st18;" transform="matrix(&st16;  655.19  278.54 )">W-B</text><text style="&st18;" transform="matrix(&st16;  655.19  312.54 )">W-B</text><text style="&st18;" transform="matrix(&st17;  744.18  289.94 )">W-B</text><text style="&st18;" transform="matrix(&st16;  600.59  207.72 )">(E)</text><text style="&st18;" transform="matrix(&st16;  528.64  206.28 )">A74</text><text style="&st18;" transform="matrix(&st16;  589.85  173.73 )">(GND)</text><text ewd:textID="170" style="&st18;" transform="matrix(&st16;  528.64  179.39 )">Noise Filter</text><text style="&st18;" transform="matrix(&st16;  528.64  172.29 )">A32</text><text style="&st18;" transform="matrix(&st16;  589.85  122.73 )">(GND)</text><text ewd:textID="57" style="&st18;" transform="matrix(&st16;  528.64  128.4 )">Brake Fluid Level <tspan dy="6" x="0">Warning Switch (Brake </tspan><tspan dy="6" x="0">Master Cylinder </tspan><tspan dy="6" x="0">Reservoir Assembly)</tspan></text><text style="&st18;" transform="matrix(&st16;  528.64  121.29 )">A26</text><text style="&st18;" transform="matrix(&st16;  690.57  118.49 )">3</text><text style="&st18;" transform="matrix(&st16;  646.69  49.08 )">W-B</text><text style="&st18;" transform="matrix(&st16;  646.69  83.07 )">W-B</text><text style="&st18;" transform="matrix(&st16;  646.69  117.07 )">W-B</text><text style="&st18;" transform="matrix(&st16;  646.69  168.06 )">W-B</text><text style="&st18;" transform="matrix(&st16;  775.08  168.07 )">3</text><text style="&st18;" transform="matrix(&st16;  740.17  168.06 )">W-B</text><text style="&st18;" transform="matrix(&st17;  701.69  153.96 )">W-B</text><text style="&st18;" transform="matrix(&st17;  701.69  94.47 )">W-B</text><text style="&st18;" transform="matrix(&st16;  652.41  202.05 )">L</text><text style="&st18;" transform="matrix(&st17;  735.68  94.47 )">W-B</text><text style="&st18;" transform="matrix(&st16;  597.27  54.75 )">(L-)</text><text style="&st18;" transform="matrix(&st16;  528.64  53.3 )">z70</text><text style="&st18;" transform="matrix(&st16;  596.28  88.74 )">(R-)</text><text style="&st18;" transform="matrix(&st16;  528.64  87.3 )">z69</text><text style="&st18;" transform="matrix(&st16;  945.33  105.74 )">(E)</text><text style="&st18;" transform="matrix(&st16;  970.56  104.3 )">A59</text><text style="&st18;" transform="matrix(&st16;  945.33  156.73 )">(E)</text><text ewd:textID="59" style="&st18;" transform="matrix(&st16;  970.56  162.39 )">CLR RR Relay</text><text style="&st18;" transform="matrix(&st16;  945.33  241.71 )">(-S)</text><text ewd:textID="114" style="&st18;" transform="matrix(&st16;  970.56  247.38 )">GLOW NO.1 <tspan dy="6" x="0">Relay</tspan></text><text style="&st18;" transform="matrix(&st16;  876.15  193.56 )">W-B</text><text style="&st18;" transform="matrix(&st16;  905.63  199.22 )">1</text><text style="&st18;" transform="matrix(&st16;  905.63  241.71 )">1</text><text style="&st18;" transform="matrix(&st16;  945.33  199.22 )">(-S)</text><text ewd:textID="115" style="&st18;" transform="matrix(&st16;  970.56  204.89 )">GLOW NO.2 <tspan dy="6" x="0">Relay</tspan></text><text style="&st18;" transform="matrix(&st16;  905.63  156.73 )">1</text><text style="&st18;" transform="matrix(&st16;  876.15  151.06 )">W-B</text><text style="&st18;" transform="matrix(&st16;  876.15  236.05 )">W-B</text><text style="&st18;" transform="matrix(&st17;  846.16  264.44 )">W-B</text><text style="&st18;" transform="matrix(&st16;  876.15  100.07 )">W-B</text><text style="&st18;" transform="matrix(&st16;  536.21  15.09 )">W-B</text><text ewd:textID="2" style="&st18;" transform="matrix(&st16;  697.88  253.05 )">(Shielded)</text><text style="&st18;" transform="matrix(&st16;  600.59  454.18 )">(E)</text><text style="&st18;" transform="matrix(&st16;  528.64  452.74 )">A51</text><text style="&st18;" transform="matrix(&st16;  600.59  488.17 )">(E)</text><text style="&st18;" transform="matrix(&st16;  528.64  486.73 )">A43</text><text style="&st18;" transform="matrix(&st16;  600.59  522.17 )">(E)</text><text style="&st18;" transform="matrix(&st16;  528.64  520.73 )">A63</text><text style="&st18;" transform="matrix(&st16;  655.19  448.51 )">W-B</text><text style="&st18;" transform="matrix(&st16;  655.19  482.51 )">W-B</text><text style="&st18;" transform="matrix(&st16;  655.19  516.5 )">W-B</text><text style="&st18;" transform="matrix(&st17;  744.18  442.91 )">W-B</text><text ewd:textID="126" style="&st18;" transform="matrix(&st16;  528.64  527.83 )">Heated Windshield Defroster <tspan dy="6" x="0">(Windshield Glass)</tspan></text><text ewd:textID="153" style="&st18;" transform="matrix(&st16;  528.64  493.84 )">Level Warning Switch <tspan dy="6" x="0">(Fuel Filter Assembly)</tspan></text><text ewd:textID="68" style="&st18;" transform="matrix(&st16;  528.64  459.84 )">Clogging Switch <tspan dy="6" x="0">(Fuel Filter Assembly)</tspan></text><text ewd:textID="220" style="&st18;" transform="matrix(&st16;  528.64  323.87 )">Side Turn Signal <tspan dy="6" x="0">Light Assembly LH</tspan></text><text ewd:textID="255" style="&st18;" transform="matrix(&st16;  528.64  289.87 )">Windshield Washer Motor <tspan dy="6" x="0">and Pump Assembly</tspan></text><text ewd:textID="87" style="&st18;" transform="matrix(&st16;  528.64  213.39 )">Engine Hood <tspan dy="6" x="0">Courtesy Switch</tspan></text><text ewd:textID="253" style="&st18;" transform="matrix(&st16;  528.64  94.41 )">Washer Nozzle <tspan dy="6" x="0">Sub-Assembly RH</tspan></text><text ewd:textID="252" style="&st18;" transform="matrix(&st16;  528.64  60.41 )">Washer Nozzle <tspan dy="6" x="0">Sub-Assembly LH</tspan></text><text ewd:textID="121" style="&st18;" transform="matrix(&st16;  970.56  111.4 )">Headlight <tspan dy="6" x="0">Cleaner Control </tspan><tspan dy="6" x="0">Relay and Motor</tspan></text></svg>