﻿<?xml version="1.0" encoding="utf-8"?>
<!DOCTYPE svg PUBLIC "-//W3C//DTD SVG 1.0//EN" "http://www.w3.org/TR/2001/REC-SVG-20010904/DTD/svg10.dtd"[
	<!ENTITY ns_flows "http://ns.adobe.com/Flows/1.0/">
	<!ENTITY ns_svg "http://www.w3.org/2000/svg">
	<!ENTITY ns_xlink "http://www.w3.org/1999/xlink">
	<!ENTITY st0 "font-size:7px;font-family:'MS-PGothic';adobe-font-script:japanese;">
	<!ENTITY st1 "font-size:6px;font-family:'ArialMT';">
	<!-- White fill  -->
	<!ENTITY st2 "fill:#FFFFFF;stroke:#000000; stroke-width:1.41;stroke-linecap:round;stroke-linejoin:round;">
	<!-- Yellow fill  -->
	<!ENTITY st3 "fill:#FFFFCC;stroke:#FFFFCC; stroke-width:0.1;stroke-linecap:round;stroke-linejoin:round;">
	<!-- Gray fill  -->
	<!ENTITY st4 "fill:#CCCCCC;stroke:#CCCCCC; stroke-width:0.1;stroke-linecap:round;stroke-linejoin:round;">
	<!-- Light-blue fill -->
	<!ENTITY st5 "fill:#CCECF4;stroke:#000000; stroke-width:1.133;stroke-linecap:round;stroke-linejoin:round;">
	<!ENTITY st6 "fill:none;stroke-linecap:butt; stroke-linejoin:round;">
	<!ENTITY st7 "fill:none;stroke:#000000;stroke-linecap:round;stroke-linejoin:round;">
	<!ENTITY st8 "enable-background:new    ;">
	<!-- Black fill -->
	<!ENTITY st9 "fill:#000000;stroke:#000000; stroke-linecap:round;stroke-linejoin:round;">
	<!-- SRS note   -->
	<!ENTITY st10 "font-size:9px;font-family:'ArialMT';">
	<!ENTITY st11 "font-size:9px;font-family:'Svg Symbol';">
	<!ENTITY st12 "font-size:6px;font-family:'Svg Symbol';">
	<!ENTITY st13 "fill:none;stroke:#ff0000;stroke-linecap:round;stroke-linejoin:round;">
	<!-- Yellow fill  -->
	<!ENTITY st14 "fill:#FFFF00;stroke:#FFFF00; stroke-width:0.1;stroke-linecap:round;stroke-linejoin:round;">
	<!ENTITY st15 "font-size:6px;font-family:'MS-PGothic';adobe-font-script:japanese;">
	<!ENTITY st16 "1.00 0.00 0.00 1.00">
	<!ENTITY st17 "0.00 -1.00 1.00 0.00">
	<!ENTITY st18 "font-size:6px;font-family:'Arial';">
	<!ENTITY st19 "font-size:9px;font-family:'Arial';">
	<!ENTITY st20 "font-size:6px;font-family:'MS-PGothic','MS PGothic';adobe-font-script:japanese;">
	<!ENTITY st21 "font-size:7px;font-family:'MS-PGothic','MS PGothic';adobe-font-script:japanese;">
	<!ATTLIST svg
		xmlns:ewd CDATA #FIXED "http://shcl.co.jp/ewd"
		xmlns:a CDATA #FIXED "http://ns.adobe.com/AdobeSVGViewerExtensions/3.0/"
		ewd:ver CDATA #IMPLIED
	>
	<!ATTLIST a
		ewd:lineID CDATA #IMPLIED
		ewd:groupID CDATA #IMPLIED
		ewd:figtype CDATA #IMPLIED
		ewd:code CDATA #IMPLIED
		ewd:figID CDATA #IMPLIED
		ewd:pinNo CDATA #IMPLIED
		ewd:comment CDATA #IMPLIED >
	<!ATTLIST g
		ewd:lineID CDATA #IMPLIED
		ewd:groupID CDATA #IMPLIED
		ewd:figtype CDATA #IMPLIED
		ewd:code CDATA #IMPLIED
		ewd:figID CDATA #IMPLIED
		ewd:pinNo CDATA #IMPLIED
		ewd:comment CDATA #IMPLIED >
	<!ATTLIST text
		ewd:textID CDATA #IMPLIED >
	<!ATTLIST title
		ewd:textID CDATA #IMPLIED >
]>
<!-- Generator: Shintec Hozumi YS   -->
<svg onload="call_execInitLoadProc_svg('system')" style="overflow:visible;  enable-background:new 0 0 3085.693 710.000" viewBox="0 0 3085.693 710.000" height="710.000" width="3085.693" xml:space="preserve" ewd:ver="L2.1.2.8" xmlns="&ns_svg;" xmlns:a="http://ns.adobe.com/AdobeSVGViewerExtensions/3.0/" xmlns:ewd="http://shcl.co.jp/ewd" xmlns:xlink="&ns_xlink;">
<path d=" M  645.89,   69.77  L  645.89,   95.27 " style="stroke-width: 0.85 ;&st7; " /><path d=" M  807.37,   69.77  L  807.37,   78.27 " style="stroke-width: 0.85 ;&st7; " /><path d=" M  866.86,   69.77  L  866.86,   78.27 " style="stroke-width: 0.85 ;&st7; " /><path d=" M  756.37,   69.77  L  756.37,   78.27 " style="stroke-width: 0.85 ;&st7; " /><path d=" M  699.01,  103.77  L  694.76,  103.77 " style="stroke-width: 1.42 ;&st7; " /><path d=" M  699.01,   95.27  L  694.76,   95.27 " style="stroke-width: 1.42 ;&st7; " /><path d=" M  696.88,   69.77  L  696.88,   95.27 " style="stroke-width: 0.85 ;&st7; " /><path d=" M  637.39,  154.76  L  645.89,  154.76 " style="stroke-width: 1.42 ;&st7; " /><path d=" M  648.02,  103.77  L  643.77,  103.77 " style="stroke-width: 1.42 ;&st7; " /><path d=" M  648.02,   95.27  L  643.77,   95.27 " style="stroke-width: 1.42 ;&st7; " /><path d=" M  577.90,   69.77  L  577.90,   78.27 " style="stroke-width: 0.85 ;&st7; " /><path d=" M  580.03,   95.27  L  575.78,   95.27 " style="stroke-width: 1.42 ;&st7; " /><path d=" M  580.03,  103.77  L  575.78,  103.77 " style="stroke-width: 1.42 ;&st7; " /><path d=" M  577.90,   78.27  L  577.90,   95.27 " style="stroke-width: 0.85 ;&st7; " /><path d=" M  577.90,  258.16  L  572.24,  235.50 " style="stroke-width: 1.42 ;&st7; " /><path d=" M  577.90,  265.24  L  577.90,  260.99 " style="stroke-width: 0.85 ;&st7; " /><path d=" M  577.90,  235.50  L  577.90,  231.25 " style="stroke-width: 0.85 ;&st7; " /><path d=" M  603.40,  231.25  L  603.40,  239.75 " style="stroke-width: 0.85 ;&st7; " /><path d=" M  603.40,  256.74  L  603.40,  265.24 " style="stroke-width: 0.85 ;&st7; " /><path d=" M  586.40,  151.23  L  581.43,  146.26 " style="stroke-width: 1.42 ;&st7; " /><path d=" M  569.40,  158.29  L  574.37,  163.26 " style="stroke-width: 1.42 ;&st7; " /><path d=" M  581.43,  163.26  L  586.40,  158.29 " style="stroke-width: 1.42 ;&st7; " /><path d=" M  574.37,  146.26  L  569.40,  151.23 " style="stroke-width: 1.42 ;&st7; " /><path d=" M  580.03,  197.25  L  575.78,  197.25 " style="stroke-width: 1.42 ;&st7; " /><path d=" M  580.03,  205.75  L  575.78,  205.75 " style="stroke-width: 1.42 ;&st7; " /><path d=" M  605.52,  197.25  L  601.27,  197.25 " style="stroke-width: 1.42 ;&st7; " /><path d=" M  605.52,  205.75  L  601.27,  205.75 " style="stroke-width: 1.42 ;&st7; " /><path d=" M  605.52,  290.74  L  601.27,  290.74 " style="stroke-width: 1.42 ;&st7; " /><path d=" M  605.52,  299.24  L  601.27,  299.24 " style="stroke-width: 1.42 ;&st7; " /><path d=" M  671.39,  273.74  L  679.89,  273.74 " style="stroke-width: 1.42 ;&st7; " /><path d=" M  577.90,  406.32  L  624.65,  406.32 " style="stroke-width: 0.85 ;&st7;stroke-dasharray:3, 1.5;" /><path d=" M  909.35,   35.78  L  909.35,   86.77  L 2048.16,   86.77  L 2048.16,   35.78  L  909.35,   35.78 " style="stroke-width: 1.42 ;&st7; " /><path d=" M  633.14,   35.78  L  633.14,   78.27  L  658.64,   78.27  L  658.64,   35.78  L  633.14,   35.78 " style="stroke-width: 1.42 ;&st7; " /><path d=" M  769.12,   78.27  L  769.12,   35.78  L  743.63,   35.78  L  743.63,   78.27  L  769.12,   78.27 " style="stroke-width: 1.42 ;&st7; " /><path d=" M  696.88,   90.37  L  694.05,   87.54  L  694.05,   91.79  L  696.88,   94.62  L  699.72,   91.79  L  699.72,   87.54  L  696.88,   90.37 " style="stroke-width: 0.28 ;&st9;" /><path d=" M  684.14,   35.78  L  684.14,   78.27  L  709.63,   78.27  L  709.63,   35.78  L  684.14,   35.78 " style="stroke-width: 1.42 ;&st7; " /><path d=" M  977.34,   86.77  L  977.34,  129.26  L  756.37,  129.26  L  756.37,   78.27 " style="stroke-width: 0.85 ;&st7; " /><path d=" M  951.84,   86.77  L  951.84,  120.77  L  807.36,  120.77  L  807.36,   78.27 " style="stroke-width: 0.85 ;&st7; " /><path d=" M  820.11,   78.27  L  820.11,   35.78  L  794.62,   35.78  L  794.62,   78.27  L  820.11,   78.27 " style="stroke-width: 1.42 ;&st7; " /><path d=" M  879.60,   78.27  L  879.60,   35.78  L  854.11,   35.78  L  854.11,   78.27  L  879.60,   78.27 " style="stroke-width: 1.42 ;&st7; " /><path d=" M  926.34,   86.77  L  926.34,  112.27  L  866.85,  112.27  L  866.85,   78.27 " style="stroke-width: 0.85 ;&st7; " /><path d=" M  650.14,  149.09  L  645.89,  153.34  L  641.64,  149.09 " style="stroke-width: 1.42 ;&st7; " /><path d=" M  641.64,  145.69  L  645.89,  149.94  L  650.14,  145.69 " style="stroke-width: 1.42 ;&st7; " /><path d=" M  645.89,   90.37  L  643.06,   87.54  L  643.06,   91.79  L  645.89,   94.62  L  648.72,   91.79  L  648.72,   87.54  L  645.89,   90.37 " style="stroke-width: 0.28 ;&st9;" /><path d=" M  688.38,  397.25  L  722.38,  397.25 " style="stroke-width: 0.85 ;&st7;stroke-dasharray:3, 1.5;" /><path d=" M  569.40,  392.72  L  569.40,  401.78 " style="stroke-width: 0.85 ;&st7; " /><path d=" M  637.39,  392.72  L  637.39,  401.78 " style="stroke-width: 0.85 ;&st7; " /><path d=" M  577.90,   90.37  L  575.07,   87.54  L  575.07,   91.79  L  577.90,   94.62  L  580.74,   91.79  L  580.74,   87.54  L  577.90,   90.37 " style="stroke-width: 0.28 ;&st9;" /><path d=" M  565.16,   35.78  L  565.16,   78.27  L  590.65,   78.27  L  590.65,   35.78  L  565.16,   35.78 " style="stroke-width: 1.42 ;&st7; " /><path d=" M  611.90,  231.25  L  569.40,  231.25  L  569.40,  265.24  L  611.90,  265.24  L  611.90,  231.25 " style="stroke-width: 1.42 ;&st7; " /><path d=" M  577.90,  265.24  L  577.90,  290.74 " style="stroke-width: 0.85 ;&st7; " /><path d=" M  577.90,  210.65  L  580.74,  213.48  L  580.74,  209.23  L  577.90,  206.40  L  575.07,  209.23  L  575.07,  213.48  L  577.90,  210.65 " style="stroke-width: 0.28 ;&st9;" /><path d=" M  603.40,  210.65  L  606.23,  213.48  L  606.23,  209.23  L  603.40,  206.40  L  600.57,  209.23  L  600.57,  213.48  L  603.40,  210.65 " style="stroke-width: 0.28 ;&st9;" /><path d=" M  577.90,  231.25  L  577.90,  205.75 " style="stroke-width: 0.85 ;&st7; " /><path d=" M  603.40,  205.75  L  603.40,  231.25 " style="stroke-width: 0.85 ;&st7; " /><path d=" M  603.40,  285.84  L  600.57,  283.01  L  600.57,  287.26  L  603.40,  290.09  L  606.23,  287.26  L  606.23,  283.01  L  603.40,  285.84 " style="stroke-width: 0.28 ;&st9;" /><path d=" M  603.40,  290.74  L  603.40,  256.74 " style="stroke-width: 0.85 ;&st7; " /><path d=" M  675.64,  264.67  L  679.89,  268.92  L  684.14,  264.67 " style="stroke-width: 1.42 ;&st7; " /><path d=" M  684.14,  268.07  L  679.89,  272.32  L  675.64,  268.07 " style="stroke-width: 1.42 ;&st7; " /><path d=" M  560.91,  511.70  L  560.91,  528.70  L  577.90,  528.70  L  577.90,  511.70  L  560.91,  511.70 " style="stroke-width: 1.42 ;&st7; " /><path d=" M  569.40,  511.70  L  569.40,  528.70 " style="stroke-width: 0.85 ;&st7; " /><path d=" M  641.93,  406.32  C  641.93   403.81   639.90   401.78   637.39   401.78 " style="stroke-width: 1.42 ;&st7; " /><path d=" M  637.39,  401.78  C  634.89   401.78   632.86   403.81   632.86   406.32 " style="stroke-width: 1.42 ;&st7; " /><path d=" M  632.86,  406.32  C  632.86   408.82   634.89   410.85   637.39   410.85 " style="stroke-width: 1.42 ;&st7; " /><path d=" M  637.39,  410.85  C  639.90   410.85   641.93   408.82   641.93   406.32 " style="stroke-width: 1.42 ;&st7; " /><path d=" M  866.86,   66.94  C  869.59    65.33   870.51    61.80   868.89    59.06 " style="stroke-width: 1.42 ;&st7; " /><path d=" M  868.89,   59.06  C  868.37    58.18   867.74    57.55   866.86    57.03 " style="stroke-width: 1.42 ;&st7; " /><path d=" M  868.27,   45.69  C  868.27    44.91   867.64    44.28   866.86    44.28 " style="stroke-width: 0.85 ;&st7; " /><path d=" M  866.86,   44.28  C  866.07    44.28   865.44    44.91   865.44    45.69 " style="stroke-width: 0.85 ;&st7; " /><path d=" M  865.44,   45.69  C  865.44    46.48   866.07    47.11   866.86    47.11 " style="stroke-width: 0.85 ;&st7; " /><path d=" M  866.86,   47.11  C  867.64    47.11   868.27    46.48   868.27    45.69 " style="stroke-width: 0.85 ;&st7; " /><path d=" M  868.27,   68.36  C  868.27    67.57   867.64    66.94   866.86    66.94 " style="stroke-width: 0.85 ;&st7; " /><path d=" M  866.86,   66.94  C  866.07    66.94   865.44    67.57   865.44    68.36 " style="stroke-width: 0.85 ;&st7; " /><path d=" M  865.44,   68.36  C  865.44    69.14   866.07    69.77   866.86    69.77 " style="stroke-width: 0.85 ;&st7; " /><path d=" M  866.86,   69.77  C  867.64    69.77   868.27    69.14   868.27    68.36 " style="stroke-width: 0.85 ;&st7; " /><path d=" M  698.30,   68.36  C  698.30    67.57   697.67    66.94   696.88    66.94 " style="stroke-width: 0.85 ;&st7; " /><path d=" M  696.88,   66.94  C  696.10    66.94   695.47    67.57   695.47    68.36 " style="stroke-width: 0.85 ;&st7; " /><path d=" M  695.47,   68.36  C  695.47    69.14   696.10    69.77   696.88    69.77 " style="stroke-width: 0.85 ;&st7; " /><path d=" M  696.88,   69.77  C  697.67    69.77   698.30    69.14   698.30    68.36 " style="stroke-width: 0.85 ;&st7; " /><path d=" M  698.30,   45.69  C  698.30    44.91   697.67    44.28   696.88    44.28 " style="stroke-width: 0.85 ;&st7; " /><path d=" M  696.88,   44.28  C  696.10    44.28   695.47    44.91   695.47    45.69 " style="stroke-width: 0.85 ;&st7; " /><path d=" M  695.47,   45.69  C  695.47    46.48   696.10    47.11   696.88    47.11 " style="stroke-width: 0.85 ;&st7; " /><path d=" M  696.88,   47.11  C  697.67    47.11   698.30    46.48   698.30    45.69 " style="stroke-width: 0.85 ;&st7; " /><path d=" M  696.88,   66.94  C  699.62    65.33   700.53    61.80   698.92    59.06 " style="stroke-width: 1.42 ;&st7; " /><path d=" M  698.92,   59.06  C  698.40    58.18   697.77    57.55   696.88    57.03 " style="stroke-width: 1.42 ;&st7; " /><path d=" M  696.88,   47.11  C  694.15    48.72   693.23    52.25   694.85    54.99 " style="stroke-width: 1.42 ;&st7; " /><path d=" M  694.85,   54.99  C  695.37    55.87   696.00    56.51   696.88    57.03 " style="stroke-width: 1.42 ;&st7; " /><path d=" M  757.79,   68.36  C  757.79    67.57   757.16    66.94   756.37    66.94 " style="stroke-width: 0.85 ;&st7; " /><path d=" M  756.37,   66.94  C  755.59    66.94   754.96    67.57   754.96    68.36 " style="stroke-width: 0.85 ;&st7; " /><path d=" M  754.96,   68.36  C  754.96    69.14   755.59    69.77   756.37    69.77 " style="stroke-width: 0.85 ;&st7; " /><path d=" M  756.37,   69.77  C  757.16    69.77   757.79    69.14   757.79    68.36 " style="stroke-width: 0.85 ;&st7; " /><path d=" M  757.79,   45.69  C  757.79    44.91   757.16    44.28   756.37    44.28 " style="stroke-width: 0.85 ;&st7; " /><path d=" M  756.37,   44.28  C  755.59    44.28   754.96    44.91   754.96    45.69 " style="stroke-width: 0.85 ;&st7; " /><path d=" M  754.96,   45.69  C  754.96    46.48   755.59    47.11   756.37    47.11 " style="stroke-width: 0.85 ;&st7; " /><path d=" M  756.37,   47.11  C  757.16    47.11   757.79    46.48   757.79    45.69 " style="stroke-width: 0.85 ;&st7; " /><path d=" M  756.37,   66.94  C  759.11    65.33   760.02    61.80   758.41    59.06 " style="stroke-width: 1.42 ;&st7; " /><path d=" M  758.41,   59.06  C  757.89    58.18   757.26    57.55   756.37    57.03 " style="stroke-width: 1.42 ;&st7; " /><path d=" M  756.37,   47.11  C  753.64    48.72   752.72    52.25   754.34    54.99 " style="stroke-width: 1.42 ;&st7; " /><path d=" M  754.34,   54.99  C  754.86    55.87   755.49    56.51   756.37    57.03 " style="stroke-width: 1.42 ;&st7; " /><path d=" M  703.26,   99.52  C  703.26    97.17   701.35    95.27   699.01    95.27 " style="stroke-width: 1.42 ;&st7; " /><path d=" M  699.01,  103.77  C  701.35   103.77   703.26   101.87   703.26    99.52 " style="stroke-width: 1.42 ;&st7; " /><path d=" M  690.51,   99.52  C  690.51   101.87   692.41   103.77   694.76   103.77 " style="stroke-width: 1.42 ;&st7; " /><path d=" M  694.76,   95.27  C  692.41    95.27   690.51    97.17   690.51    99.52 " style="stroke-width: 1.42 ;&st7; " /><path d=" M  652.27,   99.52  C  652.27    97.17   650.36    95.27   648.02    95.27 " style="stroke-width: 1.42 ;&st7; " /><path d=" M  648.02,  103.77  C  650.36   103.77   652.27   101.87   652.27    99.52 " style="stroke-width: 1.42 ;&st7; " /><path d=" M  639.52,   99.52  C  639.52   101.87   641.42   103.77   643.77   103.77 " style="stroke-width: 1.42 ;&st7; " /><path d=" M  643.77,   95.27  C  641.42    95.27   639.52    97.17   639.52    99.52 " style="stroke-width: 1.42 ;&st7; " /><path d=" M  647.31,   68.36  C  647.31    67.57   646.67    66.94   645.89    66.94 " style="stroke-width: 0.85 ;&st7; " /><path d=" M  645.89,   66.94  C  645.11    66.94   644.48    67.57   644.48    68.36 " style="stroke-width: 0.85 ;&st7; " /><path d=" M  644.48,   68.36  C  644.48    69.14   645.11    69.77   645.89    69.77 " style="stroke-width: 0.85 ;&st7; " /><path d=" M  645.89,   69.77  C  646.67    69.77   647.31    69.14   647.31    68.36 " style="stroke-width: 0.85 ;&st7; " /><path d=" M  647.31,   45.69  C  647.31    44.91   646.67    44.28   645.89    44.28 " style="stroke-width: 0.85 ;&st7; " /><path d=" M  645.89,   44.28  C  645.11    44.28   644.48    44.91   644.48    45.69 " style="stroke-width: 0.85 ;&st7; " /><path d=" M  644.48,   45.69  C  644.48    46.48   645.11    47.11   645.89    47.11 " style="stroke-width: 0.85 ;&st7; " /><path d=" M  645.89,   47.11  C  646.67    47.11   647.31    46.48   647.31    45.69 " style="stroke-width: 0.85 ;&st7; " /><path d=" M  645.89,   66.94  C  648.63    65.33   649.54    61.80   647.93    59.06 " style="stroke-width: 1.42 ;&st7; " /><path d=" M  647.93,   59.06  C  647.41    58.18   646.77    57.55   645.89    57.03 " style="stroke-width: 1.42 ;&st7; " /><path d=" M  645.89,   47.11  C  643.15    48.72   642.24    52.25   643.86    54.99 " style="stroke-width: 1.42 ;&st7; " /><path d=" M  643.86,   54.99  C  644.37    55.87   645.01    56.51   645.89    57.03 " style="stroke-width: 1.42 ;&st7; " /><path d=" M  996.46,  133.51  C  996.46   135.86   998.36   137.76  1000.71   137.76 " style="stroke-width: 1.42 ;&st7; " /><path d=" M  575.78,   95.27  C  573.43    95.27   571.53    97.17   571.53    99.52 " style="stroke-width: 1.42 ;&st7; " /><path d=" M  571.53,   99.52  C  571.53   101.87   573.43   103.77   575.78   103.77 " style="stroke-width: 1.42 ;&st7; " /><path d=" M  580.03,  103.77  C  582.37   103.77   584.28   101.87   584.28    99.52 " style="stroke-width: 1.42 ;&st7; " /><path d=" M  584.28,   99.52  C  584.28    97.17   582.37    95.27   580.03    95.27 " style="stroke-width: 1.42 ;&st7; " /><path d=" M  579.32,   68.36  C  579.32    67.57   578.69    66.94   577.90    66.94 " style="stroke-width: 0.85 ;&st7; " /><path d=" M  577.90,   66.94  C  577.12    66.94   576.49    67.57   576.49    68.36 " style="stroke-width: 0.85 ;&st7; " /><path d=" M  576.49,   68.36  C  576.49    69.14   577.12    69.77   577.90    69.77 " style="stroke-width: 0.85 ;&st7; " /><path d=" M  577.90,   69.77  C  578.69    69.77   579.32    69.14   579.32    68.36 " style="stroke-width: 0.85 ;&st7; " /><path d=" M  579.32,   45.69  C  579.32    44.91   578.69    44.28   577.90    44.28 " style="stroke-width: 0.85 ;&st7; " /><path d=" M  577.90,   44.28  C  577.12    44.28   576.49    44.91   576.49    45.69 " style="stroke-width: 0.85 ;&st7; " /><path d=" M  576.49,   45.69  C  576.49    46.48   577.12    47.11   577.90    47.11 " style="stroke-width: 0.85 ;&st7; " /><path d=" M  577.90,   47.11  C  578.69    47.11   579.32    46.48   579.32    45.69 " style="stroke-width: 0.85 ;&st7; " /><path d=" M  577.90,   66.94  C  578.76    64.02   578.10    61.13   576.06    58.87 " style="stroke-width: 1.42 ;&st7; " /><path d=" M  577.90,   66.94  C  580.07    63.92   580.07    60.05   577.90    57.03 " style="stroke-width: 1.42 ;&st7; " /><path d=" M  577.90,   66.94  C  581.62    64.17   582.44    58.96   579.74    55.19 " style="stroke-width: 1.42 ;&st7; " /><path d=" M  577.90,   47.11  C  574.19    49.88   573.37    55.10   576.06    58.87 " style="stroke-width: 1.42 ;&st7; " /><path d=" M  577.90,   47.11  C  575.73    50.13   575.73    54.00   577.90    57.03 " style="stroke-width: 1.42 ;&st7; " /><path d=" M  577.90,   47.11  C  577.05    50.03   577.71    52.92   579.75    55.18 " style="stroke-width: 1.42 ;&st7; " /><path d=" M  579.32,  259.58  C  579.32   258.79   578.69   258.16   577.90   258.16 " style="stroke-width: 0.85 ;&st7; " /><path d=" M  577.90,  258.16  C  577.12   258.16   576.49   258.79   576.49   259.58 " style="stroke-width: 0.85 ;&st7; " /><path d=" M  576.49,  259.58  C  576.49   260.36   577.12   260.99   577.90   260.99 " style="stroke-width: 0.85 ;&st7; " /><path d=" M  577.90,  260.99  C  578.69   260.99   579.32   260.36   579.32   259.58 " style="stroke-width: 0.85 ;&st7; " /><path d=" M  579.32,  236.91  C  579.32   236.13   578.69   235.50   577.90   235.50 " style="stroke-width: 0.85 ;&st7; " /><path d=" M  577.90,  235.50  C  577.12   235.50   576.49   236.13   576.49   236.91 " style="stroke-width: 0.85 ;&st7; " /><path d=" M  576.49,  236.91  C  576.49   237.69   577.12   238.33   577.90   238.33 " style="stroke-width: 0.85 ;&st7; " /><path d=" M  577.90,  238.33  C  578.69   238.33   579.32   237.69   579.32   236.91 " style="stroke-width: 0.85 ;&st7; " /><path d=" M  600.87,  245.77  C  602.24   247.16   604.48   247.19   605.88   245.82 " style="stroke-width: 0.85 ;&st7; " /><path d=" M  605.88,  245.82  C  607.28   244.45   607.30   242.20   605.93   240.81 " style="stroke-width: 0.85 ;&st7; " /><path d=" M  605.93,  240.81  C  605.24   240.10   604.39   239.74   603.40   239.74 " style="stroke-width: 0.85 ;&st7; " /><path d=" M  600.87,  250.72  C  602.24   252.12   604.48   252.14   605.88   250.77 " style="stroke-width: 0.85 ;&st7; " /><path d=" M  605.88,  250.77  C  607.28   249.40   607.30   247.16   605.93   245.77 " style="stroke-width: 0.85 ;&st7; " /><path d=" M  605.93,  245.77  C  604.56   244.37   602.32   244.35   600.92   245.71 " style="stroke-width: 0.85 ;&st7; " /><path d=" M  600.92,  245.71  C  600.90   245.73   600.89   245.75   600.87   245.77 " style="stroke-width: 0.85 ;&st7; " /><path d=" M  603.40,  256.74  C  605.35   256.74   606.94   255.16   606.94   253.20 " style="stroke-width: 0.85 ;&st7; " /><path d=" M  606.94,  253.20  C  606.94   251.25   605.35   249.66   603.40   249.66 " style="stroke-width: 0.85 ;&st7; " /><path d=" M  603.40,  249.66  C  602.41   249.66   601.56   250.02   600.87   250.72 " style="stroke-width: 0.85 ;&st7; " /><path d=" M  577.90,  290.74  C  575.69   288.91   572.56   288.97   570.42   290.88 " style="stroke-width: 1.42 ;&st7; " /><path d=" M  577.90,  290.74  C  580.11   292.56   583.25   292.50   585.39   290.60 " style="stroke-width: 1.42 ;&st7; " /><path d=" M  684.42,  337.20  C  684.42   334.69   682.39   332.66   679.89   332.66 " style="stroke-width: 1.42 ;&st7; " /><path d=" M  679.89,  332.66  C  677.38   332.66   675.35   334.69   675.35   337.20 " style="stroke-width: 1.42 ;&st7; " /><path d=" M  675.35,  337.20  C  675.35   339.70   677.38   341.73   679.89   341.73 " style="stroke-width: 1.42 ;&st7; " /><path d=" M  679.89,  341.73  C  682.39   341.73   684.42   339.70   684.42   337.20 " style="stroke-width: 1.42 ;&st7; " /><path d=" M  575.78,  197.25  C  573.43   197.25   571.53   199.15   571.53   201.50 " style="stroke-width: 1.42 ;&st7; " /><path d=" M  571.53,  201.50  C  571.53   203.85   573.43   205.75   575.78   205.75 " style="stroke-width: 1.42 ;&st7; " /><path d=" M  580.03,  205.75  C  582.37   205.75   584.28   203.85   584.28   201.50 " style="stroke-width: 1.42 ;&st7; " /><path d=" M  584.28,  201.50  C  584.28   199.15   582.37   197.25   580.03   197.25 " style="stroke-width: 1.42 ;&st7; " /><path d=" M  601.27,  197.25  C  598.93   197.25   597.03   199.15   597.03   201.50 " style="stroke-width: 1.42 ;&st7; " /><path d=" M  597.03,  201.50  C  597.03   203.85   598.93   205.75   601.27   205.75 " style="stroke-width: 1.42 ;&st7; " /><path d=" M  605.52,  205.75  C  607.87   205.75   609.77   203.85   609.77   201.50 " style="stroke-width: 1.42 ;&st7; " /><path d=" M  609.77,  201.50  C  609.77   199.15   607.87   197.25   605.52   197.25 " style="stroke-width: 1.42 ;&st7; " /><path d=" M  601.27,  290.74  C  598.93   290.74   597.03   292.64   597.03   294.99 " style="stroke-width: 1.42 ;&st7; " /><path d=" M  597.03,  294.99  C  597.03   297.33   598.93   299.24   601.27   299.24 " style="stroke-width: 1.42 ;&st7; " /><path d=" M  605.52,  299.24  C  607.87   299.24   609.77   297.33   609.77   294.99 " style="stroke-width: 1.42 ;&st7; " /><path d=" M  609.77,  294.99  C  609.77   292.64   607.87   290.74   605.52   290.74 " style="stroke-width: 1.42 ;&st7; " /><path d=" M  573.94,  406.32  C  573.94   403.81   571.91   401.78   569.40   401.78 " style="stroke-width: 1.42 ;&st7; " /><path d=" M  569.40,  401.78  C  566.90   401.78   564.87   403.81   564.87   406.32 " style="stroke-width: 1.42 ;&st7; " /><path d=" M  564.87,  406.32  C  564.87   408.82   566.90   410.85   569.40   410.85 " style="stroke-width: 1.42 ;&st7; " /><path d=" M  569.40,  410.85  C  571.91   410.85   573.94   408.82   573.94   406.32 " style="stroke-width: 1.42 ;&st7; " /><path d=" M  684.42,  397.25  C  684.42   394.75   682.39   392.72   679.89   392.72 " style="stroke-width: 1.42 ;&st7; " /><path d=" M  679.89,  392.72  C  677.38   392.72   675.35   394.75   675.35   397.25 " style="stroke-width: 1.42 ;&st7; " /><path d=" M  675.35,  397.25  C  675.35   399.76   677.38   401.78   679.89   401.78 " style="stroke-width: 1.42 ;&st7; " /><path d=" M  679.89,  401.78  C  682.39   401.78   684.42   399.76   684.42   397.25 " style="stroke-width: 1.42 ;&st7; " /><path d=" M  743.91,  397.25  C  743.91   394.75   741.88   392.72   739.38   392.72 " style="stroke-width: 1.42 ;&st7; " /><path d=" M  739.38,  392.72  C  736.87   392.72   734.84   394.75   734.84   397.25 " style="stroke-width: 1.42 ;&st7; " /><path d=" M  734.84,  397.25  C  734.84   399.76   736.87   401.78   739.38   401.78 " style="stroke-width: 1.42 ;&st7; " /><path d=" M  739.38,  401.78  C  741.88   401.78   743.91   399.76   743.91   397.25 " style="stroke-width: 1.42 ;&st7; " /><path d=" M  807.37,   47.11  C  804.63    48.72   803.72    52.25   805.33    54.99 " style="stroke-width: 1.42 ;&st7; " /><path d=" M  805.33,   54.99  C  805.85    55.87   806.48    56.51   807.37    57.03 " style="stroke-width: 1.42 ;&st7; " /><path d=" M  807.37,   66.94  C  810.10    65.33   811.01    61.80   809.40    59.06 " style="stroke-width: 1.42 ;&st7; " /><path d=" M  809.40,   59.06  C  808.88    58.18   808.25    57.55   807.37    57.03 " style="stroke-width: 1.42 ;&st7; " /><path d=" M  808.78,   45.69  C  808.78    44.91   808.15    44.28   807.37    44.28 " style="stroke-width: 0.85 ;&st7; " /><path d=" M  807.37,   44.28  C  806.58    44.28   805.95    44.91   805.95    45.69 " style="stroke-width: 0.85 ;&st7; " /><path d=" M  805.95,   45.69  C  805.95    46.48   806.58    47.11   807.37    47.11 " style="stroke-width: 0.85 ;&st7; " /><path d=" M  807.37,   47.11  C  808.15    47.11   808.78    46.48   808.78    45.69 " style="stroke-width: 0.85 ;&st7; " /><path d=" M  808.78,   68.36  C  808.78    67.57   808.15    66.94   807.37    66.94 " style="stroke-width: 0.85 ;&st7; " /><path d=" M  807.37,   66.94  C  806.58    66.94   805.95    67.57   805.95    68.36 " style="stroke-width: 0.85 ;&st7; " /><path d=" M  805.95,   68.36  C  805.95    69.14   806.58    69.77   807.37    69.77 " style="stroke-width: 0.85 ;&st7; " /><path d=" M  807.37,   69.77  C  808.15    69.77   808.78    69.14   808.78    68.36 " style="stroke-width: 0.85 ;&st7; " /><path d=" M  866.86,   47.11  C  864.12    48.72   863.21    52.25   864.82    54.99 " style="stroke-width: 1.42 ;&st7; " /><path d=" M  864.82,   54.99  C  865.34    55.87   865.97    56.51   866.86    57.03 " style="stroke-width: 1.42 ;&st7; " /><text style="&st18;" transform="matrix(&st16;  555.35  408.29 )">16</text><text style="&st18;" transform="matrix(&st16;  581.04  513.64 )">E58</text><text ewd:textID="1" style="&st18;" transform="matrix(&st16;  745.35  267.21 )">* 1 :Dynamic Type</text><text ewd:textID="2" style="&st18;" transform="matrix(&st16;  745.35  275.71 )">* 2 :Static Type</text><text style="&st18;" transform="matrix(&st16;  567.07  408.29 )">B</text><text style="&st18;" transform="matrix(&st16;  628.81  389.02 )">WNG</text><text style="&st18;" transform="matrix(&st17;  633.7  454.19 )">L</text><text style="&st18;" transform="matrix(&st16;  635.06  408.29 )">B</text><text style="&st18;" transform="matrix(&st16;  626.52  408.29 )">6</text><text style="&st18;" transform="matrix(&st16;  643.37  408.29 )">(*2)</text><text ewd:textID="10" style="&st18;" transform="matrix(&st16;  745.35  292.71 )">*11 :Dynamic Type w/o Active Height Suspension, Static Type</text><text style="&st18;" transform="matrix(&st17;  565.71  454.54 )">V</text><text style="&st18;" transform="matrix(&st16;  559.8  389.02 )">SPDR</text><text ewd:textID="11" style="&st18;" transform="matrix(&st16;  824.67  53.34 )">10A <tspan dy="6" x="0">ECU-IG </tspan><tspan dy="6" x="0">No.2</tspan></text><text style="&st18;" transform="matrix(&st16;  919.07  83.07 )">ACC</text><text style="&st18;" transform="matrix(&st16;  801.29  32.08 )">(IG)</text><text style="&st18;" transform="matrix(&st16;  857.25  32.08 )">(ACC)</text><text style="&st18;" transform="matrix(&st16;  884.16  56.17 )">7.5A <tspan dy="6" x="0">ACC</tspan></text><text style="&st18;" transform="matrix(&st16;  970.55  94.96 )">6</text><text style="&st18;" transform="matrix(&st16;  968.58  83.07 )">ALTB</text><text style="&st18;" transform="matrix(&st16;  915.6  94.96 )">22</text><text style="&st18;" transform="matrix(&st16;  695.29  101.49 )">1</text><text style="&st18;" transform="matrix(&st17;  693.19  131.24 )">L</text><text style="&st18;" transform="matrix(&st16;  948.1  83.07 )">IG</text><text style="&st18;" transform="matrix(&st16;  941.87  94.96 )">15</text><text style="&st18;" transform="matrix(&st16;  687.77  32.08 )">(BAT)</text><text style="&st18;" transform="matrix(&st16;  714.19  53.34 )">25A <tspan dy="6" x="0">DOOR </tspan><tspan dy="6" x="0">NO.2</tspan></text><text style="&st18;" transform="matrix(&st16;  690.09  86.47 )">2</text><text style="&st18;" transform="matrix(&st16;  773.68  53.34 )">25A <tspan dy="6" x="0">DOOR </tspan><tspan dy="6" x="0">NO.1</tspan></text><text style="&st18;" transform="matrix(&st16;  747.26  32.08 )">(BAT)</text><text style="&st18;" transform="matrix(&st17;  999.14  165.24 )">L</text><text style="&st18;" transform="matrix(&st16;  644.3  101.49 )">1</text><text style="&st18;" transform="matrix(&st16;  636.78  32.08 )">(BAT)</text><text style="&st18;" transform="matrix(&st17;  642.2  132.62 )">W</text><text style="&st18;" transform="matrix(&st16;  663.2  56.17 )">5A <tspan dy="6" x="0">AM2</tspan></text><text style="&st18;" transform="matrix(&st16;  639.1  86.47 )">2</text><text style="&st18;" transform="matrix(&st16;  627.12  160.98 )">36</text><text style="&st18;" transform="matrix(&st17;  642.2  192.11 )">W</text><text style="&st18;" transform="matrix(&st16;  998.52  135.48 )">2B</text><text style="&st18;" transform="matrix(&st16;  986.19  135.48 )">20</text><text style="&st18;" transform="matrix(&st16;  993.72  83.07 )">BATB</text><text style="&st18;" transform="matrix(&st16;  996.04  94.96 )">2</text><text style="&st18;" transform="matrix(&st16;  932.32  24.98 )">E1(A),E2(B),E3(C)</text><text ewd:textID="25" style="&st18;" transform="matrix(&st16;  932.32  32.08 )">Main Body ECU</text><text style="&st18;" transform="matrix(&st17;  735.68  454.54 )">B</text><text style="&st18;" transform="matrix(&st17;  676.19  456.94 )">LG</text><text style="&st18;" transform="matrix(&st17;  747.01  461.96 )">(RHD)</text><text style="&st18;" transform="matrix(&st17;  687.52  461.96 )">(RHD)</text><text style="&st18;" transform="matrix(&st16;  729.84  389.02 )">MPX2</text><text style="&st18;" transform="matrix(&st16;  737.05  399.22 )">A</text><text style="&st18;" transform="matrix(&st16;  725.32  399.22 )">13</text><text style="&st18;" transform="matrix(&st16;  745.35  399.22 )">(*1)</text><text style="&st18;" transform="matrix(&st16;  665.83  399.22 )">12</text><text style="&st18;" transform="matrix(&st16;  677.56  399.22 )">A</text><text style="&st18;" transform="matrix(&st16;  670.74  389.02 )">MPX1</text><text style="&st18;" transform="matrix(&st16;  568.79  32.08 )">(BAT)</text><text style="&st18;" transform="matrix(&st16;  595.21  56.17 )">40A <tspan dy="6" x="0">MAIN</tspan></text><text style="&st18;" transform="matrix(&st16;  573.84  101.49 )">1H</text><text style="&st18;" transform="matrix(&st16;  565.21  101.49 )">3</text><text style="&st18;" transform="matrix(&st16;  571.11  273.43 )">3</text><text style="&st18;" transform="matrix(&st16;  596.61  273.43 )">2</text><text style="&st18;" transform="matrix(&st16;  571.11  227.56 )">5</text><text style="&st18;" transform="matrix(&st16;  597.38  227.56 )">1</text><text ewd:textID="15" style="&st18;" transform="matrix(&st17;  620.95  273.82 )">HEAD LO Relay</text><text style="&st18;" transform="matrix(&st17;  676.19  301.21 )">L</text><text style="&st18;" transform="matrix(&st16;  670.63  349.36 )">HDLP</text><text style="&st18;" transform="matrix(&st16;  677.56  339.16 )">B</text><text style="&st18;" transform="matrix(&st16;  669.01  339.16 )">3</text><text style="&st18;" transform="matrix(&st16;  685.86  339.16 )">(*2)</text><text style="&st18;" transform="matrix(&st17;  574.21  131.74 )">R</text><text style="&st18;" transform="matrix(&st17;  574.21  182.73 )">R</text><text style="&st18;" transform="matrix(&st17;  599.7  182.73 )">R</text><text style="&st18;" transform="matrix(&st16;  576.31  203.47 )">1</text><text style="&st18;" transform="matrix(&st16;  601.81  203.47 )">1</text><text style="&st18;" transform="matrix(&st16;  601.81  296.96 )">1</text><text style="&st18;" transform="matrix(&st16;  661.89  279.96 )">19</text><text style="&st18;" transform="matrix(&st17;  642.2  301.21 )">L</text><text style="&st18;" transform="matrix(&st17;  565.71  586.27 )">V</text><text ewd:textID="23" style="&st18;" transform="matrix(&st16;  581.04  520.75 )">Junction <tspan dy="6" x="0">Connector</tspan></text><text style="&st18;" transform="matrix(&st16;  559.44  508.01 )">41</text><text style="&st18;" transform="matrix(&st16;  559.44  536.89 )">61</text><text ewd:textID="21" style="&st18;" transform="matrix(&st16;  583.88  373.44 )">Headlight Leveling ECU Assembly</text><text style="&st18;" transform="matrix(&st16;  583.88  366.34 )">E101(A),E109(B)</text><text style="&st18;" transform="matrix(&st16;  999.75  592.99 )">B(LHD)</text><text ewd:textID="9" style="&st18;" transform="matrix(&st16;  745.35  284.21 )">*10 :Dynamic Type w/ Active Height Suspension</text><text style="&st18;" transform="matrix(&st17;  761.18  454.54 )">B</text><text style="&st18;" transform="matrix(&st17;  701.69  456.94 )">LG</text><text style="&st18;" transform="matrix(&st17;  772.51  461.46 )">(LHD)</text><text style="&st18;" transform="matrix(&st17;  713.02  461.46 )">(LHD)</text><text style="&st18;" transform="matrix(&st16;  996.85  626.98 )">LG(RHD)</text><text style="&st18;" transform="matrix(&st16;  999.25  609.99 )">B(RHD)</text><text style="&st18;" transform="matrix(&st16;  997.34  575.99 )">LG(LHD)</text></svg>