﻿<?xml version="1.0" encoding="utf-8"?>
<!DOCTYPE svg PUBLIC "-//W3C//DTD SVG 1.0//EN" "http://www.w3.org/TR/2001/REC-SVG-20010904/DTD/svg10.dtd"[
	<!ENTITY ns_flows "http://ns.adobe.com/Flows/1.0/">
	<!ENTITY ns_svg "http://www.w3.org/2000/svg">
	<!ENTITY ns_xlink "http://www.w3.org/1999/xlink">
	<!ENTITY st0 "font-size:7px;font-family:'MS-PGothic';adobe-font-script:japanese;">
	<!ENTITY st1 "font-size:6px;font-family:'ArialMT';">
	<!-- White fill  -->
	<!ENTITY st2 "fill:#FFFFFF;stroke:#000000; stroke-width:1.41;stroke-linecap:round;stroke-linejoin:round;">
	<!-- Yellow fill  -->
	<!ENTITY st3 "fill:#FFFFCC;stroke:#FFFFCC; stroke-width:0.1;stroke-linecap:round;stroke-linejoin:round;">
	<!-- Gray fill  -->
	<!ENTITY st4 "fill:#CCCCCC;stroke:#CCCCCC; stroke-width:0.1;stroke-linecap:round;stroke-linejoin:round;">
	<!-- Light-blue fill -->
	<!ENTITY st5 "fill:#CCECF4;stroke:#000000; stroke-width:1.133;stroke-linecap:round;stroke-linejoin:round;">
	<!ENTITY st6 "fill:none;stroke-linecap:butt; stroke-linejoin:round;">
	<!ENTITY st7 "fill:none;stroke:#000000;stroke-linecap:round;stroke-linejoin:round;">
	<!ENTITY st8 "enable-background:new    ;">
	<!-- Black fill -->
	<!ENTITY st9 "fill:#000000;stroke:#000000; stroke-linecap:round;stroke-linejoin:round;">
	<!-- SRS note   -->
	<!ENTITY st10 "font-size:9px;font-family:'ArialMT';">
	<!ENTITY st11 "font-size:9px;font-family:'Svg Symbol';">
	<!ENTITY st12 "font-size:6px;font-family:'Svg Symbol';">
	<!ENTITY st13 "fill:none;stroke:#ff0000;stroke-linecap:round;stroke-linejoin:round;">
	<!-- Yellow fill  -->
	<!ENTITY st14 "fill:#FFFF00;stroke:#FFFF00; stroke-width:0.1;stroke-linecap:round;stroke-linejoin:round;">
	<!ENTITY st15 "font-size:6px;font-family:'MS-PGothic';adobe-font-script:japanese;">
	<!ENTITY st16 "1.00 0.00 0.00 1.00">
	<!ENTITY st17 "0.00 -1.00 1.00 0.00">
	<!ENTITY st18 "font-size:6px;font-family:'Arial';">
	<!ENTITY st19 "font-size:9px;font-family:'Arial';">
	<!ENTITY st20 "font-size:6px;font-family:'MS-PGothic','MS PGothic';adobe-font-script:japanese;">
	<!ENTITY st21 "font-size:7px;font-family:'MS-PGothic','MS PGothic';adobe-font-script:japanese;">
	<!ATTLIST svg
		xmlns:ewd CDATA #FIXED "http://shcl.co.jp/ewd"
		xmlns:a CDATA #FIXED "http://ns.adobe.com/AdobeSVGViewerExtensions/3.0/"
		ewd:ver CDATA #IMPLIED
	>
	<!ATTLIST a
		ewd:lineID CDATA #IMPLIED
		ewd:groupID CDATA #IMPLIED
		ewd:figtype CDATA #IMPLIED
		ewd:code CDATA #IMPLIED
		ewd:figID CDATA #IMPLIED
		ewd:pinNo CDATA #IMPLIED
		ewd:comment CDATA #IMPLIED >
	<!ATTLIST g
		ewd:lineID CDATA #IMPLIED
		ewd:groupID CDATA #IMPLIED
		ewd:figtype CDATA #IMPLIED
		ewd:code CDATA #IMPLIED
		ewd:figID CDATA #IMPLIED
		ewd:pinNo CDATA #IMPLIED
		ewd:comment CDATA #IMPLIED >
	<!ATTLIST text
		ewd:textID CDATA #IMPLIED >
	<!ATTLIST title
		ewd:textID CDATA #IMPLIED >
]>
<!-- Generator: Shintec Hozumi YS   -->
<svg onload="call_execInitLoadProc_svg('system')" style="overflow:visible;  enable-background:new 0 0 4003.539 710.000" viewBox="0 0 4003.539 710.000" height="710.000" width="4003.539" xml:space="preserve" ewd:ver="L2.1.2.8" xmlns="&ns_svg;" xmlns:a="http://ns.adobe.com/AdobeSVGViewerExtensions/3.0/" xmlns:ewd="http://shcl.co.jp/ewd" xmlns:xlink="&ns_xlink;">
<path d=" M 3773.37,   69.77  L 3773.37,   95.27 " style="stroke-width: 0.85 ;&st7; " /><path d=" M 3775.49,   95.27  L 3771.24,   95.27 " style="stroke-width: 1.42 ;&st7; " /><path d=" M 3775.49,  103.77  L 3771.24,  103.77 " style="stroke-width: 1.42 ;&st7; " /><path d=" M 3764.87,  146.26  L 3773.37,  146.26 " style="stroke-width: 1.42 ;&st7; " /><path d=" M 3843.48,  103.77  L 3839.23,  103.77 " style="stroke-width: 1.42 ;&st7; " /><path d=" M 3843.48,   95.27  L 3839.23,   95.27 " style="stroke-width: 1.42 ;&st7; " /><path d=" M 3841.36,   69.77  L 3841.36,   95.27 " style="stroke-width: 0.85 ;&st7; " /><path d=" M 3811.61,  222.75  L 3803.11,  222.75 " style="stroke-width: 0.85 ;&st7; " /><path d=" M 3845.61,  222.75  L 3837.11,  222.75 " style="stroke-width: 0.85 ;&st7; " /><path d=" M 3777.62,  222.75  L 3769.12,  222.75 " style="stroke-width: 0.85 ;&st7; " /><path d=" M 3934.84,  503.20  L 3926.34,  503.20 " style="stroke-width: 1.42 ;&st7; " /><path d=" M 3777.62,  273.74  L 3769.12,  273.74 " style="stroke-width: 0.85 ;&st7; " /><path d=" M 3786.10,  264.08  L 3778.74,  268.33 " style="stroke-width: 0.85 ;&st7; " /><path d=" M 3780.75,  271.79  L 3788.11,  267.54 " style="stroke-width: 0.85 ;&st7; " /><path d=" M 3871.10,  273.74  L 3862.60,  273.74 " style="stroke-width: 0.85 ;&st7; " /><path d=" M 3879.59,  264.08  L 3872.23,  268.33 " style="stroke-width: 0.85 ;&st7; " /><path d=" M 3874.23,  271.79  L 3881.59,  267.54 " style="stroke-width: 0.85 ;&st7; " /><path d=" M 3704.19,  391.72  L 3703.91,  392.19  L 3703.82,  392.72  L 3703.91,  393.25  L 3704.19,  393.72  L 3704.60,  394.07  L 3705.11,  394.26  L 3705.65,  394.26  L 3706.16,  394.07  L 3706.57,  393.72  L 3706.84,  393.25  L 3706.94,  392.72  L 3706.84,  392.19  L 3706.57,  391.72  L 3706.16,  391.37  L 3705.65,  391.18  L 3705.11,  391.18  L 3704.60,  391.37  L 3704.19,  391.72  L 3704.58,  392.43  L 3704.58,  393.01  L 3704.95,  393.46  L 3705.53,  393.56  L 3706.03,  393.27  L 3706.23,  392.72  L 3706.03,  392.17  L 3705.53,  391.88  L 3704.95,  391.98  L 3705.38,  392.72 " style="stroke-width: 0.85 ;&st7; " /><path d=" M 3747.87,  248.24  L 3841.36,  248.24 " style="stroke-width: 0.85 ;&st7; " /><path d=" M 3975.92,  710.00  L 3978.75,  710.00 " style="stroke-width: 0.85 ;&st7; " /><path d=" M 3974.50,  707.17  L 3980.17,  707.17 " style="stroke-width: 0.85 ;&st7; " /><path d=" M 3973.08,  704.33  L 3981.58,  704.33 " style="stroke-width: 0.85 ;&st7; " /><path d=" M 3968.84,  701.50  L 3985.83,  701.50 " style="stroke-width: 0.85 ;&st7; " /><path d=" M 3977.33,  697.25  L 3977.33,  701.50 " style="stroke-width: 0.85 ;&st7; " /><path d=" M 3873.93,  710.00  L 3876.77,  710.00 " style="stroke-width: 0.85 ;&st7; " /><path d=" M 3872.52,  707.17  L 3878.18,  707.17 " style="stroke-width: 0.85 ;&st7; " /><path d=" M 3871.10,  704.33  L 3879.60,  704.33 " style="stroke-width: 0.85 ;&st7; " /><path d=" M 3866.85,  701.50  L 3883.85,  701.50 " style="stroke-width: 0.85 ;&st7; " /><path d=" M 3875.35,  697.25  L 3875.35,  701.50 " style="stroke-width: 0.85 ;&st7; " /><path d=" M 3930.59,  512.27  L 3926.34,  508.02  L 3922.09,  512.27 " style="stroke-width: 1.42 ;&st7; " /><path d=" M 3930.59,  508.87  L 3926.34,  504.62  L 3922.09,  508.87 " style="stroke-width: 1.42 ;&st7; " /><path d=" M 3738.18,  391.72  L 3737.91,  392.19  L 3737.82,  392.72  L 3737.91,  393.25  L 3738.18,  393.72  L 3738.59,  394.07  L 3739.10,  394.26  L 3739.64,  394.26  L 3740.15,  394.07  L 3740.57,  393.72  L 3740.84,  393.25  L 3740.93,  392.72  L 3740.84,  392.19  L 3740.57,  391.72  L 3740.15,  391.37  L 3739.64,  391.18  L 3739.10,  391.18  L 3738.59,  391.37  L 3738.18,  391.72  L 3738.57,  392.43  L 3738.57,  393.01  L 3738.95,  393.46  L 3739.52,  393.56  L 3740.03,  393.27  L 3740.22,  392.72  L 3740.03,  392.17  L 3739.52,  391.88  L 3738.95,  391.98  L 3739.37,  392.72 " style="stroke-width: 0.85 ;&st7; " /><path d=" M 3705.38,  392.72  L 3713.88,  392.72  L 3715.29,  389.89  L 3718.13,  395.55  L 3720.96,  389.89  L 3723.79,  395.55  L 3726.63,  389.89  L 3729.46,  395.55  L 3730.88,  392.72  L 3739.37,  392.72 " style="stroke-width: 0.85 ;&st7; " /><path d=" M 3773.37,   90.37  L 3770.54,   87.54  L 3770.54,   91.79  L 3773.37,   94.62  L 3776.20,   91.79  L 3776.20,   87.54  L 3773.37,   90.37 " style="stroke-width: 0.28 ;&st9;" /><path d=" M 3760.62,   35.78  L 3760.62,   78.27  L 3786.12,   78.27  L 3786.12,   35.78  L 3760.62,   35.78 " style="stroke-width: 1.42 ;&st7; " /><path d=" M 3828.61,   35.78  L 3828.61,   78.27  L 3854.10,   78.27  L 3854.10,   35.78  L 3828.61,   35.78 " style="stroke-width: 1.42 ;&st7; " /><path d=" M 3841.36,   90.37  L 3838.52,   87.54  L 3838.52,   91.79  L 3841.36,   94.62  L 3844.19,   91.79  L 3844.19,   87.54  L 3841.36,   90.37 " style="stroke-width: 0.28 ;&st9;" /><path d=" M 3777.62,  140.60  L 3773.37,  144.84  L 3769.12,  140.60 " style="stroke-width: 1.42 ;&st7; " /><path d=" M 3769.12,  137.20  L 3773.37,  141.45  L 3777.62,  137.20 " style="stroke-width: 1.42 ;&st7; " /><path d=" M 3926.34,  697.25  L 3926.34,  701.50 " style="stroke-width: 0.85 ;&st7; " /><path d=" M 3917.84,  701.50  L 3934.84,  701.50 " style="stroke-width: 0.85 ;&st7; " /><path d=" M 3922.09,  704.33  L 3930.59,  704.33 " style="stroke-width: 0.85 ;&st7; " /><path d=" M 3671.39,  197.25  L 3671.39,  418.22  L 4002.83,  418.22  L 4002.83,  197.25  L 3671.39,  197.25 " style="stroke-width: 1.42 ;&st7; " /><path d=" M 3688.38,  375.72  L 3985.83,  375.72  L 3985.83,  316.23  L 3688.38,  316.23  L 3688.38,  375.72 " style="stroke-width: 1.42 ;&st7; " /><path d=" M 3773.37,  392.72  L 3773.37,  409.72  L 3824.36,  409.72  L 3824.36,  384.22  L 3773.37,  384.22  L 3773.37,  392.72 " style="stroke-width: 1.42 ;&st7; " /><path d=" M 3943.34,  392.72  L 3943.34,  384.22  L 3926.34,  384.22 " style="stroke-width: 0.85 ;&st7; " /><path d=" M 3926.34,  375.72  L 3926.34,  418.22 " style="stroke-width: 0.85 ;&st7; " /><path d=" M 3934.84,  392.72  L 3951.84,  392.72 " style="stroke-width: 0.85 ;&st7; " /><path d=" M 3939.09,  395.55  L 3947.59,  395.55 " style="stroke-width: 0.85 ;&st7; " /><path d=" M 3940.51,  398.39  L 3946.17,  398.39 " style="stroke-width: 0.85 ;&st7; " /><path d=" M 3941.92,  401.22  L 3944.76,  401.22 " style="stroke-width: 0.85 ;&st7; " /><path d=" M 3925.15,  383.22  L 3924.88,  383.69  L 3924.78,  384.22  L 3924.88,  384.75  L 3925.15,  385.22  L 3925.56,  385.57  L 3926.07,  385.76  L 3926.61,  385.76  L 3927.12,  385.57  L 3927.53,  385.22  L 3927.81,  384.75  L 3927.90,  384.22  L 3927.81,  383.69  L 3927.53,  383.22  L 3927.12,  382.87  L 3926.61,  382.69  L 3926.07,  382.69  L 3925.56,  382.87  L 3925.15,  383.22  L 3925.54,  383.93  L 3925.54,  384.51  L 3925.92,  384.96  L 3926.49,  385.06  L 3926.99,  384.77  L 3927.19,  384.22  L 3926.99,  383.67  L 3926.49,  383.39  L 3925.92,  383.48  L 3926.34,  384.22 " style="stroke-width: 0.85 ;&st7; " /><path d=" M 3841.36,  205.75  L 3807.36,  205.75  L 3807.36,  231.25  L 3747.87,  231.25 " style="stroke-width: 0.85 ;&st7; " /><path d=" M 3773.37,  222.75  L 3767.70,  214.25  L 3779.03,  214.25  L 3773.37,  222.75 " style="stroke-width: 0.28 ;&st9;" /><path d=" M 3773.37,  197.25  L 3773.37,  231.25 " style="stroke-width: 0.85 ;&st7; " /><path d=" M 3841.36,  222.75  L 3835.69,  214.25  L 3847.02,  214.25  L 3841.36,  222.75 " style="stroke-width: 0.28 ;&st9;" /><path d=" M 3841.36,  197.25  L 3841.36,  316.23 " style="stroke-width: 0.85 ;&st7; " /><path d=" M 3688.38,  222.75  L 3747.87,  222.75  L 3747.87,  256.74  L 3688.38,  256.74  L 3688.38,  222.75 " style="stroke-width: 1.42 ;&st7; " /><path d=" M 3772.18,  230.24  L 3771.90,  230.71  L 3771.81,  231.25  L 3771.90,  231.78  L 3772.18,  232.25  L 3772.59,  232.60  L 3773.10,  232.78  L 3773.64,  232.78  L 3774.15,  232.60  L 3774.56,  232.25  L 3774.83,  231.78  L 3774.93,  231.25  L 3774.83,  230.71  L 3774.56,  230.24  L 3774.15,  229.90  L 3773.64,  229.71  L 3773.10,  229.71  L 3772.59,  229.90  L 3772.18,  230.24  L 3772.57,  230.96  L 3772.57,  231.54  L 3772.94,  231.98  L 3773.52,  232.08  L 3774.02,  231.79  L 3774.22,  231.25  L 3774.02,  230.70  L 3773.52,  230.41  L 3772.94,  230.51  L 3773.37,  231.25 " style="stroke-width: 0.85 ;&st7; " /><path d=" M 3807.36,  222.75  L 3801.70,  214.25  L 3813.03,  214.25  L 3807.36,  222.75 " style="stroke-width: 0.28 ;&st9;" /><path d=" M 3840.16,  204.75  L 3839.89,  205.22  L 3839.80,  205.75  L 3839.89,  206.28  L 3840.16,  206.75  L 3840.58,  207.10  L 3841.09,  207.29  L 3841.63,  207.29  L 3842.14,  207.10  L 3842.55,  206.75  L 3842.82,  206.28  L 3842.91,  205.75  L 3842.82,  205.22  L 3842.55,  204.75  L 3842.14,  204.40  L 3841.63,  204.22  L 3841.09,  204.22  L 3840.58,  204.40  L 3840.16,  204.75  L 3840.56,  205.46  L 3840.56,  206.04  L 3840.93,  206.49  L 3841.50,  206.59  L 3842.01,  206.30  L 3842.21,  205.75  L 3842.01,  205.20  L 3841.50,  204.92  L 3840.93,  205.01  L 3841.36,  205.75 " style="stroke-width: 0.85 ;&st7; " /><path d=" M 3840.16,  247.24  L 3839.89,  247.71  L 3839.80,  248.24  L 3839.89,  248.78  L 3840.16,  249.25  L 3840.58,  249.59  L 3841.09,  249.78  L 3841.63,  249.78  L 3842.14,  249.59  L 3842.55,  249.25  L 3842.82,  248.78  L 3842.91,  248.24  L 3842.82,  247.71  L 3842.55,  247.24  L 3842.14,  246.90  L 3841.63,  246.71  L 3841.09,  246.71  L 3840.58,  246.90  L 3840.16,  247.24  L 3840.56,  247.95  L 3840.56,  248.54  L 3840.93,  248.98  L 3841.50,  249.08  L 3842.01,  248.79  L 3842.21,  248.24  L 3842.01,  247.70  L 3841.50,  247.41  L 3840.93,  247.51  L 3841.36,  248.24 " style="stroke-width: 0.85 ;&st7; " /><path d=" M 3923.51,  707.17  L 3929.18,  707.17 " style="stroke-width: 0.85 ;&st7; " /><path d=" M 3924.93,  710.00  L 3927.76,  710.00 " style="stroke-width: 0.85 ;&st7; " /><path d=" M 3917.84,  571.19  L 3917.84,  596.69  L 3934.84,  596.69  L 3934.84,  571.19  L 3917.84,  571.19 " style="stroke-width: 1.42 ;&st7; " /><path d=" M 3917.84,  579.69  L 3934.84,  579.69 " style="stroke-width: 1.13 ;&st7;stroke-dasharray:3, 1.5;" /><path d=" M 3917.84,  588.19  L 3934.84,  588.19 " style="stroke-width: 1.13 ;&st7;stroke-dasharray:3, 1.5;" /><path d=" M 3926.34,  571.19  L 3926.34,  596.69 " style="stroke-width: 0.85 ;&st7; " /><path d=" M 3705.38,  375.72  L 3705.38,  418.22 " style="stroke-width: 0.85 ;&st7; " /><path d=" M 3739.37,  375.72  L 3739.37,  418.22 " style="stroke-width: 0.85 ;&st7; " /><path d=" M 3798.86,  375.72  L 3798.86,  384.22 " style="stroke-width: 0.85 ;&st7; " /><path d=" M 3773.37,  273.74  L 3767.70,  265.24  L 3779.03,  265.24  L 3773.37,  273.74 " style="stroke-width: 0.28 ;&st9;" /><path d=" M 3786.10,  264.08  L 3783.77,  267.12  L 3782.30,  264.58  L 3786.10,  264.08  L 3784.82,  264.82  L 3783.83,  266.10  L 3783.21,  265.03  L 3784.82,  264.82  L 3784.18,  265.19  L 3783.87,  265.59  L 3783.67,  265.25  L 3784.18,  265.19 " style="stroke-width: 0.85 ;&st7; " /><path d=" M 3788.10,  267.54  L 3785.77,  270.59  L 3784.30,  268.05  L 3788.10,  267.54  L 3786.82,  268.29  L 3785.84,  269.57  L 3785.22,  268.50  L 3786.82,  268.29  L 3786.18,  268.65  L 3785.87,  269.06  L 3785.67,  268.72  L 3786.18,  268.65 " style="stroke-width: 0.85 ;&st7; " /><path d=" M 3773.37,  316.23  L 3773.37,  299.24  L 3770.54,  297.82  L 3776.20,  294.99  L 3770.54,  292.15  L 3776.20,  289.32  L 3770.54,  286.49  L 3776.20,  283.65  L 3773.37,  282.24  L 3773.37,  231.25 " style="stroke-width: 0.85 ;&st7; " /><path d=" M 3756.37,  316.23  L 3756.37,  375.72 " style="stroke-width: 1.42 ;&st7; " /><path d=" M 3841.36,  248.24  L 3866.85,  248.24  L 3866.85,  282.24  L 3869.69,  283.65  L 3864.02,  286.49  L 3869.69,  289.32  L 3864.02,  292.15  L 3869.69,  294.99  L 3864.02,  297.82  L 3866.85,  299.24  L 3866.85,  316.23 " style="stroke-width: 0.85 ;&st7; " /><path d=" M 3866.85,  273.74  L 3861.19,  265.24  L 3872.52,  265.24  L 3866.85,  273.74 " style="stroke-width: 0.28 ;&st9;" /><path d=" M 3879.59,  264.08  L 3877.25,  267.12  L 3875.78,  264.58  L 3879.59,  264.08  L 3878.30,  264.82  L 3877.32,  266.10  L 3876.70,  265.03  L 3878.30,  264.82  L 3877.66,  265.19  L 3877.35,  265.59  L 3877.16,  265.25  L 3877.66,  265.19 " style="stroke-width: 0.85 ;&st7; " /><path d=" M 3881.59,  267.54  L 3879.25,  270.59  L 3877.79,  268.05  L 3881.59,  267.54  L 3880.31,  268.29  L 3879.32,  269.57  L 3878.70,  268.50  L 3880.31,  268.29  L 3879.67,  268.65  L 3879.35,  269.06  L 3879.16,  268.72  L 3879.67,  268.65 " style="stroke-width: 0.85 ;&st7; " /><path d=" M 3501.41,  154.76  L 3501.41,  171.76 " style="stroke-width: 0.85 ;&st7; " /><path d=" M 3501.41,  384.22  L 3501.41,  401.22 " style="stroke-width: 0.85 ;&st7; " /><path d=" M 3930.88,  610.28  C 3930.88   607.78  3928.85   605.75  3926.34   605.75 " style="stroke-width: 1.42 ;&st7; " /><path d=" M 3926.34,  605.75  C 3923.84   605.75  3921.81   607.78  3921.81   610.28 " style="stroke-width: 1.42 ;&st7; " /><path d=" M 3921.81,  610.28  C 3921.81   612.79  3923.84   614.82  3926.34   614.82 " style="stroke-width: 1.42 ;&st7; " /><path d=" M 3926.34,  614.82  C 3928.85   614.82  3930.88   612.79  3930.88   610.28 " style="stroke-width: 1.42 ;&st7; " /><path d=" M 3773.37,   47.11  C 3770.63    48.72  3769.72    52.25  3771.33    54.99 " style="stroke-width: 1.42 ;&st7; " /><path d=" M 3771.33,   54.99  C 3771.85    55.87  3772.49    56.51  3773.37    57.03 " style="stroke-width: 1.42 ;&st7; " /><path d=" M 3773.37,   66.94  C 3776.11    65.33  3777.02    61.80  3775.41    59.06 " style="stroke-width: 1.42 ;&st7; " /><path d=" M 3775.41,   59.06  C 3774.89    58.18  3774.25    57.55  3773.37    57.03 " style="stroke-width: 1.42 ;&st7; " /><path d=" M 3774.79,   45.69  C 3774.79    44.91  3774.15    44.28  3773.37    44.28 " style="stroke-width: 0.85 ;&st7; " /><path d=" M 3773.37,   44.28  C 3772.59    44.28  3771.95    44.91  3771.95    45.69 " style="stroke-width: 0.85 ;&st7; " /><path d=" M 3771.95,   45.69  C 3771.95    46.48  3772.59    47.11  3773.37    47.11 " style="stroke-width: 0.85 ;&st7; " /><path d=" M 3773.37,   47.11  C 3774.15    47.11  3774.79    46.48  3774.79    45.69 " style="stroke-width: 0.85 ;&st7; " /><path d=" M 3774.79,   68.36  C 3774.79    67.57  3774.15    66.94  3773.37    66.94 " style="stroke-width: 0.85 ;&st7; " /><path d=" M 3773.37,   66.94  C 3772.59    66.94  3771.95    67.57  3771.95    68.36 " style="stroke-width: 0.85 ;&st7; " /><path d=" M 3771.95,   68.36  C 3771.95    69.14  3772.59    69.77  3773.37    69.77 " style="stroke-width: 0.85 ;&st7; " /><path d=" M 3773.37,   69.77  C 3774.15    69.77  3774.79    69.14  3774.79    68.36 " style="stroke-width: 0.85 ;&st7; " /><path d=" M 3771.24,   95.27  C 3768.90    95.27  3767.00    97.17  3767.00    99.52 " style="stroke-width: 1.42 ;&st7; " /><path d=" M 3767.00,   99.52  C 3767.00   101.87  3768.90   103.77  3771.24   103.77 " style="stroke-width: 1.42 ;&st7; " /><path d=" M 3775.49,  103.77  C 3777.84   103.77  3779.74   101.87  3779.74    99.52 " style="stroke-width: 1.42 ;&st7; " /><path d=" M 3779.74,   99.52  C 3779.74    97.17  3777.84    95.27  3775.49    95.27 " style="stroke-width: 1.42 ;&st7; " /><path d=" M 3847.73,   99.52  C 3847.73    97.17  3845.83    95.27  3843.48    95.27 " style="stroke-width: 1.42 ;&st7; " /><path d=" M 3843.48,  103.77  C 3845.83   103.77  3847.73   101.87  3847.73    99.52 " style="stroke-width: 1.42 ;&st7; " /><path d=" M 3834.98,   99.52  C 3834.98   101.87  3836.89   103.77  3839.23   103.77 " style="stroke-width: 1.42 ;&st7; " /><path d=" M 3839.23,   95.27  C 3836.89    95.27  3834.98    97.17  3834.98    99.52 " style="stroke-width: 1.42 ;&st7; " /><path d=" M 3842.77,   68.36  C 3842.77    67.57  3842.14    66.94  3841.36    66.94 " style="stroke-width: 0.85 ;&st7; " /><path d=" M 3841.36,   66.94  C 3840.58    66.94  3839.94    67.57  3839.94    68.36 " style="stroke-width: 0.85 ;&st7; " /><path d=" M 3839.94,   68.36  C 3839.94    69.14  3840.58    69.77  3841.36    69.77 " style="stroke-width: 0.85 ;&st7; " /><path d=" M 3841.36,   69.77  C 3842.14    69.77  3842.77    69.14  3842.77    68.36 " style="stroke-width: 0.85 ;&st7; " /><path d=" M 3842.77,   45.69  C 3842.77    44.91  3842.14    44.28  3841.36    44.28 " style="stroke-width: 0.85 ;&st7; " /><path d=" M 3841.36,   44.28  C 3840.58    44.28  3839.94    44.91  3839.94    45.69 " style="stroke-width: 0.85 ;&st7; " /><path d=" M 3839.94,   45.69  C 3839.94    46.48  3840.58    47.11  3841.36    47.11 " style="stroke-width: 0.85 ;&st7; " /><path d=" M 3841.36,   47.11  C 3842.14    47.11  3842.77    46.48  3842.77    45.69 " style="stroke-width: 0.85 ;&st7; " /><path d=" M 3841.36,   66.94  C 3844.10    65.33  3845.01    61.80  3843.39    59.06 " style="stroke-width: 1.42 ;&st7; " /><path d=" M 3843.39,   59.06  C 3842.88    58.18  3842.24    57.55  3841.36    57.03 " style="stroke-width: 1.42 ;&st7; " /><path d=" M 3841.36,   47.11  C 3838.62    48.72  3837.71    52.25  3839.32    54.99 " style="stroke-width: 1.42 ;&st7; " /><path d=" M 3839.32,   54.99  C 3839.84    55.87  3840.48    56.51  3841.36    57.03 " style="stroke-width: 1.42 ;&st7; " /><path d=" M 3930.88,  601.22  C 3930.88   598.71  3928.85   596.69  3926.34   596.69 " style="stroke-width: 1.42 ;&st7; " /><path d=" M 3926.34,  596.69  C 3923.84   596.69  3921.81   598.71  3921.81   601.22 " style="stroke-width: 1.42 ;&st7; " /><path d=" M 3921.81,  601.22  C 3921.81   603.72  3923.84   605.75  3926.34   605.75 " style="stroke-width: 1.42 ;&st7; " /><path d=" M 3926.34,  605.75  C 3928.85   605.75  3930.88   603.72  3930.88   601.22 " style="stroke-width: 1.42 ;&st7; " /><path d=" M 3930.88,  422.75  C 3930.88   420.24  3928.85   418.22  3926.34   418.22 " style="stroke-width: 1.42 ;&st7; " /><path d=" M 3926.34,  418.22  C 3923.84   418.22  3921.81   420.24  3921.81   422.75 " style="stroke-width: 1.42 ;&st7; " /><path d=" M 3921.81,  422.75  C 3921.81   425.25  3923.84   427.28  3926.34   427.28 " style="stroke-width: 1.42 ;&st7; " /><path d=" M 3926.34,  427.28  C 3928.85   427.28  3930.88   425.25  3930.88   422.75 " style="stroke-width: 1.42 ;&st7; " /><path d=" M 3845.89,  192.72  C 3845.89   190.22  3843.86   188.19  3841.36   188.19 " style="stroke-width: 1.42 ;&st7; " /><path d=" M 3841.36,  188.19  C 3838.85   188.19  3836.83   190.22  3836.83   192.72 " style="stroke-width: 1.42 ;&st7; " /><path d=" M 3836.83,  192.72  C 3836.83   195.22  3838.85   197.25  3841.36   197.25 " style="stroke-width: 1.42 ;&st7; " /><path d=" M 3841.36,  197.25  C 3843.86   197.25  3845.89   195.22  3845.89   192.72 " style="stroke-width: 1.42 ;&st7; " /><path d=" M 3777.90,  192.72  C 3777.90   190.22  3775.87   188.19  3773.37   188.19 " style="stroke-width: 1.42 ;&st7; " /><path d=" M 3773.37,  188.19  C 3770.87   188.19  3768.84   190.22  3768.84   192.72 " style="stroke-width: 1.42 ;&st7; " /><path d=" M 3768.84,  192.72  C 3768.84   195.22  3770.87   197.25  3773.37   197.25 " style="stroke-width: 1.42 ;&st7; " /><path d=" M 3773.37,  197.25  C 3775.87   197.25  3777.90   195.22  3777.90   192.72 " style="stroke-width: 1.42 ;&st7; " /><path d=" M 3709.91,  422.75  C 3709.91   420.24  3707.88   418.22  3705.38   418.22 " style="stroke-width: 1.42 ;&st7; " /><path d=" M 3705.38,  418.22  C 3702.88   418.22  3700.85   420.24  3700.85   422.75 " style="stroke-width: 1.42 ;&st7; " /><path d=" M 3700.85,  422.75  C 3700.85   425.25  3702.88   427.28  3705.38   427.28 " style="stroke-width: 1.42 ;&st7; " /><path d=" M 3705.38,  427.28  C 3707.88   427.28  3709.91   425.25  3709.91   422.75 " style="stroke-width: 1.42 ;&st7; " /><path d=" M 3743.91,  422.75  C 3743.91   420.24  3741.88   418.22  3739.38   418.22 " style="stroke-width: 1.42 ;&st7; " /><path d=" M 3739.38,  418.22  C 3736.87   418.22  3734.84   420.24  3734.84   422.75 " style="stroke-width: 1.42 ;&st7; " /><path d=" M 3734.84,  422.75  C 3734.84   425.25  3736.87   427.28  3739.38   427.28 " style="stroke-width: 1.42 ;&st7; " /><path d=" M 3739.38,  427.28  C 3741.88   427.28  3743.91   425.25  3743.91   422.75 " style="stroke-width: 1.42 ;&st7; " /><path d=" M 3930.88,  557.59  C 3930.88   555.09  3928.85   553.06  3926.34   553.06 " style="stroke-width: 1.42 ;&st7; " /><path d=" M 3926.34,  553.06  C 3923.84   553.06  3921.81   555.09  3921.81   557.59 " style="stroke-width: 1.42 ;&st7; " /><path d=" M 3921.81,  557.59  C 3921.81   560.10  3923.84   562.12  3926.34   562.12 " style="stroke-width: 1.42 ;&st7; " /><path d=" M 3926.34,  562.12  C 3928.85   562.12  3930.88   560.10  3930.88   557.59 " style="stroke-width: 1.42 ;&st7; " /><path d=" M 3930.88,  566.66  C 3930.88   564.15  3928.85   562.12  3926.34   562.12 " style="stroke-width: 1.42 ;&st7; " /><path d=" M 3926.34,  562.12  C 3923.84   562.12  3921.81   564.15  3921.81   566.66 " style="stroke-width: 1.42 ;&st7; " /><path d=" M 3921.81,  566.66  C 3921.81   569.16  3923.84   571.19  3926.34   571.19 " style="stroke-width: 1.42 ;&st7; " /><path d=" M 3926.34,  571.19  C 3928.85   571.19  3930.88   569.16  3930.88   566.66 " style="stroke-width: 1.42 ;&st7; " /><text ewd:textID="35" style="&st18;" transform="matrix(&st17;  3609.62  174.28 )">Junction <tspan dy="6" x="0">Connector</tspan></text><text style="&st18;" transform="matrix(&st17;  3602.79  174.28 )">E133</text><text style="&st18;" transform="matrix(&st16;  3651.03  584.49 )">W</text><text style="&st18;" transform="matrix(&st16;  3649.73  609.99 )">BE</text><text style="&st18;" transform="matrix(&st16;  3598.74  609.99 )">BE</text><text style="&st18;" transform="matrix(&st16;  3600.04  584.49 )">W</text><text style="&st18;" transform="matrix(&st16;  3912.29  612.25 )">14</text><text style="&st18;" transform="matrix(&st16;  3924.01  612.25 )">B</text><text style="&st18;" transform="matrix(&st16;  3932.32  612.25 )">(*4)</text><text style="&st18;" transform="matrix(&st16;  3924.01  559.56 )">A</text><text style="&st18;" transform="matrix(&st16;  3932.32  559.56 )">(*3)</text><text style="&st18;" transform="matrix(&st16;  3912.29  568.63 )">19</text><text style="&st18;" transform="matrix(&st16;  3924.01  568.63 )">A</text><text style="&st18;" transform="matrix(&st16;  3932.32  568.63 )">(*4)</text><text style="&st18;" transform="matrix(&st16;  3792.51  398.94 )">TFT</text><text style="&st18;" transform="matrix(&st17;  3984.97  670.94 )">(RHD *6)</text><text style="&st18;" transform="matrix(&st16;  3791.73  372.03 )">SUB</text><text ewd:textID="5" style="&st18;" transform="matrix(&st16;  3906.82  37.75 )">* 5 :Gasoline</text><text style="&st18;" transform="matrix(&st16;  3906.82  46.25 )">* 6 :1VD-FTV</text><text style="&st18;" transform="matrix(&st17;  3973.64  660.98 )">BR</text><text style="&st18;" transform="matrix(&st16;  3907.57  500.92 )">67</text><text style="&st18;" transform="matrix(&st16;  3907.57  492.42 )">67</text><text style="&st18;" transform="matrix(&st16;  3936.26  492.42 )">(LHD)</text><text style="&st18;" transform="matrix(&st16;  3936.26  500.92 )">(RHD)</text><text style="&st18;" transform="matrix(&st17;  3898.54  599.21 )">A37(A),C44(B)</text><text style="&st18;" transform="matrix(&st17;  3922.65  537.75 )">BR</text><text style="&st18;" transform="matrix(&st17;  3922.65  465.51 )">BR</text><text style="&st18;" transform="matrix(&st16;  3916.24  603.19 )">1</text><text style="&st18;" transform="matrix(&st16;  3924.01  603.19 )">B</text><text style="&st18;" transform="matrix(&st16;  3824.71  101.49 )">49</text><text style="&st18;" transform="matrix(&st16;  3858.66  56.17 )">5A <tspan dy="6" x="0">METER</tspan></text><text style="&st18;" transform="matrix(&st16;  3838.39  101.49 )">2I</text><text style="&st18;" transform="matrix(&st16;  3837.61  323.87 )">IG</text><text style="&st18;" transform="matrix(&st16;  3735.1  233.22 )">+B</text><text style="&st18;" transform="matrix(&st16;  3924.01  424.72 )">A</text><text style="&st18;" transform="matrix(&st16;  3911.51  424.72 )">20</text><text ewd:textID="22" style="&st18;" transform="matrix(&st16;  3872.83  193.56 )">Combination Meter Assembly</text><text style="&st18;" transform="matrix(&st17;  3933.98  662.36 )">(*5)</text><text style="&st18;" transform="matrix(&st16;  3872.83  186.45 )">E119(A)</text><text ewd:textID="41" style="&st18;" transform="matrix(&st16;  3707.39  236.06 )">Power <tspan dy="6" x="0">Supply </tspan><tspan dy="6" x="0">Circuit</tspan></text><text style="&st18;" transform="matrix(&st16;  3759.31  194.69 )">21</text><text style="&st18;" transform="matrix(&st16;  3732.27  250.21 )">IG+</text><text style="&st18;" transform="matrix(&st16;  3771.04  194.69 )">A</text><text style="&st18;" transform="matrix(&st17;  3922.65  660.98 )">BR</text><text style="&st18;" transform="matrix(&st16;  3826.53  194.69 )">22</text><text style="&st18;" transform="matrix(&st16;  3839.03  194.69 )">A</text><text style="&st18;" transform="matrix(&st16;  3776.2  205.45 )">B</text><text style="&st18;" transform="matrix(&st17;  3882.99  670.45 )">(LHD *6)</text><text style="&st18;" transform="matrix(&st16;  3844.19  205.45 )">IG+</text><text style="&st18;" transform="matrix(&st16;  3929.18  414.53 )">ET</text><text style="&st18;" transform="matrix(&st16;  3703.55  347.95 )">CAN INPUT</text><text style="&st18;" transform="matrix(&st16;  3703.05  424.72 )">A</text><text style="&st18;" transform="matrix(&st16;  3690.55  424.72 )">40</text><text style="&st18;" transform="matrix(&st16;  3708.21  414.53 )">CANL</text><text style="&st18;" transform="matrix(&st16;  3737.04  424.72 )">A</text><text style="&st18;" transform="matrix(&st16;  3724.54  424.72 )">39</text><text style="&st18;" transform="matrix(&st16;  3742.21  414.53 )">CANH</text><text ewd:textID="3" style="&st18;" transform="matrix(&st16;  3906.82  20.75 )">* 3 :1VD-FTV w/ DPF</text><text ewd:textID="4" style="&st18;" transform="matrix(&st16;  3906.82  29.25 )">* 4 :Except 1VD-FTV w/ DPF</text><text ewd:textID="35" style="&st18;" transform="matrix(&st17;  3905.37  599.21 )">Junction <tspan dy="6" x="0">Connector</tspan></text><text style="&st18;" transform="matrix(&st17;  3837.66  159.42 )">BE</text><text style="&st18;" transform="matrix(&st16;  3790.67  53.34 )">10A <tspan dy="6" x="0">MPX-B </tspan><tspan dy="6" x="0">NO.2</tspan></text><text style="&st18;" transform="matrix(&st16;  3771.78  101.49 )">1</text><text style="&st18;" transform="matrix(&st16;  3766.58  86.47 )">2</text><text style="&st18;" transform="matrix(&st16;  3764.26  32.08 )">(BAT)</text><text style="&st18;" transform="matrix(&st16;  3754.6  152.48 )">46</text><text style="&st18;" transform="matrix(&st17;  3769.67  123.1 )">V</text><text style="&st18;" transform="matrix(&st17;  3769.67  174.09 )">V</text><text style="&st18;" transform="matrix(&st16;  3835.28  32.08 )">(IG)</text><text style="&st18;" transform="matrix(&st17;  3871.66  660.98 )">BR</text><text style="&st18;" transform="matrix(&st16;  3912.29  559.56 )">10</text><text ewd:textID="17" style="&st18;" transform="matrix(&st17;  3759.49  287.68 )">AUTO High <tspan dy="6" x="0">Beam (*13)</tspan></text><text style="&st18;" transform="matrix(&st16;  3932.32  603.19 )">(*3)</text><text style="&st18;" transform="matrix(&st17;  3548.71  235.91 )">BE</text><text style="&st18;" transform="matrix(&st17;  3560.04  240.5 )">(LHD)</text><text style="&st18;" transform="matrix(&st17;  3582.7  234.6 )">W</text><text style="&st18;" transform="matrix(&st17;  3594.04  240.5 )">(LHD)</text><text style="&st18;" transform="matrix(&st16;  3600.04  448.51 )">W</text><text style="&st18;" transform="matrix(&st16;  3594.14  459.84 )">(LHD)</text><text style="&st18;" transform="matrix(&st16;  3598.74  474.01 )">BE</text><text style="&st18;" transform="matrix(&st16;  3594.14  485.34 )">(LHD)</text><text style="&st18;" transform="matrix(&st16;  3651.03  448.51 )">W</text><text style="&st18;" transform="matrix(&st16;  3645.13  459.84 )">(LHD)</text><text style="&st18;" transform="matrix(&st16;  3649.73  474.01 )">BE</text><text style="&st18;" transform="matrix(&st16;  3645.13  485.34 )">(LHD)</text><text style="&st18;" transform="matrix(&st16;  3545.62  179.95 )">7</text><text style="&st18;" transform="matrix(&st16;  3576.43  179.95 )">17</text><text style="&st18;" transform="matrix(&st16;  3593.65  595.82 )">(RHD)</text><text style="&st18;" transform="matrix(&st16;  3593.65  621.32 )">(RHD)</text><text style="&st18;" transform="matrix(&st16;  3644.64  621.32 )">(RHD)</text><text style="&st18;" transform="matrix(&st16;  3644.64  595.82 )">(RHD)</text><text ewd:textID="20" style="&st18;" transform="matrix(&st17;  3859.19  278.74 )">Beam</text><text ewd:textID="39" style="&st18;" transform="matrix(&st17;  3533.13  327.26 )">Network Gateway ECU</text><text style="&st18;" transform="matrix(&st17;  3526.02  327.26 )">E145</text><text ewd:textID="35" style="&st18;" transform="matrix(&st17;  3524.63  403.74 )">Junction <tspan dy="6" x="0">Connector</tspan></text><text style="&st18;" transform="matrix(&st17;  3517.52  403.74 )">E151</text><text ewd:textID="12" style="&st18;" transform="matrix(&st16;  3906.82  54.75 )">*13 :Option Meter</text><text style="&st18;" transform="matrix(&st17;  3509.05  241.0 )">(RHD)</text></svg>