﻿<?xml version="1.0" encoding="utf-8"?>
<!DOCTYPE svg PUBLIC "-//W3C//DTD SVG 1.0//EN" "http://www.w3.org/TR/2001/REC-SVG-20010904/DTD/svg10.dtd"[
	<!ENTITY ns_flows "http://ns.adobe.com/Flows/1.0/">
	<!ENTITY ns_svg "http://www.w3.org/2000/svg">
	<!ENTITY ns_xlink "http://www.w3.org/1999/xlink">
	<!ENTITY st0 "font-size:7px;font-family:'MS-PGothic';adobe-font-script:japanese;">
	<!ENTITY st1 "font-size:6px;font-family:'ArialMT';">
	<!-- White fill  -->
	<!ENTITY st2 "fill:#FFFFFF;stroke:#000000; stroke-width:1.41;stroke-linecap:round;stroke-linejoin:round;">
	<!-- Yellow fill  -->
	<!ENTITY st3 "fill:#FFFFCC;stroke:#FFFFCC; stroke-width:0.1;stroke-linecap:round;stroke-linejoin:round;">
	<!-- Gray fill  -->
	<!ENTITY st4 "fill:#CCCCCC;stroke:#CCCCCC; stroke-width:0.1;stroke-linecap:round;stroke-linejoin:round;">
	<!-- Light-blue fill -->
	<!ENTITY st5 "fill:#CCECF4;stroke:#000000; stroke-width:1.133;stroke-linecap:round;stroke-linejoin:round;">
	<!ENTITY st6 "fill:none;stroke-linecap:butt; stroke-linejoin:round;">
	<!ENTITY st7 "fill:none;stroke:#000000;stroke-linecap:round;stroke-linejoin:round;">
	<!ENTITY st8 "enable-background:new    ;">
	<!-- Black fill -->
	<!ENTITY st9 "fill:#000000;stroke:#000000; stroke-linecap:round;stroke-linejoin:round;">
	<!-- SRS note   -->
	<!ENTITY st10 "font-size:9px;font-family:'ArialMT';">
	<!ENTITY st11 "font-size:9px;font-family:'Svg Symbol';">
	<!ENTITY st12 "font-size:6px;font-family:'Svg Symbol';">
	<!ENTITY st13 "fill:none;stroke:#ff0000;stroke-linecap:round;stroke-linejoin:round;">
	<!-- Yellow fill  -->
	<!ENTITY st14 "fill:#FFFF00;stroke:#FFFF00; stroke-width:0.1;stroke-linecap:round;stroke-linejoin:round;">
	<!ENTITY st15 "font-size:6px;font-family:'MS-PGothic';adobe-font-script:japanese;">
	<!ENTITY st16 "1.00 0.00 0.00 1.00">
	<!ENTITY st17 "0.00 -1.00 1.00 0.00">
	<!ENTITY st18 "font-size:6px;font-family:'Arial';">
	<!ENTITY st19 "font-size:9px;font-family:'Arial';">
	<!ENTITY st20 "font-size:6px;font-family:'MS-PGothic','MS PGothic';adobe-font-script:japanese;">
	<!ENTITY st21 "font-size:7px;font-family:'MS-PGothic','MS PGothic';adobe-font-script:japanese;">
	<!ATTLIST svg
		xmlns:ewd CDATA #FIXED "http://shcl.co.jp/ewd"
		xmlns:a CDATA #FIXED "http://ns.adobe.com/AdobeSVGViewerExtensions/3.0/"
		ewd:ver CDATA #IMPLIED
	>
	<!ATTLIST a
		ewd:lineID CDATA #IMPLIED
		ewd:groupID CDATA #IMPLIED
		ewd:figtype CDATA #IMPLIED
		ewd:code CDATA #IMPLIED
		ewd:figID CDATA #IMPLIED
		ewd:pinNo CDATA #IMPLIED
		ewd:comment CDATA #IMPLIED >
	<!ATTLIST g
		ewd:lineID CDATA #IMPLIED
		ewd:groupID CDATA #IMPLIED
		ewd:figtype CDATA #IMPLIED
		ewd:code CDATA #IMPLIED
		ewd:figID CDATA #IMPLIED
		ewd:pinNo CDATA #IMPLIED
		ewd:comment CDATA #IMPLIED >
	<!ATTLIST text
		ewd:textID CDATA #IMPLIED >
	<!ATTLIST title
		ewd:textID CDATA #IMPLIED >
]>
<!-- Generator: Shintec Hozumi YS   -->
<svg onload="call_execInitLoadProc_svg('system')" style="overflow:visible;  enable-background:new 0 0 434.766 710.000" viewBox="0 0 434.766 710.000" height="710.000" width="434.766" xml:space="preserve" ewd:ver="L2.1.2.8" xmlns="&ns_svg;" xmlns:a="http://ns.adobe.com/AdobeSVGViewerExtensions/3.0/" xmlns:ewd="http://shcl.co.jp/ewd" xmlns:xlink="&ns_xlink;">
<path d=" M  206.09,  154.76  L  201.84,  154.76 " style="stroke-width: 1.42 ;&st7; " /><path d=" M  206.09,  146.26  L  201.84,  146.26 " style="stroke-width: 1.42 ;&st7; " /><path d=" M  206.09,  341.73  L  201.84,  341.73 " style="stroke-width: 1.42 ;&st7; " /><path d=" M  206.09,  350.23  L  201.84,  350.23 " style="stroke-width: 1.42 ;&st7; " /><path d=" M  206.09,  299.24  L  201.84,  299.24 " style="stroke-width: 1.42 ;&st7; " /><path d=" M  206.09,  307.73  L  201.84,  307.73 " style="stroke-width: 1.42 ;&st7; " /><path d=" M  203.97,  530.11  L  209.63,  507.45 " style="stroke-width: 1.42 ;&st7; " /><path d=" M  203.97,  537.20  L  203.97,  532.95 " style="stroke-width: 0.85 ;&st7; " /><path d=" M  203.97,  507.45  L  203.97,  503.20 " style="stroke-width: 0.85 ;&st7; " /><path d=" M  203.97,  154.76  L  203.97,  180.26 " style="stroke-width: 0.85 ;&st7; " /><path d=" M  229.46,  214.25  L  229.46,  210.00 " style="stroke-width: 0.85 ;&st7; " /><path d=" M  229.46,  180.26  L  229.46,  184.50 " style="stroke-width: 0.85 ;&st7; " /><path d=" M  203.97,  180.26  L  203.97,  188.75 " style="stroke-width: 0.85 ;&st7; " /><path d=" M  203.97,  205.75  L  203.97,  214.25 " style="stroke-width: 0.85 ;&st7; " /><path d=" M  206.09,  239.75  L  201.84,  239.75 " style="stroke-width: 1.42 ;&st7; " /><path d=" M  206.09,  248.24  L  201.84,  248.24 " style="stroke-width: 1.42 ;&st7; " /><path d=" M  231.59,  239.75  L  227.34,  239.75 " style="stroke-width: 1.42 ;&st7; " /><path d=" M  231.59,  248.24  L  227.34,  248.24 " style="stroke-width: 1.42 ;&st7; " /><path d=" M  231.59,  146.26  L  227.34,  146.26 " style="stroke-width: 1.42 ;&st7; " /><path d=" M  231.59,  154.76  L  227.34,  154.76 " style="stroke-width: 1.42 ;&st7; " /><path d=" M  231.59,   95.27  L  227.34,   95.27 " style="stroke-width: 1.42 ;&st7; " /><path d=" M  231.59,  103.77  L  227.34,  103.77 " style="stroke-width: 1.42 ;&st7; " /><path d=" M  229.46,  187.34  L  235.13,  210.00 " style="stroke-width: 1.42 ;&st7; " /><path d=" M  178.47,  459.58  L  229.46,  459.58  L  229.46,  426.71  L  178.47,  426.71  L  178.47,  459.58 " style="stroke-width: 1.42 ;&st7; " /><path d=" M  203.97,  159.65  L  206.80,  162.49  L  206.80,  158.24  L  203.97,  155.41  L  201.13,  158.24  L  201.13,  162.49  L  203.97,  159.65 " style="stroke-width: 0.28 ;&st9;" /><path d=" M  203.97,  336.83  L  201.13,  334.00  L  201.13,  338.25  L  203.97,  341.08  L  206.80,  338.25  L  206.80,  334.00  L  203.97,  336.83 " style="stroke-width: 0.28 ;&st9;" /><path d=" M  203.97,  312.63  L  206.80,  315.46  L  206.80,  311.21  L  203.97,  308.38  L  201.13,  311.21  L  201.13,  315.46  L  203.97,  312.63 " style="stroke-width: 0.28 ;&st9;" /><path d=" M  203.97,  341.73  L  203.97,  307.73 " style="stroke-width: 0.85 ;&st7; " /><path d=" M  339.94,  477.71  L  339.94,  486.20 " style="stroke-width: 0.85 ;&st7; " /><path d=" M  331.44,  486.20  L  348.44,  486.20 " style="stroke-width: 0.85 ;&st7; " /><path d=" M  335.69,  489.04  L  344.19,  489.04 " style="stroke-width: 0.85 ;&st7; " /><path d=" M  337.11,  491.87  L  342.78,  491.87 " style="stroke-width: 0.85 ;&st7; " /><path d=" M  338.53,  494.70  L  341.36,  494.70 " style="stroke-width: 0.85 ;&st7; " /><path d=" M  333.65,  463.54  L  322.95,  463.54  L  322.95,  477.71  L  331.98,  472.04 " style="stroke-width: 1.42 ;&st7; " /><path d=" M  274.16,  463.54  L  263.46,  463.54  L  263.46,  477.71  L  272.49,  472.04 " style="stroke-width: 1.42 ;&st7; " /><path d=" M  279.04,  494.70  L  281.87,  494.70 " style="stroke-width: 0.85 ;&st7; " /><path d=" M  277.62,  491.87  L  283.29,  491.87 " style="stroke-width: 0.85 ;&st7; " /><path d=" M  276.20,  489.04  L  284.70,  489.04 " style="stroke-width: 0.85 ;&st7; " /><path d=" M  271.95,  486.20  L  288.95,  486.20 " style="stroke-width: 0.85 ;&st7; " /><path d=" M  280.45,  477.71  L  280.45,  486.20 " style="stroke-width: 0.85 ;&st7; " /><path d=" M  212.46,  537.20  L  212.46,  503.20  L  195.47,  503.20  L  195.47,  537.20  L  212.46,  537.20 " style="stroke-width: 1.42 ;&st7; " /><path d=" M  203.97,  537.20  L  203.97,  545.69 " style="stroke-width: 0.85 ;&st7; " /><path d=" M  195.47,  545.69  L  212.46,  545.69 " style="stroke-width: 0.85 ;&st7; " /><path d=" M  199.72,  548.53  L  208.22,  548.53 " style="stroke-width: 0.85 ;&st7; " /><path d=" M  201.13,  551.36  L  206.80,  551.36 " style="stroke-width: 0.85 ;&st7; " /><path d=" M  202.55,  554.19  L  205.38,  554.19 " style="stroke-width: 0.85 ;&st7; " /><path d=" M  203.97,  477.71  L  203.97,  503.20 " style="stroke-width: 0.85 ;&st7; " /><path d=" M  203.97,  426.71  L  203.97,  459.58 " style="stroke-width: 0.85 ;&st7; " /><path d=" M  178.47,  477.71  L  178.47,  562.69  L  229.46,  562.69  L  229.46,  477.71  L  178.47,  477.71 " style="stroke-width: 1.42 ;&st7; " /><path d=" M  216.71,   35.78  L  216.71,   78.27  L  242.21,   78.27  L  242.21,   35.78  L  216.71,   35.78 " style="stroke-width: 1.42 ;&st7; " /><path d=" M  203.97,  239.75  L  203.97,  214.25 " style="stroke-width: 0.85 ;&st7; " /><path d=" M  237.96,  180.26  L  195.47,  180.26  L  195.47,  214.25  L  237.96,  214.25  L  237.96,  180.26 " style="stroke-width: 1.42 ;&st7; " /><path d=" M  203.97,  234.85  L  201.13,  232.02  L  201.13,  236.27  L  203.97,  239.10  L  206.80,  236.27  L  206.80,  232.02  L  203.97,  234.85 " style="stroke-width: 0.28 ;&st9;" /><path d=" M  229.46,  234.85  L  226.63,  232.02  L  226.63,  236.27  L  229.46,  239.10  L  232.29,  236.27  L  232.29,  232.02  L  229.46,  234.85 " style="stroke-width: 0.28 ;&st9;" /><path d=" M  229.46,  239.75  L  229.46,  214.25 " style="stroke-width: 0.85 ;&st7; " /><path d=" M  229.46,  154.76  L  229.46,  180.26 " style="stroke-width: 0.85 ;&st7; " /><path d=" M  229.46,  159.65  L  232.29,  162.49  L  232.29,  158.24  L  229.46,  155.41  L  226.63,  158.24  L  226.63,  162.49  L  229.46,  159.65 " style="stroke-width: 0.28 ;&st9;" /><path d=" M  229.46,   90.37  L  226.63,   87.54  L  226.63,   91.79  L  229.46,   94.62  L  232.29,   91.79  L  232.29,   87.54  L  229.46,   90.37 " style="stroke-width: 0.28 ;&st9;" /><path d=" M  229.46,   95.27  L  229.46,   69.77 " style="stroke-width: 0.85 ;&st7; " /><path d=" M  210.34,  150.51  C  210.34   148.16   208.44   146.26   206.09   146.26 " style="stroke-width: 1.42 ;&st7; " /><path d=" M  206.09,  154.76  C  208.44   154.76   210.34   152.86   210.34   150.51 " style="stroke-width: 1.42 ;&st7; " /><path d=" M  197.59,  150.51  C  197.59   152.86   199.49   154.76   201.84   154.76 " style="stroke-width: 1.42 ;&st7; " /><path d=" M  201.84,  146.26  C  199.49   146.26   197.59   148.16   197.59   150.51 " style="stroke-width: 1.42 ;&st7; " /><path d=" M  201.84,  341.73  C  199.49   341.73   197.59   343.63   197.59   345.98 " style="stroke-width: 1.42 ;&st7; " /><path d=" M  197.59,  345.98  C  197.59   348.32   199.49   350.23   201.84   350.23 " style="stroke-width: 1.42 ;&st7; " /><path d=" M  206.09,  350.23  C  208.44   350.23   210.34   348.32   210.34   345.98 " style="stroke-width: 1.42 ;&st7; " /><path d=" M  210.34,  345.98  C  210.34   343.63   208.44   341.73   206.09   341.73 " style="stroke-width: 1.42 ;&st7; " /><path d=" M  201.84,  299.24  C  199.49   299.24   197.59   301.14   197.59   303.48 " style="stroke-width: 1.42 ;&st7; " /><path d=" M  197.59,  303.48  C  197.59   305.83   199.49   307.73   201.84   307.73 " style="stroke-width: 1.42 ;&st7; " /><path d=" M  206.09,  307.73  C  208.44   307.73   210.34   305.83   210.34   303.48 " style="stroke-width: 1.42 ;&st7; " /><path d=" M  210.34,  303.48  C  210.34   301.14   208.44   299.24   206.09   299.24 " style="stroke-width: 1.42 ;&st7; " /><path d=" M  331.94,  472.07  C  333.52   476.49   338.38   478.79   342.80   477.21 " style="stroke-width: 1.42 ;&st7; " /><path d=" M  342.80,  477.21  C  347.22   475.63   349.52   470.77   347.95   466.35 " style="stroke-width: 1.42 ;&st7; " /><path d=" M  347.95,  466.35  C  346.37   461.93   341.50   459.63   337.08   461.20 " style="stroke-width: 1.42 ;&st7; " /><path d=" M  337.08,  461.20  C  335.68   461.70   334.60   462.43   333.61   463.54 " style="stroke-width: 1.42 ;&st7; " /><path d=" M  333.61,  463.54  C  331.47   465.93   330.86   469.05   331.94   472.07 " style="stroke-width: 1.42 ;&st7; " /><path d=" M  274.12,  463.54  C  271.98   465.93   271.37   469.05   272.45   472.07 " style="stroke-width: 1.42 ;&st7; " /><path d=" M  272.45,  472.07  C  274.03   476.49   278.89   478.79   283.31   477.21 " style="stroke-width: 1.42 ;&st7; " /><path d=" M  283.31,  477.21  C  287.73   475.63   290.03   470.77   288.46   466.35 " style="stroke-width: 1.42 ;&st7; " /><path d=" M  288.46,  466.35  C  286.88   461.93   282.01   459.63   277.59   461.20 " style="stroke-width: 1.42 ;&st7; " /><path d=" M  277.59,  461.20  C  276.19   461.70   275.11   462.43   274.12   463.54 " style="stroke-width: 1.42 ;&st7; " /><path d=" M  205.38,  531.53  C  205.38   530.75   204.75   530.11   203.97   530.11 " style="stroke-width: 0.85 ;&st7; " /><path d=" M  203.97,  530.11  C  203.18   530.11   202.55   530.75   202.55   531.53 " style="stroke-width: 0.85 ;&st7; " /><path d=" M  202.55,  531.53  C  202.55   532.31   203.18   532.95   203.97   532.95 " style="stroke-width: 0.85 ;&st7; " /><path d=" M  203.97,  532.95  C  204.75   532.95   205.38   532.31   205.38   531.53 " style="stroke-width: 0.85 ;&st7; " /><path d=" M  205.38,  508.87  C  205.38   508.08   204.75   507.45   203.97   507.45 " style="stroke-width: 0.85 ;&st7; " /><path d=" M  203.97,  507.45  C  203.18   507.45   202.55   508.08   202.55   508.87 " style="stroke-width: 0.85 ;&st7; " /><path d=" M  202.55,  508.87  C  202.55   509.65   203.18   510.28   203.97   510.28 " style="stroke-width: 0.85 ;&st7; " /><path d=" M  203.97,  510.28  C  204.75   510.28   205.38   509.65   205.38   508.87 " style="stroke-width: 0.85 ;&st7; " /><path d=" M  208.50,  422.18  C  208.50   419.68   206.47   417.65   203.97   417.65 " style="stroke-width: 1.42 ;&st7; " /><path d=" M  203.97,  417.65  C  201.46   417.65   199.43   419.68   199.43   422.18 " style="stroke-width: 1.42 ;&st7; " /><path d=" M  199.43,  422.18  C  199.43   424.68   201.46   426.71   203.97   426.71 " style="stroke-width: 1.42 ;&st7; " /><path d=" M  203.97,  426.71  C  206.47   426.71   208.50   424.68   208.50   422.18 " style="stroke-width: 1.42 ;&st7; " /><path d=" M  208.50,  473.17  C  208.50   470.67   206.47   468.64   203.97   468.64 " style="stroke-width: 1.42 ;&st7; " /><path d=" M  203.97,  468.64  C  201.46   468.64   199.43   470.67   199.43   473.17 " style="stroke-width: 1.42 ;&st7; " /><path d=" M  199.43,  473.17  C  199.43   475.68   201.46   477.71   203.97   477.71 " style="stroke-width: 1.42 ;&st7; " /><path d=" M  203.97,  477.71  C  206.47   477.71   208.50   475.68   208.50   473.17 " style="stroke-width: 1.42 ;&st7; " /><path d=" M  229.46,   47.11  C  226.72    48.72   225.81    52.25   227.42    54.99 " style="stroke-width: 1.42 ;&st7; " /><path d=" M  227.42,   54.99  C  227.94    55.87   228.58    56.51   229.46    57.03 " style="stroke-width: 1.42 ;&st7; " /><path d=" M  229.46,   66.94  C  232.20    65.33   233.11    61.80   231.50    59.06 " style="stroke-width: 1.42 ;&st7; " /><path d=" M  231.50,   59.06  C  230.98    58.18   230.34    57.55   229.46    57.03 " style="stroke-width: 1.42 ;&st7; " /><path d=" M  230.88,   45.69  C  230.88    44.91   230.24    44.28   229.46    44.28 " style="stroke-width: 0.85 ;&st7; " /><path d=" M  229.46,   44.28  C  228.68    44.28   228.05    44.91   228.05    45.69 " style="stroke-width: 0.85 ;&st7; " /><path d=" M  228.05,   45.69  C  228.05    46.48   228.68    47.11   229.46    47.11 " style="stroke-width: 0.85 ;&st7; " /><path d=" M  229.46,   47.11  C  230.24    47.11   230.88    46.48   230.88    45.69 " style="stroke-width: 0.85 ;&st7; " /><path d=" M  230.88,   68.36  C  230.88    67.57   230.24    66.94   229.46    66.94 " style="stroke-width: 0.85 ;&st7; " /><path d=" M  229.46,   66.94  C  228.68    66.94   228.05    67.57   228.05    68.36 " style="stroke-width: 0.85 ;&st7; " /><path d=" M  228.05,   68.36  C  228.05    69.14   228.68    69.77   229.46    69.77 " style="stroke-width: 0.85 ;&st7; " /><path d=" M  229.46,   69.77  C  230.24    69.77   230.88    69.14   230.88    68.36 " style="stroke-width: 0.85 ;&st7; " /><path d=" M  230.88,  208.58  C  230.88   207.80   230.24   207.17   229.46   207.17 " style="stroke-width: 0.85 ;&st7; " /><path d=" M  229.46,  207.17  C  228.68   207.17   228.05   207.80   228.05   208.58 " style="stroke-width: 0.85 ;&st7; " /><path d=" M  228.05,  208.58  C  228.05   209.37   228.68   210.00   229.46   210.00 " style="stroke-width: 0.85 ;&st7; " /><path d=" M  229.46,  210.00  C  230.24   210.00   230.88   209.37   230.88   208.58 " style="stroke-width: 0.85 ;&st7; " /><path d=" M  230.88,  185.92  C  230.88   185.14   230.24   184.50   229.46   184.50 " style="stroke-width: 0.85 ;&st7; " /><path d=" M  229.46,  184.50  C  228.68   184.50   228.05   185.14   228.05   185.92 " style="stroke-width: 0.85 ;&st7; " /><path d=" M  228.05,  185.92  C  228.05   186.70   228.68   187.34   229.46   187.34 " style="stroke-width: 0.85 ;&st7; " /><path d=" M  229.46,  187.34  C  230.24   187.34   230.88   186.70   230.88   185.92 " style="stroke-width: 0.85 ;&st7; " /><path d=" M  201.44,  194.77  C  202.81   196.17   205.05   196.19   206.44   194.82 " style="stroke-width: 0.85 ;&st7; " /><path d=" M  206.44,  194.82  C  207.84   193.46   207.86   191.21   206.50   189.82 " style="stroke-width: 0.85 ;&st7; " /><path d=" M  206.50,  189.82  C  205.80   189.11   204.96   188.75   203.97   188.75 " style="stroke-width: 0.85 ;&st7; " /><path d=" M  201.44,  199.73  C  202.81   201.13   205.05   201.15   206.44   199.78 " style="stroke-width: 0.85 ;&st7; " /><path d=" M  206.44,  199.78  C  207.84   198.41   207.86   196.17   206.50   194.77 " style="stroke-width: 0.85 ;&st7; " /><path d=" M  206.50,  194.77  C  205.13   193.38   202.88   193.35   201.49   194.72 " style="stroke-width: 0.85 ;&st7; " /><path d=" M  201.49,  194.72  C  201.47   194.74   201.45   194.76   201.44   194.77 " style="stroke-width: 0.85 ;&st7; " /><path d=" M  203.97,  205.75  C  205.92   205.75   207.51   204.17   207.51   202.21 " style="stroke-width: 0.85 ;&st7; " /><path d=" M  207.51,  202.21  C  207.51   200.25   205.92   198.67   203.97   198.67 " style="stroke-width: 0.85 ;&st7; " /><path d=" M  203.97,  198.67  C  202.98   198.67   202.13   199.02   201.44   199.73 " style="stroke-width: 0.85 ;&st7; " /><path d=" M  201.84,  239.75  C  199.49   239.75   197.59   241.65   197.59   243.99 " style="stroke-width: 1.42 ;&st7; " /><path d=" M  197.59,  243.99  C  197.59   246.34   199.49   248.24   201.84   248.24 " style="stroke-width: 1.42 ;&st7; " /><path d=" M  206.09,  248.24  C  208.44   248.24   210.34   246.34   210.34   243.99 " style="stroke-width: 1.42 ;&st7; " /><path d=" M  210.34,  243.99  C  210.34   241.65   208.44   239.75   206.09   239.75 " style="stroke-width: 1.42 ;&st7; " /><path d=" M  227.34,  239.75  C  224.99   239.75   223.09   241.65   223.09   243.99 " style="stroke-width: 1.42 ;&st7; " /><path d=" M  223.09,  243.99  C  223.09   246.34   224.99   248.24   227.34   248.24 " style="stroke-width: 1.42 ;&st7; " /><path d=" M  231.59,  248.24  C  233.93   248.24   235.84   246.34   235.84   243.99 " style="stroke-width: 1.42 ;&st7; " /><path d=" M  235.84,  243.99  C  235.84   241.65   233.93   239.75   231.59   239.75 " style="stroke-width: 1.42 ;&st7; " /><path d=" M  227.34,  146.26  C  224.99   146.26   223.09   148.16   223.09   150.51 " style="stroke-width: 1.42 ;&st7; " /><path d=" M  223.09,  150.51  C  223.09   152.86   224.99   154.76   227.34   154.76 " style="stroke-width: 1.42 ;&st7; " /><path d=" M  231.59,  154.76  C  233.93   154.76   235.84   152.86   235.84   150.51 " style="stroke-width: 1.42 ;&st7; " /><path d=" M  235.84,  150.51  C  235.84   148.16   233.93   146.26   231.59   146.26 " style="stroke-width: 1.42 ;&st7; " /><path d=" M  227.34,   95.27  C  224.99    95.27   223.09    97.17   223.09    99.52 " style="stroke-width: 1.42 ;&st7; " /><path d=" M  223.09,   99.52  C  223.09   101.87   224.99   103.77   227.34   103.77 " style="stroke-width: 1.42 ;&st7; " /><path d=" M  231.59,  103.77  C  233.93   103.77   235.84   101.87   235.84    99.52 " style="stroke-width: 1.42 ;&st7; " /><path d=" M  235.84,   99.52  C  235.84    97.17   233.93    95.27   231.59    95.27 " style="stroke-width: 1.42 ;&st7; " /><path d=" M  208.50,  413.12  C  208.50   410.61   206.47   408.58   203.97   408.58 " style="stroke-width: 1.42 ;&st7; " /><path d=" M  203.97,  408.58  C  201.46   408.58   199.43   410.61   199.43   413.12 " style="stroke-width: 1.42 ;&st7; " /><path d=" M  199.43,  413.12  C  199.43   415.62   201.46   417.65   203.97   417.65 " style="stroke-width: 1.42 ;&st7; " /><path d=" M  203.97,  417.65  C  206.47   417.65   208.50   415.62   208.50   413.12 " style="stroke-width: 1.42 ;&st7; " /><path d=" M  208.50,  464.11  C  208.50   461.60   206.47   459.58   203.97   459.58 " style="stroke-width: 1.42 ;&st7; " /><path d=" M  203.97,  459.58  C  201.46   459.58   199.43   461.60   199.43   464.11 " style="stroke-width: 1.42 ;&st7; " /><path d=" M  199.43,  464.11  C  199.43   466.61   201.46   468.64   203.97   468.64 " style="stroke-width: 1.42 ;&st7; " /><path d=" M  203.97,  468.64  C  206.47   468.64   208.50   466.61   208.50   464.11 " style="stroke-width: 1.42 ;&st7; " /><text style="&st18;" transform="matrix(&st16;  193.09  415.09 )">8</text><text style="&st18;" transform="matrix(&st16;  209.94  475.14 )">(*3)</text><text style="&st18;" transform="matrix(&st16;  222.67  176.57 )">3</text><text style="&st18;" transform="matrix(&st16;  193.09  466.08 )">2</text><text style="&st18;" transform="matrix(&st16;  200.22  347.95 )">2J</text><text style="&st18;" transform="matrix(&st16;  187.32  347.95 )">22</text><text style="&st18;" transform="matrix(&st16;  199.52  305.45 )">2H</text><text style="&st18;" transform="matrix(&st16;  187.32  305.45 )">27</text><text style="&st18;" transform="matrix(&st17;  200.27  377.7 )">L</text><text style="&st18;" transform="matrix(&st16;  333.93  457.02 )">1</text><text style="&st18;" transform="matrix(&st16;  274.44  457.02 )">1</text><text style="&st18;" transform="matrix(&st17;  276.76  378.05 )">B</text><text style="&st18;" transform="matrix(&st17;  200.27  262.97 )">L</text><text style="&st18;" transform="matrix(&st16;  312.12  431.52 )">B</text><text style="&st18;" transform="matrix(&st16;  201.63  424.15 )">B</text><text style="&st18;" transform="matrix(&st16;  193.09  424.15 )">9</text><text style="&st18;" transform="matrix(&st16;  206.8  434.91 )">HO</text><text style="&st18;" transform="matrix(&st16;  201.49  475.14 )">D</text><text style="&st18;" transform="matrix(&st16;  193.87  475.14 )">1</text><text ewd:textID="8" style="&st18;" transform="matrix(&st17;  191.77  539.38 )">Horn Switch</text><text style="&st18;" transform="matrix(&st16;  184.44  570.3 )">z37(C),z73(D)</text><text ewd:textID="12" style="&st18;" transform="matrix(&st16;  184.44  577.41 )">Steering Pad Switch</text><text style="&st18;" transform="matrix(&st16;  246.77  56.17 )">10A <tspan dy="6" x="0">HORN</tspan></text><text style="&st18;" transform="matrix(&st16;  220.35  32.08 )">(BAT)</text><text style="&st18;" transform="matrix(&st16;  202.38  245.96 )">1</text><text style="&st18;" transform="matrix(&st16;  227.87  245.96 )">1</text><text ewd:textID="6" style="&st18;" transform="matrix(&st17;  191.77  217.49 )">HORN Relay</text><text style="&st18;" transform="matrix(&st16;  209.94  466.08 )">(*4)</text><text ewd:textID="4" style="&st18;" transform="matrix(&st16;  337.42  632.65 )">* 4 :w/o Steering Pad Switch</text><text style="&st18;" transform="matrix(&st17;  225.77  263.32 )">B</text><text ewd:textID="7" style="&st18;" transform="matrix(&st17;  303.67  488.73 )">High Pitched <tspan dy="6" x="0">Horn Assembly</tspan></text><text style="&st18;" transform="matrix(&st17;  296.56  488.73 )">A4</text><text ewd:textID="9" style="&st18;" transform="matrix(&st17;  363.16  488.73 )">Low Pitched <tspan dy="6" x="0">Horn Assembly</tspan></text><text style="&st18;" transform="matrix(&st17;  356.05  488.73 )">A5</text><text ewd:textID="10" style="&st18;" transform="matrix(&st17;  244.18  463.23 )">Spiral Cable Sub-Assembly</text><text style="&st18;" transform="matrix(&st17;  237.07  463.23 )">E12(A),E122(B),z37(C),z73(D)</text><text style="&st18;" transform="matrix(&st16;  197.95  176.57 )">1</text><text style="&st18;" transform="matrix(&st16;  222.67  86.47 )">2</text><text style="&st18;" transform="matrix(&st16;  222.67  222.44 )">5</text><text style="&st18;" transform="matrix(&st16;  197.18  222.44 )">2</text><text style="&st18;" transform="matrix(&st16;  227.87  152.48 )">1</text><text style="&st18;" transform="matrix(&st16;  227.87  101.49 )">1</text><text style="&st18;" transform="matrix(&st17;  225.77  123.1 )">B</text><text ewd:textID="1" style="&st18;" transform="matrix(&st16;  337.42  607.15 )">* 1 :w/ Entry &amp; Start System</text><text ewd:textID="2" style="&st18;" transform="matrix(&st16;  337.42  615.65 )">* 2 :w/o Entry &amp; Start System</text><text ewd:textID="3" style="&st18;" transform="matrix(&st16;  337.42  624.15 )">* 3 :w/ Steering Pad Switch</text><text style="&st18;" transform="matrix(&st16;  209.94  424.15 )">(*1)</text><text style="&st18;" transform="matrix(&st16;  210.13  125.57 )">B</text><text style="&st18;" transform="matrix(&st16;  209.94  415.09 )">(*2)</text><text style="&st18;" transform="matrix(&st16;  201.63  415.09 )">A</text><text style="&st18;" transform="matrix(&st16;  201.49  466.08 )">C</text><text style="&st18;" transform="matrix(&st16;  202.38  152.48 )">1</text></svg>