﻿<?xml version="1.0" encoding="utf-8"?>
<!DOCTYPE svg PUBLIC "-//W3C//DTD SVG 1.0//EN" "http://www.w3.org/TR/2001/REC-SVG-20010904/DTD/svg10.dtd"[
	<!ENTITY ns_flows "http://ns.adobe.com/Flows/1.0/">
	<!ENTITY ns_svg "http://www.w3.org/2000/svg">
	<!ENTITY ns_xlink "http://www.w3.org/1999/xlink">
	<!ENTITY st0 "font-size:7px;font-family:'MS-PGothic';adobe-font-script:japanese;">
	<!ENTITY st1 "font-size:6px;font-family:'ArialMT';">
	<!-- White fill  -->
	<!ENTITY st2 "fill:#FFFFFF;stroke:#000000; stroke-width:1.41;stroke-linecap:round;stroke-linejoin:round;">
	<!-- Yellow fill  -->
	<!ENTITY st3 "fill:#FFFFCC;stroke:#FFFFCC; stroke-width:0.1;stroke-linecap:round;stroke-linejoin:round;">
	<!-- Gray fill  -->
	<!ENTITY st4 "fill:#CCCCCC;stroke:#CCCCCC; stroke-width:0.1;stroke-linecap:round;stroke-linejoin:round;">
	<!-- Light-blue fill -->
	<!ENTITY st5 "fill:#CCECF4;stroke:#000000; stroke-width:1.133;stroke-linecap:round;stroke-linejoin:round;">
	<!ENTITY st6 "fill:none;stroke-linecap:butt; stroke-linejoin:round;">
	<!ENTITY st7 "fill:none;stroke:#000000;stroke-linecap:round;stroke-linejoin:round;">
	<!ENTITY st8 "enable-background:new    ;">
	<!-- Black fill -->
	<!ENTITY st9 "fill:#000000;stroke:#000000; stroke-linecap:round;stroke-linejoin:round;">
	<!-- SRS note   -->
	<!ENTITY st10 "font-size:9px;font-family:'ArialMT';">
	<!ENTITY st11 "font-size:9px;font-family:'Svg Symbol';">
	<!ENTITY st12 "font-size:6px;font-family:'Svg Symbol';">
	<!ENTITY st13 "fill:none;stroke:#ff0000;stroke-linecap:round;stroke-linejoin:round;">
	<!-- Yellow fill  -->
	<!ENTITY st14 "fill:#FFFF00;stroke:#FFFF00; stroke-width:0.1;stroke-linecap:round;stroke-linejoin:round;">
	<!ENTITY st15 "font-size:6px;font-family:'MS-PGothic';adobe-font-script:japanese;">
	<!ENTITY st16 "1.00 0.00 0.00 1.00">
	<!ENTITY st17 "0.00 -1.00 1.00 0.00">
	<!ENTITY st18 "font-size:6px;font-family:'Arial';">
	<!ENTITY st19 "font-size:9px;font-family:'Arial';">
	<!ENTITY st20 "font-size:6px;font-family:'MS-PGothic','MS PGothic';adobe-font-script:japanese;">
	<!ENTITY st21 "font-size:7px;font-family:'MS-PGothic','MS PGothic';adobe-font-script:japanese;">
	<!ATTLIST svg
		xmlns:ewd CDATA #FIXED "http://shcl.co.jp/ewd"
		xmlns:a CDATA #FIXED "http://ns.adobe.com/AdobeSVGViewerExtensions/3.0/"
		ewd:ver CDATA #IMPLIED
	>
	<!ATTLIST a
		ewd:lineID CDATA #IMPLIED
		ewd:groupID CDATA #IMPLIED
		ewd:figtype CDATA #IMPLIED
		ewd:code CDATA #IMPLIED
		ewd:figID CDATA #IMPLIED
		ewd:pinNo CDATA #IMPLIED
		ewd:comment CDATA #IMPLIED >
	<!ATTLIST g
		ewd:lineID CDATA #IMPLIED
		ewd:groupID CDATA #IMPLIED
		ewd:figtype CDATA #IMPLIED
		ewd:code CDATA #IMPLIED
		ewd:figID CDATA #IMPLIED
		ewd:pinNo CDATA #IMPLIED
		ewd:comment CDATA #IMPLIED >
	<!ATTLIST text
		ewd:textID CDATA #IMPLIED >
	<!ATTLIST title
		ewd:textID CDATA #IMPLIED >
]>
<!-- Generator: Shintec Hozumi YS   -->
<svg onload="call_execInitLoadProc_svg('system')" style="overflow:visible;  enable-background:new 0 0 6725.749 710.000" viewBox="0 0 6725.749 710.000" height="710.000" width="6725.749" xml:space="preserve" ewd:ver="L2.1.2.8" xmlns="&ns_svg;" xmlns:a="http://ns.adobe.com/AdobeSVGViewerExtensions/3.0/" xmlns:ewd="http://shcl.co.jp/ewd" xmlns:xlink="&ns_xlink;">
<path d=" M 2745.04,  273.74  L 2753.54,  273.74 " style="stroke-width: 1.42 ;&st7; " /><path d=" M 2787.53,  273.74  L 2796.03,  273.74 " style="stroke-width: 1.42 ;&st7; " /><path d=" M 2762.04,  460.71  L 2753.54,  460.71 " style="stroke-width: 1.42 ;&st7; " /><path d=" M 2804.53,  460.71  L 2796.03,  460.71 " style="stroke-width: 1.42 ;&st7; " /><path d=" M 2905.32,  204.75  L 2905.05,  205.22  L 2904.96,  205.75  L 2905.05,  206.28  L 2905.32,  206.75  L 2905.73,  207.10  L 2906.24,  207.29  L 2906.78,  207.29  L 2907.29,  207.10  L 2907.71,  206.75  L 2907.98,  206.28  L 2908.07,  205.75  L 2907.98,  205.22  L 2907.71,  204.75  L 2907.29,  204.40  L 2906.78,  204.22  L 2906.24,  204.22  L 2905.73,  204.40  L 2905.32,  204.75  L 2905.71,  205.46  L 2905.71,  206.04  L 2906.09,  206.49  L 2906.66,  206.59  L 2907.16,  206.30  L 2907.36,  205.75  L 2907.16,  205.20  L 2906.66,  204.92  L 2906.09,  205.01  L 2906.51,  205.75 " style="stroke-width: 0.85 ;&st7; " /><path d=" M 2862.83,  213.25  L 2862.56,  213.72  L 2862.46,  214.25  L 2862.56,  214.78  L 2862.83,  215.25  L 2863.24,  215.60  L 2863.75,  215.79  L 2864.29,  215.79  L 2864.80,  215.60  L 2865.21,  215.25  L 2865.48,  214.78  L 2865.58,  214.25  L 2865.48,  213.72  L 2865.21,  213.25  L 2864.80,  212.90  L 2864.29,  212.71  L 2863.75,  212.71  L 2863.24,  212.90  L 2862.83,  213.25  L 2863.22,  213.96  L 2863.22,  214.54  L 2863.60,  214.99  L 2864.17,  215.09  L 2864.67,  214.80  L 2864.87,  214.25  L 2864.67,  213.70  L 2864.17,  213.41  L 2863.60,  213.51  L 2864.02,  214.25 " style="stroke-width: 0.85 ;&st7; " /><path d=" M 2794.84,  213.25  L 2794.57,  213.72  L 2794.47,  214.25  L 2794.57,  214.78  L 2794.84,  215.25  L 2795.25,  215.60  L 2795.76,  215.79  L 2796.30,  215.79  L 2796.81,  215.60  L 2797.22,  215.25  L 2797.50,  214.78  L 2797.59,  214.25  L 2797.50,  213.72  L 2797.22,  213.25  L 2796.81,  212.90  L 2796.30,  212.71  L 2795.76,  212.71  L 2795.25,  212.90  L 2794.84,  213.25  L 2795.23,  213.96  L 2795.23,  214.54  L 2795.61,  214.99  L 2796.18,  215.09  L 2796.68,  214.80  L 2796.88,  214.25  L 2796.68,  213.70  L 2796.18,  213.41  L 2795.61,  213.51  L 2796.03,  214.25 " style="stroke-width: 0.85 ;&st7; " /><path d=" M 2752.35,  204.75  L 2752.07,  205.22  L 2751.98,  205.75  L 2752.07,  206.28  L 2752.35,  206.75  L 2752.76,  207.10  L 2753.27,  207.29  L 2753.81,  207.29  L 2754.32,  207.10  L 2754.73,  206.75  L 2755.00,  206.28  L 2755.10,  205.75  L 2755.00,  205.22  L 2754.73,  204.75  L 2754.32,  204.40  L 2753.81,  204.22  L 2753.27,  204.22  L 2752.76,  204.40  L 2752.35,  204.75  L 2752.74,  205.46  L 2752.74,  206.04  L 2753.11,  206.49  L 2753.69,  206.59  L 2754.19,  206.30  L 2754.39,  205.75  L 2754.19,  205.20  L 2753.69,  204.92  L 2753.11,  205.01  L 2753.54,  205.75 " style="stroke-width: 0.85 ;&st7; " /><path d=" M 2906.51,  197.25  L 2906.51,  222.75 " style="stroke-width: 0.85 ;&st7; " /><path d=" M 2864.02,  197.25  L 2864.02,  222.75 " style="stroke-width: 0.85 ;&st7; " /><path d=" M 3016.99,  222.75  L 3016.99,  205.75  L 2685.55,  205.75  L 2685.55,  197.25 " style="stroke-width: 0.85 ;&st7; " /><path d=" M 2626.06,  324.73  L 2626.06,  367.22  L 2702.55,  367.22  L 2702.55,  324.73  L 2626.06,  324.73 " style="stroke-width: 1.42 ;&st7; " /><path d=" M 2974.50,  222.75  L 2974.50,  214.25  L 2643.06,  214.25  L 2643.06,  197.25 " style="stroke-width: 0.85 ;&st7; " /><path d=" M 2796.03,  197.25  L 2796.03,  222.75 " style="stroke-width: 0.85 ;&st7; " /><path d=" M 2753.54,  197.25  L 2753.54,  222.75 " style="stroke-width: 0.85 ;&st7; " /><path d=" M 2847.02,  103.77  L 2847.02,  146.26  L 2923.51,  146.26  L 2923.51,  103.77  L 2847.02,  103.77 " style="stroke-width: 1.42 ;&st7; " /><path d=" M 2800.28,  466.37  L 2796.03,  462.12  L 2791.78,  466.37 " style="stroke-width: 1.42 ;&st7; " /><path d=" M 2800.28,  469.77  L 2796.03,  465.52  L 2791.78,  469.77 " style="stroke-width: 1.42 ;&st7; " /><path d=" M 2757.79,  466.37  L 2753.54,  462.12  L 2749.29,  466.37 " style="stroke-width: 1.42 ;&st7; " /><path d=" M 2757.79,  469.77  L 2753.54,  465.52  L 2749.29,  469.77 " style="stroke-width: 1.42 ;&st7; " /><path d=" M 2736.54,  324.73  L 2736.54,  367.22  L 2813.03,  367.22  L 2813.03,  324.73  L 2736.54,  324.73 " style="stroke-width: 1.42 ;&st7; " /><path d=" M 2800.28,  268.07  L 2796.03,  272.32  L 2791.78,  268.07 " style="stroke-width: 1.42 ;&st7; " /><path d=" M 2791.78,  264.67  L 2796.03,  268.92  L 2800.28,  264.67 " style="stroke-width: 1.42 ;&st7; " /><path d=" M 2757.79,  268.07  L 2753.54,  272.32  L 2749.29,  268.07 " style="stroke-width: 1.42 ;&st7; " /><path d=" M 2749.29,  264.67  L 2753.54,  268.92  L 2757.79,  264.67 " style="stroke-width: 1.42 ;&st7; " /><path d=" M 2736.54,  103.77  L 2736.54,  146.26  L 2813.03,  146.26  L 2813.03,  103.77  L 2736.54,  103.77 " style="stroke-width: 1.42 ;&st7; " /><path d=" M 2634.56,  197.25  L 2634.56,  222.75  L 3025.49,  222.75  L 3025.49,  197.25  L 2634.56,  197.25 " style="stroke-width: 1.42 ;&st7; " /><path d=" M 2758.07,  150.79  C 2758.07   148.29  2756.04   146.26  2753.54   146.26 " style="stroke-width: 1.42 ;&st7; " /><path d=" M 2753.54,  146.26  C 2751.04   146.26  2749.01   148.29  2749.01   150.79 " style="stroke-width: 1.42 ;&st7; " /><path d=" M 2749.01,  150.79  C 2749.01   153.30  2751.04   155.33  2753.54   155.33 " style="stroke-width: 1.42 ;&st7; " /><path d=" M 2753.54,  155.33  C 2756.04   155.33  2758.07   153.30  2758.07   150.79 " style="stroke-width: 1.42 ;&st7; " /><path d=" M 2800.57,  150.79  C 2800.57   148.29  2798.54   146.26  2796.03   146.26 " style="stroke-width: 1.42 ;&st7; " /><path d=" M 2796.03,  146.26  C 2793.53   146.26  2791.50   148.29  2791.50   150.79 " style="stroke-width: 1.42 ;&st7; " /><path d=" M 2791.50,  150.79  C 2791.50   153.30  2793.53   155.33  2796.03   155.33 " style="stroke-width: 1.42 ;&st7; " /><path d=" M 2796.03,  155.33  C 2798.54   155.33  2800.57   153.30  2800.57   150.79 " style="stroke-width: 1.42 ;&st7; " /><path d=" M 2758.07,   99.24  C 2758.07    96.73  2756.04    94.70  2753.54    94.70 " style="stroke-width: 1.42 ;&st7; " /><path d=" M 2753.54,   94.70  C 2751.04    94.70  2749.01    96.73  2749.01    99.24 " style="stroke-width: 1.42 ;&st7; " /><path d=" M 2749.01,   99.24  C 2749.01   101.74  2751.04   103.77  2753.54   103.77 " style="stroke-width: 1.42 ;&st7; " /><path d=" M 2753.54,  103.77  C 2756.04   103.77  2758.07   101.74  2758.07    99.24 " style="stroke-width: 1.42 ;&st7; " /><path d=" M 2800.57,   99.24  C 2800.57    96.73  2798.54    94.70  2796.03    94.70 " style="stroke-width: 1.42 ;&st7; " /><path d=" M 2796.03,   94.70  C 2793.53    94.70  2791.50    96.73  2791.50    99.24 " style="stroke-width: 1.42 ;&st7; " /><path d=" M 2791.50,   99.24  C 2791.50   101.74  2793.53   103.77  2796.03   103.77 " style="stroke-width: 1.42 ;&st7; " /><path d=" M 2796.03,  103.77  C 2798.54   103.77  2800.57   101.74  2800.57    99.24 " style="stroke-width: 1.42 ;&st7; " /><path d=" M 2758.07,  320.20  C 2758.07   317.70  2756.04   315.67  2753.54   315.67 " style="stroke-width: 1.42 ;&st7; " /><path d=" M 2753.54,  315.67  C 2751.04   315.67  2749.01   317.70  2749.01   320.20 " style="stroke-width: 1.42 ;&st7; " /><path d=" M 2749.01,  320.20  C 2749.01   322.70  2751.04   324.73  2753.54   324.73 " style="stroke-width: 1.42 ;&st7; " /><path d=" M 2753.54,  324.73  C 2756.04   324.73  2758.07   322.70  2758.07   320.20 " style="stroke-width: 1.42 ;&st7; " /><path d=" M 2800.57,  320.20  C 2800.57   317.70  2798.54   315.67  2796.03   315.67 " style="stroke-width: 1.42 ;&st7; " /><path d=" M 2796.03,  315.67  C 2793.53   315.67  2791.50   317.70  2791.50   320.20 " style="stroke-width: 1.42 ;&st7; " /><path d=" M 2791.50,  320.20  C 2791.50   322.70  2793.53   324.73  2796.03   324.73 " style="stroke-width: 1.42 ;&st7; " /><path d=" M 2796.03,  324.73  C 2798.54   324.73  2800.57   322.70  2800.57   320.20 " style="stroke-width: 1.42 ;&st7; " /><path d=" M 2800.57,  371.76  C 2800.57   369.25  2798.54   367.22  2796.03   367.22 " style="stroke-width: 1.42 ;&st7; " /><path d=" M 2796.03,  367.22  C 2793.53   367.22  2791.50   369.25  2791.50   371.76 " style="stroke-width: 1.42 ;&st7; " /><path d=" M 2791.50,  371.76  C 2791.50   374.26  2793.53   376.29  2796.03   376.29 " style="stroke-width: 1.42 ;&st7; " /><path d=" M 2796.03,  376.29  C 2798.54   376.29  2800.57   374.26  2800.57   371.76 " style="stroke-width: 1.42 ;&st7; " /><path d=" M 2758.07,  371.76  C 2758.07   369.25  2756.04   367.22  2753.54   367.22 " style="stroke-width: 1.42 ;&st7; " /><path d=" M 2753.54,  367.22  C 2751.04   367.22  2749.01   369.25  2749.01   371.76 " style="stroke-width: 1.42 ;&st7; " /><path d=" M 2749.01,  371.76  C 2749.01   374.26  2751.04   376.29  2753.54   376.29 " style="stroke-width: 1.42 ;&st7; " /><path d=" M 2753.54,  376.29  C 2756.04   376.29  2758.07   374.26  2758.07   371.76 " style="stroke-width: 1.42 ;&st7; " /><text ewd:textID="13" style="&st18;" transform="matrix(&st16;  2615.04  675.14 )">*16 :w/ Network Gateway ECU</text><text style="&st18;" transform="matrix(&st17;  2982.14  256.01 )">(*16)</text><text style="&st18;" transform="matrix(&st17;  2914.15  254.42 )">(*5)</text><text style="&st18;" transform="matrix(&st17;  2871.66  254.42 )">(*5)</text><text ewd:textID="5" style="&st18;" transform="matrix(&st16;  2615.04  658.14 )">* 5 :Multi-Media Module Receiver Assembly Type</text><text ewd:textID="6" style="&st18;" transform="matrix(&st16;  2615.04  666.64 )">* 6 :Option Connector (Radio Receiver Assembly)</text><text style="&st18;" transform="matrix(&st16;  2853.28  193.56 )">20</text><text style="&st18;" transform="matrix(&st17;  2639.36  176.98 )">GR</text><text style="&st18;" transform="matrix(&st17;  2803.67  305.42 )">(*5)</text><text style="&st18;" transform="matrix(&st17;  2761.18  254.42 )">(*5)</text><text style="&st18;" transform="matrix(&st17;  2803.67  254.42 )">(*5)</text><text style="&st18;" transform="matrix(&st17;  2710.44  369.75 )">F129</text><text style="&st18;" transform="matrix(&st17;  2693.19  398.9 )">(*6)</text><text style="&st18;" transform="matrix(&st16;  2676.3  363.53 )">CANL</text><text style="&st18;" transform="matrix(&st17;  2803.67  398.9 )">(*5)</text><text style="&st18;" transform="matrix(&st16;  2633.31  363.53 )">CANH</text><text style="&st18;" transform="matrix(&st17;  2761.18  305.42 )">(*5)</text><text style="&st18;" transform="matrix(&st16;  2632.31  193.56 )">22</text><text style="&st18;" transform="matrix(&st16;  2676.36  193.56 )">11</text><text style="&st18;" transform="matrix(&st17;  2681.86  397.95 )">GR</text><text style="&st18;" transform="matrix(&st17;  2639.36  395.47 )">G</text><text style="&st18;" transform="matrix(&st16;  2678.76  375.42 )">5</text><text style="&st18;" transform="matrix(&st16;  2636.27  375.42 )">4</text><text style="&st18;" transform="matrix(&st17;  2650.69  398.9 )">(*6)</text><text style="&st18;" transform="matrix(&st17;  2970.81  253.47 )">GR</text><text style="&st18;" transform="matrix(&st16;  2964.54  230.94 )">19</text><text style="&st18;" transform="matrix(&st17;  2681.86  176.42 )">BE</text><text style="&st18;" transform="matrix(&st17;  2902.82  251.0 )">G</text><text style="&st18;" transform="matrix(&st17;  2860.33  253.47 )">GR</text><text style="&st18;" transform="matrix(&st16;  2896.55  230.94 )">10</text><text style="&st18;" transform="matrix(&st16;  2854.05  230.94 )">21</text><text style="&st18;" transform="matrix(&st16;  2858.01  154.45 )">1</text><text style="&st18;" transform="matrix(&st16;  2899.73  154.45 )">2</text><text style="&st18;" transform="matrix(&st17;  2860.33  176.98 )">GR</text><text style="&st18;" transform="matrix(&st17;  2902.82  176.42 )">BE</text><text style="&st18;" transform="matrix(&st17;  2820.92  369.75 )">F77(A)</text><text style="&st18;" transform="matrix(&st16;  2854.73  142.56 )">CAN-</text><text style="&st18;" transform="matrix(&st16;  2897.22  142.56 )">CAN+</text><text style="&st18;" transform="matrix(&st16;  2778.04  458.43 )">16</text><text style="&st18;" transform="matrix(&st16;  2738.73  458.43 )">6</text><text style="&st18;" transform="matrix(&st16;  2743.79  363.53 )">CANH</text><text style="&st18;" transform="matrix(&st16;  2786.78  363.53 )">CANL</text><text style="&st18;" transform="matrix(&st16;  2743.44  373.73 )">1</text><text style="&st18;" transform="matrix(&st16;  2751.21  373.73 )">A</text><text style="&st18;" transform="matrix(&st16;  2785.16  373.73 )">2</text><text style="&st18;" transform="matrix(&st16;  2793.7  373.73 )">A</text><text style="&st18;" transform="matrix(&st17;  2749.84  395.47 )">G</text><text style="&st18;" transform="matrix(&st17;  2792.34  397.95 )">GR</text><text style="&st18;" transform="matrix(&st16;  2793.7  322.17 )">A</text><text style="&st18;" transform="matrix(&st16;  2781.98  322.17 )">21</text><text style="&st18;" transform="matrix(&st16;  2751.21  322.17 )">A</text><text style="&st18;" transform="matrix(&st16;  2738.71  322.17 )">20</text><text style="&st18;" transform="matrix(&st16;  2787.13  332.37 )">CNL2</text><text style="&st18;" transform="matrix(&st16;  2744.14  332.37 )">CNH2</text><text style="&st18;" transform="matrix(&st17;  2792.34  301.99 )">G</text><text style="&st18;" transform="matrix(&st17;  2749.84  302.59 )">W</text><text style="&st18;" transform="matrix(&st16;  2778.04  279.96 )">17</text><text style="&st18;" transform="matrix(&st16;  2735.55  279.96 )">18</text><text style="&st18;" transform="matrix(&st17;  2792.34  251.0 )">G</text><text style="&st18;" transform="matrix(&st17;  2749.84  251.6 )">W</text><text style="&st18;" transform="matrix(&st16;  2786.06  230.94 )">13</text><text style="&st18;" transform="matrix(&st16;  2746.75  230.94 )">2</text><text style="&st18;" transform="matrix(&st16;  2747.53  193.56 )">1</text><text style="&st18;" transform="matrix(&st16;  2786.06  193.56 )">12</text><text style="&st18;" transform="matrix(&st17;  2749.84  173.73 )">L</text><text style="&st18;" transform="matrix(&st17;  2761.18  398.9 )">(*5)</text><text style="&st18;" transform="matrix(&st17;  2792.34  174.51 )">G</text><text style="&st18;" transform="matrix(&st16;  2786.78  111.4 )">CANL</text><text style="&st18;" transform="matrix(&st16;  2743.79  111.4 )">CANH</text><text style="&st18;" transform="matrix(&st16;  2793.7  101.2 )">A</text><text style="&st18;" transform="matrix(&st16;  2781.2  101.2 )">40</text><text style="&st18;" transform="matrix(&st16;  2751.21  101.2 )">A</text><text style="&st18;" transform="matrix(&st16;  2738.71  101.2 )">39</text><text style="&st18;" transform="matrix(&st16;  2793.7  152.76 )">A</text><text style="&st18;" transform="matrix(&st16;  2781.2  152.76 )">38</text><text style="&st18;" transform="matrix(&st16;  2751.21  152.76 )">A</text><text style="&st18;" transform="matrix(&st16;  2738.71  152.76 )">37</text><text style="&st18;" transform="matrix(&st17;  2820.92  148.79 )">E119(A)</text><text style="&st18;" transform="matrix(&st16;  2786.35  142.56 )">MSCL</text><text style="&st18;" transform="matrix(&st16;  2743.37  142.56 )">MSCH</text><text ewd:textID="23" style="&st18;" transform="matrix(&st17;  2827.75  148.79 )">Combination <tspan dy="6" x="-0.01">Meter Assembly</tspan></text><text ewd:textID="35" style="&st18;" transform="matrix(&st17;  2827.75  369.75 )">Multi-Media Module <tspan dy="6" x="0">Receiver Assembly</tspan></text><text ewd:textID="39" style="&st18;" transform="matrix(&st17;  2717.27  369.75 )">Option Connector <tspan dy="6" x="0">(Radio Receiver Assembly)</tspan></text><text ewd:textID="40" style="&st18;" transform="matrix(&st16;  2844.5  94.12 )">Option Connector <tspan dy="6" x="0">(Remote Engine Starter)</tspan></text><text style="&st18;" transform="matrix(&st16;  2899.73  193.56 )">9</text><text style="&st18;" transform="matrix(&st16;  2844.5  87.3 )">E173</text><text style="&st18;" transform="matrix(&st16;  2556.82  635.48 )">L(*16)</text><text style="&st18;" transform="matrix(&st16;  2607.81  635.48 )">L(*16)</text><text style="&st18;" transform="matrix(&st16;  2555.44  618.48 )">W(*16)</text><text style="&st18;" transform="matrix(&st16;  2606.44  618.48 )">W(*16)</text><text style="&st18;" transform="matrix(&st16;  2561.91  601.49 )">SB</text><text style="&st18;" transform="matrix(&st16;  2612.9  601.49 )">SB</text><text style="&st18;" transform="matrix(&st16;  2563.22  584.49 )">W</text><text style="&st18;" transform="matrix(&st16;  2614.21  584.49 )">W</text><text style="&st18;" transform="matrix(&st16;  2555.16  533.5 )">GR(*6)</text><text style="&st18;" transform="matrix(&st16;  2606.15  533.5 )">GR(*6)</text><text style="&st18;" transform="matrix(&st16;  2557.63  516.5 )">G(*6)</text><text style="&st18;" transform="matrix(&st16;  2608.63  516.5 )">G(*6)</text><text style="&st18;" transform="matrix(&st16;  2612.33  66.08 )">GR</text><text style="&st18;" transform="matrix(&st16;  2612.9  49.08 )">BE</text><text style="&st18;" transform="matrix(&st16;  2561.34  66.08 )">GR</text><text style="&st18;" transform="matrix(&st16;  2561.91  49.08 )">BE</text></svg>