﻿<?xml version="1.0" encoding="utf-8"?>
<!DOCTYPE svg PUBLIC "-//W3C//DTD SVG 1.0//EN" "http://www.w3.org/TR/2001/REC-SVG-20010904/DTD/svg10.dtd"[
	<!ENTITY ns_flows "http://ns.adobe.com/Flows/1.0/">
	<!ENTITY ns_svg "http://www.w3.org/2000/svg">
	<!ENTITY ns_xlink "http://www.w3.org/1999/xlink">
	<!ENTITY st0 "font-size:7px;font-family:'MS-PGothic';adobe-font-script:japanese;">
	<!ENTITY st1 "font-size:6px;font-family:'ArialMT';">
	<!-- White fill  -->
	<!ENTITY st2 "fill:#FFFFFF;stroke:#000000; stroke-width:1.41;stroke-linecap:round;stroke-linejoin:round;">
	<!-- Yellow fill  -->
	<!ENTITY st3 "fill:#FFFFCC;stroke:#FFFFCC; stroke-width:0.1;stroke-linecap:round;stroke-linejoin:round;">
	<!-- Gray fill  -->
	<!ENTITY st4 "fill:#CCCCCC;stroke:#CCCCCC; stroke-width:0.1;stroke-linecap:round;stroke-linejoin:round;">
	<!-- Light-blue fill -->
	<!ENTITY st5 "fill:#CCECF4;stroke:#000000; stroke-width:1.133;stroke-linecap:round;stroke-linejoin:round;">
	<!ENTITY st6 "fill:none;stroke-linecap:butt; stroke-linejoin:round;">
	<!ENTITY st7 "fill:none;stroke:#000000;stroke-linecap:round;stroke-linejoin:round;">
	<!ENTITY st8 "enable-background:new    ;">
	<!-- Black fill -->
	<!ENTITY st9 "fill:#000000;stroke:#000000; stroke-linecap:round;stroke-linejoin:round;">
	<!-- SRS note   -->
	<!ENTITY st10 "font-size:9px;font-family:'ArialMT';">
	<!ENTITY st11 "font-size:9px;font-family:'Svg Symbol';">
	<!ENTITY st12 "font-size:6px;font-family:'Svg Symbol';">
	<!ENTITY st13 "fill:none;stroke:#ff0000;stroke-linecap:round;stroke-linejoin:round;">
	<!-- Yellow fill  -->
	<!ENTITY st14 "fill:#FFFF00;stroke:#FFFF00; stroke-width:0.1;stroke-linecap:round;stroke-linejoin:round;">
	<!ENTITY st15 "font-size:6px;font-family:'MS-PGothic';adobe-font-script:japanese;">
	<!ENTITY st16 "1.00 0.00 0.00 1.00">
	<!ENTITY st17 "0.00 -1.00 1.00 0.00">
	<!ENTITY st18 "font-size:6px;font-family:'Arial';">
	<!ENTITY st19 "font-size:9px;font-family:'Arial';">
	<!ENTITY st20 "font-size:6px;font-family:'MS-PGothic','MS PGothic';adobe-font-script:japanese;">
	<!ENTITY st21 "font-size:7px;font-family:'MS-PGothic','MS PGothic';adobe-font-script:japanese;">
	<!ATTLIST svg
		xmlns:ewd CDATA #FIXED "http://shcl.co.jp/ewd"
		xmlns:a CDATA #FIXED "http://ns.adobe.com/AdobeSVGViewerExtensions/3.0/"
		ewd:ver CDATA #IMPLIED
	>
	<!ATTLIST a
		ewd:lineID CDATA #IMPLIED
		ewd:groupID CDATA #IMPLIED
		ewd:figtype CDATA #IMPLIED
		ewd:code CDATA #IMPLIED
		ewd:figID CDATA #IMPLIED
		ewd:pinNo CDATA #IMPLIED
		ewd:comment CDATA #IMPLIED >
	<!ATTLIST g
		ewd:lineID CDATA #IMPLIED
		ewd:groupID CDATA #IMPLIED
		ewd:figtype CDATA #IMPLIED
		ewd:code CDATA #IMPLIED
		ewd:figID CDATA #IMPLIED
		ewd:pinNo CDATA #IMPLIED
		ewd:comment CDATA #IMPLIED >
	<!ATTLIST text
		ewd:textID CDATA #IMPLIED >
	<!ATTLIST title
		ewd:textID CDATA #IMPLIED >
]>
<!-- Generator: Shintec Hozumi YS   -->
<svg onload="call_execInitLoadProc_svg('system')" style="overflow:visible;  enable-background:new 0 0 640.698 710.000" viewBox="0 0 640.698 710.000" height="710.000" width="640.698" xml:space="preserve" ewd:ver="L2.1.2.8" xmlns="&ns_svg;" xmlns:a="http://ns.adobe.com/AdobeSVGViewerExtensions/3.0/" xmlns:ewd="http://shcl.co.jp/ewd" xmlns:xlink="&ns_xlink;"><script type="text/javascript" xlink:href="../../../../../system/js/ewd/fig/svgfig.js" xmlns:xlink="http://www.w3.org/1999/xlink" /><defs><font horiz-adv-x="1229"><font-face font-family="Svg Symbol" units-per-em="2048" panose-1="5 5 1 2 1 7 6 2 5 7" ascent="2059" descent="450" alphabetic="0" /><missing-glyph d="M 103,0 l 0,1280 1024,0 0,-1280 -1024,0 z m 32,32 l 960,0 0,1216 -960,0 0,-1216 z" /><glyph unicode="" horiz-adv-x="1573" d="M 1517,0 l -567,0 24,279 q 141,59 207.5,168 66.5,109 66.5,306    0,272 -132.5,417.5 -132.5,145.5 -333.5,145.5 -194,0 -328,-147.5 -134,-147.5 -134,-401.5 0,-200 68.5,-319 68.5,-119     206.5,-169 l 25,-279 -564,0 0,279 35,0 q 3,-61 32,-83 45,-35 137,-35 l 270,0 0,70 q -210,61 -324.5,209 -114.5,148     -114.5,349 0,252 186.5,425 186.5,173 504.5,173 195,0 358.5,-73.5 163.5,-73.5 252,-214.5 88.5,-141 88.5,-310 0,-207     -121.5,-360.5 -121.5,-153.5 -317.5,-197.5 l -8,-70 275,0 q 92,0 128,28 36,28 42,90 l 38,0 0,-279 z" /></font></defs>
<g id="ewd_top"><a ewd:code="F18" ewd:figID="1" ewd:figtype="conn" style="cursor:pointer;"><path d=" M  416.43,  392.72  L  416.43,  435.21  L  484.42,  435.21  L  484.42,  392.72  L  416.43,  392.72 " style="&st5;" /><title ewd:textID="12">Stereo Component Amplifier Assembly</title></a><a ewd:code="F75" ewd:figID="2" ewd:figtype="conn" style="cursor:pointer;"><path d=" M  229.46,  392.72  L  229.46,  435.21  L  297.45,  435.21  L  297.45,  392.72  L  229.46,  392.72 " style="&st5;" /><title ewd:textID="9">Parking Assist ECU</title></a><a ewd:code="c43" ewd:figID="3" ewd:figtype="conn" style="cursor:pointer;"><path d=" M   33.99,  146.26  L   33.99,  180.26  L  101.98,  180.26  L  101.98,  146.26  L   33.99,  146.26 " style="&st5;" /><title ewd:textID="13">Television Display Assembly LH</title></a><a ewd:code="F79" ewd:figID="4" ewd:figtype="conn" style="cursor:pointer;"><path d=" M  322.95,  392.72  L  322.95,  435.21  L  390.93,  435.21  L  390.93,  392.72  L  322.95,  392.72 " style="&st5;" /><title ewd:textID="6">Multi-Display Assembly</title></a><a ewd:code="L66" ewd:figID="5" ewd:figtype="conn" style="cursor:pointer;"><path d=" M   33.99,  392.72  L   33.99,  435.21  L  195.47,  435.21  L  195.47,  392.72  L   33.99,  392.72 " style="&st5;" /><title ewd:textID="7">Multi-Display Controller Sub-Assembly</title></a><a ewd:code="F118,F124,F77" ewd:figID="6" ewd:figtype="conn" style="cursor:pointer;"><path d=" M  220.96,  205.75  L  220.96,  248.24  L  484.42,  248.24  L  484.42,  205.75  L  220.96,  205.75 " style="&st5;" /><title ewd:textID="11">Radio &amp; Display Receiver Assembly , Multi-Media Module Receiver Assembly</title></a><a ewd:code="c38" ewd:figID="7" ewd:figtype="conn" style="cursor:pointer;"><path d=" M  127.48,  248.24  L  127.48,  282.24  L  195.47,  282.24  L  195.47,  248.24  L  127.48,  248.24 " style="&st5;" /><title ewd:textID="14">Television Display Assembly RH</title></a><a ewd:lineID="1" style="cursor:pointer;"><path d=" M   50.99,  392.72  L   50.99,  347.96 " style="stroke:#008837;stroke-width: 5.10 ;&st6;" /></a><a ewd:lineID="2" style="cursor:pointer;"><path d=" M   50.99,  290.74  L   50.99,  324.73 " style="stroke:#008837;stroke-width: 5.10 ;&st6;" /></a><a ewd:lineID="3" style="cursor:pointer;"><path d=" M   50.99,  239.75  L   50.99,  276.01 " style="stroke:#008837;stroke-width: 5.10 ;&st6;" /></a><a ewd:lineID="4" style="cursor:pointer;"><path d=" M   50.99,  225.01  L   50.99,  180.26 " style="stroke:#008837;stroke-width: 5.10 ;&st6;" /></a><a ewd:lineID="5" style="cursor:pointer;"><path d=" M   84.99,  347.96  L   84.99,  392.72 " style="stroke:#00A0C6;stroke-width: 5.10 ;&st6;" /></a><a ewd:lineID="6" style="cursor:pointer;"><path d=" M   84.99,  290.74  L   84.99,  324.73 " style="stroke:#00A0C6;stroke-width: 5.10 ;&st6;" /></a><a ewd:lineID="7" style="cursor:pointer;"><path d=" M   84.99,  239.75  L   84.99,  276.01 " style="stroke:#00A0C6;stroke-width: 5.10 ;&st6;" /></a><a ewd:lineID="8" style="cursor:pointer;"><path d=" M   84.99,  225.01  L   84.99,  180.26 " style="stroke:#00A0C6;stroke-width: 5.10 ;&st6;" /></a><a ewd:lineID="9" style="cursor:pointer;"><path d=" M  144.48,  341.73  L  144.48,  392.72 " style="stroke:#008837;stroke-width: 5.10 ;&st6;" /></a><a ewd:lineID="10" style="cursor:pointer;"><path d=" M  144.48,  282.24  L  144.48,  327.00 " style="stroke:#008837;stroke-width: 5.10 ;&st6;" /></a><a ewd:lineID="11" style="cursor:pointer;"><path d=" M  178.47,  392.72  L  178.47,  341.73 " style="stroke:#00A0C6;stroke-width: 5.10 ;&st6;" /></a><a ewd:lineID="12" style="cursor:pointer;"><path d=" M  178.47,  282.24  L  178.47,  327.00 " style="stroke:#00A0C6;stroke-width: 5.10 ;&st6;" /></a><a ewd:lineID="13" style="cursor:pointer;"><path d=" M  246.46,  266.37  L  246.46,  383.65 " style="stroke:#56077D;stroke-width: 5.10 ;&st6;" /></a><a ewd:lineID="14" style="cursor:pointer;"><path d=" M  280.45,  266.37  L  280.45,  383.65 " style="stroke:#F668B2;stroke-width: 5.10 ;&st6;" /></a><a ewd:lineID="15" style="cursor:pointer;"><path d=" M  339.94,  257.31  L  339.94,  383.65 " style="stroke:#008837;stroke-width: 5.10 ;&st6;" /></a><a ewd:lineID="16" style="cursor:pointer;"><path d=" M  373.94,  257.31  L  373.94,  383.65 " style="stroke:#56077D;stroke-width: 5.10 ;&st6;" /></a><a ewd:lineID="17" style="cursor:pointer;"><path d=" M  433.43,  257.31  L  433.43,  392.72 " style="stroke:#56077D;stroke-width: 5.10 ;&st6;" /></a><a ewd:lineID="18" style="cursor:pointer;"><path d=" M  467.42,  257.31  L  467.42,  392.72 " style="stroke:#F668B2;stroke-width: 5.10 ;&st6;" /></a><a ewd:code="Lc2" ewd:figID="8" ewd:figtype="w2w" ewd:pinNo="3" style="cursor:pointer;"><path d=" M  152.97,  333.23  L  135.98,  333.23  L  135.98,  341.73  L  152.97,  341.73  L  152.97,  333.23 " style="&st2;" /><text style="&st8;" transform="matrix(&st16;  138.42  339.97 )"><tspan style="&st18;" x="0" y="0">Lc2</tspan></text></a><a ewd:code="Lc2" ewd:figID="9" ewd:figtype="w2w" ewd:pinNo="2" style="cursor:pointer;"><path d=" M  186.97,  333.23  L  169.97,  333.23  L  169.97,  341.73  L  186.97,  341.73  L  186.97,  333.23 " style="&st2;" /><text style="&st8;" transform="matrix(&st16;  172.41  339.97 )"><tspan style="&st18;" x="0" y="0">Lc2</tspan></text></a><a ewd:code="EK2" ewd:figID="10" ewd:figtype="w2w" ewd:pinNo="10" style="cursor:pointer;"><path d=" M   59.49,  282.24  L   42.49,  282.24  L   42.49,  290.74  L   59.49,  290.74  L   59.49,  282.24 " style="&st2;" /><text style="&st8;" transform="matrix(&st16;  44.0  288.98 )"><tspan style="&st18;" x="0" y="0">EK2</tspan></text></a><a ewd:code="EK2" ewd:figID="11" ewd:figtype="w2w" ewd:pinNo="11" style="cursor:pointer;"><path d=" M   93.48,  282.24  L   76.49,  282.24  L   76.49,  290.74  L   93.48,  290.74  L   93.48,  282.24 " style="&st2;" /><text style="&st8;" transform="matrix(&st16;  78.0  288.98 )"><tspan style="&st18;" x="0" y="0">EK2</tspan></text></a><a ewd:code="EL1" ewd:figID="12" ewd:figtype="w2w" ewd:pinNo="60" style="cursor:pointer;"><path d=" M   59.49,  333.23  L   42.49,  333.23  L   42.49,  341.73  L   59.49,  341.73  L   59.49,  333.23 " style="&st2;" /><text style="&st8;" transform="matrix(&st16;  44.78  339.97 )"><tspan style="&st18;" x="0" y="0">EL1</tspan></text></a><a ewd:code="Kc2" ewd:figID="13" ewd:figtype="w2w" ewd:pinNo="2" style="cursor:pointer;"><path d=" M   93.48,  231.25  L   76.49,  231.25  L   76.49,  239.75  L   93.48,  239.75  L   93.48,  231.25 " style="&st2;" /><text style="&st8;" transform="matrix(&st16;  78.55  237.99 )"><tspan style="&st18;" x="0" y="0">Kc2</tspan></text></a><a ewd:code="EL1" ewd:figID="14" ewd:figtype="w2w" ewd:pinNo="61" style="cursor:pointer;"><path d=" M   93.48,  324.73  L   76.49,  324.73  L   76.49,  333.23  L   93.48,  333.23  L   93.48,  324.73 " style="&st2;" /><text style="&st8;" transform="matrix(&st16;  78.78  331.47 )"><tspan style="&st18;" x="0" y="0">EL1</tspan></text></a><a ewd:code="EL1" ewd:figID="15" ewd:figtype="w2w" ewd:pinNo="59" style="cursor:pointer;"><path d=" M   93.48,  333.23  L   76.49,  333.23  L   76.49,  341.73  L   93.48,  341.73  L   93.48,  333.23 " style="&st2;" /><text style="&st8;" transform="matrix(&st16;  78.78  339.97 )"><tspan style="&st18;" x="0" y="0">EL1</tspan></text></a><a ewd:code="EL1" ewd:figID="16" ewd:figtype="w2w" ewd:pinNo="62" style="cursor:pointer;"><path d=" M   59.49,  324.73  L   42.49,  324.73  L   42.49,  333.23  L   59.49,  333.23  L   59.49,  324.73 " style="&st2;" /><text style="&st8;" transform="matrix(&st16;  44.78  331.47 )"><tspan style="&st18;" x="0" y="0">EL1</tspan></text></a><a ewd:code="Kc2" ewd:figID="17" ewd:figtype="w2w" ewd:pinNo="3" style="cursor:pointer;"><path d=" M   59.49,  231.25  L   42.49,  231.25  L   42.49,  239.75  L   59.49,  239.75  L   59.49,  231.25 " style="&st2;" /><text style="&st8;" transform="matrix(&st16;  44.56  237.99 )"><tspan style="&st18;" x="0" y="0">Kc2</tspan></text></a></g></svg>