﻿<?xml version="1.0" encoding="utf-8"?>
<!DOCTYPE svg PUBLIC "-//W3C//DTD SVG 1.0//EN" "http://www.w3.org/TR/2001/REC-SVG-20010904/DTD/svg10.dtd"[
	<!ENTITY ns_flows "http://ns.adobe.com/Flows/1.0/">
	<!ENTITY ns_svg "http://www.w3.org/2000/svg">
	<!ENTITY ns_xlink "http://www.w3.org/1999/xlink">
	<!ENTITY st0 "font-size:7px;font-family:'MS-PGothic';adobe-font-script:japanese;">
	<!ENTITY st1 "font-size:6px;font-family:'ArialMT';">
	<!-- White fill  -->
	<!ENTITY st2 "fill:#FFFFFF;stroke:#000000; stroke-width:1.41;stroke-linecap:round;stroke-linejoin:round;">
	<!-- Yellow fill  -->
	<!ENTITY st3 "fill:#FFFFCC;stroke:#FFFFCC; stroke-width:0.1;stroke-linecap:round;stroke-linejoin:round;">
	<!-- Gray fill  -->
	<!ENTITY st4 "fill:#CCCCCC;stroke:#CCCCCC; stroke-width:0.1;stroke-linecap:round;stroke-linejoin:round;">
	<!-- Light-blue fill -->
	<!ENTITY st5 "fill:#CCECF4;stroke:#000000; stroke-width:1.133;stroke-linecap:round;stroke-linejoin:round;">
	<!ENTITY st6 "fill:none;stroke-linecap:butt; stroke-linejoin:round;">
	<!ENTITY st7 "fill:none;stroke:#000000;stroke-linecap:round;stroke-linejoin:round;">
	<!ENTITY st8 "enable-background:new    ;">
	<!-- Black fill -->
	<!ENTITY st9 "fill:#000000;stroke:#000000; stroke-linecap:round;stroke-linejoin:round;">
	<!-- SRS note   -->
	<!ENTITY st10 "font-size:9px;font-family:'ArialMT';">
	<!ENTITY st11 "font-size:9px;font-family:'Svg Symbol';">
	<!ENTITY st12 "font-size:6px;font-family:'Svg Symbol';">
	<!ENTITY st13 "fill:none;stroke:#ff0000;stroke-linecap:round;stroke-linejoin:round;">
	<!-- Yellow fill  -->
	<!ENTITY st14 "fill:#FFFF00;stroke:#FFFF00; stroke-width:0.1;stroke-linecap:round;stroke-linejoin:round;">
	<!ENTITY st15 "font-size:6px;font-family:'MS-PGothic';adobe-font-script:japanese;">
	<!ENTITY st16 "1.00 0.00 0.00 1.00">
	<!ENTITY st17 "0.00 -1.00 1.00 0.00">
	<!ENTITY st18 "font-size:6px;font-family:'Arial';">
	<!ENTITY st19 "font-size:9px;font-family:'Arial';">
	<!ENTITY st20 "font-size:6px;font-family:'MS-PGothic','MS PGothic';adobe-font-script:japanese;">
	<!ENTITY st21 "font-size:7px;font-family:'MS-PGothic','MS PGothic';adobe-font-script:japanese;">
	<!ATTLIST svg
		xmlns:ewd CDATA #FIXED "http://shcl.co.jp/ewd"
		xmlns:a CDATA #FIXED "http://ns.adobe.com/AdobeSVGViewerExtensions/3.0/"
		ewd:ver CDATA #IMPLIED
	>
	<!ATTLIST a
		ewd:lineID CDATA #IMPLIED
		ewd:groupID CDATA #IMPLIED
		ewd:figtype CDATA #IMPLIED
		ewd:code CDATA #IMPLIED
		ewd:figID CDATA #IMPLIED
		ewd:pinNo CDATA #IMPLIED
		ewd:comment CDATA #IMPLIED >
	<!ATTLIST g
		ewd:lineID CDATA #IMPLIED
		ewd:groupID CDATA #IMPLIED
		ewd:figtype CDATA #IMPLIED
		ewd:code CDATA #IMPLIED
		ewd:figID CDATA #IMPLIED
		ewd:pinNo CDATA #IMPLIED
		ewd:comment CDATA #IMPLIED >
	<!ATTLIST text
		ewd:textID CDATA #IMPLIED >
	<!ATTLIST title
		ewd:textID CDATA #IMPLIED >
]>
<!-- Generator: Shintec Hozumi YS   -->
<svg onload="call_execInitLoadProc_svg('system')" style="overflow:visible;  enable-background:new 0 0 5607.646 710.000" viewBox="0 0 5607.646 710.000" height="710.000" width="5607.646" xml:space="preserve" ewd:ver="L2.1.2.8" xmlns="&ns_svg;" xmlns:a="http://ns.adobe.com/AdobeSVGViewerExtensions/3.0/" xmlns:ewd="http://shcl.co.jp/ewd" xmlns:xlink="&ns_xlink;">
<path d=" M 5549.57,  494.70  L 5541.07,  494.70 " style="stroke-width: 1.42 ;&st7; " /><path d=" M 5541.07,  571.19  L 5541.07,  596.69 " style="stroke-width: 0.85 ;&st7; " /><path d=" M 5532.57,  588.19  L 5549.57,  588.19 " style="stroke-width: 1.13 ;&st7;stroke-dasharray:3, 1.5;" /><path d=" M 5532.57,  579.69  L 5549.57,  579.69 " style="stroke-width: 1.13 ;&st7;stroke-dasharray:3, 1.5;" /><path d=" M 5532.57,  571.19  L 5532.57,  596.69  L 5549.57,  596.69  L 5549.57,  571.19  L 5532.57,  571.19 " style="stroke-width: 1.42 ;&st7; " /><path d=" M 5539.66,  710.00  L 5542.49,  710.00 " style="stroke-width: 0.85 ;&st7; " /><path d=" M 5538.24,  707.17  L 5543.90,  707.17 " style="stroke-width: 0.85 ;&st7; " /><path d=" M 5539.88,  366.22  L 5539.61,  366.69  L 5539.51,  367.22  L 5539.61,  367.76  L 5539.88,  368.23  L 5540.29,  368.57  L 5540.80,  368.76  L 5541.34,  368.76  L 5541.85,  368.57  L 5542.26,  368.23  L 5542.54,  367.76  L 5542.63,  367.22  L 5542.54,  366.69  L 5542.26,  366.22  L 5541.85,  365.88  L 5541.34,  365.69  L 5540.80,  365.69  L 5540.29,  365.88  L 5539.88,  366.22  L 5540.27,  366.93  L 5540.27,  367.52  L 5540.65,  367.96  L 5541.22,  368.06  L 5541.72,  367.77  L 5541.92,  367.22  L 5541.72,  366.68  L 5541.22,  366.39  L 5540.65,  366.49  L 5541.07,  367.22 " style="stroke-width: 0.85 ;&st7; " /><path d=" M 5556.65,  384.22  L 5559.49,  384.22 " style="stroke-width: 0.85 ;&st7; " /><path d=" M 5555.24,  381.39  L 5560.90,  381.39 " style="stroke-width: 0.85 ;&st7; " /><path d=" M 5553.82,  378.56  L 5562.32,  378.56 " style="stroke-width: 0.85 ;&st7; " /><path d=" M 5549.57,  375.72  L 5566.57,  375.72 " style="stroke-width: 0.85 ;&st7; " /><path d=" M 5541.07,  350.23  L 5541.07,  409.72 " style="stroke-width: 0.85 ;&st7; " /><path d=" M 5558.07,  375.72  L 5558.07,  367.22  L 5541.07,  367.22 " style="stroke-width: 0.85 ;&st7; " /><path d=" M 5536.82,  704.33  L 5545.32,  704.33 " style="stroke-width: 0.85 ;&st7; " /><path d=" M 5532.57,  701.50  L 5549.57,  701.50 " style="stroke-width: 0.85 ;&st7; " /><path d=" M 5541.07,  697.25  L 5541.07,  701.50 " style="stroke-width: 0.85 ;&st7; " /><path d=" M 5545.32,  500.37  L 5541.07,  496.12  L 5536.82,  500.37 " style="stroke-width: 1.42 ;&st7; " /><path d=" M 5545.32,  503.77  L 5541.07,  499.52  L 5536.82,  503.77 " style="stroke-width: 1.42 ;&st7; " /><path d=" M 5592.06,  697.25  L 5592.06,  701.50 " style="stroke-width: 0.85 ;&st7; " /><path d=" M 5583.56,  701.50  L 5600.56,  701.50 " style="stroke-width: 0.85 ;&st7; " /><path d=" M 5587.81,  704.33  L 5596.31,  704.33 " style="stroke-width: 0.85 ;&st7; " /><path d=" M 5589.23,  707.17  L 5594.90,  707.17 " style="stroke-width: 0.85 ;&st7; " /><path d=" M 5590.65,  710.00  L 5593.48,  710.00 " style="stroke-width: 0.85 ;&st7; " /><path d=" M 5545.61,  610.28  C 5545.61   607.78  5543.58   605.75  5541.07   605.75 " style="stroke-width: 1.42 ;&st7; " /><path d=" M 5541.07,  605.75  C 5538.57   605.75  5536.54   607.78  5536.54   610.28 " style="stroke-width: 1.42 ;&st7; " /><path d=" M 5536.54,  610.28  C 5536.54   612.79  5538.57   614.82  5541.07   614.82 " style="stroke-width: 1.42 ;&st7; " /><path d=" M 5541.07,  614.82  C 5543.58   614.82  5545.61   612.79  5545.61   610.28 " style="stroke-width: 1.42 ;&st7; " /><path d=" M 5545.61,  601.22  C 5545.61   598.71  5543.58   596.69  5541.07   596.69 " style="stroke-width: 1.42 ;&st7; " /><path d=" M 5541.07,  596.69  C 5538.57   596.69  5536.54   598.71  5536.54   601.22 " style="stroke-width: 1.42 ;&st7; " /><path d=" M 5536.54,  601.22  C 5536.54   603.72  5538.57   605.75  5541.07   605.75 " style="stroke-width: 1.42 ;&st7; " /><path d=" M 5541.07,  605.75  C 5543.58   605.75  5545.61   603.72  5545.61   601.22 " style="stroke-width: 1.42 ;&st7; " /><path d=" M 5545.61,  414.25  C 5545.61   411.75  5543.58   409.72  5541.07   409.72 " style="stroke-width: 1.42 ;&st7; " /><path d=" M 5541.07,  409.72  C 5538.57   409.72  5536.54   411.75  5536.54   414.25 " style="stroke-width: 1.42 ;&st7; " /><path d=" M 5536.54,  414.25  C 5536.54   416.75  5538.57   418.78  5541.07   418.78 " style="stroke-width: 1.42 ;&st7; " /><path d=" M 5541.07,  418.78  C 5543.58   418.78  5545.61   416.75  5545.61   414.25 " style="stroke-width: 1.42 ;&st7; " /><path d=" M 5545.61,  557.59  C 5545.61   555.09  5543.58   553.06  5541.07   553.06 " style="stroke-width: 1.42 ;&st7; " /><path d=" M 5541.07,  553.06  C 5538.57   553.06  5536.54   555.09  5536.54   557.59 " style="stroke-width: 1.42 ;&st7; " /><path d=" M 5536.54,  557.59  C 5536.54   560.10  5538.57   562.12  5541.07   562.12 " style="stroke-width: 1.42 ;&st7; " /><path d=" M 5541.07,  562.12  C 5543.58   562.12  5545.61   560.10  5545.61   557.59 " style="stroke-width: 1.42 ;&st7; " /><path d=" M 5545.61,  566.66  C 5545.61   564.15  5543.58   562.12  5541.07   562.12 " style="stroke-width: 1.42 ;&st7; " /><path d=" M 5541.07,  562.12  C 5538.57   562.12  5536.54   564.15  5536.54   566.66 " style="stroke-width: 1.42 ;&st7; " /><path d=" M 5536.54,  566.66  C 5536.54   569.16  5538.57   571.19  5541.07   571.19 " style="stroke-width: 1.42 ;&st7; " /><path d=" M 5541.07,  571.19  C 5543.58   571.19  5545.61   569.16  5545.61   566.66 " style="stroke-width: 1.42 ;&st7; " /><text style="&st18;" transform="matrix(&st16;  5527.02  612.25 )">14</text><text style="&st18;" transform="matrix(&st16;  5538.74  612.25 )">B</text><text style="&st18;" transform="matrix(&st16;  5547.05  612.25 )">(*4)</text><text style="&st18;" transform="matrix(&st16;  5538.74  559.56 )">A</text><text style="&st18;" transform="matrix(&st16;  5547.05  559.56 )">(*3)</text><text style="&st18;" transform="matrix(&st16;  5527.02  568.63 )">19</text><text style="&st18;" transform="matrix(&st16;  5538.74  568.63 )">A</text><text style="&st18;" transform="matrix(&st16;  5547.05  568.63 )">(*4)</text><text style="&st18;" transform="matrix(&st17;  5599.7  670.94 )">(RHD *6)</text><text style="&st18;" transform="matrix(&st17;  5588.37  660.98 )">BR</text><text style="&st18;" transform="matrix(&st16;  5522.3  492.42 )">67</text><text style="&st18;" transform="matrix(&st16;  5522.3  483.92 )">67</text><text style="&st18;" transform="matrix(&st16;  5550.99  483.92 )">(LHD)</text><text style="&st18;" transform="matrix(&st16;  5550.99  492.42 )">(RHD)</text><text style="&st18;" transform="matrix(&st17;  5513.27  599.21 )">A37(A),C44(B)</text><text style="&st18;" transform="matrix(&st17;  5537.38  537.75 )">BR</text><text style="&st18;" transform="matrix(&st17;  5537.38  457.01 )">BR</text><text style="&st18;" transform="matrix(&st16;  5530.97  603.19 )">1</text><text style="&st18;" transform="matrix(&st16;  5538.74  603.19 )">B</text><text style="&st18;" transform="matrix(&st16;  5538.74  416.22 )">A</text><text style="&st18;" transform="matrix(&st16;  5526.24  416.22 )">20</text><text style="&st18;" transform="matrix(&st17;  5548.71  662.36 )">(*5)</text><text style="&st18;" transform="matrix(&st17;  5537.38  660.98 )">BR</text><text style="&st18;" transform="matrix(&st16;  5543.91  406.03 )">ET</text><text ewd:textID="26" style="&st18;" transform="matrix(&st17;  5520.1  599.21 )">Junction <tspan dy="6" x="0">Connector</tspan></text><text style="&st18;" transform="matrix(&st16;  5527.02  559.56 )">10</text><text style="&st18;" transform="matrix(&st16;  5547.05  603.19 )">(*3)</text></svg>