﻿<?xml version="1.0" encoding="utf-8"?>
<!DOCTYPE svg PUBLIC "-//W3C//DTD SVG 1.0//EN" "http://www.w3.org/TR/2001/REC-SVG-20010904/DTD/svg10.dtd"[
	<!ENTITY ns_flows "http://ns.adobe.com/Flows/1.0/">
	<!ENTITY ns_svg "http://www.w3.org/2000/svg">
	<!ENTITY ns_xlink "http://www.w3.org/1999/xlink">
	<!ENTITY st0 "font-size:7px;font-family:'MS-PGothic';adobe-font-script:japanese;">
	<!ENTITY st1 "font-size:6px;font-family:'ArialMT';">
	<!-- White fill  -->
	<!ENTITY st2 "fill:#FFFFFF;stroke:#000000; stroke-width:1.41;stroke-linecap:round;stroke-linejoin:round;">
	<!-- Yellow fill  -->
	<!ENTITY st3 "fill:#FFFFCC;stroke:#FFFFCC; stroke-width:0.1;stroke-linecap:round;stroke-linejoin:round;">
	<!-- Gray fill  -->
	<!ENTITY st4 "fill:#CCCCCC;stroke:#CCCCCC; stroke-width:0.1;stroke-linecap:round;stroke-linejoin:round;">
	<!-- Light-blue fill -->
	<!ENTITY st5 "fill:#CCECF4;stroke:#000000; stroke-width:1.133;stroke-linecap:round;stroke-linejoin:round;">
	<!ENTITY st6 "fill:none;stroke-linecap:butt; stroke-linejoin:round;">
	<!ENTITY st7 "fill:none;stroke:#000000;stroke-linecap:round;stroke-linejoin:round;">
	<!ENTITY st8 "enable-background:new    ;">
	<!-- Black fill -->
	<!ENTITY st9 "fill:#000000;stroke:#000000; stroke-linecap:round;stroke-linejoin:round;">
	<!-- SRS note   -->
	<!ENTITY st10 "font-size:9px;font-family:'ArialMT';">
	<!ENTITY st11 "font-size:9px;font-family:'Svg Symbol';">
	<!ENTITY st12 "font-size:6px;font-family:'Svg Symbol';">
	<!ENTITY st13 "fill:none;stroke:#ff0000;stroke-linecap:round;stroke-linejoin:round;">
	<!-- Yellow fill  -->
	<!ENTITY st14 "fill:#FFFF00;stroke:#FFFF00; stroke-width:0.1;stroke-linecap:round;stroke-linejoin:round;">
	<!ENTITY st15 "font-size:6px;font-family:'MS-PGothic';adobe-font-script:japanese;">
	<!ENTITY st16 "1.00 0.00 0.00 1.00">
	<!ENTITY st17 "0.00 -1.00 1.00 0.00">
	<!ENTITY st18 "font-size:6px;font-family:'Arial';">
	<!ENTITY st19 "font-size:9px;font-family:'Arial';">
	<!ENTITY st20 "font-size:6px;font-family:'MS-PGothic','MS PGothic';adobe-font-script:japanese;">
	<!ENTITY st21 "font-size:7px;font-family:'MS-PGothic','MS PGothic';adobe-font-script:japanese;">
	<!ATTLIST svg
		xmlns:ewd CDATA #FIXED "http://shcl.co.jp/ewd"
		xmlns:a CDATA #FIXED "http://ns.adobe.com/AdobeSVGViewerExtensions/3.0/"
		ewd:ver CDATA #IMPLIED
	>
	<!ATTLIST a
		ewd:lineID CDATA #IMPLIED
		ewd:groupID CDATA #IMPLIED
		ewd:figtype CDATA #IMPLIED
		ewd:code CDATA #IMPLIED
		ewd:figID CDATA #IMPLIED
		ewd:pinNo CDATA #IMPLIED
		ewd:comment CDATA #IMPLIED >
	<!ATTLIST g
		ewd:lineID CDATA #IMPLIED
		ewd:groupID CDATA #IMPLIED
		ewd:figtype CDATA #IMPLIED
		ewd:code CDATA #IMPLIED
		ewd:figID CDATA #IMPLIED
		ewd:pinNo CDATA #IMPLIED
		ewd:comment CDATA #IMPLIED >
	<!ATTLIST text
		ewd:textID CDATA #IMPLIED >
	<!ATTLIST title
		ewd:textID CDATA #IMPLIED >
]>
<!-- Generator: Shintec Hozumi YS   -->
<svg onload="call_execInitLoadProc_svg('system')" style="overflow:visible;  enable-background:new 0 0 4660.594 710.000" viewBox="0 0 4660.594 710.000" height="710.000" width="4660.594" xml:space="preserve" ewd:ver="L2.1.2.8" xmlns="&ns_svg;" xmlns:a="http://ns.adobe.com/AdobeSVGViewerExtensions/3.0/" xmlns:ewd="http://shcl.co.jp/ewd" xmlns:xlink="&ns_xlink;">
<path d=" M 3756.37,  537.20  L 3841.36,  537.20  L 3841.36,  511.70  L 3764.87,  511.70 " style="stroke:#000000;stroke-width: 0.85 ;&st7;stroke-dasharray:3, 1.5;" /><path d=" M 3849.86,   69.77  L 3849.86,   78.27 " style="stroke-width: 0.85 ;&st7; " /><path d=" M 3851.98,   95.27  L 3847.73,   95.27 " style="stroke-width: 1.42 ;&st7; " /><path d=" M 3851.98,  103.77  L 3847.73,  103.77 " style="stroke-width: 1.42 ;&st7; " /><path d=" M 3747.87,   78.27  L 3756.37,   78.27 " style="stroke-width: 1.42 ;&st7; " /><path d=" M 3518.41,   95.27  L 3509.91,   95.27 " style="stroke-width: 1.42 ;&st7; " /><path d=" M 3752.85,  554.19  L 3747.87,  559.16 " style="stroke-width: 1.42 ;&st7; " /><path d=" M 3759.90,  571.19  L 3764.87,  566.22 " style="stroke-width: 1.42 ;&st7; " /><path d=" M 3747.87,  566.22  L 3752.85,  571.19 " style="stroke-width: 1.42 ;&st7; " /><path d=" M 3764.87,  559.16  L 3759.90,  554.19 " style="stroke-width: 1.42 ;&st7; " /><path d=" M 3752.85,  503.20  L 3747.87,  508.17 " style="stroke-width: 1.42 ;&st7; " /><path d=" M 3759.90,  520.20  L 3764.87,  515.23 " style="stroke-width: 1.42 ;&st7; " /><path d=" M 3747.87,  515.23  L 3752.85,  520.20 " style="stroke-width: 1.42 ;&st7; " /><path d=" M 3764.87,  508.17  L 3759.90,  503.20 " style="stroke-width: 1.42 ;&st7; " /><path d=" M 3518.41,  350.23  L 3509.91,  350.23 " style="stroke-width: 1.42 ;&st7; " /><path d=" M 3987.96,  163.26  L 3983.71,  163.26 " style="stroke-width: 1.42 ;&st7; " /><path d=" M 3936.97,  163.26  L 3932.72,  163.26 " style="stroke-width: 1.42 ;&st7; " /><path d=" M 3936.97,  171.76  L 3932.72,  171.76 " style="stroke-width: 1.42 ;&st7; " /><path d=" M 3936.97,  103.77  L 3932.72,  103.77 " style="stroke-width: 1.42 ;&st7; " /><path d=" M 3936.97,   95.27  L 3932.72,   95.27 " style="stroke-width: 1.42 ;&st7; " /><path d=" M 3934.84,   69.77  L 3934.84,   95.27 " style="stroke-width: 0.85 ;&st7; " /><path d=" M 3987.96,  171.76  L 3983.71,  171.76 " style="stroke-width: 1.42 ;&st7; " /><path d=" M 3713.88,  404.05  L 3722.40,  404.05 " style="stroke-width: 0.85 ;&st7;stroke-dasharray:3, 1.5;" /><path d=" M 3509.91,  154.76  L 3509.91,  205.75 " style="stroke-width: 0.85 ;&st7; " /><path d=" M 3508.72,  170.75  L 3508.45,  171.22  L 3508.35,  171.76  L 3508.45,  172.29  L 3508.72,  172.76  L 3509.13,  173.11  L 3509.64,  173.29  L 3510.18,  173.29  L 3510.69,  173.11  L 3511.10,  172.76  L 3511.38,  172.29  L 3511.47,  171.76  L 3511.38,  171.22  L 3511.10,  170.75  L 3510.69,  170.41  L 3510.18,  170.22  L 3509.64,  170.22  L 3509.13,  170.41  L 3508.72,  170.75  L 3509.11,  171.47  L 3509.11,  172.05  L 3509.49,  172.49  L 3510.06,  172.59  L 3510.56,  172.30  L 3510.76,  171.76  L 3510.56,  171.21  L 3510.06,  170.92  L 3509.49,  171.02  L 3509.91,  171.76 " style="stroke-width: 0.85 ;&st7; " /><path d=" M 3514.16,  100.94  L 3509.91,   96.69  L 3505.66,  100.94 " style="stroke-width: 1.42 ;&st7; " /><path d=" M 3514.16,  104.33  L 3509.91,  100.09  L 3505.66,  104.33 " style="stroke-width: 1.42 ;&st7; " /><path d=" M 3671.39,  404.05  L 3692.66,  404.05 " style="stroke-width: 0.85 ;&st7;stroke-dasharray:3, 1.5;" /><path d=" M 3671.39,  394.99  L 3692.66,  394.99 " style="stroke-width: 0.85 ;&st7;stroke-dasharray:3, 1.5;" /><path d=" M 3671.36,  413.12  L 3688.41,  413.12 " style="stroke-width: 0.85 ;&st7;stroke-dasharray:3, 1.5;" /><path d=" M 3671.36,  422.18  L 3688.41,  422.18 " style="stroke-width: 0.85 ;&st7;stroke-dasharray:3, 1.5;" /><path d=" M 3706.80,  180.26  L 3754.95,  180.26 " style="stroke-width: 0.85 ;&st7; " /><path d=" M 3696.88,  137.76  L 3696.88,  205.75 " style="stroke-width: 0.85 ;&st7; " /><path d=" M 3679.88,  188.75  L 3764.87,  188.75 " style="stroke-width: 0.85 ;&st7; " /><path d=" M 3739.37,  307.73  L 3739.37,  290.74 " style="stroke-width: 0.85 ;&st7; " /><path d=" M 3696.88,  290.74  L 3696.88,  307.73  L 3747.87,  307.73  L 3747.87,  290.74  L 3696.88,  290.74 " style="stroke-width: 1.42 ;&st7; " /><path d=" M 3705.38,  290.74  L 3705.38,  307.73 " style="stroke-width: 0.85 ;&st7; " /><path d=" M 3740.79,  197.25  L 3754.95,  197.25 " style="stroke-width: 0.85 ;&st7; " /><path d=" M 3713.88,  137.76  L 3713.88,  205.75 " style="stroke-width: 0.85 ;&st7; " /><path d=" M 3730.88,  137.76  L 3730.88,  205.75 " style="stroke-width: 0.85 ;&st7; " /><path d=" M 3752.12,   69.21  L 3756.37,   73.46  L 3760.62,   69.21 " style="stroke-width: 1.42 ;&st7; " /><path d=" M 3760.62,   72.61  L 3756.37,   76.86  L 3752.12,   72.61 " style="stroke-width: 1.42 ;&st7; " /><path d=" M 3679.88,  171.76  L 3764.87,  171.76 " style="stroke-width: 0.85 ;&st7; " /><path d=" M 3849.86,   78.27  L 3849.86,   95.27 " style="stroke-width: 0.85 ;&st7; " /><path d=" M 3849.86,   90.37  L 3847.02,   87.54  L 3847.02,   91.79  L 3849.86,   94.62  L 3852.69,   91.79  L 3852.69,   87.54  L 3849.86,   90.37 " style="stroke-width: 0.28 ;&st9;" /><path d=" M 3837.11,   35.78  L 3837.11,   78.27  L 3862.60,   78.27  L 3862.60,   35.78  L 3837.11,   35.78 " style="stroke-width: 1.42 ;&st7; " /><path d=" M 3723.79,  163.26  L 3754.95,  163.26 " style="stroke-width: 0.85 ;&st7; " /><path d=" M 3679.88,  154.76  L 3764.87,  154.76 " style="stroke-width: 0.85 ;&st7; " /><path d=" M 3679.88,  137.76  L 3679.88,  205.75  L 3764.87,  205.75  L 3764.87,  137.76  L 3679.88,  137.76 " style="stroke-width: 1.42 ;&st7; " /><path d=" M 3747.87,  137.76  L 3747.87,  205.75 " style="stroke-width: 0.85 ;&st7; " /><path d=" M 3951.84,  316.23  L 3951.84,  333.23 " style="stroke-width: 0.85 ;&st7; " /><path d=" M 3917.84,  299.24  L 3917.84,  316.23  L 3968.84,  316.23  L 3968.84,  290.74  L 3917.84,  290.74  L 3917.84,  299.24 " style="stroke-width: 1.42 ;&st7; " /><path d=" M 3943.34,  316.23  L 3943.34,  333.23 " style="stroke-width: 0.85 ;&st7; " /><path d=" M 3934.84,  316.23  L 3934.84,  333.23 " style="stroke-width: 0.85 ;&st7; " /><path d=" M 3926.34,  367.22  L 3926.34,  392.72  L 3977.33,  392.72  L 3977.33,  367.22  L 3926.34,  367.22 " style="stroke-width: 1.42 ;&st7; " /><path d=" M 3934.84,  350.23  L 3934.84,  367.22 " style="stroke-width: 0.85 ;&st7; " /><path d=" M 3968.84,  392.72  L 3968.84,  426.71 " style="stroke-width: 0.85 ;&st7; " /><path d=" M 3968.84,  350.23  L 3968.84,  367.22 " style="stroke-width: 0.85 ;&st7; " /><path d=" M 3509.91,  299.24  L 3509.91,  282.24 " style="stroke-width: 0.85 ;&st7; " /><path d=" M 3922.09,   35.78  L 3922.09,   78.27  L 3947.59,   78.27  L 3947.59,   35.78  L 3922.09,   35.78 " style="stroke-width: 1.42 ;&st7; " /><path d=" M 3985.83,   95.27  L 3985.83,   86.77  L 4019.83,   86.77  L 4019.83,   95.27 " style="stroke-width: 0.85 ;&st7; " /><path d=" M 3977.33,   78.27  L 3977.33,   95.27  L 4028.33,   95.27  L 4028.33,   78.27  L 3977.33,   78.27 " style="stroke-width: 1.42 ;&st7; " /><path d=" M 3934.84,  176.65  L 3937.67,  179.48  L 3937.67,  175.24  L 3934.84,  172.40  L 3932.01,  175.24  L 3932.01,  179.48  L 3934.84,  176.65 " style="stroke-width: 0.28 ;&st9;" /><path d=" M 3985.83,  176.65  L 3988.67,  179.48  L 3988.67,  175.24  L 3985.83,  172.40  L 3983.00,  175.24  L 3983.00,  179.48  L 3985.83,  176.65 " style="stroke-width: 0.28 ;&st9;" /><path d=" M 3934.84,  171.76  L 3934.84,  188.75  L 3985.83,  188.75  L 3985.83,  171.76 " style="stroke-width: 0.85 ;&st7; " /><path d=" M 4087.82,  273.74  L 3985.83,  273.74 " style="stroke-width: 0.85 ;&st7; " /><path d=" M 4053.82,  256.74  L 3985.83,  256.74 " style="stroke-width: 0.85 ;&st7; " /><path d=" M 3917.84,  248.24  L 3985.83,  248.24  L 3985.83,  282.24  L 3917.84,  282.24  L 3917.84,  248.24 " style="stroke-width: 1.42 ;&st7; " /><path d=" M 3934.84,   90.37  L 3932.01,   87.54  L 3932.01,   91.79  L 3934.84,   94.62  L 3937.67,   91.79  L 3937.67,   87.54  L 3934.84,   90.37 " style="stroke-width: 0.28 ;&st9;" /><path d=" M 3994.33,  469.21  L 3994.33,  486.20  L 4011.33,  486.20  L 4011.33,  469.21  L 3994.33,  469.21 " style="stroke-width: 1.42 ;&st7; " /><path d=" M 3994.33,  588.19  L 4011.33,  588.19 " style="stroke-width: 1.13 ;&st7;stroke-dasharray:3, 1.5;" /><path d=" M 3994.33,  579.69  L 4011.33,  579.69 " style="stroke-width: 1.13 ;&st7;stroke-dasharray:3, 1.5;" /><path d=" M 3994.33,  571.19  L 3994.33,  596.69  L 4011.33,  596.69  L 4011.33,  571.19  L 3994.33,  571.19 " style="stroke-width: 1.42 ;&st7; " /><path d=" M 3998.58,  704.33  L 4007.08,  704.33 " style="stroke-width: 0.85 ;&st7; " /><path d=" M 3994.33,  701.50  L 4011.33,  701.50 " style="stroke-width: 0.85 ;&st7; " /><path d=" M 4019.83,  333.23  L 3917.84,  333.23  L 3917.84,  350.23  L 4104.81,  350.23  L 4104.81,  333.23  L 4011.33,  333.23 " style="stroke-width: 1.42 ;&st7; " /><path d=" M 3900.85,  214.25  L 3900.85,  426.71  L 4130.31,  426.71  L 4130.31,  214.25  L 3900.85,  214.25 " style="stroke-width: 1.42 ;&st7; " /><path d=" M 3934.84,  392.72  L 3934.84,  426.71 " style="stroke-width: 0.85 ;&st7; " /><path d=" M 4007.08,  542.86  L 4002.83,  538.61  L 3998.58,  542.86 " style="stroke-width: 1.42 ;&st7; " /><path d=" M 4007.08,  546.26  L 4002.83,  542.01  L 3998.58,  546.26 " style="stroke-width: 1.42 ;&st7; " /><path d=" M 3514.16,  355.89  L 3509.91,  351.64  L 3505.66,  355.89 " style="stroke-width: 1.42 ;&st7; " /><path d=" M 3514.16,  359.29  L 3509.91,  355.04  L 3505.66,  359.29 " style="stroke-width: 1.42 ;&st7; " /><path d=" M 3679.88,  697.25  L 3679.88,  701.50 " style="stroke-width: 0.85 ;&st7; " /><path d=" M 3671.39,  701.50  L 3688.38,  701.50 " style="stroke-width: 0.85 ;&st7; " /><path d=" M 3675.63,  704.33  L 3684.13,  704.33 " style="stroke-width: 0.85 ;&st7; " /><path d=" M 3677.05,  707.17  L 3682.72,  707.17 " style="stroke-width: 0.85 ;&st7; " /><path d=" M 3678.47,  710.00  L 3681.30,  710.00 " style="stroke-width: 0.85 ;&st7; " /><path d=" M 3764.87,  579.69  L 3764.87,  613.68  L 3832.86,  613.68  L 3832.86,  579.69  L 3764.87,  579.69 " style="stroke-width: 1.42 ;&st7; " /><path d=" M 3756.37,  520.20  L 3756.37,  554.19 " style="stroke-width: 0.85 ;&st7;stroke-dasharray:3, 1.5;" /><path d=" M 3755.18,  536.19  L 3754.91,  536.66  L 3754.81,  537.20  L 3754.91,  537.73  L 3755.18,  538.20  L 3755.59,  538.54  L 3756.10,  538.73  L 3756.64,  538.73  L 3757.15,  538.54  L 3757.56,  538.20  L 3757.84,  537.73  L 3757.93,  537.20  L 3757.84,  536.66  L 3757.56,  536.19  L 3757.15,  535.85  L 3756.64,  535.66  L 3756.10,  535.66  L 3755.59,  535.85  L 3755.18,  536.19  L 3755.57,  536.90  L 3755.57,  537.49  L 3755.95,  537.93  L 3756.52,  538.03  L 3757.02,  537.74  L 3757.22,  537.20  L 3757.02,  536.65  L 3756.52,  536.36  L 3755.95,  536.46  L 3756.37,  537.20 " style="stroke-width: 0.85 ;&st7; " /><path d=" M 3790.34,  473.74  L 3798.89,  473.74 " style="stroke-width: 0.85 ;&st7;stroke-dasharray:3, 1.5;" /><path d=" M 3790.34,  482.80  L 3798.89,  482.80 " style="stroke-width: 0.85 ;&st7;stroke-dasharray:3, 1.5;" /><path d=" M 3671.39,  605.18  L 3671.39,  622.18  L 3688.38,  622.18  L 3688.38,  605.18  L 3671.39,  605.18 " style="stroke-width: 1.42 ;&st7; " /><path d=" M 3679.88,  605.18  L 3679.88,  622.18 " style="stroke-width: 0.85 ;&st7; " /><path d=" M 3518.38,  482.80  L 3548.18,  482.80 " style="stroke-width: 0.85 ;&st7;stroke-dasharray:3, 1.5;" /><path d=" M 3518.38,  473.74  L 3548.18,  473.74 " style="stroke-width: 0.85 ;&st7;stroke-dasharray:3, 1.5;" /><path d=" M 3713.88,  394.99  L 3722.40,  394.99 " style="stroke-width: 0.85 ;&st7;stroke-dasharray:3, 1.5;" /><path d=" M 3713.85,  413.12  L 3722.40,  413.12 " style="stroke-width: 0.85 ;&st7;stroke-dasharray:3, 1.5;" /><path d=" M 3713.85,  422.18  L 3722.40,  422.18 " style="stroke-width: 0.85 ;&st7;stroke-dasharray:3, 1.5;" /><path d=" M 3973.37,  431.25  C 3973.37   428.74  3971.34   426.71  3968.84   426.71 " style="stroke-width: 1.42 ;&st7; " /><path d=" M 3968.84,  426.71  C 3966.33   426.71  3964.30   428.74  3964.30   431.25 " style="stroke-width: 1.42 ;&st7; " /><path d=" M 3964.30,  431.25  C 3964.30   433.75  3966.33   435.78  3968.84   435.78 " style="stroke-width: 1.42 ;&st7; " /><path d=" M 3968.84,  435.78  C 3971.34   435.78  3973.37   433.75  3973.37   431.25 " style="stroke-width: 1.42 ;&st7; " /><path d=" M 3939.38,  431.25  C 3939.38   428.74  3937.35   426.71  3934.84   426.71 " style="stroke-width: 1.42 ;&st7; " /><path d=" M 3934.84,  426.71  C 3932.34   426.71  3930.31   428.74  3930.31   431.25 " style="stroke-width: 1.42 ;&st7; " /><path d=" M 3930.31,  431.25  C 3930.31   433.75  3932.34   435.78  3934.84   435.78 " style="stroke-width: 1.42 ;&st7; " /><path d=" M 3934.84,  435.78  C 3937.35   435.78  3939.38   433.75  3939.38   431.25 " style="stroke-width: 1.42 ;&st7; " /><path d=" M 3667.42,  394.99  C 3667.42   392.48  3665.39   390.45  3662.89   390.45 " style="stroke-width: 1.42 ;&st7; " /><path d=" M 3662.89,  390.45  C 3660.38   390.45  3658.36   392.48  3658.36   394.99 " style="stroke-width: 1.42 ;&st7; " /><path d=" M 3658.36,  394.99  C 3658.36   397.49  3660.38   399.52  3662.89   399.52 " style="stroke-width: 1.42 ;&st7; " /><path d=" M 3662.89,  399.52  C 3665.39   399.52  3667.42   397.49  3667.42   394.99 " style="stroke-width: 1.42 ;&st7; " /><path d=" M 3667.42,  404.05  C 3667.42   401.55  3665.39   399.52  3662.89   399.52 " style="stroke-width: 1.42 ;&st7; " /><path d=" M 3662.89,  399.52  C 3660.38   399.52  3658.36   401.55  3658.36   404.05 " style="stroke-width: 1.42 ;&st7; " /><path d=" M 3658.36,  404.05  C 3658.36   406.55  3660.38   408.58  3662.89   408.58 " style="stroke-width: 1.42 ;&st7; " /><path d=" M 3662.89,  408.58  C 3665.39   408.58  3667.42   406.55  3667.42   404.05 " style="stroke-width: 1.42 ;&st7; " /><path d=" M 3514.45,  404.05  C 3514.45   401.55  3512.42   399.52  3509.91   399.52 " style="stroke-width: 1.42 ;&st7; " /><path d=" M 3509.91,  399.52  C 3507.41   399.52  3505.38   401.55  3505.38   404.05 " style="stroke-width: 1.42 ;&st7; " /><path d=" M 3505.38,  404.05  C 3505.38   406.55  3507.41   408.58  3509.91   408.58 " style="stroke-width: 1.42 ;&st7; " /><path d=" M 3509.91,  408.58  C 3512.42   408.58  3514.45   406.55  3514.45   404.05 " style="stroke-width: 1.42 ;&st7; " /><path d=" M 3514.45,  394.99  C 3514.45   392.48  3512.42   390.45  3509.91   390.45 " style="stroke-width: 1.42 ;&st7; " /><path d=" M 3509.91,  390.45  C 3507.41   390.45  3505.38   392.48  3505.38   394.99 " style="stroke-width: 1.42 ;&st7; " /><path d=" M 3505.38,  394.99  C 3505.38   397.49  3507.41   399.52  3509.91   399.52 " style="stroke-width: 1.42 ;&st7; " /><path d=" M 3509.91,  399.52  C 3512.42   399.52  3514.45   397.49  3514.45   394.99 " style="stroke-width: 1.42 ;&st7; " /><path d=" M 3743.91,  277.14  C 3743.91   274.64  3741.88   272.61  3739.38   272.61 " style="stroke-width: 1.42 ;&st7; " /><path d=" M 3739.38,  272.61  C 3736.87   272.61  3734.84   274.64  3734.84   277.14 " style="stroke-width: 1.42 ;&st7; " /><path d=" M 3734.84,  277.14  C 3734.84   279.64  3736.87   281.67  3739.38   281.67 " style="stroke-width: 1.42 ;&st7; " /><path d=" M 3739.38,  281.67  C 3741.88   281.67  3743.91   279.64  3743.91   277.14 " style="stroke-width: 1.42 ;&st7; " /><path d=" M 3743.91,  321.33  C 3743.91   318.83  3741.88   316.80  3739.38   316.80 " style="stroke-width: 1.42 ;&st7; " /><path d=" M 3739.38,  316.80  C 3736.87   316.80  3734.84   318.83  3734.84   321.33 " style="stroke-width: 1.42 ;&st7; " /><path d=" M 3734.84,  321.33  C 3734.84   323.83  3736.87   325.86  3739.38   325.86 " style="stroke-width: 1.42 ;&st7; " /><path d=" M 3739.38,  325.86  C 3741.88   325.86  3743.91   323.83  3743.91   321.33 " style="stroke-width: 1.42 ;&st7; " /><path d=" M 3723.79,  163.26  C 3723.79   162.48  3723.16   161.84  3722.38   161.84 " style="stroke-width: 0.85 ;&st7; " /><path d=" M 3722.38,  161.84  C 3721.60   161.84  3720.96   162.48  3720.96   163.26 " style="stroke-width: 0.85 ;&st7; " /><path d=" M 3720.96,  163.26  C 3720.96   164.04  3721.60   164.67  3722.38   164.67 " style="stroke-width: 0.85 ;&st7; " /><path d=" M 3722.38,  164.67  C 3723.16   164.67  3723.79   164.04  3723.79   163.26 " style="stroke-width: 0.85 ;&st7; " /><path d=" M 3757.79,  163.26  C 3757.79   162.48  3757.15   161.84  3756.37   161.84 " style="stroke-width: 0.85 ;&st7; " /><path d=" M 3756.37,  161.84  C 3755.59   161.84  3754.96   162.48  3754.96   163.26 " style="stroke-width: 0.85 ;&st7; " /><path d=" M 3754.96,  163.26  C 3754.96   164.04  3755.59   164.67  3756.37   164.67 " style="stroke-width: 0.85 ;&st7; " /><path d=" M 3756.37,  164.67  C 3757.15   164.67  3757.79   164.04  3757.79   163.26 " style="stroke-width: 0.85 ;&st7; " /><path d=" M 3709.91,  422.18  C 3709.91   419.68  3707.88   417.65  3705.38   417.65 " style="stroke-width: 1.42 ;&st7; " /><path d=" M 3705.38,  417.65  C 3702.88   417.65  3700.85   419.68  3700.85   422.18 " style="stroke-width: 1.42 ;&st7; " /><path d=" M 3700.85,  422.18  C 3700.85   424.68  3702.88   426.71  3705.38   426.71 " style="stroke-width: 1.42 ;&st7; " /><path d=" M 3705.38,  426.71  C 3707.88   426.71  3709.91   424.68  3709.91   422.18 " style="stroke-width: 1.42 ;&st7; " /><path d=" M 3849.86,   47.11  C 3847.12    48.72  3846.21    52.25  3847.82    54.99 " style="stroke-width: 1.42 ;&st7; " /><path d=" M 3847.82,   54.99  C 3848.34    55.87  3848.97    56.51  3849.86    57.03 " style="stroke-width: 1.42 ;&st7; " /><path d=" M 3849.86,   66.94  C 3852.59    65.33  3853.51    61.80  3851.89    59.06 " style="stroke-width: 1.42 ;&st7; " /><path d=" M 3851.89,   59.06  C 3851.37    58.18  3850.74    57.55  3849.86    57.03 " style="stroke-width: 1.42 ;&st7; " /><path d=" M 3851.27,   45.69  C 3851.27    44.91  3850.64    44.28  3849.86    44.28 " style="stroke-width: 0.85 ;&st7; " /><path d=" M 3849.86,   44.28  C 3849.07    44.28  3848.44    44.91  3848.44    45.69 " style="stroke-width: 0.85 ;&st7; " /><path d=" M 3848.44,   45.69  C 3848.44    46.48  3849.07    47.11  3849.86    47.11 " style="stroke-width: 0.85 ;&st7; " /><path d=" M 3849.86,   47.11  C 3850.64    47.11  3851.27    46.48  3851.27    45.69 " style="stroke-width: 0.85 ;&st7; " /><path d=" M 3851.27,   68.36  C 3851.27    67.57  3850.64    66.94  3849.86    66.94 " style="stroke-width: 0.85 ;&st7; " /><path d=" M 3849.86,   66.94  C 3849.07    66.94  3848.44    67.57  3848.44    68.36 " style="stroke-width: 0.85 ;&st7; " /><path d=" M 3848.44,   68.36  C 3848.44    69.14  3849.07    69.77  3849.86    69.77 " style="stroke-width: 0.85 ;&st7; " /><path d=" M 3849.86,   69.77  C 3850.64    69.77  3851.27    69.14  3851.27    68.36 " style="stroke-width: 0.85 ;&st7; " /><path d=" M 3847.73,   95.27  C 3845.39    95.27  3843.48    97.17  3843.48    99.52 " style="stroke-width: 1.42 ;&st7; " /><path d=" M 3843.48,   99.52  C 3843.48   101.87  3845.39   103.77  3847.73   103.77 " style="stroke-width: 1.42 ;&st7; " /><path d=" M 3851.98,  103.77  C 3854.33   103.77  3856.23   101.87  3856.23    99.52 " style="stroke-width: 1.42 ;&st7; " /><path d=" M 3856.23,   99.52  C 3856.23    97.17  3854.33    95.27  3851.98    95.27 " style="stroke-width: 1.42 ;&st7; " /><path d=" M 3709.91,  413.12  C 3709.91   410.61  3707.88   408.58  3705.38   408.58 " style="stroke-width: 1.42 ;&st7; " /><path d=" M 3705.38,  408.58  C 3702.88   408.58  3700.85   410.61  3700.85   413.12 " style="stroke-width: 1.42 ;&st7; " /><path d=" M 3700.85,  413.12  C 3700.85   415.62  3702.88   417.65  3705.38   417.65 " style="stroke-width: 1.42 ;&st7; " /><path d=" M 3705.38,  417.65  C 3707.88   417.65  3709.91   415.62  3709.91   413.12 " style="stroke-width: 1.42 ;&st7; " /><path d=" M 3709.91,  404.05  C 3709.91   401.55  3707.88   399.52  3705.38   399.52 " style="stroke-width: 1.42 ;&st7; " /><path d=" M 3705.38,  399.52  C 3702.88   399.52  3700.85   401.55  3700.85   404.05 " style="stroke-width: 1.42 ;&st7; " /><path d=" M 3700.85,  404.05  C 3700.85   406.55  3702.88   408.58  3705.38   408.58 " style="stroke-width: 1.42 ;&st7; " /><path d=" M 3705.38,  408.58  C 3707.88   408.58  3709.91   406.55  3709.91   404.05 " style="stroke-width: 1.42 ;&st7; " /><path d=" M 3709.91,  394.99  C 3709.91   392.48  3707.88   390.45  3705.38   390.45 " style="stroke-width: 1.42 ;&st7; " /><path d=" M 3705.38,  390.45  C 3702.88   390.45  3700.85   392.48  3700.85   394.99 " style="stroke-width: 1.42 ;&st7; " /><path d=" M 3700.85,  394.99  C 3700.85   397.49  3702.88   399.52  3705.38   399.52 " style="stroke-width: 1.42 ;&st7; " /><path d=" M 3705.38,  399.52  C 3707.88   399.52  3709.91   397.49  3709.91   394.99 " style="stroke-width: 1.42 ;&st7; " /><path d=" M 3743.91,  422.18  C 3743.91   419.68  3741.88   417.65  3739.38   417.65 " style="stroke-width: 1.42 ;&st7; " /><path d=" M 3739.38,  417.65  C 3736.87   417.65  3734.84   419.68  3734.84   422.18 " style="stroke-width: 1.42 ;&st7; " /><path d=" M 3734.84,  422.18  C 3734.84   424.68  3736.87   426.71  3739.38   426.71 " style="stroke-width: 1.42 ;&st7; " /><path d=" M 3739.38,  426.71  C 3741.88   426.71  3743.91   424.68  3743.91   422.18 " style="stroke-width: 1.42 ;&st7; " /><path d=" M 3743.91,  413.12  C 3743.91   410.61  3741.88   408.58  3739.38   408.58 " style="stroke-width: 1.42 ;&st7; " /><path d=" M 3739.38,  408.58  C 3736.87   408.58  3734.84   410.61  3734.84   413.12 " style="stroke-width: 1.42 ;&st7; " /><path d=" M 3734.84,  413.12  C 3734.84   415.62  3736.87   417.65  3739.38   417.65 " style="stroke-width: 1.42 ;&st7; " /><path d=" M 3739.38,  417.65  C 3741.88   417.65  3743.91   415.62  3743.91   413.12 " style="stroke-width: 1.42 ;&st7; " /><path d=" M 3743.91,  404.05  C 3743.91   401.55  3741.88   399.52  3739.38   399.52 " style="stroke-width: 1.42 ;&st7; " /><path d=" M 3739.38,  399.52  C 3736.87   399.52  3734.84   401.55  3734.84   404.05 " style="stroke-width: 1.42 ;&st7; " /><path d=" M 3734.84,  404.05  C 3734.84   406.55  3736.87   408.58  3739.38   408.58 " style="stroke-width: 1.42 ;&st7; " /><path d=" M 3739.38,  408.58  C 3741.88   408.58  3743.91   406.55  3743.91   404.05 " style="stroke-width: 1.42 ;&st7; " /><path d=" M 3743.91,  394.99  C 3743.91   392.48  3741.88   390.45  3739.38   390.45 " style="stroke-width: 1.42 ;&st7; " /><path d=" M 3739.38,  390.45  C 3736.87   390.45  3734.84   392.48  3734.84   394.99 " style="stroke-width: 1.42 ;&st7; " /><path d=" M 3734.84,  394.99  C 3734.84   397.49  3736.87   399.52  3739.38   399.52 " style="stroke-width: 1.42 ;&st7; " /><path d=" M 3739.38,  399.52  C 3741.88   399.52  3743.91   397.49  3743.91   394.99 " style="stroke-width: 1.42 ;&st7; " /><path d=" M 3740.79,  197.25  C 3740.79   196.47  3740.16   195.84  3739.38   195.84 " style="stroke-width: 0.85 ;&st7; " /><path d=" M 3739.38,  195.84  C 3738.59   195.84  3737.96   196.47  3737.96   197.25 " style="stroke-width: 0.85 ;&st7; " /><path d=" M 3737.96,  197.25  C 3737.96   198.03  3738.59   198.67  3739.38   198.67 " style="stroke-width: 0.85 ;&st7; " /><path d=" M 3739.38,  198.67  C 3740.16   198.67  3740.79   198.03  3740.79   197.25 " style="stroke-width: 0.85 ;&st7; " /><path d=" M 3757.79,  197.25  C 3757.79   196.47  3757.15   195.84  3756.37   195.84 " style="stroke-width: 0.85 ;&st7; " /><path d=" M 3756.37,  195.84  C 3755.59   195.84  3754.96   196.47  3754.96   197.25 " style="stroke-width: 0.85 ;&st7; " /><path d=" M 3754.96,  197.25  C 3754.96   198.03  3755.59   198.67  3756.37   198.67 " style="stroke-width: 0.85 ;&st7; " /><path d=" M 3756.37,  198.67  C 3757.15   198.67  3757.79   198.03  3757.79   197.25 " style="stroke-width: 0.85 ;&st7; " /><path d=" M 3743.91,  286.20  C 3743.91   283.70  3741.88   281.67  3739.38   281.67 " style="stroke-width: 1.42 ;&st7; " /><path d=" M 3739.38,  281.67  C 3736.87   281.67  3734.84   283.70  3734.84   286.20 " style="stroke-width: 1.42 ;&st7; " /><path d=" M 3734.84,  286.20  C 3734.84   288.71  3736.87   290.74  3739.38   290.74 " style="stroke-width: 1.42 ;&st7; " /><path d=" M 3739.38,  290.74  C 3741.88   290.74  3743.91   288.71  3743.91   286.20 " style="stroke-width: 1.42 ;&st7; " /><path d=" M 3709.91,  286.20  C 3709.91   283.70  3707.88   281.67  3705.38   281.67 " style="stroke-width: 1.42 ;&st7; " /><path d=" M 3705.38,  281.67  C 3702.88   281.67  3700.85   283.70  3700.85   286.20 " style="stroke-width: 1.42 ;&st7; " /><path d=" M 3700.85,  286.20  C 3700.85   288.71  3702.88   290.74  3705.38   290.74 " style="stroke-width: 1.42 ;&st7; " /><path d=" M 3705.38,  290.74  C 3707.88   290.74  3709.91   288.71  3709.91   286.20 " style="stroke-width: 1.42 ;&st7; " /><path d=" M 3743.91,  312.27  C 3743.91   309.76  3741.88   307.73  3739.38   307.73 " style="stroke-width: 1.42 ;&st7; " /><path d=" M 3739.38,  307.73  C 3736.87   307.73  3734.84   309.76  3734.84   312.27 " style="stroke-width: 1.42 ;&st7; " /><path d=" M 3734.84,  312.27  C 3734.84   314.77  3736.87   316.80  3739.38   316.80 " style="stroke-width: 1.42 ;&st7; " /><path d=" M 3739.38,  316.80  C 3741.88   316.80  3743.91   314.77  3743.91   312.27 " style="stroke-width: 1.42 ;&st7; " /><path d=" M 3709.91,  312.27  C 3709.91   309.76  3707.88   307.73  3705.38   307.73 " style="stroke-width: 1.42 ;&st7; " /><path d=" M 3705.38,  307.73  C 3702.88   307.73  3700.85   309.76  3700.85   312.27 " style="stroke-width: 1.42 ;&st7; " /><path d=" M 3700.85,  312.27  C 3700.85   314.77  3702.88   316.80  3705.38   316.80 " style="stroke-width: 1.42 ;&st7; " /><path d=" M 3705.38,  316.80  C 3707.88   316.80  3709.91   314.77  3709.91   312.27 " style="stroke-width: 1.42 ;&st7; " /><path d=" M 3757.79,  180.26  C 3757.79   179.47  3757.15   178.84  3756.37   178.84 " style="stroke-width: 0.85 ;&st7; " /><path d=" M 3756.37,  178.84  C 3755.59   178.84  3754.96   179.47  3754.96   180.26 " style="stroke-width: 0.85 ;&st7; " /><path d=" M 3754.96,  180.26  C 3754.96   181.04  3755.59   181.67  3756.37   181.67 " style="stroke-width: 0.85 ;&st7; " /><path d=" M 3756.37,  181.67  C 3757.15   181.67  3757.79   181.04  3757.79   180.26 " style="stroke-width: 0.85 ;&st7; " /><path d=" M 3706.80,  180.26  C 3706.80   179.47  3706.16   178.84  3705.38   178.84 " style="stroke-width: 0.85 ;&st7; " /><path d=" M 3705.38,  178.84  C 3704.60   178.84  3703.96   179.47  3703.96   180.26 " style="stroke-width: 0.85 ;&st7; " /><path d=" M 3703.96,  180.26  C 3703.96   181.04  3704.60   181.67  3705.38   181.67 " style="stroke-width: 0.85 ;&st7; " /><path d=" M 3705.38,  181.67  C 3706.16   181.67  3706.80   181.04  3706.80   180.26 " style="stroke-width: 0.85 ;&st7; " /><path d=" M 3514.45,  150.23  C 3514.45   147.72  3512.42   145.69  3509.91   145.69 " style="stroke-width: 1.42 ;&st7; " /><path d=" M 3509.91,  145.69  C 3507.41   145.69  3505.38   147.72  3505.38   150.23 " style="stroke-width: 1.42 ;&st7; " /><path d=" M 3505.38,  150.23  C 3505.38   152.73  3507.41   154.76  3509.91   154.76 " style="stroke-width: 1.42 ;&st7; " /><path d=" M 3509.91,  154.76  C 3512.42   154.76  3514.45   152.73  3514.45   150.23 " style="stroke-width: 1.42 ;&st7; " /><path d=" M 3514.45,  141.16  C 3514.45   138.66  3512.42   136.63  3509.91   136.63 " style="stroke-width: 1.42 ;&st7; " /><path d=" M 3509.91,  136.63  C 3507.41   136.63  3505.38   138.66  3505.38   141.16 " style="stroke-width: 1.42 ;&st7; " /><path d=" M 3505.38,  141.16  C 3505.38   143.66  3507.41   145.69  3509.91   145.69 " style="stroke-width: 1.42 ;&st7; " /><path d=" M 3509.91,  145.69  C 3512.42   145.69  3514.45   143.66  3514.45   141.16 " style="stroke-width: 1.42 ;&st7; " /><path d=" M 3514.45,  482.80  C 3514.45   480.30  3512.42   478.27  3509.91   478.27 " style="stroke-width: 1.42 ;&st7; " /><path d=" M 3509.91,  478.27  C 3507.41   478.27  3505.38   480.30  3505.38   482.80 " style="stroke-width: 1.42 ;&st7; " /><path d=" M 3505.38,  482.80  C 3505.38   485.31  3507.41   487.34  3509.91   487.34 " style="stroke-width: 1.42 ;&st7; " /><path d=" M 3509.91,  487.34  C 3512.42   487.34  3514.45   485.31  3514.45   482.80 " style="stroke-width: 1.42 ;&st7; " /><path d=" M 3514.45,  473.74  C 3514.45   471.24  3512.42   469.21  3509.91   469.21 " style="stroke-width: 1.42 ;&st7; " /><path d=" M 3509.91,  469.21  C 3507.41   469.21  3505.38   471.24  3505.38   473.74 " style="stroke-width: 1.42 ;&st7; " /><path d=" M 3505.38,  473.74  C 3505.38   476.24  3507.41   478.27  3509.91   478.27 " style="stroke-width: 1.42 ;&st7; " /><path d=" M 3509.91,  478.27  C 3512.42   478.27  3514.45   476.24  3514.45   473.74 " style="stroke-width: 1.42 ;&st7; " /><path d=" M 3573.94,  473.74  C 3573.94   471.24  3571.91   469.21  3569.40   469.21 " style="stroke-width: 1.42 ;&st7; " /><path d=" M 3569.40,  469.21  C 3566.90   469.21  3564.87   471.24  3564.87   473.74 " style="stroke-width: 1.42 ;&st7; " /><path d=" M 3564.87,  473.74  C 3564.87   476.24  3566.90   478.27  3569.40   478.27 " style="stroke-width: 1.42 ;&st7; " /><path d=" M 3569.40,  478.27  C 3571.91   478.27  3573.94   476.24  3573.94   473.74 " style="stroke-width: 1.42 ;&st7; " /><path d=" M 3573.94,  482.80  C 3573.94   480.30  3571.91   478.27  3569.40   478.27 " style="stroke-width: 1.42 ;&st7; " /><path d=" M 3569.40,  478.27  C 3566.90   478.27  3564.87   480.30  3564.87   482.80 " style="stroke-width: 1.42 ;&st7; " /><path d=" M 3564.87,  482.80  C 3564.87   485.31  3566.90   487.34  3569.40   487.34 " style="stroke-width: 1.42 ;&st7; " /><path d=" M 3569.40,  487.34  C 3571.91   487.34  3573.94   485.31  3573.94   482.80 " style="stroke-width: 1.42 ;&st7; " /><path d=" M 3998.30,  619.35  C 3998.30   621.85  4000.33   623.88  4002.83   623.88 " style="stroke-width: 1.42 ;&st7; " /><path d=" M 3820.39,  482.80  C 3820.39   480.30  3818.37   478.27  3815.86   478.27 " style="stroke-width: 1.42 ;&st7; " /><path d=" M 3815.86,  478.27  C 3813.36   478.27  3811.33   480.30  3811.33   482.80 " style="stroke-width: 1.42 ;&st7; " /><path d=" M 3811.33,  482.80  C 3811.33   485.31  3813.36   487.34  3815.86   487.34 " style="stroke-width: 1.42 ;&st7; " /><path d=" M 3815.86,  487.34  C 3818.37   487.34  3820.39   485.31  3820.39   482.80 " style="stroke-width: 1.42 ;&st7; " /><path d=" M 3786.40,  482.80  C 3786.40   480.30  3784.37   478.27  3781.87   478.27 " style="stroke-width: 1.42 ;&st7; " /><path d=" M 3781.87,  478.27  C 3779.36   478.27  3777.34   480.30  3777.34   482.80 " style="stroke-width: 1.42 ;&st7; " /><path d=" M 3777.34,  482.80  C 3777.34   485.31  3779.36   487.34  3781.87   487.34 " style="stroke-width: 1.42 ;&st7; " /><path d=" M 3781.87,  487.34  C 3784.37   487.34  3786.40   485.31  3786.40   482.80 " style="stroke-width: 1.42 ;&st7; " /><path d=" M 3820.39,  473.74  C 3820.39   471.24  3818.37   469.21  3815.86   469.21 " style="stroke-width: 1.42 ;&st7; " /><path d=" M 3815.86,  469.21  C 3813.36   469.21  3811.33   471.24  3811.33   473.74 " style="stroke-width: 1.42 ;&st7; " /><path d=" M 3811.33,  473.74  C 3811.33   476.24  3813.36   478.27  3815.86   478.27 " style="stroke-width: 1.42 ;&st7; " /><path d=" M 3815.86,  478.27  C 3818.37   478.27  3820.39   476.24  3820.39   473.74 " style="stroke-width: 1.42 ;&st7; " /><path d=" M 3786.40,  473.74  C 3786.40   471.24  3784.37   469.21  3781.87   469.21 " style="stroke-width: 1.42 ;&st7; " /><path d=" M 3781.87,  469.21  C 3779.36   469.21  3777.34   471.24  3777.34   473.74 " style="stroke-width: 1.42 ;&st7; " /><path d=" M 3777.34,  473.74  C 3777.34   476.24  3779.36   478.27  3781.87   478.27 " style="stroke-width: 1.42 ;&st7; " /><path d=" M 3781.87,  478.27  C 3784.37   478.27  3786.40   476.24  3786.40   473.74 " style="stroke-width: 1.42 ;&st7; " /><path d=" M 3667.42,  413.12  C 3667.42   410.61  3665.39   408.58  3662.89   408.58 " style="stroke-width: 1.42 ;&st7; " /><path d=" M 3662.89,  408.58  C 3660.38   408.58  3658.36   410.61  3658.36   413.12 " style="stroke-width: 1.42 ;&st7; " /><path d=" M 3658.36,  413.12  C 3658.36   415.62  3660.38   417.65  3662.89   417.65 " style="stroke-width: 1.42 ;&st7; " /><path d=" M 3662.89,  417.65  C 3665.39   417.65  3667.42   415.62  3667.42   413.12 " style="stroke-width: 1.42 ;&st7; " /><path d=" M 3514.45,  413.12  C 3514.45   410.61  3512.42   408.58  3509.91   408.58 " style="stroke-width: 1.42 ;&st7; " /><path d=" M 3509.91,  408.58  C 3507.41   408.58  3505.38   410.61  3505.38   413.12 " style="stroke-width: 1.42 ;&st7; " /><path d=" M 3505.38,  413.12  C 3505.38   415.62  3507.41   417.65  3509.91   417.65 " style="stroke-width: 1.42 ;&st7; " /><path d=" M 3509.91,  417.65  C 3512.42   417.65  3514.45   415.62  3514.45   413.12 " style="stroke-width: 1.42 ;&st7; " /><path d=" M 3514.45,  219.35  C 3514.45   216.85  3512.42   214.82  3509.91   214.82 " style="stroke-width: 1.42 ;&st7; " /><path d=" M 3509.91,  214.82  C 3507.41   214.82  3505.38   216.85  3505.38   219.35 " style="stroke-width: 1.42 ;&st7; " /><path d=" M 3505.38,  219.35  C 3505.38   221.85  3507.41   223.88  3509.91   223.88 " style="stroke-width: 1.42 ;&st7; " /><path d=" M 3509.91,  223.88  C 3512.42   223.88  3514.45   221.85  3514.45   219.35 " style="stroke-width: 1.42 ;&st7; " /><path d=" M 3514.45,  210.28  C 3514.45   207.78  3512.42   205.75  3509.91   205.75 " style="stroke-width: 1.42 ;&st7; " /><path d=" M 3509.91,  205.75  C 3507.41   205.75  3505.38   207.78  3505.38   210.28 " style="stroke-width: 1.42 ;&st7; " /><path d=" M 3505.38,  210.28  C 3505.38   212.79  3507.41   214.82  3509.91   214.82 " style="stroke-width: 1.42 ;&st7; " /><path d=" M 3509.91,  214.82  C 3512.42   214.82  3514.45   212.79  3514.45   210.28 " style="stroke-width: 1.42 ;&st7; " /><path d=" M 3998.30,  610.28  C 3998.30   612.79  4000.33   614.82  4002.83   614.82 " style="stroke-width: 1.42 ;&st7; " /><path d=" M 3998.30,  566.66  C 3998.30   569.16  4000.33   571.19  4002.83   571.19 " style="stroke-width: 1.42 ;&st7; " /><path d=" M 3998.30,  431.25  C 3998.30   433.75  4000.33   435.78  4002.83   435.78 " style="stroke-width: 1.42 ;&st7; " /><path d=" M 3998.30,  601.22  C 3998.30   603.72  4000.33   605.75  4002.83   605.75 " style="stroke-width: 1.42 ;&st7; " /><path d=" M 3992.21,  167.51  C 3992.21   165.16  3990.31   163.26  3987.96   163.26 " style="stroke-width: 1.42 ;&st7; " /><path d=" M 3987.96,  171.76  C 3990.31   171.76  3992.21   169.85  3992.21   167.51 " style="stroke-width: 1.42 ;&st7; " /><path d=" M 3979.46,  167.51  C 3979.46   169.85  3981.36   171.76  3983.71   171.76 " style="stroke-width: 1.42 ;&st7; " /><path d=" M 3983.71,  163.26  C 3981.36   163.26  3979.46   165.16  3979.46   167.51 " style="stroke-width: 1.42 ;&st7; " /><path d=" M 3932.72,  163.26  C 3930.37   163.26  3928.47   165.16  3928.47   167.51 " style="stroke-width: 1.42 ;&st7; " /><path d=" M 3928.47,  167.51  C 3928.47   169.85  3930.37   171.76  3932.72   171.76 " style="stroke-width: 1.42 ;&st7; " /><path d=" M 3936.97,  171.76  C 3939.31   171.76  3941.22   169.85  3941.22   167.51 " style="stroke-width: 1.42 ;&st7; " /><path d=" M 3941.22,  167.51  C 3941.22   165.16  3939.31   163.26  3936.97   163.26 " style="stroke-width: 1.42 ;&st7; " /><path d=" M 3941.22,   99.52  C 3941.22    97.17  3939.31    95.27  3936.97    95.27 " style="stroke-width: 1.42 ;&st7; " /><path d=" M 3936.97,  103.77  C 3939.31   103.77  3941.22   101.87  3941.22    99.52 " style="stroke-width: 1.42 ;&st7; " /><path d=" M 3928.47,   99.52  C 3928.47   101.87  3930.37   103.77  3932.72   103.77 " style="stroke-width: 1.42 ;&st7; " /><path d=" M 3932.72,   95.27  C 3930.37    95.27  3928.47    97.17  3928.47    99.52 " style="stroke-width: 1.42 ;&st7; " /><path d=" M 3936.26,   68.36  C 3936.26    67.57  3935.62    66.94  3934.84    66.94 " style="stroke-width: 0.85 ;&st7; " /><path d=" M 3934.84,   66.94  C 3934.06    66.94  3933.43    67.57  3933.43    68.36 " style="stroke-width: 0.85 ;&st7; " /><path d=" M 3933.43,   68.36  C 3933.43    69.14  3934.06    69.77  3934.84    69.77 " style="stroke-width: 0.85 ;&st7; " /><path d=" M 3934.84,   69.77  C 3935.62    69.77  3936.26    69.14  3936.26    68.36 " style="stroke-width: 0.85 ;&st7; " /><path d=" M 3936.26,   45.69  C 3936.26    44.91  3935.62    44.28  3934.84    44.28 " style="stroke-width: 0.85 ;&st7; " /><path d=" M 3934.84,   44.28  C 3934.06    44.28  3933.43    44.91  3933.43    45.69 " style="stroke-width: 0.85 ;&st7; " /><path d=" M 3933.43,   45.69  C 3933.43    46.48  3934.06    47.11  3934.84    47.11 " style="stroke-width: 0.85 ;&st7; " /><path d=" M 3934.84,   47.11  C 3935.62    47.11  3936.26    46.48  3936.26    45.69 " style="stroke-width: 0.85 ;&st7; " /><path d=" M 3934.84,   66.94  C 3937.58    65.33  3938.49    61.80  3936.88    59.06 " style="stroke-width: 1.42 ;&st7; " /><path d=" M 3936.88,   59.06  C 3936.36    58.18  3935.72    57.55  3934.84    57.03 " style="stroke-width: 1.42 ;&st7; " /><path d=" M 3934.84,   47.11  C 3932.10    48.72  3931.19    52.25  3932.81    54.99 " style="stroke-width: 1.42 ;&st7; " /><path d=" M 3932.81,   54.99  C 3933.33    55.87  3933.96    56.51  3934.84    57.03 " style="stroke-width: 1.42 ;&st7; " /><path d=" M 3667.42,  422.18  C 3667.42   419.68  3665.39   417.65  3662.89   417.65 " style="stroke-width: 1.42 ;&st7; " /><path d=" M 3662.89,  417.65  C 3660.38   417.65  3658.36   419.68  3658.36   422.18 " style="stroke-width: 1.42 ;&st7; " /><path d=" M 3658.36,  422.18  C 3658.36   424.68  3660.38   426.71  3662.89   426.71 " style="stroke-width: 1.42 ;&st7; " /><path d=" M 3662.89,  426.71  C 3665.39   426.71  3667.42   424.68  3667.42   422.18 " style="stroke-width: 1.42 ;&st7; " /><path d=" M 3514.45,  422.18  C 3514.45   419.68  3512.42   417.65  3509.91   417.65 " style="stroke-width: 1.42 ;&st7; " /><path d=" M 3509.91,  417.65  C 3507.41   417.65  3505.38   419.68  3505.38   422.18 " style="stroke-width: 1.42 ;&st7; " /><path d=" M 3505.38,  422.18  C 3505.38   424.68  3507.41   426.71  3509.91   426.71 " style="stroke-width: 1.42 ;&st7; " /><path d=" M 3509.91,  426.71  C 3512.42   426.71  3514.45   424.68  3514.45   422.18 " style="stroke-width: 1.42 ;&st7; " /><text style="&st18;" transform="matrix(&st16;  3700.93  148.23 )">RL</text><text style="&st18;" transform="matrix(&st17;  3577.04  553.7 )">(*9,*11)</text><text style="&st18;" transform="matrix(&st17;  3565.71  544.8 )">W</text><text style="&st18;" transform="matrix(&st17;  3517.55  547.63 )">(*9)</text><text style="&st18;" transform="matrix(&st17;  3506.22  549.57 )">G-W</text><text style="&st18;" transform="matrix(&st17;  3531.71  543.78 )">Y</text><text style="&st18;" transform="matrix(&st17;  3543.05  548.83 )">(*11)</text><text style="&st18;" transform="matrix(&st16;  3503.12  576.0 )">2</text><text style="&st18;" transform="matrix(&st16;  3503.1  587.32 )">NE-</text><text style="&st18;" transform="matrix(&st16;  3562.59  587.32 )">NE+</text><text style="&st18;" transform="matrix(&st16;  3563.39  576.0 )">1</text><text style="&st18;" transform="matrix(&st16;  3575.35  484.77 )">(RHD)</text><text style="&st18;" transform="matrix(&st16;  3575.35  475.71 )">(LHD)</text><text style="&st18;" transform="matrix(&st16;  3562.59  465.51 )">NE+</text><text style="&st18;" transform="matrix(&st16;  3552.2  484.77 )">110</text><text style="&st18;" transform="matrix(&st16;  3566.93  484.77 )">C</text><text style="&st18;" transform="matrix(&st16;  3567.07  475.71 )">B</text><text style="&st18;" transform="matrix(&st16;  3552.2  475.71 )">110</text><text style="&st18;" transform="matrix(&st16;  3515.86  143.13 )">(LHD)</text><text style="&st18;" transform="matrix(&st16;  3507.58  143.13 )">A</text><text style="&st18;" transform="matrix(&st16;  3507.58  152.2 )">B</text><text style="&st18;" transform="matrix(&st16;  3515.86  152.2 )">(RHD)</text><text style="&st18;" transform="matrix(&st17;  3506.22  76.35 )">B</text><text style="&st18;" transform="matrix(&st17;  3506.22  123.1 )">B</text><text style="&st18;" transform="matrix(&st16;  3699.37  213.94 )">1</text><text style="&st18;" transform="matrix(&st17;  3659.19  356.69 )">L-R</text><text style="&st18;" transform="matrix(&st16;  3749.58  134.07 )">2</text><text style="&st18;" transform="matrix(&st17;  3752.68  106.52 )">G</text><text style="&st18;" transform="matrix(&st17;  3735.68  256.37 )">G-W</text><text style="&st18;" transform="matrix(&st17;  3701.69  255.34 )">G-B</text><text style="&st18;" transform="matrix(&st17;  3701.69  357.89 )">G-B</text><text style="&st18;" transform="matrix(&st17;  3680.13  318.76 )">C44(B)</text><text ewd:textID="21" style="&st18;" transform="matrix(&st17;  3687.24  318.76 )">Junction <tspan dy="6" x="0">Connector</tspan></text><text style="&st18;" transform="matrix(&st16;  3694.53  314.24 )">5</text><text style="&st18;" transform="matrix(&st16;  3703.05  314.24 )">B</text><text style="&st18;" transform="matrix(&st16;  3725.35  314.24 )">16</text><text style="&st18;" transform="matrix(&st16;  3737.04  314.24 )">B</text><text style="&st18;" transform="matrix(&st16;  3694.53  288.17 )">6</text><text style="&st18;" transform="matrix(&st16;  3703.05  288.17 )">B</text><text style="&st18;" transform="matrix(&st16;  3725.35  288.17 )">18</text><text style="&st18;" transform="matrix(&st16;  3737.04  288.17 )">B</text><text style="&st18;" transform="matrix(&st16;  3715.59  213.94 )">6</text><text style="&st18;" transform="matrix(&st16;  3685.91  199.22 )">N</text><text style="&st18;" transform="matrix(&st16;  3724.57  396.96 )">25</text><text style="&st18;" transform="matrix(&st16;  3737.04  396.96 )">B</text><text style="&st18;" transform="matrix(&st16;  3724.57  406.02 )">25</text><text style="&st18;" transform="matrix(&st16;  3736.9  406.02 )">C</text><text style="&st18;" transform="matrix(&st16;  3724.57  415.09 )">29</text><text style="&st18;" transform="matrix(&st16;  3737.04  415.09 )">B</text><text style="&st18;" transform="matrix(&st16;  3736.9  434.35 )">N</text><text style="&st18;" transform="matrix(&st16;  3724.57  424.15 )">29</text><text style="&st18;" transform="matrix(&st16;  3736.9  424.15 )">C</text><text style="&st18;" transform="matrix(&st16;  3745.32  396.96 )">(LHD *11,*9)</text><text style="&st18;" transform="matrix(&st16;  3745.32  406.02 )">(RHD *11)</text><text style="&st18;" transform="matrix(&st16;  3694.53  396.96 )">2</text><text style="&st18;" transform="matrix(&st16;  3703.05  396.96 )">B</text><text style="&st18;" transform="matrix(&st16;  3694.53  406.02 )">2</text><text style="&st18;" transform="matrix(&st16;  3702.91  406.02 )">C</text><text style="&st18;" transform="matrix(&st16;  3745.32  415.09 )">(LHD *10)</text><text style="&st18;" transform="matrix(&st16;  3745.32  424.15 )">(RHD *10)</text><text style="&st18;" transform="matrix(&st16;  3691.35  415.09 )">31</text><text style="&st18;" transform="matrix(&st16;  3703.05  415.09 )">B</text><text style="&st18;" transform="matrix(&st16;  3737.6  84.49 )">25</text><text style="&st18;" transform="matrix(&st17;  3846.16  144.86 )">G-B</text><text style="&st18;" transform="matrix(&st16;  3843.78  32.08 )">(IG)</text><text style="&st18;" transform="matrix(&st16;  3833.21  101.49 )">23</text><text style="&st18;" transform="matrix(&st16;  3845.55  101.49 )">2B</text><text style="&st18;" transform="matrix(&st16;  3867.16  56.17 )">10A <tspan dy="6" x="0">BK/UP LP</tspan></text><text style="&st18;" transform="matrix(&st16;  3703.05  434.35 )">P</text><text style="&st18;" transform="matrix(&st16;  3691.35  424.15 )">31</text><text style="&st18;" transform="matrix(&st16;  3702.91  424.15 )">C</text><text style="&st18;" transform="matrix(&st17;  3735.68  358.92 )">G-W</text><text style="&st18;" transform="matrix(&st16;  3732.59  213.94 )">9</text><text style="&st18;" transform="matrix(&st16;  3734.92  148.23 )">NL</text><text style="&st18;" transform="matrix(&st16;  3718.07  148.23 )">PL</text><text style="&st18;" transform="matrix(&st16;  3751.57  148.23 )">RB</text><text style="&st18;" transform="matrix(&st16;  3686.05  165.23 )">P</text><text style="&st18;" transform="matrix(&st16;  3737.04  279.11 )">B</text><text style="&st18;" transform="matrix(&st16;  3725.35  279.11 )">17</text><text style="&st18;" transform="matrix(&st16;  3745.32  279.11 )">(*9,*11)</text><text style="&st18;" transform="matrix(&st16;  3737.04  323.3 )">B</text><text style="&st18;" transform="matrix(&st16;  3725.35  323.3 )">17</text><text style="&st18;" transform="matrix(&st16;  3745.32  323.3 )">(*3)</text><text style="&st18;" transform="matrix(&st16;  3745.32  288.17 )">(*3)</text><text style="&st18;" transform="matrix(&st16;  3745.32  314.24 )">(*9,*11)</text><text style="&st18;" transform="matrix(&st16;  3685.91  182.22 )">R</text><text ewd:textID="18" style="&st18;" transform="matrix(&st16;  3931.93  305.45 )">Display</text><text style="&st18;" transform="matrix(&st16;  3507.58  396.96 )">A</text><text style="&st18;" transform="matrix(&st16;  3507.44  406.02 )">D</text><text style="&st18;" transform="matrix(&st17;  3848.99  532.22 )">(*10)</text><text style="&st18;" transform="matrix(&st17;  3837.66  530.24 )">(*1)</text><text style="&st18;" transform="matrix(&st16;  3944.56  381.94 )">CAN</text><text style="&st18;" transform="matrix(&st16;  3920.01  433.22 )">25</text><text style="&st18;" transform="matrix(&st16;  3932.51  433.22 )">A</text><text style="&st18;" transform="matrix(&st16;  3954.0  433.22 )">26</text><text style="&st18;" transform="matrix(&st16;  3966.51  433.22 )">A</text><text style="&st18;" transform="matrix(&st16;  3937.68  423.02 )">CANH</text><text style="&st18;" transform="matrix(&st16;  3971.67  423.02 )">CANL</text><text style="&st18;" transform="matrix(&st16;  3652.06  669.48 )">B</text><text style="&st18;" transform="matrix(&st16;  3652.06  652.48 )">V</text><text style="&st18;" transform="matrix(&st16;  3601.07  652.48 )">V</text><text style="&st18;" transform="matrix(&st16;  3601.07  669.48 )">B</text><text style="&st18;" transform="matrix(&st17;  3931.15  450.29 )">V</text><text style="&st18;" transform="matrix(&st17;  3965.14  450.29 )">B</text><text style="&st18;" transform="matrix(&st16;  3507.44  424.15 )">D</text><text style="&st18;" transform="matrix(&st16;  3500.66  434.35 )">CANL</text><text style="&st18;" transform="matrix(&st17;  3526.02  199.78 )">E69(A),(B)</text><text ewd:textID="21" style="&st18;" transform="matrix(&st17;  3533.13  199.78 )">Junction <tspan dy="6" x="0">Connector</tspan></text><text style="&st18;" transform="matrix(&st16;  3507.58  475.71 )">B</text><text style="&st18;" transform="matrix(&st16;  3507.44  484.77 )">C</text><text style="&st18;" transform="matrix(&st17;  3506.22  322.81 )">B</text><text style="&st18;" transform="matrix(&st17;  3506.22  373.8 )">B</text><text style="&st18;" transform="matrix(&st17;  3526.02  301.76 )">E72</text><text ewd:textID="21" style="&st18;" transform="matrix(&st17;  3533.13  301.76 )">Junction <tspan dy="6" x="0">Connector</tspan></text><text style="&st18;" transform="matrix(&st17;  3506.22  254.82 )">B</text><text style="&st18;" transform="matrix(&st16;  3660.42  424.15 )">C</text><text style="&st18;" transform="matrix(&st16;  3648.08  424.15 )">30</text><text style="&st18;" transform="matrix(&st16;  3660.42  434.35 )">R</text><text style="&st18;" transform="matrix(&st16;  3970.23  275.71 )">IG+</text><text style="&st18;" transform="matrix(&st16;  3973.06  258.71 )">+B</text><text style="&st18;" transform="matrix(&st17;  3982.14  135.99 )">R</text><text style="&st18;" transform="matrix(&st17;  3931.15  139.98 )">R-L</text><text style="&st18;" transform="matrix(&st16;  3975.09  103.46 )">86</text><text style="&st18;" transform="matrix(&st16;  3969.97  169.48 )">14</text><text style="&st18;" transform="matrix(&st16;  3981.38  169.48 )">2D</text><text style="&st18;" transform="matrix(&st16;  3930.53  169.48 )">2B</text><text style="&st18;" transform="matrix(&st16;  3918.97  169.48 )">13</text><text style="&st18;" transform="matrix(&st16;  3925.73  32.08 )">(BAT)</text><text style="&st18;" transform="matrix(&st16;  3928.05  86.47 )">2</text><text style="&st18;" transform="matrix(&st16;  3933.25  101.49 )">1</text><text style="&st18;" transform="matrix(&st16;  3952.15  56.17 )">5A <tspan dy="6" x="0">ECU-B1</tspan></text><text style="&st18;" transform="matrix(&st16;  3992.09  465.52 )">34</text><text style="&st18;" transform="matrix(&st16;  3992.09  494.4 )">74</text><text style="&st18;" transform="matrix(&st17;  3999.14  512.25 )">BR</text><text style="&st18;" transform="matrix(&st16;  3988.78  603.19 )">14</text><text style="&st18;" transform="matrix(&st16;  3988.78  568.63 )">19</text><text style="&st18;" transform="matrix(&st17;  3999.14  559.0 )">BR</text><text style="&st18;" transform="matrix(&st17;  3999.14  452.76 )">BR</text><text ewd:textID="40" style="&st18;" transform="matrix(&st16;  3936.85  261.56 )">Power <tspan dy="6" x="0">Supply </tspan><tspan dy="6" x="0">Circuit</tspan></text><text style="&st18;" transform="matrix(&st16;  3988.78  433.22 )">15</text><text style="&st18;" transform="matrix(&st17;  3890.05  412.24 )">E7(A)</text><text ewd:textID="16" style="&st18;" transform="matrix(&st17;  3897.15  412.24 )">Combination Meter Assembly</text><text style="&st18;" transform="matrix(&st16;  3984.06  526.42 )">67</text><text style="&st18;" transform="matrix(&st16;  3984.06  534.92 )">67</text><text style="&st18;" transform="matrix(&st17;  3999.14  665.23 )">BR</text><text style="&st18;" transform="matrix(&st16;  3988.78  612.25 )">13</text><text style="&st18;" transform="matrix(&st16;  3507.58  212.25 )">A</text><text style="&st18;" transform="matrix(&st16;  3515.86  212.25 )">(LHD)</text><text style="&st18;" transform="matrix(&st16;  3507.58  221.32 )">B</text><text style="&st18;" transform="matrix(&st16;  3515.86  221.32 )">(RHD)</text><text style="&st18;" transform="matrix(&st16;  3519.82  347.95 )">(RHD)</text><text style="&st18;" transform="matrix(&st16;  3519.82  339.45 )">(LHD)</text><text style="&st18;" transform="matrix(&st16;  3507.58  415.09 )">A</text><text style="&st18;" transform="matrix(&st16;  3503.1  465.51 )">NE-</text><text style="&st18;" transform="matrix(&st16;  3660.56  415.09 )">B</text><text style="&st18;" transform="matrix(&st16;  3648.08  415.09 )">30</text><text style="&st18;" transform="matrix(&st16;  3515.89  424.15 )">(RHD *10)</text><text style="&st18;" transform="matrix(&st16;  3515.89  415.09 )">(LHD *10)</text><text style="&st18;" transform="matrix(&st17;  3676.19  648.23 )">BR</text><text style="&st18;" transform="matrix(&st17;  3687.52  651.2 )">(*10)</text><text style="&st18;" transform="matrix(&st16;  3660.36  445.66 )">A38(A),A52(D),C45(B),C46(C)</text><text style="&st18;" transform="matrix(&st16;  3660.36  452.76 )">ECM</text><text style="&st18;" transform="matrix(&st16;  3775.86  576.0 )">1</text><text style="&st18;" transform="matrix(&st17;  3812.17  527.8 )">W</text><text style="&st18;" transform="matrix(&st17;  3778.17  526.78 )">B</text><text style="&st18;" transform="matrix(&st16;  3767.06  475.71 )">78</text><text style="&st18;" transform="matrix(&st16;  3779.54  475.71 )">B</text><text style="&st18;" transform="matrix(&st16;  3801.06  475.71 )">77</text><text style="&st18;" transform="matrix(&st16;  3813.53  475.71 )">B</text><text style="&st18;" transform="matrix(&st16;  3779.4  484.77 )">C</text><text style="&st18;" transform="matrix(&st16;  3767.06  484.77 )">78</text><text style="&st18;" transform="matrix(&st16;  3813.39  484.77 )">C</text><text style="&st18;" transform="matrix(&st16;  3801.06  484.77 )">77</text><text style="&st18;" transform="matrix(&st16;  3775.05  465.51 )">NE+</text><text style="&st18;" transform="matrix(&st16;  3809.05  465.51 )">NE-</text><text ewd:textID="17" style="&st18;" transform="matrix(&st16;  3787.84  628.4 )">Crankshaft Position <tspan dy="6" x="0">Sensor</tspan></text><text style="&st18;" transform="matrix(&st16;  3787.84  621.29 )">C65</text><text style="&st18;" transform="matrix(&st16;  3809.07  576.0 )">2</text><text style="&st18;" transform="matrix(&st16;  3775.05  587.32 )">NE+</text><text style="&st18;" transform="matrix(&st16;  3809.05  587.32 )">NE-</text><text style="&st18;" transform="matrix(&st17;  3676.19  588.74 )">BR</text><text style="&st18;" transform="matrix(&st17;  3727.18  588.74 )">BR</text><text style="&st18;" transform="matrix(&st16;  3774.17  609.99 )">GND</text><text style="&st18;" transform="matrix(&st16;  3775.08  621.88 )">3</text><text style="&st18;" transform="matrix(&st16;  3821.81  475.71 )">(LHD)</text><text style="&st18;" transform="matrix(&st16;  3821.81  484.77 )">(RHD)</text><text style="&st18;" transform="matrix(&st16;  3669.92  601.49 )">16</text><text style="&st18;" transform="matrix(&st16;  3669.92  630.37 )">21</text><text ewd:textID="21" style="&st18;" transform="matrix(&st17;  3703.1  624.71 )">Junction <tspan dy="6" x="-0.01">Connector</tspan></text><text style="&st18;" transform="matrix(&st17;  3695.99  624.71 )">C94</text><text style="&st18;" transform="matrix(&st17;  3687.52  591.71 )">(*10)</text><text style="&st18;" transform="matrix(&st17;  3738.51  591.71 )">(*10)</text><text style="&st18;" transform="matrix(&st17;  3789.5  532.22 )">(*10)</text><text style="&st18;" transform="matrix(&st17;  3823.5  532.22 )">(*10)</text><text style="&st18;" transform="matrix(&st16;  3660.42  406.02 )">C</text><text style="&st18;" transform="matrix(&st16;  3648.08  406.02 )">26</text><text style="&st18;" transform="matrix(&st16;  3660.56  396.96 )">B</text><text style="&st18;" transform="matrix(&st16;  3648.08  396.96 )">26</text><text style="&st18;" transform="matrix(&st16;  3515.89  406.02 )">(RHD *11)</text><text style="&st18;" transform="matrix(&st16;  3515.89  396.96 )">(LHD *11,*9)</text><text style="&st18;" transform="matrix(&st17;  3786.67  256.37 )">G-W</text><text style="&st18;" transform="matrix(&st17;  3798.0  254.42 )">(*2)</text><text style="&st18;" transform="matrix(&st16;  3988.78  621.32 )">18</text><text style="&st18;" transform="matrix(&st17;  3747.01  265.37 )">(*3,*9,*11)</text><text style="&st18;" transform="matrix(&st17;  3747.01  367.36 )">(*3,*9,*11)</text><text style="&st18;" transform="matrix(&st17;  3857.49  145.53 )">(*12)</text><text style="&st18;" transform="matrix(&st17;  3882.99  145.53 )">(*13)</text><text style="&st18;" transform="matrix(&st17;  3871.66  140.52 )">G</text><text ewd:textID="38" style="&st18;" transform="matrix(&st17;  3670.24  208.28 )">Park/Neutral <tspan dy="6" x="-0.01">Position Switch</tspan></text><text style="&st18;" transform="matrix(&st17;  3663.13  208.28 )">C24</text><text style="&st18;" transform="matrix(&st17;  3942.48  141.28 )">(*12)</text><text style="&st18;" transform="matrix(&st17;  3956.64  135.99 )">R</text><text style="&st18;" transform="matrix(&st17;  3967.97  141.28 )">(*13)</text></svg>