﻿<?xml version="1.0" encoding="utf-8"?>
<!DOCTYPE svg PUBLIC "-//W3C//DTD SVG 1.0//EN" "http://www.w3.org/TR/2001/REC-SVG-20010904/DTD/svg10.dtd"[
	<!ENTITY ns_flows "http://ns.adobe.com/Flows/1.0/">
	<!ENTITY ns_svg "http://www.w3.org/2000/svg">
	<!ENTITY ns_xlink "http://www.w3.org/1999/xlink">
	<!ENTITY st0 "font-size:7px;font-family:'MS-PGothic';adobe-font-script:japanese;">
	<!ENTITY st1 "font-size:6px;font-family:'ArialMT';">
	<!-- White fill  -->
	<!ENTITY st2 "fill:#FFFFFF;stroke:#000000; stroke-width:1.41;stroke-linecap:round;stroke-linejoin:round;">
	<!-- Yellow fill  -->
	<!ENTITY st3 "fill:#FFFFCC;stroke:#FFFFCC; stroke-width:0.1;stroke-linecap:round;stroke-linejoin:round;">
	<!-- Gray fill  -->
	<!ENTITY st4 "fill:#CCCCCC;stroke:#CCCCCC; stroke-width:0.1;stroke-linecap:round;stroke-linejoin:round;">
	<!-- Light-blue fill -->
	<!ENTITY st5 "fill:#CCECF4;stroke:#000000; stroke-width:1.133;stroke-linecap:round;stroke-linejoin:round;">
	<!ENTITY st6 "fill:none;stroke-linecap:butt; stroke-linejoin:round;">
	<!ENTITY st7 "fill:none;stroke:#000000;stroke-linecap:round;stroke-linejoin:round;">
	<!ENTITY st8 "enable-background:new    ;">
	<!-- Black fill -->
	<!ENTITY st9 "fill:#000000;stroke:#000000; stroke-linecap:round;stroke-linejoin:round;">
	<!-- SRS note   -->
	<!ENTITY st10 "font-size:9px;font-family:'ArialMT';">
	<!ENTITY st11 "font-size:9px;font-family:'Svg Symbol';">
	<!ENTITY st12 "font-size:6px;font-family:'Svg Symbol';">
	<!ENTITY st13 "fill:none;stroke:#ff0000;stroke-linecap:round;stroke-linejoin:round;">
	<!-- Yellow fill  -->
	<!ENTITY st14 "fill:#FFFF00;stroke:#FFFF00; stroke-width:0.1;stroke-linecap:round;stroke-linejoin:round;">
	<!ENTITY st15 "font-size:6px;font-family:'MS-PGothic';adobe-font-script:japanese;">
	<!ENTITY st16 "1.00 0.00 0.00 1.00">
	<!ENTITY st17 "0.00 -1.00 1.00 0.00">
	<!ENTITY st18 "font-size:6px;font-family:'Arial';">
	<!ENTITY st19 "font-size:9px;font-family:'Arial';">
	<!ENTITY st20 "font-size:6px;font-family:'MS-PGothic','MS PGothic';adobe-font-script:japanese;">
	<!ENTITY st21 "font-size:7px;font-family:'MS-PGothic','MS PGothic';adobe-font-script:japanese;">
	<!ATTLIST svg
		xmlns:ewd CDATA #FIXED "http://shcl.co.jp/ewd"
		xmlns:a CDATA #FIXED "http://ns.adobe.com/AdobeSVGViewerExtensions/3.0/"
		ewd:ver CDATA #IMPLIED
	>
	<!ATTLIST a
		ewd:lineID CDATA #IMPLIED
		ewd:groupID CDATA #IMPLIED
		ewd:figtype CDATA #IMPLIED
		ewd:code CDATA #IMPLIED
		ewd:figID CDATA #IMPLIED
		ewd:pinNo CDATA #IMPLIED
		ewd:comment CDATA #IMPLIED >
	<!ATTLIST g
		ewd:lineID CDATA #IMPLIED
		ewd:groupID CDATA #IMPLIED
		ewd:figtype CDATA #IMPLIED
		ewd:code CDATA #IMPLIED
		ewd:figID CDATA #IMPLIED
		ewd:pinNo CDATA #IMPLIED
		ewd:comment CDATA #IMPLIED >
	<!ATTLIST text
		ewd:textID CDATA #IMPLIED >
	<!ATTLIST title
		ewd:textID CDATA #IMPLIED >
]>
<!-- Generator: Shintec Hozumi YS   -->
<svg onload="call_execInitLoadProc_svg('system')" style="overflow:visible;  enable-background:new 0 0 3615.269 710.000" viewBox="0 0 3615.269 710.000" height="710.000" width="3615.269" xml:space="preserve" ewd:ver="L2.1.2.8" xmlns="&ns_svg;" xmlns:a="http://ns.adobe.com/AdobeSVGViewerExtensions/3.0/" xmlns:ewd="http://shcl.co.jp/ewd" xmlns:xlink="&ns_xlink;"><script type="text/javascript" xlink:href="../../../../../system/js/ewd/fig/svgfig.js" xmlns:xlink="http://www.w3.org/1999/xlink" /><defs><font horiz-adv-x="1229"><font-face font-family="Svg Symbol" units-per-em="2048" panose-1="5 5 1 2 1 7 6 2 5 7" ascent="2059" descent="450" alphabetic="0" /><missing-glyph d="M 103,0 l 0,1280 1024,0 0,-1280 -1024,0 z m 32,32 l 960,0 0,1216 -960,0 0,-1216 z" /><glyph unicode="" horiz-adv-x="1573" d="M 1517,0 l -567,0 24,279 q 141,59 207.5,168 66.5,109 66.5,306    0,272 -132.5,417.5 -132.5,145.5 -333.5,145.5 -194,0 -328,-147.5 -134,-147.5 -134,-401.5 0,-200 68.5,-319 68.5,-119     206.5,-169 l 25,-279 -564,0 0,279 35,0 q 3,-61 32,-83 45,-35 137,-35 l 270,0 0,70 q -210,61 -324.5,209 -114.5,148     -114.5,349 0,252 186.5,425 186.5,173 504.5,173 195,0 358.5,-73.5 163.5,-73.5 252,-214.5 88.5,-141 88.5,-310 0,-207     -121.5,-360.5 -121.5,-153.5 -317.5,-197.5 l -8,-70 275,0 q 92,0 128,28 36,28 42,90 l 38,0 0,-279 z" /></font></defs>
<g id="ewd_top"><a ewd:code="A24" ewd:figID="1" ewd:figtype="conn" style="cursor:pointer;"><path d=" M 1215.30,  537.20  L 1215.30,  588.19  L 1487.25,  588.19  L 1487.25,  537.20  L 1215.30,  537.20 " style="&st5;" /><title ewd:textID="40">Skid Control ECU with Actuator Assembly</title></a><a ewd:code="O3" ewd:figID="2" ewd:figtype="conn" style="cursor:pointer;"><path d=" M  790.37,  596.69  L  790.37,  630.68  L 1011.33,  630.68  L 1011.33,  596.69  L  790.37,  596.69 " style="&st5;" /><title ewd:textID="34">No.3 Ultrasonic Sensor LH</title></a><a ewd:code="F21" ewd:figID="3" ewd:figtype="conn" style="cursor:pointer;"><path d=" M 1606.23,  222.75  L 1606.23,  273.74  L 1733.71,  273.74  L 1733.71,  222.75  L 1606.23,  222.75 " style="&st5;" /><title ewd:textID="24">Junction Connector</title></a><a ewd:code="E83,E85" ewd:figID="4" ewd:figtype="conn" style="cursor:pointer;"><path d=" M 3152.97,  290.74  L 3399.43,  290.74  L 3399.43,  324.73  L 3152.97,  324.73  L 3152.97,  290.74 " style="&st5;" /><title ewd:textID="43">Windshield Wiper ECU , Short Connector</title></a><a ewd:code="E71" ewd:figID="5" ewd:figtype="conn" style="cursor:pointer;"><path d=" M 1784.70,  222.75  L 1784.70,  239.75  L 1844.19,  239.75  L 1844.19,  222.75  L 1784.70,  222.75 " style="&st5;" /><title ewd:textID="24">Junction Connector</title></a><a ewd:code="F21" ewd:figID="6" ewd:figtype="conn" style="cursor:pointer;"><path d=" M   50.99,  188.75  L   50.99,  205.75  L   67.99,  205.75  L   67.99,  188.75  L   50.99,  188.75 " style="&st5;" /><title ewd:textID="24">Junction Connector</title></a><a ewd:code="E61" ewd:figID="7" ewd:figtype="conn" style="cursor:pointer;"><path d=" M  135.98,  205.75  L  135.98,  222.75  L  152.97,  222.75  L  152.97,  205.75  L  135.98,  205.75 " style="&st5;" /><title ewd:textID="24">Junction Connector</title></a><a ewd:code="L29,L30" ewd:figID="8" ewd:figtype="conn" style="cursor:pointer;"><path d=" M 3543.91,  367.22  L 3543.91,  384.22  L 3594.90,  384.22  L 3594.90,  367.22  L 3543.91,  367.22 " style="&st5;" /><title ewd:textID="24">Junction Connector</title></a><a ewd:code="C114" ewd:figID="9" ewd:figtype="conn" style="cursor:pointer;"><path d=" M 2498.58,  554.19  L 2498.58,  588.19  L 2583.57,  588.19  L 2583.57,  554.19  L 2498.58,  554.19 " style="&st5;" /><title ewd:textID="20">Crankshaft Position Sensor</title></a><a ewd:code="C42" ewd:figID="10" ewd:figtype="conn" style="cursor:pointer;"><path d=" M 2124.65,  605.18  L 2124.65,  622.18  L 2158.64,  622.18  L 2158.64,  605.18  L 2124.65,  605.18 " style="&st5;" /><title ewd:textID="24">Junction Connector</title></a><a ewd:code="C65" ewd:figID="11" ewd:figtype="conn" style="cursor:pointer;"><path d=" M 2719.55,  579.69  L 2719.55,  613.68  L 2787.53,  613.68  L 2787.53,  579.69  L 2719.55,  579.69 " style="&st5;" /><title ewd:textID="20">Crankshaft Position Sensor</title></a><a ewd:code="B4" ewd:figID="12" ewd:figtype="conn" style="cursor:pointer;"><path d=" M   93.48,  596.69  L   93.48,  630.68  L  305.95,  630.68  L  305.95,  596.69  L   93.48,  596.69 " style="&st5;" /><title ewd:textID="30">No.1 Ultrasonic Sensor LH</title></a><a ewd:code="O4" ewd:figID="13" ewd:figtype="conn" style="cursor:pointer;"><path d=" M  909.35,  418.22  L  909.35,  452.21  L 1011.33,  452.21  L 1011.33,  418.22  L  909.35,  418.22 " style="&st5;" /><title ewd:textID="32">No.2 Ultrasonic Sensor LH</title></a><a ewd:code="E74" ewd:figID="14" ewd:figtype="conn" style="cursor:pointer;"><path d=" M 1334.28,  222.75  L 1334.28,  273.74  L 1478.75,  273.74  L 1478.75,  222.75  L 1334.28,  222.75 " style="&st5;" /><title ewd:textID="24">Junction Connector</title></a><a ewd:code="E69" ewd:figID="15" ewd:figtype="conn" style="cursor:pointer;"><path d=" M 2116.15,  180.26  L 2116.15,  231.25  L 2362.61,  231.25  L 2362.61,  180.26  L 2116.15,  180.26 " style="&st5;" /><title ewd:textID="24">Junction Connector</title></a><a ewd:code="A38,A52,C45,C46" ewd:figID="16" ewd:figtype="conn" style="cursor:pointer;"><path d=" M 2294.62,  452.21  L 2294.62,  409.72  L 2787.53,  409.72  L 2787.53,  452.21  L 2294.62,  452.21 " style="&st5;" /><title>ECM</title></a><a ewd:code="E35,E81" ewd:figID="17" ewd:figtype="conn" style="cursor:pointer;"><path d=" M 2107.65,  307.73  L 2184.14,  307.73  L 2184.14,  350.23  L 2107.65,  350.23  L 2107.65,  307.73 " style="&st5;" /><title ewd:textID="15">A/C Amplifier Assembly</title></a><a ewd:code="E76" ewd:figID="18" ewd:figtype="conn" style="cursor:pointer;"><path d=" M 3543.91,  477.71  L 3543.91,  494.70  L 3594.90,  494.70  L 3594.90,  477.71  L 3543.91,  477.71 " style="&st5;" /><title ewd:textID="24">Junction Connector</title></a><a ewd:code="E16" ewd:figID="19" ewd:figtype="conn" style="cursor:pointer;"><path d=" M 3186.97,  401.22  L 3441.92,  401.22  L 3441.92,  545.69  L 3186.97,  545.69  L 3186.97,  401.22 " style="&st5;" /><title ewd:textID="44">Windshield Wiper Switch Assembly</title></a><a ewd:code="G5" ewd:figID="20" ewd:figtype="conn" style="cursor:pointer;"><path d=" M  331.44,   52.78  L  246.46,   52.78  L  246.46,  146.26  L  331.44,  146.26  L  331.44,   52.78 " style="&st5;" /><title ewd:textID="17">Back Sonar or Clearance Sonar Switch Assembly</title></a><a ewd:code="E73" ewd:figID="21" ewd:figtype="conn" style="cursor:pointer;"><path d=" M 3458.92,  197.25  L 3458.92,  214.25  L 3509.91,  214.25  L 3509.91,  197.25  L 3458.92,  197.25 " style="&st5;" /><title ewd:textID="24">Junction Connector</title></a><a ewd:code="E7" ewd:figID="22" ewd:figtype="conn" style="cursor:pointer;"><path d=" M 2821.53,  188.75  L 2821.53,  401.22  L 3093.48,  401.22  L 3093.48,  188.75  L 2821.53,  188.75 " style="&st5;" /><title ewd:textID="19">Combination Meter Assembly</title></a><a ewd:code="F28,F64" ewd:figID="23" ewd:figtype="conn" style="cursor:pointer;"><path d=" M 2294.62,   35.78  L 2294.62,   78.27  L 2371.10,   78.27  L 2371.10,   35.78  L 2294.62,   35.78 " style="&st5;" /><title ewd:textID="27">Multi-Display , Display &amp; Navigation Module Display</title></a><a ewd:code="E59" ewd:figID="24" ewd:figtype="conn" style="cursor:pointer;"><path d=" M 2940.51,   78.27  L 2940.51,   95.27  L 2991.50,   95.27  L 2991.50,   78.27  L 2940.51,   78.27 " style="&st5;" /><title ewd:textID="24">Junction Connector</title></a><a ewd:code="E60" ewd:figID="25" ewd:figtype="conn" style="cursor:pointer;"><path d=" M 2957.51,  460.71  L 2957.51,  477.71  L 2974.50,  477.71  L 2974.50,  460.71  L 2957.51,  460.71 " style="&st5;" /><title ewd:textID="24">Junction Connector</title></a><a ewd:code="C44" ewd:figID="26" ewd:figtype="conn" style="cursor:pointer;"><path d=" M 2702.55,  307.73  L 2702.55,  324.73  L 2745.04,  324.73  L 2745.04,  307.73  L 2702.55,  307.73 " style="&st5;" /><title ewd:textID="24">Junction Connector</title></a><a ewd:code="R11" ewd:figID="27" ewd:figtype="conn" style="cursor:pointer;"><path d=" M 3152.97,  163.26  L 3186.97,  163.26  L 3186.97,  197.25  L 3152.97,  197.25  L 3152.97,  163.26 " style="&st5;" /><title ewd:textID="38">Rain Sensor</title></a><a ewd:code="E10" ewd:figID="28" ewd:figtype="conn" style="cursor:pointer;"><path d=" M  560.91,  120.77  L  560.91,  163.26  L  628.89,  163.26  L  628.89,  120.77  L  560.91,  120.77 " style="&st5;" /><title ewd:textID="29">No.1 Clearance Warning Buzzer</title></a><a ewd:code="F12-A,F12-B" ewd:figID="29" ewd:figtype="conn" style="cursor:pointer;"><path d=" M   42.49,  307.73  L   42.49,  350.23  L  739.38,  350.23  L  739.38,  307.73  L   42.49,  307.73 " style="&st5;" /><title ewd:textID="18">Clearance Warning ECU Assembly</title></a><a ewd:code="O1" ewd:figID="30" ewd:figtype="conn" style="cursor:pointer;"><path d=" M  560.91,  596.69  L  560.91,  630.68  L  773.37,  630.68  L  773.37,  596.69  L  560.91,  596.69 " style="&st5;" /><title ewd:textID="33">No.2 Ultrasonic Sensor RH</title></a><a ewd:code="E70" ewd:figID="31" ewd:figtype="conn" style="cursor:pointer;"><path d=" M 3458.92,  554.19  L 3509.91,  554.19  L 3509.91,  571.19  L 3458.92,  571.19  L 3458.92,  554.19 " style="&st5;" /><title ewd:textID="24">Junction Connector</title></a><a ewd:code="E31" ewd:figID="32" ewd:figtype="conn" style="cursor:pointer;"><path d=" M 1895.18,  222.75  L 1895.18,  265.24  L 2039.66,  265.24  L 2039.66,  222.75  L 1895.18,  222.75 " style="&st5;" /><title ewd:textID="28">Network Gateway ECU</title></a><a ewd:code="E68" ewd:figID="33" ewd:figtype="conn" style="cursor:pointer;"><path d=" M 1606.23,  392.72  L 1606.23,  443.71  L 1844.19,  443.71  L 1844.19,  392.72  L 1606.23,  392.72 " style="&st5;" /><title ewd:textID="24">Junction Connector</title></a><a ewd:code="FUSE11" ewd:figID="34" ewd:figtype="rb" style="cursor:pointer;"><path d=" M 3038.24,   35.78  L 3038.24,   78.27  L 3063.74,   78.27  L 3063.74,   35.78  L 3038.24,   35.78 " style="&st5;" /></a><a ewd:code="C24" ewd:figID="35" ewd:figtype="conn" style="cursor:pointer;"><path d=" M 2677.05,  180.26  L 2677.05,  248.24  L 2762.04,  248.24  L 2762.04,  180.26  L 2677.05,  180.26 " style="&st5;" /><title ewd:textID="36">Park/Neutral Position Switch</title></a><a ewd:code="E72" ewd:figID="36" ewd:figtype="conn" style="cursor:pointer;"><path d=" M 2303.12,  282.24  L 2303.12,  299.24  L 2362.61,  299.24  L 2362.61,  282.24  L 2303.12,  282.24 " style="&st5;" /><title ewd:textID="24">Junction Connector</title></a><a ewd:code="B3" ewd:figID="37" ewd:figtype="conn" style="cursor:pointer;"><path d=" M  203.97,  418.22  L  203.97,  452.21  L  305.95,  452.21  L  305.95,  418.22  L  203.97,  418.22 " style="&st5;" /><title ewd:textID="31">No.1 Ultrasonic Sensor RH</title></a><a ewd:code="O2" ewd:figID="38" ewd:figtype="conn" style="cursor:pointer;"><path d=" M  671.39,  418.22  L  671.39,  452.21  L  892.35,  452.21  L  892.35,  418.22  L  671.39,  418.22 " style="&st5;" /><title ewd:textID="35">No.3 Ultrasonic Sensor RH</title></a><a ewd:code="E75" ewd:figID="39" ewd:figtype="conn" style="cursor:pointer;"><path d=" M 2201.13,  282.24  L 2201.13,  299.24  L 2260.62,  299.24  L 2260.62,  282.24  L 2201.13,  282.24 " style="&st5;" /><title ewd:textID="24">Junction Connector</title></a><a ewd:code="C1,C48" ewd:figID="40" ewd:figtype="conn" style="cursor:pointer;"><path d=" M 2362.60,  630.68  L 2362.60,  630.68  C 2357.91   630.68  2354.11   626.88  2354.11   622.18  L 2354.11,  622.18  C 2354.11   617.49  2357.91   613.68  2362.60   613.68  L 2362.61,  613.68  L 2379.60,  613.68  C 2379.60   613.68  2379.60   613.68  2379.61   613.68  L 2379.61,  613.68  C 2384.30   613.68  2388.10   617.49  2388.10   622.18  L 2388.10,  622.18  C 2388.10   626.88  2384.29   630.68  2379.60   630.68  L 2379.60,  630.68 " style="&st5;" /><title ewd:textID="20">Crankshaft Position Sensor</title></a><a ewd:code="C94" ewd:figID="41" ewd:figtype="conn" style="cursor:pointer;"><path d=" M 2634.56,  596.69  L 2634.56,  613.68  L 2651.56,  613.68  L 2651.56,  596.69  L 2634.56,  596.69 " style="&st5;" /><title ewd:textID="24">Junction Connector</title></a><a ewd:code="FUSE9" ewd:figID="42" ewd:figtype="rb" style="cursor:pointer;"><path d=" M 2893.77,   35.78  L 2893.77,   78.27  L 2919.26,   78.27  L 2919.26,   35.78  L 2893.77,   35.78 " style="&st5;" /></a><a ewd:code="A37,C44" ewd:figID="43" ewd:figtype="conn" style="cursor:pointer;"><path d=" M 2957.51,  571.19  L 2957.51,  596.69  L 2974.50,  596.69  L 2974.50,  571.19  L 2957.51,  571.19 " style="&st5;" /><title ewd:textID="24">Junction Connector</title></a><a ewd:code="A14" ewd:figID="44" ewd:figtype="conn" style="cursor:pointer;"><path d=" M 2154.39,  494.70  L 2154.39,  452.21  L 2179.89,  452.21  L 2179.89,  494.70  L 2154.39,  494.70 " style="&st5;" /><title ewd:textID="16">Ambient Temperature Sensor</title></a><a ewd:code="2" ewd:figID="45" ewd:figtype="jb" style="cursor:pointer;"><path d=" M 2736.54,   35.78  L 2813.03,   35.78  L 2813.03,  103.77  L 2736.54,  103.77  L 2736.54,   35.78 " style="&st4;" /></a><a ewd:code="2" ewd:figID="46" ewd:figtype="jb" style="cursor:pointer;"><path d=" M 2889.52,  137.76  L 2889.52,  171.76  L 2957.51,  171.76  L 2957.51,  137.76  L 2889.52,  137.76 " style="&st4;" /></a><a ewd:code="2" ewd:figID="47" ewd:figtype="jb" style="cursor:pointer;"><path d=" M   42.49,   35.78  L   42.49,  112.27  L  152.97,  112.27  L  152.97,   35.78  L   42.49,   35.78 " style="&st4;" /></a><a ewd:code="FUSE9" ewd:figID="48" ewd:figtype="fuse" style="cursor:pointer;"><path d=" M 2893.77,   35.78  L 2893.77,   78.27  L 2919.26,   78.27  L 2919.26,   35.78  L 2893.77,   35.78 " style="&st7;" /></a><a ewd:code="FUSE137" ewd:figID="49" ewd:figtype="fuse" style="cursor:pointer;"><path d=" M   46.74,   35.78  L   46.74,   78.27  L   72.24,   78.27  L   72.24,   35.78  L   46.74,   35.78 " style="&st7;" /></a><a ewd:code="FUSE11" ewd:figID="50" ewd:figtype="fuse" style="cursor:pointer;"><path d=" M 3038.24,   35.78  L 3038.24,   78.27  L 3063.74,   78.27  L 3063.74,   35.78  L 3038.24,   35.78 " style="&st7;" /></a><a ewd:code="FUSE156" ewd:figID="51" ewd:figtype="fuse" style="cursor:pointer;"><path d=" M 2740.79,   35.78  L 2740.79,   78.27  L 2766.29,   78.27  L 2766.29,   35.78  L 2740.79,   35.78 " style="&st7;" /></a><a ewd:lineID="1" style="cursor:pointer;"><path d=" M   59.49,  368.36  L   59.49,  681.67 " style="stroke:#000000;stroke-width: 5.10 ;&st6;" /><path d=" M   59.49,  368.36  L   59.49,  681.67 " style="stroke:#FFFFFF;stroke-width: 4.53 ;&st6;" /><path d=" M   59.49,  368.36  L   59.49,  681.67 " style="stroke:#000000;stroke-width: 1.13 ;&st6;" /></a><a ewd:lineID="2" style="cursor:pointer;"><path d=" M   59.49,  205.75  L   59.49,  289.60 " style="stroke:#008837;stroke-width: 5.10 ;&st6;" /></a><a ewd:lineID="3" style="cursor:pointer;"><path d=" M   59.49,  154.76  L   59.49,  188.75 " style="stroke:#008837;stroke-width: 5.10 ;&st6;" /></a><a ewd:lineID="4" style="cursor:pointer;"><path d=" M   59.49,  112.27  L   59.49,  140.03 " style="stroke:#008837;stroke-width: 5.10 ;&st6;" /></a><a ewd:lineID="5" style="cursor:pointer;"><path d=" M  110.48,  596.69  L  110.48,  554.19 " style="stroke:#999999;stroke-width: 5.10 ;&st6;" /></a><a ewd:lineID="6" style="cursor:pointer;"><path d=" M  110.48,  539.46  L  110.48,  503.20 " style="stroke:#999999;stroke-width: 5.10 ;&st6;" /></a><a ewd:lineID="7" style="cursor:pointer;"><path d=" M  110.48,  452.21  L  110.48,  488.47 " style="stroke:#999999;stroke-width: 5.10 ;&st6;" /></a><a ewd:lineID="8" style="cursor:pointer;"><path d=" M  110.48,  407.45  L  110.48,  437.48 " style="stroke:#999999;stroke-width: 5.10 ;&st6;" /></a><a ewd:lineID="9" style="cursor:pointer;"><path d=" M  110.48,  368.36  L  110.48,  392.72 " style="stroke:#999999;stroke-width: 5.10 ;&st6;" /></a><a ewd:lineID="10" style="cursor:pointer;"><path d=" M  144.48,  596.69  L  144.48,  554.19 " style="stroke:#7FC97F;stroke-width: 5.10 ;&st6;" /></a><a ewd:lineID="11" style="cursor:pointer;"><path d=" M  144.48,  539.46  L  144.48,  503.20 " style="stroke:#7FC97F;stroke-width: 5.10 ;&st6;" /></a><a ewd:lineID="12" style="cursor:pointer;"><path d=" M  144.48,  452.21  L  144.48,  488.47 " style="stroke:#7FC97F;stroke-width: 5.10 ;&st6;" /></a><a ewd:lineID="13" style="cursor:pointer;"><path d=" M  144.48,  407.45  L  144.48,  437.48 " style="stroke:#7FC97F;stroke-width: 5.10 ;&st6;" /></a><a ewd:lineID="14" style="cursor:pointer;"><path d=" M  144.48,  368.36  L  144.48,  392.72 " style="stroke:#7FC97F;stroke-width: 5.10 ;&st6;" /></a><a ewd:lineID="15" style="cursor:pointer;"><path d=" M  144.48,  222.75  L  144.48,  248.24  L  229.46,  248.24  L  229.46,  211.98 " style="stroke:#008837;stroke-width: 5.10 ;&st6;" /></a><a ewd:lineID="16" style="cursor:pointer;"><path d=" M  144.48,  112.27  L  144.48,  205.75 " style="stroke:#008837;stroke-width: 5.10 ;&st6;" /></a><a ewd:lineID="17" style="cursor:pointer;"><path d=" M  178.47,  596.69  L  178.47,  554.19 " style="stroke:#FF0000;stroke-width: 5.10 ;&st6;" /></a><a ewd:lineID="18" style="cursor:pointer;"><path d=" M  178.47,  539.46  L  178.47,  503.20 " style="stroke:#FF0000;stroke-width: 5.10 ;&st6;" /></a><a ewd:lineID="19" style="cursor:pointer;"><path d=" M  178.47,  452.21  L  178.47,  488.47 " style="stroke:#FF0000;stroke-width: 5.10 ;&st6;" /></a><a ewd:lineID="20" style="cursor:pointer;"><path d=" M  178.47,  407.45  L  178.47,  437.48 " style="stroke:#FF0000;stroke-width: 5.10 ;&st6;" /></a><a ewd:lineID="21" style="cursor:pointer;"><path d=" M  178.47,  368.36  L  178.47,  392.72 " style="stroke:#FF0000;stroke-width: 5.10 ;&st6;" /></a><a ewd:lineID="22" style="cursor:pointer;"><path d=" M  220.96,  596.69  L  220.96,  452.21 " style="stroke:#F668B2;stroke-width: 5.10 ;&st6;" /></a><a ewd:lineID="23" style="cursor:pointer;"><path d=" M  246.46,  120.77  L  229.46,  120.77  L  229.46,  197.25 " style="stroke:#008837;stroke-width: 5.10 ;&st6;" /></a><a ewd:lineID="24" style="cursor:pointer;"><path d=" M  254.96,  596.69  L  254.96,  452.21 " style="stroke:#00A0C6;stroke-width: 5.10 ;&st6;" /></a><a ewd:lineID="25" style="cursor:pointer;"><path d=" M  288.95,  596.69  L  288.95,  452.21 " style="stroke:#56077D;stroke-width: 5.10 ;&st6;" /></a><a ewd:lineID="26" style="cursor:pointer;"><path d=" M  331.44,  120.77  L  373.94,  120.77  L  373.94,  146.26 " style="stroke:#FFE600;stroke-width: 5.10 ;&st6;" /></a><a ewd:lineID="27" style="cursor:pointer;"><path d=" M  331.44,   69.77  L  424.93,   69.77  L  424.93,  146.26 " style="stroke:#000000;stroke-width: 5.10 ;&st6;" /><path d=" M  331.44,   69.77  L  424.93,   69.77  L  424.93,  146.26 " style="stroke:#FFFFFF;stroke-width: 4.53 ;&st6;" /></a><a ewd:lineID="28" style="cursor:pointer;"><path d=" M  373.94,  205.75  L  373.94,  289.60 " style="stroke:#FFE600;stroke-width: 5.10 ;&st6;" /></a><a ewd:lineID="29" style="cursor:pointer;"><path d=" M  373.94,  160.99  L  373.94,  191.02 " style="stroke:#FFE600;stroke-width: 5.10 ;&st6;" /></a><a ewd:lineID="30" style="cursor:pointer;"><path d=" M  424.93,  205.75  L  424.93,  289.60 " style="stroke:#000000;stroke-width: 5.10 ;&st6;" /><path d=" M  424.93,  205.75  L  424.93,  289.60 " style="stroke:#FFFFFF;stroke-width: 4.53 ;&st6;" /></a><a ewd:lineID="31" style="cursor:pointer;"><path d=" M  424.93,  161.28  L  424.93,  190.74 " style="stroke:#000000;stroke-width: 5.10 ;&st6;" /><path d=" M  424.93,  161.28  L  424.93,  190.74 " style="stroke:#FFFFFF;stroke-width: 4.53 ;&st6;" /></a><a ewd:lineID="32" style="cursor:pointer;"><path d=" M  577.90,  596.69  L  577.90,  503.20 " style="stroke:#FF0000;stroke-width: 5.10 ;&st6;" /></a><a ewd:lineID="33" style="cursor:pointer;"><path d=" M  577.90,  452.21  L  577.90,  488.47 " style="stroke:#FF0000;stroke-width: 5.10 ;&st6;" /></a><a ewd:lineID="34" style="cursor:pointer;"><path d=" M  577.90,  437.48  L  577.90,  407.45 " style="stroke:#FF0000;stroke-width: 5.10 ;&st6;" /></a><a ewd:lineID="35" style="cursor:pointer;"><path d=" M  577.90,  368.36  L  577.90,  392.72 " style="stroke:#FF0000;stroke-width: 5.10 ;&st6;" /></a><a ewd:lineID="36" style="cursor:pointer;"><path d=" M  577.90,  289.60  L  577.90,  239.75 " style="stroke:#008837;stroke-width: 5.10 ;&st6;" /></a><a ewd:lineID="37" style="cursor:pointer;"><path d=" M  577.90,  163.26  L  577.90,  225.01 " style="stroke:#008837;stroke-width: 5.10 ;&st6;" /></a><a ewd:lineID="38" style="cursor:pointer;"><path d=" M  611.90,  596.69  L  611.90,  503.20 " style="stroke:#7FC97F;stroke-width: 5.10 ;&st6;" /></a><a ewd:lineID="39" style="cursor:pointer;"><path d=" M  611.90,  452.21  L  611.90,  488.47 " style="stroke:#7FC97F;stroke-width: 5.10 ;&st6;" /></a><a ewd:lineID="40" style="cursor:pointer;"><path d=" M  611.90,  437.48  L  611.90,  407.45 " style="stroke:#7FC97F;stroke-width: 5.10 ;&st6;" /></a><a ewd:lineID="41" style="cursor:pointer;"><path d=" M  611.90,  368.36  L  611.90,  392.72 " style="stroke:#7FC97F;stroke-width: 5.10 ;&st6;" /></a><a ewd:lineID="42" style="cursor:pointer;"><path d=" M  611.90,  289.60  L  611.90,  239.75 " style="stroke:#00A0C6;stroke-width: 5.10 ;&st6;" /></a><a ewd:lineID="43" style="cursor:pointer;"><path d=" M  611.90,  163.26  L  611.90,  225.01 " style="stroke:#00A0C6;stroke-width: 5.10 ;&st6;" /></a><a ewd:lineID="44" style="cursor:pointer;"><path d=" M  645.89,  596.69  L  645.89,  503.20 " style="stroke:#999999;stroke-width: 5.10 ;&st6;" /></a><a ewd:lineID="45" style="cursor:pointer;"><path d=" M  645.89,  452.21  L  645.89,  488.47 " style="stroke:#999999;stroke-width: 5.10 ;&st6;" /></a><a ewd:lineID="46" style="cursor:pointer;"><path d=" M  645.89,  437.48  L  645.89,  407.45 " style="stroke:#999999;stroke-width: 5.10 ;&st6;" /></a><a ewd:lineID="47" style="cursor:pointer;"><path d=" M  645.89,  368.36  L  645.89,  392.72 " style="stroke:#999999;stroke-width: 5.10 ;&st6;" /></a><a ewd:lineID="48" style="cursor:pointer;"><path d=" M  679.89,  289.60  L  679.89,   27.28  L 1725.21,   27.28  L 1725.21,  222.75 " style="stroke:#00A0C6;stroke-width: 5.10 ;&st6;" /></a><a ewd:lineID="49" style="cursor:pointer;"><path d=" M  688.38,  596.69  L  688.38,  452.21 " style="stroke:#FFE600;stroke-width: 5.10 ;&st6;" /></a><a ewd:lineID="50" style="cursor:pointer;"><path d=" M  713.88,  289.60  L  713.88,   44.28  L 1682.72,   44.28  L 1682.72,  222.75 " style="stroke:#56077D;stroke-width: 5.10 ;&st6;" /></a><a ewd:lineID="51" style="cursor:pointer;"><path d=" M  722.38,  596.69  L  722.38,  452.21 " style="stroke:#00A0C6;stroke-width: 5.10 ;&st6;" /></a><a ewd:lineID="52" style="cursor:pointer;"><path d=" M  756.37,  596.69  L  756.37,  452.21 " style="stroke:#000000;stroke-width: 5.10 ;&st6;" /></a><a ewd:lineID="53" style="cursor:pointer;"><path d=" M  807.37,  596.69  L  807.37,  452.21 " style="stroke:#FF0000;stroke-width: 5.10 ;&st6;" /></a><a ewd:lineID="54" style="cursor:pointer;"><path d=" M  841.36,  596.69  L  841.36,  452.21 " style="stroke:#7FC97F;stroke-width: 5.10 ;&st6;" /></a><a ewd:lineID="55" style="cursor:pointer;"><path d=" M  875.35,  596.69  L  875.35,  452.21 " style="stroke:#999999;stroke-width: 5.10 ;&st6;" /></a><a ewd:lineID="56" style="cursor:pointer;"><path d=" M  926.35,  452.21  L  926.35,  596.69 " style="stroke:#000000;stroke-width: 5.10 ;&st6;" /><path d=" M  926.35,  452.21  L  926.35,  596.69 " style="stroke:#FFFFFF;stroke-width: 4.53 ;&st6;" /></a><a ewd:lineID="57" style="cursor:pointer;"><path d=" M  960.34,  452.21  L  960.34,  596.69 " style="stroke:#56077D;stroke-width: 5.10 ;&st6;" /></a><a ewd:lineID="58" style="cursor:pointer;"><path d=" M  994.33,  452.21  L  994.33,  596.69 " style="stroke:#F668B2;stroke-width: 5.10 ;&st6;" /></a><a ewd:lineID="59" style="cursor:pointer;"><path d=" M 1232.29,  597.25  L 1232.29,  656.18 " style="stroke:#56077D;stroke-width: 5.10 ;&st6;" /></a><a ewd:lineID="60" style="cursor:pointer;"><path d=" M 1266.29,  597.25  L 1266.29,  656.18 " style="stroke:#7FC97F;stroke-width: 5.10 ;&st6;" /></a><a ewd:lineID="61" style="cursor:pointer;"><path d=" M 1300.28,  597.25  L 1300.28,  656.18 " style="stroke:#000000;stroke-width: 5.10 ;&st6;" /></a><a ewd:lineID="62" style="cursor:pointer;"><path d=" M 1334.28,  597.25  L 1334.28,  656.18 " style="stroke:#00A0C6;stroke-width: 5.10 ;&st6;" /></a><a ewd:lineID="63" style="cursor:pointer;"><path d=" M 1342.78,  273.74  L 1342.78,  486.20  L 1903.68,  486.20  L 1903.68,  350.23  L 1810.20,  350.23  L 1810.20,  367.22  L 1793.20,  384.22  L 1793.20,  392.72 " style="stroke:#00A0C6;stroke-width: 5.10 ;&st6;" /></a><a ewd:lineID="64" style="cursor:pointer;"><path d=" M 1368.27,  597.25  L 1368.27,  656.18 " style="stroke:#000000;stroke-width: 5.10 ;&st6;" /></a><a ewd:lineID="65" style="cursor:pointer;"><path d=" M 1835.69,  392.72  L 1835.69,  384.22  L 1852.69,  367.22  L 1886.68,  367.22  L 1886.68,  469.21  L 1368.27,  469.21  L 1368.27,  273.74 " style="stroke:#000000;stroke-width: 5.10 ;&st6;" /><path d=" M 1835.69,  392.72  L 1835.69,  384.22  L 1852.69,  367.22  L 1886.68,  367.22  L 1886.68,  469.21  L 1368.27,  469.21  L 1368.27,  273.74 " style="stroke:#FFFFFF;stroke-width: 4.53 ;&st6;" /></a><a ewd:lineID="66" style="cursor:pointer;"><path d=" M 1427.76,  403.48  L 1427.76,  401.22  L 1410.76,  384.22  L 1393.77,  384.22  L 1393.77,  341.73 " style="stroke:#00A0C6;stroke-width: 5.10 ;&st6;" /></a><a ewd:lineID="67" style="cursor:pointer;"><path d=" M 1393.77,  327.00  L 1393.77,  290.74  L 1419.26,  290.74  L 1427.76,  282.24  L 1427.76,  273.74 " style="stroke:#00A0C6;stroke-width: 5.10 ;&st6;" /></a><a ewd:lineID="68" style="cursor:pointer;"><path d=" M 1402.27,  597.25  L 1402.27,  656.18 " style="stroke:#000000;stroke-width: 5.10 ;&st6;" /><path d=" M 1402.27,  597.25  L 1402.27,  656.18 " style="stroke:#FFFFFF;stroke-width: 4.53 ;&st6;" /></a><a ewd:lineID="69" style="cursor:pointer;"><path d=" M 1427.76,  418.22  L 1427.76,  528.13 " style="stroke:#00A0C6;stroke-width: 5.10 ;&st6;" /></a><a ewd:lineID="70" style="cursor:pointer;"><path d=" M 1427.76,  403.48  L 1427.76,  347.96 " style="stroke:#00A0C6;stroke-width: 5.10 ;&st6;" /></a><a ewd:lineID="71" style="cursor:pointer;"><path d=" M 1427.76,  333.23  L 1427.76,  273.74 " style="stroke:#00A0C6;stroke-width: 5.10 ;&st6;" /></a><a ewd:lineID="72" style="cursor:pointer;"><path d=" M 1657.22,  140.03  L 1657.22,  103.77  L 1427.76,  103.77  L 1427.76,  222.75 " style="stroke:#00A0C6;stroke-width: 5.10 ;&st6;" /></a><a ewd:lineID="73" style="cursor:pointer;"><path d=" M 1946.17,  222.75  L 1946.17,  214.25  L 1963.17,  197.25  L 1963.17,   69.77  L 1410.76,   69.77  L 1410.76,  197.25  L 1427.76,  214.25  L 1427.76,  222.75 " style="stroke:#00A0C6;stroke-width: 5.10 ;&st6;" /></a><a ewd:lineID="74" style="cursor:pointer;"><path d=" M 1436.26,  597.25  L 1436.26,  656.18 " style="stroke:#FF0000;stroke-width: 5.10 ;&st6;" /></a><a ewd:lineID="75" style="cursor:pointer;"><path d=" M 1470.25,  597.25  L 1470.25,  656.18 " style="stroke:#008837;stroke-width: 5.10 ;&st6;" /></a><a ewd:lineID="76" style="cursor:pointer;"><path d=" M 1470.25,  418.22  L 1470.25,  528.13 " style="stroke:#56077D;stroke-width: 5.10 ;&st6;" /></a><a ewd:lineID="77" style="cursor:pointer;"><path d=" M 1470.25,  403.48  L 1470.25,  347.96 " style="stroke:#56077D;stroke-width: 5.10 ;&st6;" /></a><a ewd:lineID="78" style="cursor:pointer;"><path d=" M 1470.25,  403.48  L 1470.25,  401.22  L 1487.25,  384.22  L 1504.25,  384.22  L 1504.25,  341.73 " style="stroke:#56077D;stroke-width: 5.10 ;&st6;" /></a><a ewd:lineID="79" style="cursor:pointer;"><path d=" M 1470.25,  333.23  L 1470.25,  273.74 " style="stroke:#56077D;stroke-width: 5.10 ;&st6;" /></a><a ewd:lineID="80" style="cursor:pointer;"><path d=" M 1504.25,  327.00  L 1504.25,  290.74  L 1478.75,  290.74  L 1470.25,  282.24  L 1470.25,  273.74 " style="stroke:#56077D;stroke-width: 5.10 ;&st6;" /></a><a ewd:lineID="81" style="cursor:pointer;"><path d=" M 1614.73,  140.03  L 1614.73,  120.77  L 1470.25,  120.77  L 1470.25,  222.75 " style="stroke:#FFE600;stroke-width: 5.10 ;&st6;" /></a><a ewd:lineID="82" style="cursor:pointer;"><path d=" M 1912.18,  222.75  L 1912.18,  214.25  L 1895.18,  197.25  L 1895.18,   86.77  L 1487.25,   86.77  L 1487.25,  197.25  L 1470.25,  214.25  L 1470.25,  222.75 " style="stroke:#99D9E8;stroke-width: 5.10 ;&st6;" /></a><a ewd:lineID="83" style="cursor:pointer;"><path d=" M 1614.73,  392.72  L 1614.73,  347.96 " style="stroke:#FFE600;stroke-width: 5.10 ;&st6;" /></a><a ewd:lineID="84" style="cursor:pointer;"><path d=" M 1614.73,  333.23  L 1614.73,  273.74 " style="stroke:#FFE600;stroke-width: 5.10 ;&st6;" /></a><a ewd:lineID="85" style="cursor:pointer;"><path d=" M 1614.73,  222.75  L 1614.73,  154.76 " style="stroke:#FFE600;stroke-width: 5.10 ;&st6;" /></a><a ewd:lineID="86" style="cursor:pointer;"><path d=" M 1657.22,  392.72  L 1657.22,  347.96 " style="stroke:#00A0C6;stroke-width: 5.10 ;&st6;" /></a><a ewd:lineID="87" style="cursor:pointer;"><path d=" M 1657.22,  333.23  L 1657.22,  273.74 " style="stroke:#00A0C6;stroke-width: 5.10 ;&st6;" /></a><a ewd:lineID="88" style="cursor:pointer;"><path d=" M 1657.22,  222.75  L 1657.22,  154.76 " style="stroke:#00A0C6;stroke-width: 5.10 ;&st6;" /></a><a ewd:lineID="89" style="cursor:pointer;"><path d=" M 1793.20,  392.72  L 1793.20,  239.75 " style="stroke:#00A0C6;stroke-width: 5.10 ;&st6;" /></a><a ewd:lineID="90" style="cursor:pointer;"><path d=" M 1793.20,  222.75  L 1793.20,  129.26  L 1946.17,  129.26  L 1946.17,  222.75 " style="stroke:#00A0C6;stroke-width: 5.10 ;&st6;" /></a><a ewd:lineID="91" style="cursor:pointer;"><path d=" M 1835.69,  239.75  L 1835.69,  392.72 " style="stroke:#000000;stroke-width: 5.10 ;&st6;" /><path d=" M 1835.69,  239.75  L 1835.69,  392.72 " style="stroke:#FFFFFF;stroke-width: 4.53 ;&st6;" /></a><a ewd:lineID="92" style="cursor:pointer;"><path d=" M 1835.69,  222.75  L 1835.69,  154.76  L 1912.18,  154.76  L 1912.18,  222.75 " style="stroke:#99D9E8;stroke-width: 5.10 ;&st6;" /></a><a ewd:lineID="93" style="cursor:pointer;"><path d=" M 2252.12,  162.12  L 2252.12,  129.26  L 1988.67,  129.26  L 1988.67,  222.75 " style="stroke:#992903;stroke-width: 5.10 ;&st6;" /></a><a ewd:lineID="94" style="cursor:pointer;"><path d=" M 2209.63,  162.12  L 2209.63,  146.26  L 2022.66,  146.26  L 2022.66,  222.75 " style="stroke:#000000;stroke-width: 5.10 ;&st6;" /></a><a ewd:lineID="95" style="cursor:pointer;"><path d=" M 2124.65,  415.95  L 2124.65,  511.70  L 2167.14,  511.70  L 2167.14,  494.70 " style="stroke:#008837;stroke-width: 5.10 ;&st6;" /></a><a ewd:lineID="96" style="cursor:pointer;"><path d=" M 2124.65,  368.36  L 2124.65,  401.22 " style="stroke:#008837;stroke-width: 5.10 ;&st6;" /></a><a ewd:lineID="97" style="cursor:pointer;"><path d=" M 2124.65,  249.38  L 2124.65,  289.60 " style="stroke:#000000;stroke-width: 5.10 ;&st6;" /></a><a ewd:lineID="98" style="cursor:pointer;"><path d=" M 2133.14,  640.31  L 2133.14,  681.67 " style="stroke:#000000;stroke-width: 5.10 ;&st6;" /><path d=" M 2133.14,  640.31  L 2133.14,  681.67 " style="stroke:#FFFFFF;stroke-width: 4.53 ;&st6;" /><path d=" M 2133.14,  640.31  L 2133.14,  681.67 " style="stroke:#000000;stroke-width: 1.13 ;&st6;" /></a><a ewd:lineID="99" style="cursor:pointer;"><path d=" M 2175.64,  681.67  L 2175.64,  656.18  L 2141.64,  656.18  L 2133.14,  647.68  L 2133.14,  640.31 " style="stroke:#992903;stroke-width: 5.10 ;&st6;" /></a><a ewd:lineID="100" style="cursor:pointer;"><path d=" M 2133.14,  587.05  L 2133.14,  554.19 " style="stroke:#992903;stroke-width: 5.10 ;&st6;" /></a><a ewd:lineID="101" style="cursor:pointer;"><path d=" M 2167.14,  415.95  L 2167.14,  452.21 " style="stroke:#56077D;stroke-width: 5.10 ;&st6;" /></a><a ewd:lineID="102" style="cursor:pointer;"><path d=" M 2167.14,  368.36  L 2167.14,  401.22 " style="stroke:#56077D;stroke-width: 5.10 ;&st6;" /></a><a ewd:lineID="103" style="cursor:pointer;"><path d=" M 2167.14,  249.38  L 2167.14,  289.60 " style="stroke:#008837;stroke-width: 5.10 ;&st6;" /></a><a ewd:lineID="104" style="cursor:pointer;"><path d=" M 2209.63,  299.24  L 2209.63,  673.17  L 2889.52,  673.17  L 2889.52,  410.28 " style="stroke:#000000;stroke-width: 5.10 ;&st6;" /></a><a ewd:lineID="105" style="cursor:pointer;"><path d=" M 2209.63,  249.38  L 2209.63,  282.24 " style="stroke:#000000;stroke-width: 5.10 ;&st6;" /></a><a ewd:lineID="106" style="cursor:pointer;"><path d=" M 2252.12,  299.24  L 2252.12,  656.18  L 2855.52,  656.18  L 2855.52,  410.28 " style="stroke:#56077D;stroke-width: 5.10 ;&st6;" /></a><a ewd:lineID="107" style="cursor:pointer;"><path d=" M 2252.12,  249.38  L 2252.12,  282.24 " style="stroke:#000000;stroke-width: 5.10 ;&st6;" /><path d=" M 2252.12,  249.38  L 2252.12,  282.24 " style="stroke:#FFFFFF;stroke-width: 4.53 ;&st6;" /></a><a ewd:lineID="108" style="cursor:pointer;"><path d=" M 2311.61,  470.34  L 2311.61,  477.71  L 2303.12,  486.20  L 2286.12,  486.20  L 2286.12,  639.18  L 2311.61,  639.18  L 2328.61,  622.18  L 2335.98,  622.18 " style="stroke:#000000;stroke-width: 5.10 ;&st6;" /></a><a ewd:lineID="109" style="cursor:pointer;"><path d=" M 2311.61,  470.34  L 2311.61,  622.18  L 2335.98,  622.18 " style="stroke:#00A0C6;stroke-width: 5.10 ;&st6;" /></a><a ewd:lineID="110" style="cursor:pointer;"><path d=" M 2311.61,  470.34  L 2311.61,  477.71  L 2320.11,  486.20  L 2337.11,  486.20  L 2337.11,  503.20  L 2515.58,  503.20  L 2515.58,  554.19 " style="stroke:#000000;stroke-width: 5.10 ;&st6;" /><path d=" M 2311.61,  470.34  L 2311.61,  477.71  L 2320.11,  486.20  L 2337.11,  486.20  L 2337.11,  503.20  L 2515.58,  503.20  L 2515.58,  554.19 " style="stroke:#FFFFFF;stroke-width: 4.53 ;&st6;" /></a><a ewd:lineID="111" style="cursor:pointer;"><path d=" M 2311.61,  373.46  L 2311.61,  347.96 " style="stroke:#F668B2;stroke-width: 5.10 ;&st6;" /></a><a ewd:lineID="112" style="cursor:pointer;"><path d=" M 2311.61,  324.73  L 2311.61,  299.24 " style="stroke:#F668B2;stroke-width: 5.10 ;&st6;" /></a><a ewd:lineID="113" style="cursor:pointer;"><path d=" M 2311.61,  249.38  L 2311.61,  282.24 " style="stroke:#FFE600;stroke-width: 5.10 ;&st6;" /></a><a ewd:lineID="114" style="cursor:pointer;"><path d=" M 2311.61,  162.12  L 2311.61,  135.50 " style="stroke:#F668B2;stroke-width: 5.10 ;&st6;" /></a><a ewd:lineID="115" style="cursor:pointer;"><path d=" M 2311.61,  120.77  L 2311.61,   96.40 " style="stroke:#F668B2;stroke-width: 5.10 ;&st6;" /></a><a ewd:lineID="116" style="cursor:pointer;"><path d=" M 2354.11,  347.96  L 2354.11,  373.46 " style="stroke:#000000;stroke-width: 5.10 ;&st6;" /></a><a ewd:lineID="117" style="cursor:pointer;"><path d=" M 2354.11,  324.73  L 2354.11,  299.24 " style="stroke:#000000;stroke-width: 5.10 ;&st6;" /></a><a ewd:lineID="118" style="cursor:pointer;"><path d=" M 2354.11,  249.38  L 2354.11,  282.24 " style="stroke:#000000;stroke-width: 5.10 ;&st6;" /></a><a ewd:lineID="119" style="cursor:pointer;"><path d=" M 2354.11,  162.12  L 2354.11,  135.50 " style="stroke:#000000;stroke-width: 5.10 ;&st6;" /></a><a ewd:lineID="120" style="cursor:pointer;"><path d=" M 2354.11,  120.77  L 2354.11,   96.40 " style="stroke:#000000;stroke-width: 5.10 ;&st6;" /></a><a ewd:lineID="121" style="cursor:pointer;"><path d=" M 2406.23,  622.18  L 2413.60,  622.18  L 2430.59,  639.18  L 2456.09,  639.18  L 2456.09,  470.34 " style="stroke:#008837;stroke-width: 5.10 ;&st6;" /></a><a ewd:lineID="122" style="cursor:pointer;"><path d=" M 2406.23,  622.18  L 2430.59,  622.18  L 2430.59,  486.20  L 2447.59,  486.20  L 2456.09,  477.71  L 2456.09,  470.34 " style="stroke:#000000;stroke-width: 5.10 ;&st6;" /><path d=" M 2406.23,  622.18  L 2430.59,  622.18  L 2430.59,  486.20  L 2447.59,  486.20  L 2456.09,  477.71  L 2456.09,  470.34 " style="stroke:#FFFFFF;stroke-width: 4.53 ;&st6;" /></a><a ewd:lineID="123" style="cursor:pointer;"><path d=" M 2456.09,  470.34  L 2456.09,  477.71  L 2464.59,  486.20  L 2541.08,  486.20  L 2541.08,  554.19 " style="stroke:#008837;stroke-width: 5.10 ;&st6;" /><path d=" M 2456.09,  470.34  L 2456.09,  477.71  L 2464.59,  486.20  L 2541.08,  486.20  L 2541.08,  554.19 " style="stroke:#FFFFFF;stroke-width: 1.13 ;&st6;" /></a><a ewd:lineID="124" style="cursor:pointer;"><path d=" M 2566.57,  461.27  L 2566.57,  554.19 " style="stroke:#00A0C6;stroke-width: 5.10 ;&st6;" /></a><a ewd:lineID="125" style="cursor:pointer;"><path d=" M 2643.06,  613.68  L 2643.06,  681.67 " style="stroke:#992903;stroke-width: 5.10 ;&st6;" /></a><a ewd:lineID="126" style="cursor:pointer;"><path d=" M 2643.06,  596.69  L 2643.06,  554.19  L 2711.05,  554.19 " style="stroke:#992903;stroke-width: 5.10 ;&st6;" /></a><a ewd:lineID="127" style="cursor:pointer;"><path d=" M 2702.55,  248.24  L 2702.55,  265.24  L 2668.55,  265.24  L 2668.55,  364.39 " style="stroke:#00A0C6;stroke-width: 5.10 ;&st6;" /><path d=" M 2702.55,  248.24  L 2702.55,  265.24  L 2668.55,  265.24  L 2668.55,  364.39 " style="stroke:#FFFFFF;stroke-width: 2.27 ;&st6;" /><path d=" M 2702.55,  248.24  L 2702.55,  265.24  L 2668.55,  265.24  L 2668.55,  364.39 " style="stroke:#FF0000;stroke-width: 1.13 ;&st6;" /></a><a ewd:lineID="128" style="cursor:pointer;"><path d=" M 2736.54,  613.68  L 2736.54,  639.18  L 2694.05,  639.18  L 2694.05,  486.20  L 2711.05,  486.20 " style="stroke:#992903;stroke-width: 5.10 ;&st6;" /></a><a ewd:lineID="129" style="cursor:pointer;"><path d=" M 2711.05,  333.80  L 2711.05,  364.39 " style="stroke:#008837;stroke-width: 5.10 ;&st6;" /><path d=" M 2711.05,  333.80  L 2711.05,  364.39 " style="stroke:#FFFFFF;stroke-width: 2.27 ;&st6;" /><path d=" M 2711.05,  333.80  L 2711.05,  364.39 " style="stroke:#000000;stroke-width: 1.13 ;&st6;" /></a><a ewd:lineID="130" style="cursor:pointer;"><path d=" M 2719.55,  248.24  L 2719.55,  273.74  L 2711.05,  273.74  L 2711.05,  298.67 " style="stroke:#008837;stroke-width: 5.10 ;&st6;" /><path d=" M 2719.55,  248.24  L 2719.55,  273.74  L 2711.05,  273.74  L 2711.05,  298.67 " style="stroke:#FFFFFF;stroke-width: 2.27 ;&st6;" /><path d=" M 2719.55,  248.24  L 2719.55,  273.74  L 2711.05,  273.74  L 2711.05,  298.67 " style="stroke:#000000;stroke-width: 1.13 ;&st6;" /></a><a ewd:lineID="131" style="cursor:pointer;"><path d=" M 2736.54,  470.34  L 2736.54,  579.69 " style="stroke:#000000;stroke-width: 5.10 ;&st6;" /></a><a ewd:lineID="132" style="cursor:pointer;"><path d=" M 2736.54,  364.39  L 2736.54,  342.86 " style="stroke:#008837;stroke-width: 5.10 ;&st6;" /><path d=" M 2736.54,  364.39  L 2736.54,  342.86 " style="stroke:#FFFFFF;stroke-width: 1.13 ;&st6;" /></a><a ewd:lineID="133" style="cursor:pointer;"><path d=" M 2736.54,  289.60  L 2736.54,  248.24 " style="stroke:#008837;stroke-width: 5.10 ;&st6;" /><path d=" M 2736.54,  289.60  L 2736.54,  248.24 " style="stroke:#FFFFFF;stroke-width: 1.13 ;&st6;" /></a><a ewd:lineID="134" style="cursor:pointer;"><path d=" M 2753.54,  180.26  L 2753.54,  154.76 " style="stroke:#008837;stroke-width: 5.10 ;&st6;" /></a><a ewd:lineID="135" style="cursor:pointer;"><path d=" M 2753.54,  103.77  L 2753.54,  139.75 " style="stroke:#008837;stroke-width: 5.10 ;&st6;" /><path d=" M 2753.54,  103.77  L 2753.54,  139.75 " style="stroke:#FFFFFF;stroke-width: 2.27 ;&st6;" /><path d=" M 2753.54,  103.77  L 2753.54,  139.75 " style="stroke:#000000;stroke-width: 1.13 ;&st6;" /></a><a ewd:lineID="136" style="cursor:pointer;"><path d=" M 2770.54,  470.34  L 2770.54,  579.69 " style="stroke:#000000;stroke-width: 5.10 ;&st6;" /><path d=" M 2770.54,  470.34  L 2770.54,  579.69 " style="stroke:#FFFFFF;stroke-width: 4.53 ;&st6;" /></a><a ewd:lineID="137" style="cursor:pointer;"><path d=" M 2906.51,  103.77  L 2906.51,  137.76 " style="stroke:#FF0000;stroke-width: 5.10 ;&st6;" /><path d=" M 2906.51,  103.77  L 2906.51,  137.76 " style="stroke:#FFFFFF;stroke-width: 2.27 ;&st6;" /><path d=" M 2906.51,  103.77  L 2906.51,  137.76 " style="stroke:#00A0C6;stroke-width: 1.13 ;&st6;" /></a><a ewd:lineID="138" style="cursor:pointer;"><path d=" M 2966.00,  614.82  L 2966.00,  622.18  L 2957.51,  630.68  L 2915.01,  630.68  L 2915.01,  681.67 " style="stroke:#992903;stroke-width: 5.10 ;&st6;" /></a><a ewd:lineID="139" style="cursor:pointer;"><path d=" M 2949.01,  137.76  L 2949.01,   95.27 " style="stroke:#FF0000;stroke-width: 5.10 ;&st6;" /></a><a ewd:lineID="140" style="cursor:pointer;"><path d=" M 2966.00,  614.82  L 2966.00,  681.67 " style="stroke:#992903;stroke-width: 5.10 ;&st6;" /></a><a ewd:lineID="141" style="cursor:pointer;"><path d=" M 3017.00,  681.67  L 3017.00,  647.68  L 2983.00,  647.68  L 2966.00,  622.18  L 2966.00,  614.82 " style="stroke:#992903;stroke-width: 5.10 ;&st6;" /></a><a ewd:lineID="142" style="cursor:pointer;"><path d=" M 3059.49,  681.67  L 3059.49,  630.68  L 2991.50,  630.68  L 2966.00,  622.18  L 2966.00,  614.82 " style="stroke:#992903;stroke-width: 5.10 ;&st6;" /></a><a ewd:lineID="143" style="cursor:pointer;"><path d=" M 2966.00,  543.43  L 2966.00,  562.12 " style="stroke:#992903;stroke-width: 5.10 ;&st6;" /></a><a ewd:lineID="144" style="cursor:pointer;"><path d=" M 2966.00,  477.71  L 2966.00,  520.20 " style="stroke:#992903;stroke-width: 5.10 ;&st6;" /></a><a ewd:lineID="145" style="cursor:pointer;"><path d=" M 2966.00,  410.28  L 2966.00,  460.71 " style="stroke:#992903;stroke-width: 5.10 ;&st6;" /></a><a ewd:lineID="146" style="cursor:pointer;"><path d=" M 2983.00,  179.69  L 2983.00,   95.27 " style="stroke:#FF0000;stroke-width: 5.10 ;&st6;" /></a><a ewd:lineID="147" style="cursor:pointer;"><path d=" M 3501.41,  571.19  L 3501.41,  605.18  L 3033.99,  605.18  L 3033.99,  410.28 " style="stroke:#7FC97F;stroke-width: 5.10 ;&st6;" /></a><a ewd:lineID="148" style="cursor:pointer;"><path d=" M 3050.99,  179.69  L 3050.99,  146.26 " style="stroke:#000000;stroke-width: 5.10 ;&st6;" /></a><a ewd:lineID="149" style="cursor:pointer;"><path d=" M 3050.99,  131.25  L 3050.99,  103.77 " style="stroke:#000000;stroke-width: 5.10 ;&st6;" /><path d=" M 3050.99,  131.25  L 3050.99,  103.77 " style="stroke:#FFFFFF;stroke-width: 2.27 ;&st6;" /><path d=" M 3050.99,  131.25  L 3050.99,  103.77 " style="stroke:#FF0000;stroke-width: 1.13 ;&st6;" /></a><a ewd:lineID="150" style="cursor:pointer;"><path d=" M 3467.42,  571.19  L 3467.42,  588.19  L 3067.99,  588.19  L 3067.99,  410.28 " style="stroke:#FF0000;stroke-width: 5.10 ;&st6;" /></a><a ewd:lineID="151" style="cursor:pointer;"><path d=" M 3169.97,  254.48  L 3169.97,  281.67 " style="stroke:#FF0000;stroke-width: 5.10 ;&st6;" /></a><a ewd:lineID="152" style="cursor:pointer;"><path d=" M 3169.97,  197.25  L 3169.97,  239.75 " style="stroke:#FF0000;stroke-width: 5.10 ;&st6;" /></a><a ewd:lineID="153" style="cursor:pointer;"><path d=" M 3246.46,  333.80  L 3246.46,  383.09 " style="stroke:#000000;stroke-width: 5.10 ;&st6;" /></a><a ewd:lineID="154" style="cursor:pointer;"><path d=" M 3280.45,  333.80  L 3280.45,  383.09 " style="stroke:#FF0000;stroke-width: 5.10 ;&st6;" /></a><a ewd:lineID="155" style="cursor:pointer;"><path d=" M 3314.45,  333.80  L 3314.45,  383.09 " style="stroke:#008837;stroke-width: 5.10 ;&st6;" /></a><a ewd:lineID="156" style="cursor:pointer;"><path d=" M 3348.44,  333.80  L 3348.44,  383.09 " style="stroke:#000000;stroke-width: 5.10 ;&st6;" /><path d=" M 3348.44,  333.80  L 3348.44,  383.09 " style="stroke:#FFFFFF;stroke-width: 4.53 ;&st6;" /></a><a ewd:lineID="157" style="cursor:pointer;"><path d=" M 3356.94,  281.67  L 3356.94,  163.26  L 3501.41,  163.26  L 3501.41,  197.25 " style="stroke:#7FC97F;stroke-width: 5.10 ;&st6;" /></a><a ewd:lineID="158" style="cursor:pointer;"><path d=" M 3382.43,  333.80  L 3382.43,  383.09 " style="stroke:#FF0000;stroke-width: 5.10 ;&st6;" /></a><a ewd:lineID="159" style="cursor:pointer;"><path d=" M 3382.43,  281.67  L 3382.43,  180.26  L 3467.42,  180.26  L 3467.42,  197.25 " style="stroke:#FF0000;stroke-width: 5.10 ;&st6;" /></a><a ewd:lineID="160" style="cursor:pointer;"><path d=" M 3416.43,  681.67  L 3416.43,  639.18 " style="stroke:#000000;stroke-width: 5.10 ;&st6;" /><path d=" M 3416.43,  681.67  L 3416.43,  639.18 " style="stroke:#FFFFFF;stroke-width: 4.53 ;&st6;" /><path d=" M 3416.43,  681.67  L 3416.43,  639.18 " style="stroke:#000000;stroke-width: 1.13 ;&st6;" /></a><a ewd:lineID="161" style="cursor:pointer;"><path d=" M 3416.43,  622.18  L 3416.43,  563.82 " style="stroke:#000000;stroke-width: 5.10 ;&st6;" /><path d=" M 3416.43,  622.18  L 3416.43,  563.82 " style="stroke:#FFFFFF;stroke-width: 4.53 ;&st6;" /><path d=" M 3416.43,  622.18  L 3416.43,  563.82 " style="stroke:#000000;stroke-width: 1.13 ;&st6;" /></a><a ewd:lineID="162" style="cursor:pointer;"><path d=" M 3424.93,  630.68  L 3492.92,  630.68  L 3492.92,  681.67 " style="stroke:#000000;stroke-width: 5.10 ;&st6;" /><path d=" M 3424.93,  630.68  L 3492.92,  630.68  L 3492.92,  681.67 " style="stroke:#FFFFFF;stroke-width: 4.53 ;&st6;" /><path d=" M 3424.93,  630.68  L 3492.92,  630.68  L 3492.92,  681.67 " style="stroke:#000000;stroke-width: 1.13 ;&st6;" /></a><a ewd:lineID="163" style="cursor:pointer;"><path d=" M 3467.42,  554.19  L 3467.42,  214.25 " style="stroke:#FF0000;stroke-width: 5.10 ;&st6;" /></a><a ewd:lineID="164" style="cursor:pointer;"><path d=" M 3467.42,  554.19  L 3467.42,  545.69  L 3484.42,  528.70  L 3484.42,  511.70  L 3552.41,  511.70  L 3552.41,  494.70 " style="stroke:#FF0000;stroke-width: 5.10 ;&st6;" /></a><a ewd:lineID="165" style="cursor:pointer;"><path d=" M 3552.41,  265.24  L 3552.41,  256.74  L 3484.42,  256.74  L 3484.42,  239.75  L 3467.42,  222.75  L 3467.42,  214.25 " style="stroke:#FF0000;stroke-width: 5.10 ;&st6;" /></a><a ewd:lineID="166" style="cursor:pointer;"><path d=" M 3501.41,  554.19  L 3501.41,  214.25 " style="stroke:#000000;stroke-width: 5.10 ;&st6;" /><path d=" M 3501.41,  554.19  L 3501.41,  214.25 " style="stroke:#FFFFFF;stroke-width: 4.53 ;&st6;" /></a><a ewd:lineID="167" style="cursor:pointer;"><path d=" M 3586.40,  494.70  L 3586.40,  537.20  L 3509.91,  537.20  L 3501.41,  545.69  L 3501.41,  554.19 " style="stroke:#000000;stroke-width: 5.10 ;&st6;" /><path d=" M 3586.40,  494.70  L 3586.40,  537.20  L 3509.91,  537.20  L 3501.41,  545.69  L 3501.41,  554.19 " style="stroke:#FFFFFF;stroke-width: 4.53 ;&st6;" /></a><a ewd:lineID="168" style="cursor:pointer;"><path d=" M 3586.40,  265.24  L 3586.40,  231.25  L 3509.91,  231.25  L 3501.41,  222.75  L 3501.41,  214.25 " style="stroke:#000000;stroke-width: 5.10 ;&st6;" /><path d=" M 3586.40,  265.24  L 3586.40,  231.25  L 3509.91,  231.25  L 3501.41,  222.75  L 3501.41,  214.25 " style="stroke:#FFFFFF;stroke-width: 4.53 ;&st6;" /></a><a ewd:lineID="169" style="cursor:pointer;"><path d=" M 3552.41,  435.21  L 3552.41,  477.71 " style="stroke:#FF0000;stroke-width: 5.10 ;&st6;" /></a><a ewd:lineID="170" style="cursor:pointer;"><path d=" M 3552.41,  420.48  L 3552.41,  393.29 " style="stroke:#FF0000;stroke-width: 5.10 ;&st6;" /></a><a ewd:lineID="171" style="cursor:pointer;"><path d=" M 3552.41,  358.16  L 3552.41,  322.46 " style="stroke:#FF0000;stroke-width: 5.10 ;&st6;" /></a><a ewd:lineID="172" style="cursor:pointer;"><path d=" M 3552.41,  307.73  L 3552.41,  279.97 " style="stroke:#FF0000;stroke-width: 5.10 ;&st6;" /></a><a ewd:lineID="173" style="cursor:pointer;"><path d=" M 3586.40,  435.21  L 3586.40,  477.71 " style="stroke:#FFE600;stroke-width: 5.10 ;&st6;" /></a><a ewd:lineID="174" style="cursor:pointer;"><path d=" M 3586.40,  420.48  L 3586.40,  393.29 " style="stroke:#FFE600;stroke-width: 5.10 ;&st6;" /></a><a ewd:lineID="175" style="cursor:pointer;"><path d=" M 3586.40,  322.75  L 3586.40,  358.16 " style="stroke:#000000;stroke-width: 5.10 ;&st6;" /><path d=" M 3586.40,  322.75  L 3586.40,  358.16 " style="stroke:#FFFFFF;stroke-width: 4.53 ;&st6;" /></a><a ewd:lineID="176" style="cursor:pointer;"><path d=" M 3586.40,  307.73  L 3586.40,  280.26 " style="stroke:#000000;stroke-width: 5.10 ;&st6;" /><path d=" M 3586.40,  307.73  L 3586.40,  280.26 " style="stroke:#FFFFFF;stroke-width: 4.53 ;&st6;" /></a><a ewd:code="FE4" ewd:figID="52" ewd:figtype="w2w" ewd:pinNo="6" style="cursor:pointer;"><path d=" M 2320.11,  120.77  L 2303.12,  120.77  L 2303.12,  129.26  L 2320.11,  129.26  L 2320.11,  120.77 " style="&st2;" /><text style="&st8;" transform="matrix(&st16;  2304.85  127.51 )"><tspan style="&st18;" x="0" y="0">FE4</tspan></text></a><a ewd:code="FE4" ewd:figID="53" ewd:figtype="w2w" ewd:pinNo="16" style="cursor:pointer;"><path d=" M 2362.61,  120.77  L 2345.61,  120.77  L 2345.61,  129.26  L 2362.61,  129.26  L 2362.61,  120.77 " style="&st2;" /><text style="&st8;" transform="matrix(&st16;  2347.34  127.51 )"><tspan style="&st18;" x="0" y="0">FE4</tspan></text></a><a ewd:code="FE1" ewd:figID="54" ewd:figtype="w2w" ewd:pinNo="13" style="cursor:pointer;"><path d=" M  433.43,  197.25  L  416.43,  197.25  L  416.43,  205.75  L  433.43,  205.75  L  433.43,  197.25 " style="&st2;" /><text style="&st8;" transform="matrix(&st16;  418.57  204.0 )"><tspan style="&st18;" x="0" y="0">FE1</tspan></text></a><a ewd:code="GE1" ewd:figID="55" ewd:figtype="w2w" ewd:pinNo="2" style="cursor:pointer;"><path d=" M  433.43,  146.26  L  416.43,  146.26  L  416.43,  154.76  L  433.43,  154.76  L  433.43,  146.26 " style="&st2;" /><text style="&st8;" transform="matrix(&st16;  417.9  153.0 )"><tspan style="&st18;" x="0" y="0">GE1</tspan></text></a><a ewd:code="AE3" ewd:figID="56" ewd:figtype="w2w" ewd:pinNo="8" style="cursor:pointer;"><path d=" M  186.97,  443.71  L  169.97,  443.71  L  169.97,  452.21  L  186.97,  452.21  L  186.97,  443.71 " style="&st2;" /><text style="&st8;" transform="matrix(&st16;  171.48  450.45 )"><tspan style="&st18;" x="0" y="0">AE3</tspan></text></a><a ewd:code="AE3" ewd:figID="57" ewd:figtype="w2w" ewd:pinNo="9" style="cursor:pointer;"><path d=" M  152.97,  443.71  L  135.98,  443.71  L  135.98,  452.21  L  152.97,  452.21  L  152.97,  443.71 " style="&st2;" /><text style="&st8;" transform="matrix(&st16;  137.49  450.45 )"><tspan style="&st18;" x="0" y="0">AE3</tspan></text></a><a ewd:code="AE3" ewd:figID="58" ewd:figtype="w2w" ewd:pinNo="10" style="cursor:pointer;"><path d=" M  118.98,  443.71  L  101.98,  443.71  L  101.98,  452.21  L  118.98,  452.21  L  118.98,  443.71 " style="&st2;" /><text style="&st8;" transform="matrix(&st16;  103.49  450.45 )"><tspan style="&st18;" x="0" y="0">AE3</tspan></text></a><a ewd:code="FE3" ewd:figID="59" ewd:figtype="w2w" ewd:pinNo="3" style="cursor:pointer;"><path d=" M  186.97,  392.72  L  169.97,  392.72  L  169.97,  401.22  L  186.97,  401.22  L  186.97,  392.72 " style="&st2;" /><text style="&st8;" transform="matrix(&st16;  171.7  399.46 )"><tspan style="&st18;" x="0" y="0">FE3</tspan></text></a><a ewd:code="FE1" ewd:figID="60" ewd:figtype="w2w" ewd:pinNo="3" style="cursor:pointer;"><path d=" M  620.40,  231.25  L  603.40,  231.25  L  603.40,  239.75  L  620.40,  239.75  L  620.40,  231.25 " style="&st2;" /><text style="&st8;" transform="matrix(&st16;  605.54  237.99 )"><tspan style="&st18;" x="0" y="0">FE1</tspan></text></a><a ewd:code="FE1" ewd:figID="61" ewd:figtype="w2w" ewd:pinNo="12" style="cursor:pointer;"><path d=" M  586.40,  231.25  L  569.40,  231.25  L  569.40,  239.75  L  586.40,  239.75  L  586.40,  231.25 " style="&st2;" /><text style="&st8;" transform="matrix(&st16;  571.55  237.99 )"><tspan style="&st18;" x="0" y="0">FE1</tspan></text></a><a ewd:code="FE1" ewd:figID="62" ewd:figtype="w2w" ewd:pinNo="4" style="cursor:pointer;"><path d=" M  382.44,  197.25  L  365.44,  197.25  L  365.44,  205.75  L  382.44,  205.75  L  382.44,  197.25 " style="&st2;" /><text style="&st8;" transform="matrix(&st16;  367.58  204.0 )"><tspan style="&st18;" x="0" y="0">FE1</tspan></text></a><a ewd:code="GE1" ewd:figID="63" ewd:figtype="w2w" ewd:pinNo="12" style="cursor:pointer;"><path d=" M  382.44,  146.26  L  365.44,  146.26  L  365.44,  154.76  L  382.44,  154.76  L  382.44,  146.26 " style="&st2;" /><text style="&st8;" transform="matrix(&st16;  366.91  153.0 )"><tspan style="&st18;" x="0" y="0">GE1</tspan></text></a><a ewd:code="OK1" ewd:figID="64" ewd:figtype="w2w" ewd:pinNo="2" style="cursor:pointer;"><path d=" M  654.39,  494.70  L  637.39,  494.70  L  637.39,  503.20  L  654.39,  503.20  L  654.39,  494.70 " style="&st2;" /><text style="&st8;" transform="matrix(&st16;  638.86  501.45 )"><tspan style="&st18;" x="0" y="0">OK1</tspan></text></a><a ewd:code="AA3" ewd:figID="65" ewd:figtype="w2w" ewd:pinNo="4" style="cursor:pointer;"><path d=" M  118.98,  494.70  L  101.98,  494.70  L  101.98,  503.20  L  118.98,  503.20  L  118.98,  494.70 " style="&st2;" /><text style="&st8;" transform="matrix(&st16;  103.49  501.45 )"><tspan style="&st18;" x="0" y="0">AA3</tspan></text></a><a ewd:code="AA3" ewd:figID="66" ewd:figtype="w2w" ewd:pinNo="6" style="cursor:pointer;"><path d=" M  152.97,  494.70  L  135.98,  494.70  L  135.98,  503.20  L  152.97,  503.20  L  152.97,  494.70 " style="&st2;" /><text style="&st8;" transform="matrix(&st16;  137.49  501.45 )"><tspan style="&st18;" x="0" y="0">AA3</tspan></text></a><a ewd:code="AA3" ewd:figID="67" ewd:figtype="w2w" ewd:pinNo="5" style="cursor:pointer;"><path d=" M  186.97,  494.70  L  169.97,  494.70  L  169.97,  503.20  L  186.97,  503.20  L  186.97,  494.70 " style="&st2;" /><text style="&st8;" transform="matrix(&st16;  171.48  501.45 )"><tspan style="&st18;" x="0" y="0">AA3</tspan></text></a><a ewd:code="OK1" ewd:figID="68" ewd:figtype="w2w" ewd:pinNo="3" style="cursor:pointer;"><path d=" M  586.40,  494.70  L  569.40,  494.70  L  569.40,  503.20  L  586.40,  503.20  L  586.40,  494.70 " style="&st2;" /><text style="&st8;" transform="matrix(&st16;  570.88  501.45 )"><tspan style="&st18;" x="0" y="0">OK1</tspan></text></a><a ewd:code="OK1" ewd:figID="69" ewd:figtype="w2w" ewd:pinNo="1" style="cursor:pointer;"><path d=" M  620.40,  494.70  L  603.40,  494.70  L  603.40,  503.20  L  620.40,  503.20  L  620.40,  494.70 " style="&st2;" /><text style="&st8;" transform="matrix(&st16;  604.87  501.45 )"><tspan style="&st18;" x="0" y="0">OK1</tspan></text></a><a ewd:code="KL1" ewd:figID="70" ewd:figtype="w2w" ewd:pinNo="24" style="cursor:pointer;"><path d=" M  654.39,  443.71  L  637.39,  443.71  L  637.39,  452.21  L  654.39,  452.21  L  654.39,  443.71 " style="&st2;" /><text style="&st8;" transform="matrix(&st16;  639.68  450.45 )"><tspan style="&st18;" x="0" y="0">KL1</tspan></text></a><a ewd:code="FE3" ewd:figID="71" ewd:figtype="w2w" ewd:pinNo="2" style="cursor:pointer;"><path d=" M  152.97,  392.72  L  135.98,  392.72  L  135.98,  401.22  L  152.97,  401.22  L  152.97,  392.72 " style="&st2;" /><text style="&st8;" transform="matrix(&st16;  137.71  399.46 )"><tspan style="&st18;" x="0" y="0">FE3</tspan></text></a><a ewd:code="FE3" ewd:figID="72" ewd:figtype="w2w" ewd:pinNo="1" style="cursor:pointer;"><path d=" M  118.98,  392.72  L  101.98,  392.72  L  101.98,  401.22  L  118.98,  401.22  L  118.98,  392.72 " style="&st2;" /><text style="&st8;" transform="matrix(&st16;  103.71  399.46 )"><tspan style="&st18;" x="0" y="0">FE3</tspan></text></a><a ewd:code="KL1" ewd:figID="73" ewd:figtype="w2w" ewd:pinNo="23" style="cursor:pointer;"><path d=" M  620.40,  443.71  L  603.40,  443.71  L  603.40,  452.21  L  620.40,  452.21  L  620.40,  443.71 " style="&st2;" /><text style="&st8;" transform="matrix(&st16;  605.69  450.45 )"><tspan style="&st18;" x="0" y="0">KL1</tspan></text></a><a ewd:code="KL1" ewd:figID="74" ewd:figtype="w2w" ewd:pinNo="22" style="cursor:pointer;"><path d=" M  586.40,  443.71  L  569.40,  443.71  L  569.40,  452.21  L  586.40,  452.21  L  586.40,  443.71 " style="&st2;" /><text style="&st8;" transform="matrix(&st16;  571.69  450.45 )"><tspan style="&st18;" x="0" y="0">KL1</tspan></text></a><a ewd:code="FL1" ewd:figID="75" ewd:figtype="w2w" ewd:pinNo="46" style="cursor:pointer;"><path d=" M  586.40,  392.72  L  569.40,  392.72  L  569.40,  401.22  L  586.40,  401.22  L  586.40,  392.72 " style="&st2;" /><text style="&st8;" transform="matrix(&st16;  571.92  399.46 )"><tspan style="&st18;" x="0" y="0">FL1</tspan></text></a><a ewd:code="FL1" ewd:figID="76" ewd:figtype="w2w" ewd:pinNo="42" style="cursor:pointer;"><path d=" M  620.40,  392.72  L  603.40,  392.72  L  603.40,  401.22  L  620.40,  401.22  L  620.40,  392.72 " style="&st2;" /><text style="&st8;" transform="matrix(&st16;  605.91  399.46 )"><tspan style="&st18;" x="0" y="0">FL1</tspan></text></a><a ewd:code="FE6" ewd:figID="77" ewd:figtype="w2w" ewd:pinNo="8" style="cursor:pointer;"><path d=" M   67.99,  146.26  L   50.99,  146.26  L   50.99,  154.76  L   67.99,  154.76  L   67.99,  146.26 " style="&st2;" /><text style="&st8;" transform="matrix(&st16;  52.72  153.0 )"><tspan style="&st18;" x="0" y="0">FE6</tspan></text></a><a ewd:code="GE1" ewd:figID="78" ewd:figtype="w2w" ewd:pinNo="1" style="cursor:pointer;"><path d=" M  237.96,  197.25  L  220.96,  197.25  L  220.96,  205.75  L  237.96,  205.75  L  237.96,  197.25 " style="&st2;" /><text style="&st8;" transform="matrix(&st16;  222.43  204.0 )"><tspan style="&st18;" x="0" y="0">GE1</tspan></text></a><a ewd:code="FL1" ewd:figID="79" ewd:figtype="w2w" ewd:pinNo="41" style="cursor:pointer;"><path d=" M  654.39,  392.72  L  637.39,  392.72  L  637.39,  401.22  L  654.39,  401.22  L  654.39,  392.72 " style="&st2;" /><text style="&st8;" transform="matrix(&st16;  639.91  399.46 )"><tspan style="&st18;" x="0" y="0">FL1</tspan></text></a><a ewd:code="BA1" ewd:figID="80" ewd:figtype="w2w" ewd:pinNo="1" style="cursor:pointer;"><path d=" M  118.98,  545.69  L  101.98,  545.69  L  101.98,  554.19  L  118.98,  554.19  L  118.98,  545.69 " style="&st2;" /><text style="&st8;" transform="matrix(&st16;  103.9  552.44 )"><tspan style="&st18;" x="0" y="0">BA1</tspan></text></a><a ewd:code="BA1" ewd:figID="81" ewd:figtype="w2w" ewd:pinNo="4" style="cursor:pointer;"><path d=" M  152.97,  545.69  L  135.98,  545.69  L  135.98,  554.19  L  152.97,  554.19  L  152.97,  545.69 " style="&st2;" /><text style="&st8;" transform="matrix(&st16;  137.89  552.44 )"><tspan style="&st18;" x="0" y="0">BA1</tspan></text></a><a ewd:code="BA1" ewd:figID="82" ewd:figtype="w2w" ewd:pinNo="7" style="cursor:pointer;"><path d=" M  186.97,  545.69  L  169.97,  545.69  L  169.97,  554.19  L  186.97,  554.19  L  186.97,  545.69 " style="&st2;" /><text style="&st8;" transform="matrix(&st16;  171.89  552.44 )"><tspan style="&st18;" x="0" y="0">BA1</tspan></text></a><a ewd:code="EA2" ewd:figID="83" ewd:figtype="w2w" ewd:pinNo="33" style="cursor:pointer;"><path d=" M 3059.49,  137.76  L 3042.49,  137.76  L 3042.49,  146.26  L 3059.49,  146.26  L 3059.49,  137.76 " style="&st2;" /><text style="&st8;" transform="matrix(&st16;  3044.0  144.51 )"><tspan style="&st18;" x="0" y="0">EA2</tspan></text></a><a ewd:code="EA3" ewd:figID="84" ewd:figtype="w2w" ewd:pinNo="67" style="cursor:pointer;"><path d=" M 2974.50,  520.20  L 2957.51,  520.20  L 2957.51,  528.70  L 2974.50,  528.70  L 2974.50,  520.20 " style="&st2;" /><text style="&st8;" transform="matrix(&st16;  2959.01  526.94 )"><tspan style="&st18;" x="0" y="0">EA3</tspan></text></a><a ewd:code="EA1" ewd:figID="85" ewd:figtype="w2w" ewd:pinNo="67" style="cursor:pointer;"><path d=" M 2974.50,  528.70  L 2957.51,  528.70  L 2957.51,  537.20  L 2974.50,  537.20  L 2974.50,  528.70 " style="&st2;" /><text style="&st8;" transform="matrix(&st16;  2959.42  535.44 )"><tspan style="&st18;" x="0" y="0">EA1</tspan></text></a><a ewd:code="EA3" ewd:figID="86" ewd:figtype="w2w" ewd:pinNo="11" style="cursor:pointer;"><path d=" M 2362.61,  324.73  L 2345.61,  324.73  L 2345.61,  333.23  L 2362.61,  333.23  L 2362.61,  324.73 " style="&st2;" /><text style="&st8;" transform="matrix(&st16;  2347.12  331.47 )"><tspan style="&st18;" x="0" y="0">EA3</tspan></text></a><a ewd:code="EA1" ewd:figID="87" ewd:figtype="w2w" ewd:pinNo="11" style="cursor:pointer;"><path d=" M 2362.61,  333.23  L 2345.61,  333.23  L 2345.61,  341.73  L 2362.61,  341.73  L 2362.61,  333.23 " style="&st2;" /><text style="&st8;" transform="matrix(&st16;  2347.53  339.97 )"><tspan style="&st18;" x="0" y="0">EA1</tspan></text></a><a ewd:code="EA3" ewd:figID="88" ewd:figtype="w2w" ewd:pinNo="10" style="cursor:pointer;"><path d=" M 2320.11,  324.73  L 2303.12,  324.73  L 2303.12,  333.23  L 2320.11,  333.23  L 2320.11,  324.73 " style="&st2;" /><text style="&st8;" transform="matrix(&st16;  2304.62  331.47 )"><tspan style="&st18;" x="0" y="0">EA3</tspan></text></a><a ewd:code="EA1" ewd:figID="89" ewd:figtype="w2w" ewd:pinNo="10" style="cursor:pointer;"><path d=" M 2320.11,  333.23  L 2303.12,  333.23  L 2303.12,  341.73  L 2320.11,  341.73  L 2320.11,  333.23 " style="&st2;" /><text style="&st8;" transform="matrix(&st16;  2305.03  339.97 )"><tspan style="&st18;" x="0" y="0">EA1</tspan></text></a><a ewd:code="AA1" ewd:figID="90" ewd:figtype="w2w" ewd:pinNo="4" style="cursor:pointer;"><path d=" M 1478.75,  409.72  L 1461.76,  409.72  L 1461.76,  418.22  L 1478.75,  418.22  L 1478.75,  409.72 " style="&st2;" /><text style="&st8;" transform="matrix(&st16;  1463.67  416.46 )"><tspan style="&st18;" x="0" y="0">AA1</tspan></text></a><a ewd:code="AA1" ewd:figID="91" ewd:figtype="w2w" ewd:pinNo="3" style="cursor:pointer;"><path d=" M 1436.26,  409.72  L 1419.26,  409.72  L 1419.26,  418.22  L 1436.26,  418.22  L 1436.26,  409.72 " style="&st2;" /><text style="&st8;" transform="matrix(&st16;  1421.18  416.46 )"><tspan style="&st18;" x="0" y="0">AA1</tspan></text></a><a ewd:code="FE4" ewd:figID="92" ewd:figtype="w2w" ewd:pinNo="20" style="cursor:pointer;"><path d=" M 1665.72,  146.26  L 1648.72,  146.26  L 1648.72,  154.76  L 1665.72,  154.76  L 1665.72,  146.26 " style="&st2;" /><text style="&st8;" transform="matrix(&st16;  1650.46  153.0 )"><tspan style="&st18;" x="0" y="0">FE4</tspan></text></a><a ewd:code="FE4" ewd:figID="93" ewd:figtype="w2w" ewd:pinNo="10" style="cursor:pointer;"><path d=" M 1623.23,  146.26  L 1606.23,  146.26  L 1606.23,  154.76  L 1623.23,  154.76  L 1623.23,  146.26 " style="&st2;" /><text style="&st8;" transform="matrix(&st16;  1607.96  153.0 )"><tspan style="&st18;" x="0" y="0">FE4</tspan></text></a><a ewd:code="FE4" ewd:figID="94" ewd:figtype="w2w" ewd:pinNo="1" style="cursor:pointer;"><path d=" M 1623.23,  333.23  L 1606.23,  333.23  L 1606.23,  341.73  L 1623.23,  341.73  L 1623.23,  333.23 " style="&st2;" /><text style="&st8;" transform="matrix(&st16;  1607.96  339.97 )"><tspan style="&st18;" x="0" y="0">FE4</tspan></text></a><a ewd:code="FE4" ewd:figID="95" ewd:figtype="w2w" ewd:pinNo="11" style="cursor:pointer;"><path d=" M 1665.72,  333.23  L 1648.72,  333.23  L 1648.72,  341.73  L 1665.72,  341.73  L 1665.72,  333.23 " style="&st2;" /><text style="&st8;" transform="matrix(&st16;  1650.46  339.97 )"><tspan style="&st18;" x="0" y="0">FE4</tspan></text></a><a ewd:code="AE3" ewd:figID="96" ewd:figtype="w2w" ewd:pinNo="1" style="cursor:pointer;"><path d=" M 1512.75,  333.23  L 1495.75,  333.23  L 1495.75,  341.73  L 1512.75,  341.73  L 1512.75,  333.23 " style="&st2;" /><text style="&st8;" transform="matrix(&st16;  1497.26  339.97 )"><tspan style="&st18;" x="0" y="0">AE3</tspan></text></a><a ewd:code="AE3" ewd:figID="97" ewd:figtype="w2w" ewd:pinNo="2" style="cursor:pointer;"><path d=" M 1402.27,  333.23  L 1385.27,  333.23  L 1385.27,  341.73  L 1402.27,  341.73  L 1402.27,  333.23 " style="&st2;" /><text style="&st8;" transform="matrix(&st16;  1386.78  339.97 )"><tspan style="&st18;" x="0" y="0">AE3</tspan></text></a><a ewd:code="EA1" ewd:figID="98" ewd:figtype="w2w" ewd:pinNo="31" style="cursor:pointer;"><path d=" M 1478.75,  333.23  L 1461.76,  333.23  L 1461.76,  341.73  L 1478.75,  341.73  L 1478.75,  333.23 " style="&st2;" /><text style="&st8;" transform="matrix(&st16;  1463.67  339.97 )"><tspan style="&st18;" x="0" y="0">EA1</tspan></text></a><a ewd:code="EA1" ewd:figID="99" ewd:figtype="w2w" ewd:pinNo="32" style="cursor:pointer;"><path d=" M 1436.26,  333.23  L 1419.26,  333.23  L 1419.26,  341.73  L 1436.26,  341.73  L 1436.26,  333.23 " style="&st2;" /><text style="&st8;" transform="matrix(&st16;  1421.18  339.97 )"><tspan style="&st18;" x="0" y="0">EA1</tspan></text></a><a ewd:code="EK2" ewd:figID="100" ewd:figtype="w2w" ewd:pinNo="19" style="cursor:pointer;"><path d=" M 3594.90,  265.24  L 3577.90,  265.24  L 3577.90,  273.74  L 3594.90,  273.74  L 3594.90,  265.24 " style="&st2;" /><text style="&st8;" transform="matrix(&st16;  3579.41  271.98 )"><tspan style="&st18;" x="0" y="0">EK2</tspan></text></a><a ewd:code="EK2" ewd:figID="101" ewd:figtype="w2w" ewd:pinNo="29" style="cursor:pointer;"><path d=" M 3560.91,  265.24  L 3543.91,  265.24  L 3543.91,  273.74  L 3560.91,  273.74  L 3560.91,  265.24 " style="&st2;" /><text style="&st8;" transform="matrix(&st16;  3545.42  271.98 )"><tspan style="&st18;" x="0" y="0">EK2</tspan></text></a><a ewd:code="KL1" ewd:figID="102" ewd:figtype="w2w" ewd:pinNo="2" style="cursor:pointer;"><path d=" M 3594.90,  307.73  L 3577.90,  307.73  L 3577.90,  316.23  L 3594.90,  316.23  L 3594.90,  307.73 " style="&st2;" /><text style="&st8;" transform="matrix(&st16;  3580.19  314.48 )"><tspan style="&st18;" x="0" y="0">KL1</tspan></text></a><a ewd:code="KL1" ewd:figID="103" ewd:figtype="w2w" ewd:pinNo="3" style="cursor:pointer;"><path d=" M 3560.91,  307.73  L 3543.91,  307.73  L 3543.91,  316.23  L 3560.91,  316.23  L 3560.91,  307.73 " style="&st2;" /><text style="&st8;" transform="matrix(&st16;  3546.2  314.48 )"><tspan style="&st18;" x="0" y="0">KL1</tspan></text></a><a ewd:code="EL1" ewd:figID="104" ewd:figtype="w2w" ewd:pinNo="73" style="cursor:pointer;"><path d=" M 3594.90,  426.71  L 3577.90,  426.71  L 3577.90,  435.21  L 3594.90,  435.21  L 3594.90,  426.71 " style="&st2;" /><text style="&st8;" transform="matrix(&st16;  3580.19  433.46 )"><tspan style="&st18;" x="0" y="0">EL1</tspan></text></a><a ewd:code="EL1" ewd:figID="105" ewd:figtype="w2w" ewd:pinNo="74" style="cursor:pointer;"><path d=" M 3560.91,  426.71  L 3543.91,  426.71  L 3543.91,  435.21  L 3560.91,  435.21  L 3560.91,  426.71 " style="&st2;" /><text style="&st8;" transform="matrix(&st16;  3546.2  433.46 )"><tspan style="&st18;" x="0" y="0">EL1</tspan></text></a><a ewd:code="RE2" ewd:figID="106" ewd:figtype="w2w" ewd:pinNo="19" style="cursor:pointer;"><path d=" M 3178.47,  239.75  L 3161.47,  239.75  L 3161.47,  248.24  L 3178.47,  248.24  L 3178.47,  239.75 " style="&st2;" /><text style="&st8;" transform="matrix(&st16;  3162.83  246.49 )"><tspan style="&st18;" x="0" y="0">RE2</tspan></text></a><a ewd:code="CA3" ewd:figID="107" ewd:figtype="w2w" ewd:pinNo="25" style="cursor:pointer;"><path d=" M 2762.04,  146.26  L 2745.04,  146.26  L 2745.04,  154.76  L 2762.04,  154.76  L 2762.04,  146.26 " style="&st2;" /><text style="&st8;" transform="matrix(&st16;  2746.4  153.0 )"><tspan style="&st18;" x="0" y="0">CA3</tspan></text></a><a ewd:code="EA2" ewd:figID="108" ewd:figtype="w2w" ewd:pinNo="9" style="cursor:pointer;"><path d=" M 2133.14,  401.22  L 2116.15,  401.22  L 2116.15,  409.72  L 2133.14,  409.72  L 2133.14,  401.22 " style="&st2;" /><text style="&st8;" transform="matrix(&st16;  2117.65  407.96 )"><tspan style="&st18;" x="0" y="0">EA2</tspan></text></a><a ewd:code="EA2" ewd:figID="109" ewd:figtype="w2w" ewd:pinNo="10" style="cursor:pointer;"><path d=" M 2175.64,  401.22  L 2158.64,  401.22  L 2158.64,  409.72  L 2175.64,  409.72  L 2175.64,  401.22 " style="&st2;" /><text style="&st8;" transform="matrix(&st16;  2160.15  407.96 )"><tspan style="&st18;" x="0" y="0">EA2</tspan></text></a><a ewd:code="C10" ewd:figID="110" ewd:figtype="gp" style="cursor:pointer;"><path d=" M 3048.87,  681.67  L 3070.11,  681.67  L 3059.49,  697.25  L 3048.87,  681.67 " style="&st2;" /><text style="&st8;" transform="matrix(&st16;  3053.13  689.83 )"><tspan style="&st18;" x="0" y="0">C10</tspan></text></a><a ewd:code="E3" ewd:figID="111" ewd:figtype="gp" style="cursor:pointer;"><path d=" M 3405.81,  681.67  L 3427.05,  681.67  L 3416.43,  697.25  L 3405.81,  681.67 " style="&st2;" /><text style="&st8;" transform="matrix(&st16;  3411.89  689.83 )"><tspan style="&st18;" x="0" y="0">E3</tspan></text></a><a ewd:code="C6" ewd:figID="112" ewd:figtype="gp" style="cursor:pointer;"><path d=" M 2122.52,  681.67  L 2143.77,  681.67  L 2133.14,  697.25  L 2122.52,  681.67 " style="&st2;" /><text style="&st8;" transform="matrix(&st16;  2128.46  689.83 )"><tspan style="&st18;" x="0" y="0">C6</tspan></text></a><a ewd:code="F1" ewd:figID="113" ewd:figtype="gp" style="cursor:pointer;"><path d=" M   48.87,  681.67  L   70.11,  681.67  L   59.49,  697.25  L   48.87,  681.67 " style="&st2;" /><text style="&st8;" transform="matrix(&st16;  55.59  689.83 )"><tspan style="&st18;" x="0" y="0">F1</tspan></text></a><a ewd:code="C1" ewd:figID="114" ewd:figtype="gp" style="cursor:pointer;"><path d=" M 2165.01,  681.67  L 2186.26,  681.67  L 2175.64,  697.25  L 2165.01,  681.67 " style="&st2;" /><text style="&st8;" transform="matrix(&st16;  2171.36  689.83 )"><tspan style="&st18;" x="0" y="0">C1</tspan></text></a><a ewd:code="C3" ewd:figID="115" ewd:figtype="gp" style="cursor:pointer;"><path d=" M 2955.38,  681.67  L 2976.63,  681.67  L 2966.00,  697.25  L 2955.38,  681.67 " style="&st2;" /><text style="&st8;" transform="matrix(&st16;  2961.32  689.83 )"><tspan style="&st18;" x="0" y="0">C3</tspan></text></a><a ewd:code="C7" ewd:figID="116" ewd:figtype="gp" style="cursor:pointer;"><path d=" M 2632.44,  681.67  L 2653.68,  681.67  L 2643.06,  697.25  L 2632.44,  681.67 " style="&st2;" /><text style="&st8;" transform="matrix(&st16;  2638.37  689.83 )"><tspan style="&st18;" x="0" y="0">C7</tspan></text></a><a ewd:code="C8" ewd:figID="117" ewd:figtype="gp" style="cursor:pointer;"><path d=" M 3006.37,  681.67  L 3027.62,  681.67  L 3017.00,  697.25  L 3006.37,  681.67 " style="&st2;" /><text style="&st8;" transform="matrix(&st16;  3012.31  689.83 )"><tspan style="&st18;" x="0" y="0">C8</tspan></text></a><a ewd:code="C1" ewd:figID="118" ewd:figtype="gp" style="cursor:pointer;"><path d=" M 2904.39,  681.67  L 2925.64,  681.67  L 2915.01,  697.25  L 2904.39,  681.67 " style="&st2;" /><text style="&st8;" transform="matrix(&st16;  2910.74  689.83 )"><tspan style="&st18;" x="0" y="0">C1</tspan></text></a><a ewd:code="E1" ewd:figID="119" ewd:figtype="gp" style="cursor:pointer;"><path d=" M 3482.29,  681.67  L 3503.54,  681.67  L 3492.92,  697.25  L 3482.29,  681.67 " style="&st2;" /><text style="&st8;" transform="matrix(&st16;  3488.79  689.83 )"><tspan style="&st18;" x="0" y="0">E1</tspan></text></a><a ewd:code="20173" ewd:figID="120" ewd:figtype="sp" style="cursor:pointer;"><path d=" M 3412.18,  622.18  L 3420.68,  622.18  L 3424.93,  626.43  L 3424.93,  634.93  L 3420.68,  639.18  L 3412.18,  639.18  L 3407.93,  634.93  L 3407.93,  626.43  L 3412.18,  622.18 " style="&st2;" /></a><a ewd:code="13717" ewd:figID="121" ewd:figtype="sp" style="cursor:pointer;"><path d=" M 2715.30,  545.69  L 2723.79,  545.69  L 2728.04,  549.94  L 2728.04,  558.44  L 2723.79,  562.69  L 2715.30,  562.69  L 2711.05,  558.44  L 2711.05,  549.94  L 2715.30,  545.69 " style="&st2;" /></a><a ewd:code="13705" ewd:figID="122" ewd:figtype="sp" style="cursor:pointer;"><path d=" M 2715.30,  477.71  L 2723.79,  477.71  L 2728.04,  481.95  L 2728.04,  490.45  L 2723.79,  494.70  L 2715.30,  494.70  L 2711.05,  490.45  L 2711.05,  481.95  L 2715.30,  477.71 " style="&st2;" /></a><a ewd:code="12673" ewd:figID="123" ewd:figtype="sp" style="cursor:pointer;"><path d=" M 2128.89,  537.20  L 2137.39,  537.20  L 2141.64,  541.44  L 2141.64,  549.94  L 2137.39,  554.19  L 2128.89,  554.19  L 2124.65,  549.94  L 2124.65,  541.44  L 2128.89,  537.20 " style="&st2;" /></a></g></svg>