﻿<?xml version="1.0" encoding="utf-8"?>
<!DOCTYPE svg PUBLIC "-//W3C//DTD SVG 1.0//EN" "http://www.w3.org/TR/2001/REC-SVG-20010904/DTD/svg10.dtd"[
	<!ENTITY ns_flows "http://ns.adobe.com/Flows/1.0/">
	<!ENTITY ns_svg "http://www.w3.org/2000/svg">
	<!ENTITY ns_xlink "http://www.w3.org/1999/xlink">
	<!ENTITY st0 "font-size:7px;font-family:'MS-PGothic';adobe-font-script:japanese;">
	<!ENTITY st1 "font-size:6px;font-family:'ArialMT';">
	<!-- White fill  -->
	<!ENTITY st2 "fill:#FFFFFF;stroke:#000000; stroke-width:1.41;stroke-linecap:round;stroke-linejoin:round;">
	<!-- Yellow fill  -->
	<!ENTITY st3 "fill:#FFFFCC;stroke:#FFFFCC; stroke-width:0.1;stroke-linecap:round;stroke-linejoin:round;">
	<!-- Gray fill  -->
	<!ENTITY st4 "fill:#CCCCCC;stroke:#CCCCCC; stroke-width:0.1;stroke-linecap:round;stroke-linejoin:round;">
	<!-- Light-blue fill -->
	<!ENTITY st5 "fill:#CCECF4;stroke:#000000; stroke-width:1.133;stroke-linecap:round;stroke-linejoin:round;">
	<!ENTITY st6 "fill:none;stroke-linecap:butt; stroke-linejoin:round;">
	<!ENTITY st7 "fill:none;stroke:#000000;stroke-linecap:round;stroke-linejoin:round;">
	<!ENTITY st8 "enable-background:new    ;">
	<!-- Black fill -->
	<!ENTITY st9 "fill:#000000;stroke:#000000; stroke-linecap:round;stroke-linejoin:round;">
	<!-- SRS note   -->
	<!ENTITY st10 "font-size:9px;font-family:'ArialMT';">
	<!ENTITY st11 "font-size:9px;font-family:'Svg Symbol';">
	<!ENTITY st12 "font-size:6px;font-family:'Svg Symbol';">
	<!ENTITY st13 "fill:none;stroke:#ff0000;stroke-linecap:round;stroke-linejoin:round;">
	<!-- Yellow fill  -->
	<!ENTITY st14 "fill:#FFFF00;stroke:#FFFF00; stroke-width:0.1;stroke-linecap:round;stroke-linejoin:round;">
	<!ENTITY st15 "font-size:6px;font-family:'MS-PGothic';adobe-font-script:japanese;">
	<!ENTITY st16 "1.00 0.00 0.00 1.00">
	<!ENTITY st17 "0.00 -1.00 1.00 0.00">
	<!ENTITY st18 "font-size:6px;font-family:'Arial';">
	<!ENTITY st19 "font-size:9px;font-family:'Arial';">
	<!ENTITY st20 "font-size:6px;font-family:'MS-PGothic','MS PGothic';adobe-font-script:japanese;">
	<!ENTITY st21 "font-size:7px;font-family:'MS-PGothic','MS PGothic';adobe-font-script:japanese;">
	<!ATTLIST svg
		xmlns:ewd CDATA #FIXED "http://shcl.co.jp/ewd"
		xmlns:a CDATA #FIXED "http://ns.adobe.com/AdobeSVGViewerExtensions/3.0/"
		ewd:ver CDATA #IMPLIED
	>
	<!ATTLIST a
		ewd:lineID CDATA #IMPLIED
		ewd:groupID CDATA #IMPLIED
		ewd:figtype CDATA #IMPLIED
		ewd:code CDATA #IMPLIED
		ewd:figID CDATA #IMPLIED
		ewd:pinNo CDATA #IMPLIED
		ewd:comment CDATA #IMPLIED >
	<!ATTLIST g
		ewd:lineID CDATA #IMPLIED
		ewd:groupID CDATA #IMPLIED
		ewd:figtype CDATA #IMPLIED
		ewd:code CDATA #IMPLIED
		ewd:figID CDATA #IMPLIED
		ewd:pinNo CDATA #IMPLIED
		ewd:comment CDATA #IMPLIED >
	<!ATTLIST text
		ewd:textID CDATA #IMPLIED >
	<!ATTLIST title
		ewd:textID CDATA #IMPLIED >
]>
<!-- Generator: Shintec Hozumi YS   -->
<svg onload="call_execInitLoadProc_svg('system')" style="overflow:visible;  enable-background:new 0 0 4139.003 710.000" viewBox="0 0 4139.003 710.000" height="710.000" width="4139.003" xml:space="preserve" ewd:ver="L2.1.2.8" xmlns="&ns_svg;" xmlns:a="http://ns.adobe.com/AdobeSVGViewerExtensions/3.0/" xmlns:ewd="http://shcl.co.jp/ewd" xmlns:xlink="&ns_xlink;">
<path d=" M 3928.47,  265.24  L 3924.22,  265.24 " style="stroke-width: 1.42 ;&st7; " /><path d=" M 3928.47,  256.74  L 3924.22,  256.74 " style="stroke-width: 1.42 ;&st7; " /><path d=" M 3977.34,   69.77  L 3977.34,   78.27 " style="stroke-width: 0.85 ;&st7; " /><path d=" M 3875.35,  402.63  L 3881.02,  379.97 " style="stroke-width: 1.42 ;&st7; " /><path d=" M 3875.35,  418.22  L 3875.35,  405.47 " style="stroke-width: 0.85 ;&st7; " /><path d=" M 3875.35,  379.97  L 3875.35,  367.22 " style="stroke-width: 0.85 ;&st7; " /><path d=" M 3841.36,   69.77  L 3841.36,   78.27 " style="stroke-width: 0.85 ;&st7; " /><path d=" M 3909.35,   69.77  L 3909.35,   78.27 " style="stroke-width: 0.85 ;&st7; " /><path d=" M 3679.88,  188.75  L 3679.88,  231.25  L 4062.32,  231.25  L 4062.32,  188.75  L 3679.88,  188.75 " style="stroke-width: 1.42 ;&st7; " /><path d=" M 3535.41,  256.74  L 3535.41,  239.75 " style="stroke-width: 0.85 ;&st7; " /><path d=" M 3909.35,   78.27  L 3909.35,  188.75 " style="stroke-width: 0.85 ;&st7; " /><path d=" M 3922.09,   78.27  L 3922.09,   35.78  L 3896.60,   35.78  L 3896.60,   78.27  L 3922.09,   78.27 " style="stroke-width: 1.42 ;&st7; " /><path d=" M 3854.10,   78.27  L 3854.10,   35.78  L 3828.61,   35.78  L 3828.61,   78.27  L 3854.10,   78.27 " style="stroke-width: 1.42 ;&st7; " /><path d=" M 3841.36,   78.27  L 3841.36,  188.75 " style="stroke-width: 0.85 ;&st7; " /><path d=" M 3968.84,  486.20  L 3985.83,  486.20  L 3985.83,  503.20  L 3968.84,  503.20  L 3968.84,  486.20 " style="stroke-width: 1.42 ;&st7; " /><path d=" M 3977.33,  486.20  L 3977.33,  503.20 " style="stroke-width: 0.85 ;&st7; " /><path d=" M 3977.33,  697.25  L 3977.33,  701.50 " style="stroke-width: 0.85 ;&st7; " /><path d=" M 3968.84,  701.50  L 3985.83,  701.50 " style="stroke-width: 0.85 ;&st7; " /><path d=" M 3973.08,  704.33  L 3981.58,  704.33 " style="stroke-width: 0.85 ;&st7; " /><path d=" M 3974.50,  707.17  L 3980.17,  707.17 " style="stroke-width: 0.85 ;&st7; " /><path d=" M 3975.92,  710.00  L 3978.75,  710.00 " style="stroke-width: 0.85 ;&st7; " /><path d=" M 3977.33,  486.20  L 3977.33,  503.20 " style="stroke-width: 0.85 ;&st7; " /><path d=" M 3926.34,  503.20  L 3926.34,  486.20 " style="stroke-width: 0.85 ;&st7; " /><path d=" M 3917.84,  486.20  L 3917.84,  503.20  L 3934.84,  503.20  L 3934.84,  486.20  L 3917.84,  486.20 " style="stroke-width: 1.42 ;&st7; " /><path d=" M 3924.93,  710.00  L 3927.76,  710.00 " style="stroke-width: 0.85 ;&st7; " /><path d=" M 3977.33,   78.27  L 3977.33,  188.75 " style="stroke-width: 0.85 ;&st7; " /><path d=" M 3990.08,   78.27  L 3990.08,   35.78  L 3964.59,   35.78  L 3964.59,   78.27  L 3990.08,   78.27 " style="stroke-width: 1.42 ;&st7; " /><path d=" M 3923.51,  707.17  L 3929.18,  707.17 " style="stroke-width: 0.85 ;&st7; " /><path d=" M 3922.09,  704.33  L 3930.59,  704.33 " style="stroke-width: 0.85 ;&st7; " /><path d=" M 3917.84,  701.50  L 3934.84,  701.50 " style="stroke-width: 0.85 ;&st7; " /><path d=" M 3926.34,  697.25  L 3926.34,  701.50 " style="stroke-width: 0.85 ;&st7; " /><path d=" M 3926.34,  231.25  L 3926.34,  256.74 " style="stroke-width: 0.85 ;&st7; " /><path d=" M 3926.34,  251.85  L 3923.51,  249.01  L 3923.51,  253.26  L 3926.34,  256.10  L 3929.18,  253.26  L 3929.18,  249.01  L 3926.34,  251.85 " style="stroke-width: 0.28 ;&st9;" /><path d=" M 3858.35,  367.22  L 3858.35,  418.22  L 3900.85,  418.22  L 3900.85,  367.22  L 3858.35,  367.22 " style="stroke-width: 1.42 ;&st7; " /><path d=" M 3926.34,  494.70  L 3917.84,  494.70 " style="stroke-width: 0.85 ;&st7; " /><path d=" M 3925.15,  493.70  L 3924.88,  494.17  L 3924.78,  494.70  L 3924.88,  495.24  L 3925.15,  495.71  L 3925.56,  496.05  L 3926.07,  496.24  L 3926.61,  496.24  L 3927.12,  496.05  L 3927.53,  495.71  L 3927.81,  495.24  L 3927.90,  494.70  L 3927.81,  494.17  L 3927.53,  493.70  L 3927.12,  493.35  L 3926.61,  493.17  L 3926.07,  493.17  L 3925.56,  493.35  L 3925.15,  493.70  L 3925.54,  494.41  L 3925.54,  494.99  L 3925.92,  495.44  L 3926.49,  495.54  L 3926.99,  495.25  L 3927.19,  494.70  L 3926.99,  494.16  L 3926.49,  493.87  L 3925.92,  493.97  L 3926.34,  494.70 " style="stroke-width: 0.85 ;&st7; " /><path d=" M 3781.87,  316.23  L 3781.87,  333.23  L 3832.86,  333.23  L 3832.86,  316.23  L 3781.87,  316.23 " style="stroke-width: 1.42 ;&st7; " /><path d=" M 3790.37,  324.73  L 3824.36,  324.73  L 3824.36,  316.23 " style="stroke-width: 0.85 ;&st7; " /><path d=" M 3773.37,  409.72  L 3773.37,  443.71  L 3807.36,  443.71  L 3807.36,  409.72  L 3773.37,  409.72 " style="stroke-width: 1.42 ;&st7; " /><path d=" M 3790.37,  316.23  L 3790.37,  333.23 " style="stroke-width: 0.85 ;&st7; " /><path d=" M 3789.17,  323.73  L 3788.90,  324.20  L 3788.81,  324.73  L 3788.90,  325.26  L 3789.17,  325.73  L 3789.59,  326.08  L 3790.10,  326.27  L 3790.63,  326.27  L 3791.14,  326.08  L 3791.56,  325.73  L 3791.83,  325.26  L 3791.92,  324.73  L 3791.83,  324.20  L 3791.56,  323.73  L 3791.14,  323.38  L 3790.63,  323.20  L 3790.10,  323.20  L 3789.59,  323.38  L 3789.17,  323.73  L 3789.57,  324.44  L 3789.57,  325.02  L 3789.94,  325.47  L 3790.51,  325.57  L 3791.02,  325.28  L 3791.21,  324.73  L 3791.02,  324.18  L 3790.51,  323.90  L 3789.94,  323.99  L 3790.37,  324.73 " style="stroke-width: 0.85 ;&st7; " /><path d=" M 3932.72,  260.99  C 3932.72   258.64  3930.82   256.74  3928.47   256.74 " style="stroke-width: 1.42 ;&st7; " /><path d=" M 3928.47,  265.24  C 3930.82   265.24  3932.72   263.34  3932.72   260.99 " style="stroke-width: 1.42 ;&st7; " /><path d=" M 3919.97,  260.99  C 3919.97   263.34  3921.87   265.24  3924.22   265.24 " style="stroke-width: 1.42 ;&st7; " /><path d=" M 3924.22,  256.74  C 3921.87   256.74  3919.97   258.64  3919.97   260.99 " style="stroke-width: 1.42 ;&st7; " /><path d=" M 3977.34,   47.11  C 3974.60    48.72  3973.69    52.25  3975.30    54.99 " style="stroke-width: 1.42 ;&st7; " /><path d=" M 3975.30,   54.99  C 3975.82    55.87  3976.45    56.51  3977.34    57.03 " style="stroke-width: 1.42 ;&st7; " /><path d=" M 3977.34,   66.94  C 3980.07    65.33  3980.99    61.80  3979.37    59.06 " style="stroke-width: 1.42 ;&st7; " /><path d=" M 3979.37,   59.06  C 3978.85    58.18  3978.22    57.55  3977.34    57.03 " style="stroke-width: 1.42 ;&st7; " /><path d=" M 3978.75,   45.69  C 3978.75    44.91  3978.12    44.28  3977.34    44.28 " style="stroke-width: 0.85 ;&st7; " /><path d=" M 3977.34,   44.28  C 3976.55    44.28  3975.92    44.91  3975.92    45.69 " style="stroke-width: 0.85 ;&st7; " /><path d=" M 3975.92,   45.69  C 3975.92    46.48  3976.55    47.11  3977.34    47.11 " style="stroke-width: 0.85 ;&st7; " /><path d=" M 3977.34,   47.11  C 3978.12    47.11  3978.75    46.48  3978.75    45.69 " style="stroke-width: 0.85 ;&st7; " /><path d=" M 3978.75,   68.36  C 3978.75    67.57  3978.12    66.94  3977.34    66.94 " style="stroke-width: 0.85 ;&st7; " /><path d=" M 3977.34,   66.94  C 3976.55    66.94  3975.92    67.57  3975.92    68.36 " style="stroke-width: 0.85 ;&st7; " /><path d=" M 3975.92,   68.36  C 3975.92    69.14  3976.55    69.77  3977.34    69.77 " style="stroke-width: 0.85 ;&st7; " /><path d=" M 3977.34,   69.77  C 3978.12    69.77  3978.75    69.14  3978.75    68.36 " style="stroke-width: 0.85 ;&st7; " /><path d=" M 3879.89,  235.78  C 3879.89   233.28  3877.86   231.25  3875.35   231.25 " style="stroke-width: 1.42 ;&st7; " /><path d=" M 3875.35,  231.25  C 3872.85   231.25  3870.82   233.28  3870.82   235.78 " style="stroke-width: 1.42 ;&st7; " /><path d=" M 3870.82,  235.78  C 3870.82   238.28  3872.85   240.31  3875.35   240.31 " style="stroke-width: 1.42 ;&st7; " /><path d=" M 3875.35,  240.31  C 3877.86   240.31  3879.89   238.28  3879.89   235.78 " style="stroke-width: 1.42 ;&st7; " /><path d=" M 3876.77,  404.05  C 3876.77   403.27  3876.13   402.63  3875.35   402.63 " style="stroke-width: 0.85 ;&st7; " /><path d=" M 3875.35,  402.63  C 3874.57   402.63  3873.94   403.27  3873.94   404.05 " style="stroke-width: 0.85 ;&st7; " /><path d=" M 3873.94,  404.05  C 3873.94   404.83  3874.57   405.47  3875.35   405.47 " style="stroke-width: 0.85 ;&st7; " /><path d=" M 3875.35,  405.47  C 3876.13   405.47  3876.77   404.83  3876.77   404.05 " style="stroke-width: 0.85 ;&st7; " /><path d=" M 3876.77,  381.39  C 3876.77   380.61  3876.13   379.97  3875.35   379.97 " style="stroke-width: 0.85 ;&st7; " /><path d=" M 3875.35,  379.97  C 3874.57   379.97  3873.94   380.61  3873.94   381.39 " style="stroke-width: 0.85 ;&st7; " /><path d=" M 3873.94,  381.39  C 3873.94   382.17  3874.57   382.80  3875.35   382.80 " style="stroke-width: 0.85 ;&st7; " /><path d=" M 3875.35,  382.80  C 3876.13   382.80  3876.77   382.17  3876.77   381.39 " style="stroke-width: 0.85 ;&st7; " /><path d=" M 3828.89,  235.78  C 3828.89   233.28  3826.86   231.25  3824.36   231.25 " style="stroke-width: 1.42 ;&st7; " /><path d=" M 3824.36,  231.25  C 3821.86   231.25  3819.83   233.28  3819.83   235.78 " style="stroke-width: 1.42 ;&st7; " /><path d=" M 3819.83,  235.78  C 3819.83   238.28  3821.86   240.31  3824.36   240.31 " style="stroke-width: 1.42 ;&st7; " /><path d=" M 3824.36,  240.31  C 3826.86   240.31  3828.89   238.28  3828.89   235.78 " style="stroke-width: 1.42 ;&st7; " /><path d=" M 3794.90,  235.78  C 3794.90   233.28  3792.87   231.25  3790.37   231.25 " style="stroke-width: 1.42 ;&st7; " /><path d=" M 3790.37,  231.25  C 3787.86   231.25  3785.83   233.28  3785.83   235.78 " style="stroke-width: 1.42 ;&st7; " /><path d=" M 3785.83,  235.78  C 3785.83   238.28  3787.86   240.31  3790.37   240.31 " style="stroke-width: 1.42 ;&st7; " /><path d=" M 3790.37,  240.31  C 3792.87   240.31  3794.90   238.28  3794.90   235.78 " style="stroke-width: 1.42 ;&st7; " /><path d=" M 3828.89,  311.70  C 3828.89   309.20  3826.86   307.17  3824.36   307.17 " style="stroke-width: 1.42 ;&st7; " /><path d=" M 3824.36,  307.17  C 3821.86   307.17  3819.83   309.20  3819.83   311.70 " style="stroke-width: 1.42 ;&st7; " /><path d=" M 3819.83,  311.70  C 3819.83   314.20  3821.86   316.23  3824.36   316.23 " style="stroke-width: 1.42 ;&st7; " /><path d=" M 3824.36,  316.23  C 3826.86   316.23  3828.89   314.20  3828.89   311.70 " style="stroke-width: 1.42 ;&st7; " /><path d=" M 3794.90,  311.70  C 3794.90   309.20  3792.87   307.17  3790.37   307.17 " style="stroke-width: 1.42 ;&st7; " /><path d=" M 3790.37,  307.17  C 3787.86   307.17  3785.83   309.20  3785.83   311.70 " style="stroke-width: 1.42 ;&st7; " /><path d=" M 3785.83,  311.70  C 3785.83   314.20  3787.86   316.23  3790.37   316.23 " style="stroke-width: 1.42 ;&st7; " /><path d=" M 3790.37,  316.23  C 3792.87   316.23  3794.90   314.20  3794.90   311.70 " style="stroke-width: 1.42 ;&st7; " /><path d=" M 3794.90,  337.76  C 3794.90   335.26  3792.87   333.23  3790.37   333.23 " style="stroke-width: 1.42 ;&st7; " /><path d=" M 3790.37,  333.23  C 3787.86   333.23  3785.83   335.26  3785.83   337.76 " style="stroke-width: 1.42 ;&st7; " /><path d=" M 3785.83,  337.76  C 3785.83   340.27  3787.86   342.29  3790.37   342.29 " style="stroke-width: 1.42 ;&st7; " /><path d=" M 3790.37,  342.29  C 3792.87   342.29  3794.90   340.27  3794.90   337.76 " style="stroke-width: 1.42 ;&st7; " /><path d=" M 3709.91,  184.22  C 3709.91   181.72  3707.88   179.69  3705.38   179.69 " style="stroke-width: 1.42 ;&st7; " /><path d=" M 3705.38,  179.69  C 3702.88   179.69  3700.85   181.72  3700.85   184.22 " style="stroke-width: 1.42 ;&st7; " /><path d=" M 3700.85,  184.22  C 3700.85   186.72  3702.88   188.75  3705.38   188.75 " style="stroke-width: 1.42 ;&st7; " /><path d=" M 3705.38,  188.75  C 3707.88   188.75  3709.91   186.72  3709.91   184.22 " style="stroke-width: 1.42 ;&st7; " /><path d=" M 3743.91,  184.22  C 3743.91   181.72  3741.88   179.69  3739.38   179.69 " style="stroke-width: 1.42 ;&st7; " /><path d=" M 3739.38,  179.69  C 3736.87   179.69  3734.84   181.72  3734.84   184.22 " style="stroke-width: 1.42 ;&st7; " /><path d=" M 3734.84,  184.22  C 3734.84   186.72  3736.87   188.75  3739.38   188.75 " style="stroke-width: 1.42 ;&st7; " /><path d=" M 3739.38,  188.75  C 3741.88   188.75  3743.91   186.72  3743.91   184.22 " style="stroke-width: 1.42 ;&st7; " /><path d=" M 3701.41,  235.78  C 3701.41   233.28  3699.39   231.25  3696.88   231.25 " style="stroke-width: 1.42 ;&st7; " /><path d=" M 3696.88,  231.25  C 3694.38   231.25  3692.35   233.28  3692.35   235.78 " style="stroke-width: 1.42 ;&st7; " /><path d=" M 3692.35,  235.78  C 3692.35   238.28  3694.38   240.31  3696.88   240.31 " style="stroke-width: 1.42 ;&st7; " /><path d=" M 3696.88,  240.31  C 3699.39   240.31  3701.41   238.28  3701.41   235.78 " style="stroke-width: 1.42 ;&st7; " /><path d=" M 3735.41,  235.78  C 3735.41   233.28  3733.38   231.25  3730.88   231.25 " style="stroke-width: 1.42 ;&st7; " /><path d=" M 3730.88,  231.25  C 3728.37   231.25  3726.34   233.28  3726.34   235.78 " style="stroke-width: 1.42 ;&st7; " /><path d=" M 3726.34,  235.78  C 3726.34   238.28  3728.37   240.31  3730.88   240.31 " style="stroke-width: 1.42 ;&st7; " /><path d=" M 3730.88,  240.31  C 3733.38   240.31  3735.41   238.28  3735.41   235.78 " style="stroke-width: 1.42 ;&st7; " /><path d=" M 3910.76,   68.36  C 3910.76    67.57  3910.13    66.94  3909.35    66.94 " style="stroke-width: 0.85 ;&st7; " /><path d=" M 3909.35,   66.94  C 3908.56    66.94  3907.93    67.57  3907.93    68.36 " style="stroke-width: 0.85 ;&st7; " /><path d=" M 3907.93,   68.36  C 3907.93    69.14  3908.56    69.77  3909.35    69.77 " style="stroke-width: 0.85 ;&st7; " /><path d=" M 3909.35,   69.77  C 3910.13    69.77  3910.76    69.14  3910.76    68.36 " style="stroke-width: 0.85 ;&st7; " /><path d=" M 3910.76,   45.69  C 3910.76    44.91  3910.13    44.28  3909.35    44.28 " style="stroke-width: 0.85 ;&st7; " /><path d=" M 3909.35,   44.28  C 3908.56    44.28  3907.93    44.91  3907.93    45.69 " style="stroke-width: 0.85 ;&st7; " /><path d=" M 3907.93,   45.69  C 3907.93    46.48  3908.56    47.11  3909.35    47.11 " style="stroke-width: 0.85 ;&st7; " /><path d=" M 3909.35,   47.11  C 3910.13    47.11  3910.76    46.48  3910.76    45.69 " style="stroke-width: 0.85 ;&st7; " /><path d=" M 3909.35,   66.94  C 3912.08    65.33  3913.00    61.80  3911.38    59.06 " style="stroke-width: 1.42 ;&st7; " /><path d=" M 3911.38,   59.06  C 3910.86    58.18  3910.23    57.55  3909.35    57.03 " style="stroke-width: 1.42 ;&st7; " /><path d=" M 3909.35,   47.11  C 3906.61    48.72  3905.70    52.25  3907.31    54.99 " style="stroke-width: 1.42 ;&st7; " /><path d=" M 3907.31,   54.99  C 3907.83    55.87  3908.46    56.51  3909.35    57.03 " style="stroke-width: 1.42 ;&st7; " /><path d=" M 3842.77,   68.36  C 3842.77    67.57  3842.14    66.94  3841.36    66.94 " style="stroke-width: 0.85 ;&st7; " /><path d=" M 3841.36,   66.94  C 3840.58    66.94  3839.94    67.57  3839.94    68.36 " style="stroke-width: 0.85 ;&st7; " /><path d=" M 3839.94,   68.36  C 3839.94    69.14  3840.58    69.77  3841.36    69.77 " style="stroke-width: 0.85 ;&st7; " /><path d=" M 3841.36,   69.77  C 3842.14    69.77  3842.77    69.14  3842.77    68.36 " style="stroke-width: 0.85 ;&st7; " /><path d=" M 3842.77,   45.69  C 3842.77    44.91  3842.14    44.28  3841.36    44.28 " style="stroke-width: 0.85 ;&st7; " /><path d=" M 3841.36,   44.28  C 3840.58    44.28  3839.94    44.91  3839.94    45.69 " style="stroke-width: 0.85 ;&st7; " /><path d=" M 3839.94,   45.69  C 3839.94    46.48  3840.58    47.11  3841.36    47.11 " style="stroke-width: 0.85 ;&st7; " /><path d=" M 3841.36,   47.11  C 3842.14    47.11  3842.77    46.48  3842.77    45.69 " style="stroke-width: 0.85 ;&st7; " /><path d=" M 3841.36,   66.94  C 3844.10    65.33  3845.01    61.80  3843.39    59.06 " style="stroke-width: 1.42 ;&st7; " /><path d=" M 3843.39,   59.06  C 3842.88    58.18  3842.24    57.55  3841.36    57.03 " style="stroke-width: 1.42 ;&st7; " /><path d=" M 3841.36,   47.11  C 3838.62    48.72  3837.71    52.25  3839.32    54.99 " style="stroke-width: 1.42 ;&st7; " /><path d=" M 3839.32,   54.99  C 3839.84    55.87  3840.48    56.51  3841.36    57.03 " style="stroke-width: 1.42 ;&st7; " /><path d=" M 3981.87,  235.78  C 3981.87   233.28  3979.84   231.25  3977.34   231.25 " style="stroke-width: 1.42 ;&st7; " /><path d=" M 3977.34,  231.25  C 3974.83   231.25  3972.80   233.28  3972.80   235.78 " style="stroke-width: 1.42 ;&st7; " /><path d=" M 3972.80,  235.78  C 3972.80   238.28  3974.83   240.31  3977.34   240.31 " style="stroke-width: 1.42 ;&st7; " /><path d=" M 3977.34,  240.31  C 3979.84   240.31  3981.87   238.28  3981.87   235.78 " style="stroke-width: 1.42 ;&st7; " /><text style="&st18;" transform="matrix(&st17;  3531.71  302.59 )">W</text><text style="&st18;" transform="matrix(&st17;  3543.05  308.98 )">(RHD)</text><text style="&st18;" transform="matrix(&st17;  3500.55  308.98 )">(RHD)</text><text style="&st18;" transform="matrix(&st16;  3529.4  264.94 )">1</text><text style="&st18;" transform="matrix(&st16;  3736.9  186.19 )">C</text><text style="&st18;" transform="matrix(&st16;  3691.33  186.19 )">15</text><text style="&st18;" transform="matrix(&st16;  3702.91  186.19 )">C</text><text style="&st18;" transform="matrix(&st16;  3725.32  186.19 )">16</text><text style="&st18;" transform="matrix(&st16;  3695.63  196.39 )">CANN</text><text style="&st18;" transform="matrix(&st16;  3729.77  196.39 )">CANP</text><text style="&st18;" transform="matrix(&st17;  3735.68  143.75 )">GR(LHD)</text><text style="&st18;" transform="matrix(&st17;  3701.69  140.99 )">R(LHD)</text><text style="&st18;" transform="matrix(&st16;  3728.4  237.75 )">C</text><text style="&st18;" transform="matrix(&st16;  3686.01  237.75 )">6</text><text style="&st18;" transform="matrix(&st16;  3694.41  237.75 )">C</text><text style="&st18;" transform="matrix(&st16;  3720.0  237.75 )">5</text><text style="&st18;" transform="matrix(&st16;  3687.63  227.55 )">CANL</text><text style="&st18;" transform="matrix(&st16;  3721.13  227.55 )">CANH</text><text style="&st18;" transform="matrix(&st17;  3727.18  329.39 )">SB</text><text style="&st18;" transform="matrix(&st17;  3693.19  327.06 )">B</text><text style="&st18;" transform="matrix(&st16;  3651.16  40.58 )">R(LHD)</text><text style="&st18;" transform="matrix(&st16;  3648.41  23.58 )">GR(LHD)</text><text style="&st18;" transform="matrix(&st16;  3580.42  23.58 )">GR(LHD)</text><text style="&st18;" transform="matrix(&st16;  3583.17  40.58 )">R(LHD)</text><text style="&st18;" transform="matrix(&st17;  3551.52  259.27 )">E73</text><text ewd:textID="15" style="&st18;" transform="matrix(&st17;  3558.63  259.27 )">Junction <tspan dy="6" x="0">Connector</tspan></text><text style="&st18;" transform="matrix(&st17;  3738.51  333.99 )">(LHD)</text><text style="&st18;" transform="matrix(&st17;  3684.69  141.48 )">R(RHD)</text><text style="&st18;" transform="matrix(&st17;  3718.68  144.24 )">GR(RHD)</text><text style="&st18;" transform="matrix(&st16;  3528.62  236.06 )">3</text><text style="&st18;" transform="matrix(&st17;  3531.71  202.48 )">GR</text><text style="&st18;" transform="matrix(&st16;  3582.68  57.58 )">R(RHD)</text><text style="&st18;" transform="matrix(&st16;  3579.92  74.58 )">GR(RHD)</text><text style="&st18;" transform="matrix(&st16;  3647.91  74.58 )">GR(RHD)</text><text style="&st18;" transform="matrix(&st16;  3650.67  57.58 )">R(RHD)</text><text style="&st18;" transform="matrix(&st17;  3543.05  207.0 )">(RHD)</text><text style="&st18;" transform="matrix(&st17;  3500.55  207.0 )">(RHD)</text><text style="&st18;" transform="matrix(&st17;  3704.52  333.99 )">(LHD)</text><text style="&st18;" transform="matrix(&st17;  3679.02  334.48 )">(RHD)</text><text style="&st18;" transform="matrix(&st17;  3764.01  334.48 )">(RHD)</text><text style="&st18;" transform="matrix(&st17;  3667.69  327.06 )">B</text><text style="&st18;" transform="matrix(&st17;  3752.68  329.39 )">SB</text><text style="&st18;" transform="matrix(&st16;  3911.06  491.01 )">5</text><text style="&st18;" transform="matrix(&st16;  3970.55  185.06 )">6</text><text style="&st18;" transform="matrix(&st16;  3898.6  185.06 )">22</text><text style="&st18;" transform="matrix(&st16;  3837.61  196.39 )">IG</text><text style="&st18;" transform="matrix(&st16;  3926.65  56.17 )">7.5A <tspan dy="6" x="0">ACC</tspan></text><text style="&st18;" transform="matrix(&st16;  3899.74  32.08 )">(ACC)</text><text style="&st18;" transform="matrix(&st16;  3835.28  32.08 )">(IG)</text><text style="&st18;" transform="matrix(&st16;  3902.07  196.39 )">ACC</text><text ewd:textID="5" style="&st18;" transform="matrix(&st16;  3858.66  53.34 )">10A <tspan dy="6" x="0">ECU-IG </tspan><tspan dy="6" x="0">No.2</tspan></text><text style="&st18;" transform="matrix(&st16;  3831.39  185.06 )">15</text><text style="&st18;" transform="matrix(&st17;  3993.45  505.73 )">E67</text><text style="&st18;" transform="matrix(&st16;  3970.55  482.51 )">7</text><text style="&st18;" transform="matrix(&st17;  3973.64  329.53 )">BR</text><text style="&st18;" transform="matrix(&st16;  3974.86  237.75 )">C</text><text style="&st18;" transform="matrix(&st16;  3967.24  237.75 )">1</text><text style="&st18;" transform="matrix(&st16;  3967.66  227.55 )">GND3</text><text style="&st18;" transform="matrix(&st17;  3973.64  635.48 )">BR</text><text style="&st18;" transform="matrix(&st16;  3967.37  511.39 )">13</text><text style="&st18;" transform="matrix(&st16;  3994.64  53.34 )">25A <tspan dy="6" x="0">DOOR </tspan><tspan dy="6" x="0">NO.1</tspan></text><text style="&st18;" transform="matrix(&st16;  3968.22  32.08 )">(BAT)</text><text style="&st18;" transform="matrix(&st16;  3968.58  196.39 )">ALTB</text><text style="&st18;" transform="matrix(&st17;  3922.65  332.43 )">W-B</text><text style="&st18;" transform="matrix(&st17;  3922.65  638.38 )">W-B</text><text style="&st18;" transform="matrix(&st16;  3919.56  239.44 )">4</text><text style="&st18;" transform="matrix(&st16;  3916.67  227.55 )">GND2</text><text style="&st18;" transform="matrix(&st16;  3919.56  482.51 )">4</text><text style="&st18;" transform="matrix(&st16;  3920.33  511.39 )">1</text><text style="&st18;" transform="matrix(&st16;  3909.7  262.96 )">62</text><text style="&st18;" transform="matrix(&st16;  3921.89  262.96 )">2D</text><text ewd:textID="15" style="&st18;" transform="matrix(&st17;  3949.56  505.73 )">Junction <tspan dy="6" x="-0.01">Connector</tspan></text><text style="&st18;" transform="matrix(&st17;  3942.45  505.73 )">E62</text><text style="&st18;" transform="matrix(&st17;  3871.66  327.2 )">R</text><text style="&st18;" transform="matrix(&st16;  3873.02  237.75 )">B</text><text style="&st18;" transform="matrix(&st16;  3864.48  237.75 )">2</text><text style="&st18;" transform="matrix(&st16;  3865.89  227.55 )">PBDS</text><text style="&st18;" transform="matrix(&st17;  3871.66  459.91 )">W-B</text><text style="&st18;" transform="matrix(&st16;  3642.31  592.99 )">B(RHD)</text><text style="&st18;" transform="matrix(&st16;  3642.8  609.99 )">B(LHD)</text><text style="&st18;" transform="matrix(&st16;  3640.47  626.98 )">SB(LHD)</text><text style="&st18;" transform="matrix(&st16;  3639.98  660.98 )">SB(RHD)</text><text style="&st18;" transform="matrix(&st16;  3588.99  660.98 )">SB(RHD)</text><text style="&st18;" transform="matrix(&st16;  3589.48  626.98 )">SB(LHD)</text><text style="&st18;" transform="matrix(&st16;  3591.81  609.99 )">B(LHD)</text><text style="&st18;" transform="matrix(&st16;  3591.32  592.99 )">B(RHD)</text><text style="&st18;" transform="matrix(&st16;  3868.56  426.41 )">3</text><text style="&st18;" transform="matrix(&st16;  3868.56  363.53 )">6</text><text style="&st18;" transform="matrix(&st16;  3878.19  375.42 )">CSW</text><text style="&st18;" transform="matrix(&st16;  3878.19  414.53 )">E</text><text style="&st18;" transform="matrix(&st16;  3817.44  227.55 )">HAZ</text><text style="&st18;" transform="matrix(&st16;  3821.89  237.75 )">C</text><text style="&st18;" transform="matrix(&st17;  3820.67  278.4 )">BE</text><text style="&st18;" transform="matrix(&st16;  3813.48  237.75 )">4</text><text style="&st18;" transform="matrix(&st16;  3783.57  406.03 )">8</text><text style="&st18;" transform="matrix(&st16;  3783.44  417.35 )">HAZ</text><text ewd:textID="31" style="&st18;" transform="matrix(&st16;  3770.84  458.43 )">Turn Signal <tspan dy="6" x="0">Flasher Assembly</tspan></text><text style="&st18;" transform="matrix(&st16;  3770.84  451.32 )">E19</text><text style="&st18;" transform="matrix(&st17;  3786.67  380.38 )">BE</text><text style="&st18;" transform="matrix(&st17;  3840.47  335.75 )">E59(A)</text><text ewd:textID="15" style="&st18;" transform="matrix(&st17;  3847.58  335.75 )">Junction <tspan dy="6" x="0">Connector</tspan></text><text style="&st18;" transform="matrix(&st16;  3780.09  227.55 )">HZSW</text><text style="&st18;" transform="matrix(&st16;  3787.89  237.75 )">C</text><text style="&st18;" transform="matrix(&st17;  3786.67  278.4 )">BE</text><text style="&st18;" transform="matrix(&st16;  3779.49  237.75 )">7</text><text style="&st18;" transform="matrix(&st16;  3809.53  313.67 )">49</text><text style="&st18;" transform="matrix(&st16;  3822.03  313.67 )">A</text><text style="&st18;" transform="matrix(&st16;  3775.53  313.67 )">58</text><text style="&st18;" transform="matrix(&st16;  3788.04  313.67 )">A</text><text style="&st18;" transform="matrix(&st16;  3775.53  339.73 )">59</text><text style="&st18;" transform="matrix(&st16;  3788.04  339.73 )">A</text><text style="&st18;" transform="matrix(&st16;  3996.5  390.16 )">87</text><text style="&st18;" transform="matrix(&st16;  3996.5  416.22 )">77</text><text ewd:textID="21" style="&st18;" transform="matrix(&st17;  3848.99  420.74 )">Power Back Door <tspan dy="6" x="0">Main Switch</tspan></text><text style="&st18;" transform="matrix(&st17;  3841.89  420.74 )">E105</text></svg>