﻿<?xml version="1.0" encoding="UTF-8"?>
<!DOCTYPE svg PUBLIC "-//W3C//DTD SVG 1.0//EN" "http://www.w3.org/TR/2001/REC-SVG-20010904/DTD/svg10.dtd"[
	<!ENTITY ns_flows "http://ns.adobe.com/Flows/1.0/">
	<!ENTITY ns_svg "http://www.w3.org/2000/svg">
	<!ENTITY ns_xlink "http://www.w3.org/1999/xlink">
	<!ENTITY st0 "font-size:7px;font-family:'MS-PGothic';adobe-font-script:japanese;">
	<!ENTITY st1 "font-size:6px;font-family:'ArialMT';">
	<!-- White fill  -->
	<!ENTITY st2 "fill:#FFFFFF;stroke:#000000; stroke-width:1.41;stroke-linecap:round;stroke-linejoin:round;">
	<!-- Yellow fill  -->
	<!ENTITY st3 "fill:#FFFFCC;stroke:#FFFFCC; stroke-width:0.1;stroke-linecap:round;stroke-linejoin:round;">
	<!-- Gray fill  -->
	<!ENTITY st4 "fill:#CCCCCC;stroke:#CCCCCC; stroke-width:0.1;stroke-linecap:round;stroke-linejoin:round;">
	<!-- Light-blue fill -->
	<!ENTITY st5 "fill:#CCECF4;stroke:#000000; stroke-width:1.133;stroke-linecap:round;stroke-linejoin:round;">
	<!ENTITY st6 "fill:none;stroke-linecap:butt; stroke-linejoin:round;">
	<!ENTITY st7 "fill:none;stroke:#000000;stroke-linecap:round;stroke-linejoin:round;">
	<!ENTITY st8 "enable-background:new    ;">
	<!-- Black fill -->
	<!ENTITY st9 "fill:#000000;stroke:#000000; stroke-linecap:round;stroke-linejoin:round;">
	<!-- SRS note   -->
	<!ENTITY st10 "font-size:9px;font-family:'ArialMT';">
	<!ENTITY st11 "font-size:9px;font-family:'Svg Symbol';">
	<!ENTITY st12 "font-size:6px;font-family:'Svg Symbol';">
	<!ENTITY st13 "fill:none;stroke:#ff0000;stroke-linecap:round;stroke-linejoin:round;">
	<!-- Yellow fill  -->
	<!ENTITY st14 "fill:#FFFF00;stroke:#FFFF00; stroke-width:0.1;stroke-linecap:round;stroke-linejoin:round;">
	<!ENTITY st15 "font-size:6px;font-family:'MS-PGothic';adobe-font-script:japanese;">
	<!ENTITY st16 "1.00 0.00 0.00 1.00">
	<!ENTITY st17 "0.00 -1.00 1.00 0.00">
	<!ENTITY st18 "font-size:6px;font-family:'Arial';">
	<!ENTITY st19 "font-size:9px;font-family:'Arial';">
	<!ENTITY st20 "font-size:6px;font-family:'MS-PGothic','MS PGothic';adobe-font-script:japanese;">
	<!ENTITY st21 "font-size:7px;font-family:'MS-PGothic','MS PGothic';adobe-font-script:japanese;">
	<!ATTLIST svg
		xmlns:ewd CDATA #FIXED "http://shcl.co.jp/ewd"
		xmlns:a CDATA #FIXED "http://ns.adobe.com/AdobeSVGViewerExtensions/3.0/"
		ewd:ver CDATA #IMPLIED
	>
	<!ATTLIST a
		ewd:lineID CDATA #IMPLIED
		ewd:groupID CDATA #IMPLIED
		ewd:figtype CDATA #IMPLIED
		ewd:code CDATA #IMPLIED
		ewd:figID CDATA #IMPLIED
		ewd:pinNo CDATA #IMPLIED
		ewd:comment CDATA #IMPLIED >
	<!ATTLIST g
		ewd:lineID CDATA #IMPLIED
		ewd:groupID CDATA #IMPLIED
		ewd:figtype CDATA #IMPLIED
		ewd:code CDATA #IMPLIED
		ewd:figID CDATA #IMPLIED
		ewd:pinNo CDATA #IMPLIED
		ewd:comment CDATA #IMPLIED >
	<!ATTLIST text
		ewd:textID CDATA #IMPLIED >
	<!ATTLIST title
		ewd:textID CDATA #IMPLIED >
]>
<!-- Generator: Shintec Hozumi YS   -->
<svg onload="call_execInitLoadProc_svg('system')" style="overflow:visible;  enable-background:new 0 0 926.752 710.000" viewBox="0 0 926.752 710.000" height="710.000" width="926.752" xml:space="preserve" ewd:ver="L2.1.2.8" xmlns="&ns_svg;" xmlns:a="http://ns.adobe.com/AdobeSVGViewerExtensions/3.0/" xmlns:ewd="http://shcl.co.jp/ewd" xmlns:xlink="&ns_xlink;">
	<script type="text/javascript" xlink:href="../../../../../system/js/ewd/fig/svgfig.js"/>
	<defs>
		<font horiz-adv-x="1229">
			<font-face font-family="Svg Symbol" units-per-em="2048" panose-1="5 5 1 2 1 7 6 2 5 7" ascent="2059" descent="450" alphabetic="0"/>
			<missing-glyph d="M 103,0 l 0,1280 1024,0 0,-1280 -1024,0 z m 32,32 l 960,0 0,1216 -960,0 0,-1216 z"/>
			<glyph unicode="&#xF057;" horiz-adv-x="1573" d="M 1517,0 l -567,0 24,279 q 141,59 207.5,168 66.5,109 66.5,306    0,272 -132.5,417.5 -132.5,145.5 -333.5,145.5 -194,0 -328,-147.5 -134,-147.5 -134,-401.5 0,-200 68.5,-319 68.5,-119     206.5,-169 l 25,-279 -564,0 0,279 35,0 q 3,-61 32,-83 45,-35 137,-35 l 270,0 0,70 q -210,61 -324.5,209 -114.5,148     -114.5,349 0,252 186.5,425 186.5,173 504.5,173 195,0 358.5,-73.5 163.5,-73.5 252,-214.5 88.5,-141 88.5,-310 0,-207     -121.5,-360.5 -121.5,-153.5 -317.5,-197.5 l -8,-70 275,0 q 92,0 128,28 36,28 42,90 l 38,0 0,-279 z"/>
		</font>
	</defs>
<g id="ewd_top">
	<a ewd:code="E46" ewd:figID="1" ewd:figtype="conn" style="cursor:pointer;">
		<path d=" M  390.93,  299.24  L  390.93,  333.23  L  424.93,  333.23  L  424.93,  299.24  L  390.93,  299.24 " style="&st5;"/>
		<title ewd:textID="8">Front Power Outlet Socket Assembly</title>
	</a>
	<a ewd:code="E93" ewd:figID="2" ewd:figtype="conn" style="cursor:pointer;">
		<path d=" M  713.88,  239.75  L  773.37,  239.75  L  773.37,  171.76  L  713.88,  171.76  L  713.88,  239.75 " style="&st5;"/>
		<title ewd:textID="10">Ignition or Starter Switch Assembly</title>
	</a>
	<a ewd:code="E127" ewd:figID="3" ewd:figtype="conn" style="cursor:pointer;">
		<path d=" M  322.95,  299.24  L  322.95,  333.23  L  356.94,  333.23  L  356.94,  299.24  L  322.95,  299.24 " style="&st5;"/>
		<title ewd:textID="14">Rear Power Outlet Socket Assembly</title>
	</a>
	<a ewd:code="K45,K61" ewd:figID="4" ewd:figtype="conn" style="cursor:pointer;">
		<path d=" M  127.48,  494.70  L  127.48,  460.71  L  212.46,  460.71  L  212.46,  494.70  L  127.48,  494.70 " style="&st5;"/>
		<title ewd:textID="13">Power Outlet Socket Assembly</title>
	</a>
	<a ewd:code="K41" ewd:figID="5" ewd:figtype="conn" style="cursor:pointer;">
		<path d=" M  263.46,  299.24  L  263.46,  333.23  L  297.45,  333.23  L  297.45,  299.24  L  263.46,  299.24 " style="&st5;"/>
		<title ewd:textID="14">Rear Power Outlet Socket Assembly</title>
	</a>
	<a ewd:code="E130" ewd:figID="6" ewd:figtype="conn" style="cursor:pointer;">
		<path d=" M  875.35,  205.75  L  875.35,  239.75  L  909.35,  239.75  L  909.35,  205.75  L  875.35,  205.75 " style="&st5;"/>
		<title ewd:textID="7">Certification ECU Assembly</title>
	</a>
	<a ewd:code="K52" ewd:figID="7" ewd:figtype="conn" style="cursor:pointer;">
		<path d=" M  186.97,  656.18  L  186.97,  673.17  L  203.97,  673.17  L  203.97,  656.18  L  186.97,  656.18 " style="&st5;"/>
		<title ewd:textID="11">Junction Connector</title>
	</a>
	<a ewd:code="K44,K63" ewd:figID="8" ewd:figtype="conn" style="cursor:pointer;">
		<path d=" M   76.49,  341.73  L   76.49,  375.72  L  212.46,  375.72  L  212.46,  341.73  L   76.49,  341.73 " style="&st5;"/>
		<title ewd:textID="15">Voltage Inverter Assembly</title>
	</a>
	<a ewd:code="2" ewd:figID="9" ewd:figtype="jb" style="cursor:pointer;">
		<path d=" M  263.46,   35.78  L  263.46,  171.76  L  586.40,  171.76  L  586.40,   35.78  L  263.46,   35.78 " style="&st4;"/>
	</a>
	<a ewd:code="2" ewd:figID="10" ewd:figtype="jb" style="cursor:pointer;">
		<path d=" M  875.35,   35.78  L  875.35,  103.77  L  926.35,  103.77  L  926.35,   35.78  L  875.35,   35.78 " style="&st4;"/>
	</a>
	<a ewd:code="2" ewd:figID="11" ewd:figtype="jb" style="cursor:pointer;">
		<path d=" M    8.50,   35.78  L    8.50,  197.25  L  152.97,  197.25  L  152.97,   35.78  L    8.50,   35.78 " style="&st4;"/>
	</a>
	<a ewd:code="2" ewd:figID="12" ewd:figtype="jb" style="cursor:pointer;">
		<path d=" M  654.39,   35.78  L  654.39,  103.77  L  705.38,  103.77  L  705.38,   35.78  L  654.39,   35.78 " style="&st4;"/>
	</a>
	<a ewd:code="FUSE136" ewd:figID="13" ewd:figtype="fuse" style="cursor:pointer;">
		<path d=" M  658.64,   35.78  L  658.64,   78.27  L  684.14,   78.27  L  684.14,   35.78  L  658.64,   35.78 " style="&st7;"/>
	</a>
	<a ewd:code="FUSE173" ewd:figID="14" ewd:figtype="fuse" style="cursor:pointer;">
		<path d=" M   80.74,   35.78  L   80.74,   78.27  L  106.23,   78.27  L  106.23,   35.78  L   80.74,   35.78 " style="&st7;"/>
	</a>
	<a ewd:code="FUSE150" ewd:figID="15" ewd:figtype="fuse" style="cursor:pointer;">
		<path d=" M  879.60,   35.78  L  879.60,   78.27  L  905.10,   78.27  L  905.10,   35.78  L  879.60,   35.78 " style="&st7;"/>
	</a>
	<a ewd:code="FUSE164" ewd:figID="16" ewd:figtype="fuse" style="cursor:pointer;">
		<path d=" M   12.75,   35.78  L   12.75,   78.27  L   38.24,   78.27  L   38.24,   35.78  L   12.75,   35.78 " style="&st7;"/>
	</a>
	<a ewd:code="FUSE176" ewd:figID="17" ewd:figtype="fuse" style="cursor:pointer;">
		<path d=" M  395.18,   35.78  L  395.18,   78.27  L  420.68,   78.27  L  420.68,   35.78  L  395.18,   35.78 " style="&st7;"/>
	</a>
	<a ewd:lineID="1" style="cursor:pointer;">
		<path d=" M   67.99,  197.25  L   67.99,  273.74  L   17.00,  273.74  L   17.00,  681.67 " style="stroke:#000000;stroke-width: 5.10 ;&st6;"/>
		<path d=" M   67.99,  197.25  L   67.99,  273.74  L   17.00,  273.74  L   17.00,  681.67 " style="stroke:#FFFFFF;stroke-width: 4.53 ;&st6;"/>
		<path d=" M   67.99,  197.25  L   67.99,  273.74  L   17.00,  273.74  L   17.00,  681.67 " style="stroke:#000000;stroke-width: 1.13 ;&st6;"/>
	</a>
	<a ewd:lineID="2" style="cursor:pointer;">
		<path d=" M   93.48,  393.85  L   93.48,  571.19  L  186.97,  571.19 " style="stroke:#000000;stroke-width: 5.10 ;&st6;"/>
		<path d=" M   93.48,  393.85  L   93.48,  571.19  L  186.97,  571.19 " style="stroke:#FFFFFF;stroke-width: 4.53 ;&st6;"/>
		<path d=" M   93.48,  393.85  L   93.48,  571.19  L  186.97,  571.19 " style="stroke:#000000;stroke-width: 1.13 ;&st6;"/>
	</a>
	<a ewd:lineID="3" style="cursor:pointer;">
		<path d=" M   93.48,  323.60  L   93.48,  197.25 " style="stroke:#BFB1C5;stroke-width: 5.10 ;&st6;"/>
		<path d=" M   93.48,  323.60  L   93.48,  197.25 " style="stroke:#FFFFFF;stroke-width: 2.27 ;&st6;"/>
		<path d=" M   93.48,  323.60  L   93.48,  197.25 " style="stroke:#000000;stroke-width: 1.13 ;&st6;"/>
	</a>
	<a ewd:lineID="4" style="cursor:pointer;">
		<path d=" M  144.48,  442.58  L  144.48,  393.85 " style="stroke:#BFB1C5;stroke-width: 5.10 ;&st6;"/>
		<path d=" M  144.48,  442.58  L  144.48,  393.85 " style="stroke:#FFFFFF;stroke-width: 1.13 ;&st6;"/>
	</a>
	<a ewd:lineID="5" style="cursor:pointer;">
		<path d=" M  195.47,  579.69  L  195.47,  656.18 " style="stroke:#000000;stroke-width: 5.10 ;&st6;"/>
		<path d=" M  195.47,  579.69  L  195.47,  656.18 " style="stroke:#FFFFFF;stroke-width: 4.53 ;&st6;"/>
		<path d=" M  195.47,  579.69  L  195.47,  656.18 " style="stroke:#000000;stroke-width: 1.13 ;&st6;"/>
	</a>
	<a ewd:lineID="6" style="cursor:pointer;">
		<path d=" M  195.47,  512.83  L  195.47,  562.69 " style="stroke:#000000;stroke-width: 5.10 ;&st6;"/>
		<path d=" M  195.47,  512.83  L  195.47,  562.69 " style="stroke:#FFFFFF;stroke-width: 4.53 ;&st6;"/>
		<path d=" M  195.47,  512.83  L  195.47,  562.69 " style="stroke:#000000;stroke-width: 1.13 ;&st6;"/>
	</a>
	<a ewd:lineID="7" style="cursor:pointer;">
		<path d=" M  195.47,  442.58  L  195.47,  393.85 " style="stroke:#BFB1C5;stroke-width: 5.10 ;&st6;"/>
		<path d=" M  195.47,  442.58  L  195.47,  393.85 " style="stroke:#FFFFFF;stroke-width: 2.27 ;&st6;"/>
		<path d=" M  195.47,  442.58  L  195.47,  393.85 " style="stroke:#000000;stroke-width: 1.13 ;&st6;"/>
	</a>
	<a ewd:lineID="8" style="cursor:pointer;">
		<path d=" M  203.97,  571.19  L  280.45,  571.19  L  280.45,  333.23 " style="stroke:#000000;stroke-width: 5.10 ;&st6;"/>
		<path d=" M  203.97,  571.19  L  280.45,  571.19  L  280.45,  333.23 " style="stroke:#FFFFFF;stroke-width: 4.53 ;&st6;"/>
		<path d=" M  203.97,  571.19  L  280.45,  571.19  L  280.45,  333.23 " style="stroke:#000000;stroke-width: 1.13 ;&st6;"/>
	</a>
	<a ewd:lineID="9" style="cursor:pointer;">
		<path d=" M  280.45,  171.76  L  280.45,  299.24 " style="stroke:#008837;stroke-width: 5.10 ;&st6;"/>
	</a>
	<a ewd:lineID="10" style="cursor:pointer;">
		<path d=" M  339.94,  333.23  L  339.94,  418.22  L  399.43,  418.22 " style="stroke:#000000;stroke-width: 5.10 ;&st6;"/>
		<path d=" M  339.94,  333.23  L  339.94,  418.22  L  399.43,  418.22 " style="stroke:#FFFFFF;stroke-width: 4.53 ;&st6;"/>
		<path d=" M  339.94,  333.23  L  339.94,  418.22  L  399.43,  418.22 " style="stroke:#000000;stroke-width: 1.13 ;&st6;"/>
	</a>
	<a ewd:lineID="11" style="cursor:pointer;">
		<path d=" M  339.94,  299.24  L  339.94,  239.75  L  399.43,  239.75 " style="stroke:#008837;stroke-width: 5.10 ;&st6;"/>
	</a>
	<a ewd:lineID="12" style="cursor:pointer;">
		<path d=" M  407.93,  426.71  L  407.93,  681.67 " style="stroke:#000000;stroke-width: 5.10 ;&st6;"/>
		<path d=" M  407.93,  426.71  L  407.93,  681.67 " style="stroke:#FFFFFF;stroke-width: 4.53 ;&st6;"/>
		<path d=" M  407.93,  426.71  L  407.93,  681.67 " style="stroke:#000000;stroke-width: 1.13 ;&st6;"/>
	</a>
	<a ewd:lineID="13" style="cursor:pointer;">
		<path d=" M  433.43,  171.76  L  433.43,  180.26  L  441.93,  188.75  L  492.92,  188.75  L  492.92,  664.67  L  416.43,  664.67  L  407.93,  673.17  L  407.93,  681.67 " style="stroke:#000000;stroke-width: 5.10 ;&st6;"/>
		<path d=" M  433.43,  171.76  L  433.43,  180.26  L  441.93,  188.75  L  492.92,  188.75  L  492.92,  664.67  L  416.43,  664.67  L  407.93,  673.17  L  407.93,  681.67 " style="stroke:#FFFFFF;stroke-width: 4.53 ;&st6;"/>
		<path d=" M  433.43,  171.76  L  433.43,  180.26  L  441.93,  188.75  L  492.92,  188.75  L  492.92,  664.67  L  416.43,  664.67  L  407.93,  673.17  L  407.93,  681.67 " style="stroke:#000000;stroke-width: 1.13 ;&st6;"/>
	</a>
	<a ewd:lineID="14" style="cursor:pointer;">
		<path d=" M  407.93,  333.23  L  407.93,  409.72 " style="stroke:#000000;stroke-width: 5.10 ;&st6;"/>
		<path d=" M  407.93,  333.23  L  407.93,  409.72 " style="stroke:#FFFFFF;stroke-width: 4.53 ;&st6;"/>
		<path d=" M  407.93,  333.23  L  407.93,  409.72 " style="stroke:#000000;stroke-width: 1.13 ;&st6;"/>
	</a>
	<a ewd:lineID="15" style="cursor:pointer;">
		<path d=" M  407.93,  248.24  L  407.93,  299.24 " style="stroke:#008837;stroke-width: 5.10 ;&st6;"/>
	</a>
	<a ewd:lineID="16" style="cursor:pointer;">
		<path d=" M  407.93,  171.76  L  407.93,  231.25 " style="stroke:#008837;stroke-width: 5.10 ;&st6;"/>
	</a>
	<a ewd:lineID="17" style="cursor:pointer;">
		<path d=" M  433.43,  171.76  L  433.43,  239.75  L  458.92,  239.75  L  458.92,  418.22  L  416.43,  418.22 " style="stroke:#000000;stroke-width: 5.10 ;&st6;"/>
		<path d=" M  433.43,  171.76  L  433.43,  239.75  L  458.92,  239.75  L  458.92,  418.22  L  416.43,  418.22 " style="stroke:#FFFFFF;stroke-width: 4.53 ;&st6;"/>
		<path d=" M  433.43,  171.76  L  433.43,  239.75  L  458.92,  239.75  L  458.92,  418.22  L  416.43,  418.22 " style="stroke:#000000;stroke-width: 1.13 ;&st6;"/>
	</a>
	<a ewd:lineID="18" style="cursor:pointer;">
		<path d=" M  773.37,  188.75  L  832.86,  188.75  L  832.86,  282.24  L  603.40,  282.24  L  603.40,  188.75  L  586.40,  188.75  L  577.90,  180.26  L  577.90,  171.76 " style="stroke:#000000;stroke-width: 5.10 ;&st6;"/>
	</a>
	<a ewd:lineID="19" style="cursor:pointer;">
		<path d=" M  577.90,  171.76  L  577.90,  299.24  L  892.35,  299.24  L  892.35,  248.81 " style="stroke:#000000;stroke-width: 5.10 ;&st6;"/>
	</a>
	<a ewd:lineID="20" style="cursor:pointer;">
		<path d=" M  671.39,  103.77  L  671.39,  205.75  L  713.88,  205.75 " style="stroke:#000000;stroke-width: 5.10 ;&st6;"/>
		<path d=" M  671.39,  103.77  L  671.39,  205.75  L  713.88,  205.75 " style="stroke:#FFFFFF;stroke-width: 4.53 ;&st6;"/>
	</a>
	<a ewd:lineID="21" style="cursor:pointer;">
		<path d=" M  892.35,  103.77  L  892.35,  196.69 " style="stroke:#F668B2;stroke-width: 5.10 ;&st6;"/>
	</a>
	<path d=" M   95.61,  197.25  L   91.36,  197.25 " style="stroke-width: 1.42 ;&st7; "/>
	<path d=" M   95.61,  188.75  L   91.36,  188.75 " style="stroke-width: 1.42 ;&st7; "/>
	<path d=" M   93.48,   69.77  L   93.48,   78.27 " style="stroke-width: 0.85 ;&st7; "/>
	<path d=" M   67.99,  154.76  L   67.99,  163.26 " style="stroke-width: 0.85 ;&st7; "/>
	<path d=" M   67.99,  129.26  L   67.99,  137.76 " style="stroke-width: 0.85 ;&st7; "/>
	<path d=" M   93.48,  129.26  L   93.48,  133.51 " style="stroke-width: 0.85 ;&st7; "/>
	<path d=" M   93.48,  163.26  L   93.48,  159.01 " style="stroke-width: 0.85 ;&st7; "/>
	<path d=" M  407.93,  163.26  L  407.93,  125.01 " style="stroke-width: 0.85 ;&st7; "/>
	<path d=" M  407.93,   99.52  L  407.93,   69.77 " style="stroke-width: 0.85 ;&st7; "/>
	<path d=" M  433.43,   95.27  L  433.43,  103.77 " style="stroke-width: 0.85 ;&st7; "/>
	<path d=" M  433.43,  120.77  L  433.43,  163.26 " style="stroke-width: 0.85 ;&st7; "/>
	<path d=" M  410.06,  171.76  L  405.81,  171.76 " style="stroke-width: 1.42 ;&st7; "/>
	<path d=" M  410.06,  163.26  L  405.81,  163.26 " style="stroke-width: 1.42 ;&st7; "/>
	<path d=" M  435.55,  171.76  L  431.30,  171.76 " style="stroke-width: 1.42 ;&st7; "/>
	<path d=" M  435.55,  163.26  L  431.30,  163.26 " style="stroke-width: 1.42 ;&st7; "/>
	<path d=" M  580.03,  171.76  L  575.78,  171.76 " style="stroke-width: 1.42 ;&st7; "/>
	<path d=" M  580.03,  163.26  L  575.78,  163.26 " style="stroke-width: 1.42 ;&st7; "/>
	<path d=" M   70.11,  197.25  L   65.86,  197.25 " style="stroke-width: 1.42 ;&st7; "/>
	<path d=" M   70.11,  188.75  L   65.86,  188.75 " style="stroke-width: 1.42 ;&st7; "/>
	<path d=" M   93.48,  136.35  L   99.15,  159.01 " style="stroke-width: 1.42 ;&st7; "/>
	<path d=" M  407.93,  102.35  L  402.27,  125.01 " style="stroke-width: 1.42 ;&st7; "/>
	<path d=" M  282.58,  163.26  L  278.33,  163.26 " style="stroke-width: 1.42 ;&st7; "/>
	<path d=" M  282.58,  171.76  L  278.33,  171.76 " style="stroke-width: 1.42 ;&st7; "/>
	<path d=" M  713.88,  205.75  L  729.46,  205.75 " style="stroke-width: 0.85 ;&st7; "/>
	<path d=" M  773.37,  205.75  L  760.62,  205.75 " style="stroke-width: 0.85 ;&st7; "/>
	<path d=" M  671.39,   69.77  L  671.39,   78.27 " style="stroke-width: 0.85 ;&st7; "/>
	<path d=" M  673.51,   95.27  L  669.26,   95.27 " style="stroke-width: 1.42 ;&st7; "/>
	<path d=" M  673.51,  103.77  L  669.26,  103.77 " style="stroke-width: 1.42 ;&st7; "/>
	<path d=" M  671.39,   78.27  L  671.39,   95.27 " style="stroke-width: 0.85 ;&st7; "/>
	<path d=" M  892.35,   69.77  L  892.35,   78.27 " style="stroke-width: 0.85 ;&st7; "/>
	<path d=" M  894.48,   95.27  L  890.23,   95.27 " style="stroke-width: 1.42 ;&st7; "/>
	<path d=" M  894.48,  103.77  L  890.23,  103.77 " style="stroke-width: 1.42 ;&st7; "/>
	<path d=" M  892.35,   78.27  L  892.35,   95.27 " style="stroke-width: 0.85 ;&st7; "/>
	<path d=" M  416.43,  414.69  L  411.46,  409.72 " style="stroke-width: 1.42 ;&st7; "/>
	<path d=" M  399.43,  421.75  L  404.40,  426.71 " style="stroke-width: 1.42 ;&st7; "/>
	<path d=" M  411.46,  426.71  L  416.43,  421.75 " style="stroke-width: 1.42 ;&st7; "/>
	<path d=" M  404.40,  409.72  L  399.43,  414.69 " style="stroke-width: 1.42 ;&st7; "/>
	<path d=" M  416.43,  236.22  L  411.46,  231.25 " style="stroke-width: 1.42 ;&st7; "/>
	<path d=" M  399.43,  243.27  L  404.40,  248.24 " style="stroke-width: 1.42 ;&st7; "/>
	<path d=" M  411.46,  248.24  L  416.43,  243.27 " style="stroke-width: 1.42 ;&st7; "/>
	<path d=" M  404.40,  231.25  L  399.43,  236.22 " style="stroke-width: 1.42 ;&st7; "/>
	<path d=" M  203.97,  567.66  L  198.99,  562.69 " style="stroke-width: 1.42 ;&st7; "/>
	<path d=" M  186.97,  574.72  L  191.94,  579.69 " style="stroke-width: 1.42 ;&st7; "/>
	<path d=" M  198.99,  579.69  L  203.97,  574.72 " style="stroke-width: 1.42 ;&st7; "/>
	<path d=" M  191.94,  562.69  L  186.97,  567.66 " style="stroke-width: 1.42 ;&st7; "/>
	<path d=" M  441.93,   95.27  L  399.43,   95.27  L  399.43,  129.26  L  441.93,  129.26  L  441.93,   95.27 " style="stroke-width: 1.42 ;&st7; "/>
	<path d=" M  407.93,  158.36  L  405.10,  155.53  L  405.10,  159.78  L  407.93,  162.61  L  410.76,  159.78  L  410.76,  155.53  L  407.93,  158.36 " style="stroke-width: 0.28 ;&st9;"/>
	<path d=" M  152.97,  380.26  L  182.72,  380.26 " style="stroke-width: 0.85 ;&st7;stroke-dasharray:3, 1.5;"/>
	<path d=" M   42.49,  129.26  L   42.49,  120.77  L   67.99,  120.77 " style="stroke-width: 0.85 ;&st7; "/>
	<path d=" M  406.52,  710.00  L  409.35,  710.00 " style="stroke-width: 0.85 ;&st7; "/>
	<path d=" M  405.10,  707.17  L  410.76,  707.17 " style="stroke-width: 0.85 ;&st7; "/>
	<path d=" M  403.68,  704.33  L  412.18,  704.33 " style="stroke-width: 0.85 ;&st7; "/>
	<path d=" M  399.43,  701.50  L  416.43,  701.50 " style="stroke-width: 0.85 ;&st7; "/>
	<path d=" M  407.93,  697.25  L  407.93,  701.50 " style="stroke-width: 0.85 ;&st7; "/>
	<path d=" M  390.93,  299.24  L  390.93,  333.23  L  424.93,  333.23  L  424.93,  299.24  L  390.93,  299.24 " style="stroke-width: 1.42 ;&st7; "/>
	<path d=" M  395.18,   35.78  L  395.18,   78.27  L  420.68,   78.27  L  420.68,   35.78  L  395.18,   35.78 " style="stroke-width: 1.42 ;&st7; "/>
	<path d=" M  433.43,   95.27  L  433.43,   69.77  L  577.90,   69.77  L  577.90,  163.26 " style="stroke-width: 0.85 ;&st7; "/>
	<path d=" M  433.43,  158.36  L  430.59,  155.53  L  430.59,  159.78  L  433.43,  162.61  L  436.26,  159.78  L  436.26,  155.53  L  433.43,  158.36 " style="stroke-width: 0.28 ;&st9;"/>
	<path d=" M  577.90,  158.36  L  575.07,  155.53  L  575.07,  159.78  L  577.90,  162.61  L  580.74,  159.78  L  580.74,  155.53  L  577.90,  158.36 " style="stroke-width: 0.28 ;&st9;"/>
	<path d=" M   12.75,   35.78  L   12.75,   78.27  L   38.24,   78.27  L   38.24,   35.78  L   12.75,   35.78 " style="stroke-width: 1.42 ;&st7; "/>
	<path d=" M  101.98,  129.26  L   59.49,  129.26  L   59.49,  163.26  L  101.98,  163.26  L  101.98,  129.26 " style="stroke-width: 1.42 ;&st7; "/>
	<path d=" M   93.48,   78.27  L   93.48,  129.26 " style="stroke-width: 0.85 ;&st7; "/>
	<path d=" M   80.74,   35.78  L   80.74,   78.27  L  106.23,   78.27  L  106.23,   35.78  L   80.74,   35.78 " style="stroke-width: 1.42 ;&st7; "/>
	<path d=" M   93.48,  183.86  L   90.65,  181.03  L   90.65,  185.28  L   93.48,  188.11  L   96.32,  185.28  L   96.32,  181.03  L   93.48,  183.86 " style="stroke-width: 0.28 ;&st9;"/>
	<path d=" M   67.99,  163.26  L   67.99,  188.75 " style="stroke-width: 0.85 ;&st7; "/>
	<path d=" M   93.48,  163.26  L   93.48,  188.75 " style="stroke-width: 0.85 ;&st7; "/>
	<path d=" M   17.00,  697.25  L   17.00,  701.50 " style="stroke-width: 0.85 ;&st7; "/>
	<path d=" M    8.50,  701.50  L   25.50,  701.50 " style="stroke-width: 0.85 ;&st7; "/>
	<path d=" M   12.75,  704.33  L   21.25,  704.33 " style="stroke-width: 0.85 ;&st7; "/>
	<path d=" M   14.16,  707.17  L   19.83,  707.17 " style="stroke-width: 0.85 ;&st7; "/>
	<path d=" M   15.58,  710.00  L   18.41,  710.00 " style="stroke-width: 0.85 ;&st7; "/>
	<path d=" M   76.49,  341.73  L   76.49,  375.72  L  212.46,  375.72  L  212.46,  341.73  L   76.49,  341.73 " style="stroke-width: 1.42 ;&st7; "/>
	<path d=" M  127.48,  494.70  L  127.48,  460.71  L  212.46,  460.71  L  212.46,  494.70  L  127.48,  494.70 " style="stroke-width: 1.42 ;&st7; "/>
	<path d=" M   67.99,  183.86  L   65.16,  181.03  L   65.16,  185.28  L   67.99,  188.11  L   70.82,  185.28  L   70.82,  181.03  L   67.99,  183.86 " style="stroke-width: 0.28 ;&st9;"/>
	<path d=" M   25.50,   78.27  L   25.50,   69.77 " style="stroke-width: 0.85 ;&st7; "/>
	<path d=" M   67.99,  129.26  L   67.99,  103.77  L   25.50,  103.77  L   25.50,   78.27 " style="stroke-width: 0.85 ;&st7; "/>
	<path d=" M  407.93,  146.26  L  280.45,  146.26  L  280.45,  163.26 " style="stroke-width: 0.85 ;&st7; "/>
	<path d=" M  322.95,  299.24  L  322.95,  333.23  L  356.94,  333.23  L  356.94,  299.24  L  322.95,  299.24 " style="stroke-width: 1.42 ;&st7; "/>
	<path d=" M  191.22,  704.33  L  199.72,  704.33 " style="stroke-width: 0.85 ;&st7; "/>
	<path d=" M  195.47,  697.25  L  195.47,  701.50 " style="stroke-width: 0.85 ;&st7; "/>
	<path d=" M  186.97,  701.50  L  203.97,  701.50 " style="stroke-width: 0.85 ;&st7; "/>
	<path d=" M  186.97,  656.18  L  186.97,  673.17  L  203.97,  673.17  L  203.97,  656.18  L  186.97,  656.18 " style="stroke-width: 1.42 ;&st7; "/>
	<path d=" M  195.47,  656.18  L  195.47,  681.67 " style="stroke-width: 0.85 ;&st7; "/>
	<path d=" M  194.05,  710.00  L  196.88,  710.00 " style="stroke-width: 0.85 ;&st7; "/>
	<path d=" M  192.63,  707.17  L  198.30,  707.17 " style="stroke-width: 0.85 ;&st7; "/>
	<path d=" M  280.45,  158.36  L  277.62,  155.53  L  277.62,  159.78  L  280.45,  162.61  L  283.29,  159.78  L  283.29,  155.53  L  280.45,  158.36 " style="stroke-width: 0.28 ;&st9;"/>
	<path d=" M  406.74,  145.26  L  406.47,  145.73  L  406.37,  146.26  L  406.47,  146.79  L  406.74,  147.26  L  407.15,  147.61  L  407.66,  147.80  L  408.20,  147.80  L  408.71,  147.61  L  409.12,  147.26  L  409.40,  146.79  L  409.49,  146.26  L  409.40,  145.73  L  409.12,  145.26  L  408.71,  144.91  L  408.20,  144.73  L  407.66,  144.73  L  407.15,  144.91  L  406.74,  145.26  L  407.13,  145.97  L  407.13,  146.55  L  407.51,  147.00  L  408.08,  147.10  L  408.58,  146.81  L  408.78,  146.26  L  408.58,  145.71  L  408.08,  145.43  L  407.51,  145.52  L  407.93,  146.26 " style="stroke-width: 0.85 ;&st7; "/>
	<path d=" M  263.46,  299.24  L  263.46,  333.23  L  297.45,  333.23  L  297.45,  299.24  L  263.46,  299.24 " style="stroke-width: 1.42 ;&st7; "/>
	<path d=" M   42.49,  163.26  L   42.49,  171.76  L   67.99,  171.76 " style="stroke-width: 0.85 ;&st7; "/>
	<path d=" M   42.49,  163.26  L   42.49,  154.76  L   39.66,  153.34  L   45.33,  150.51  L   39.66,  147.68  L   45.33,  144.84  L   39.66,  142.01  L   45.33,  139.18  L   42.49,  137.76  L   42.49,  129.26 " style="stroke-width: 0.85 ;&st7; "/>
	<path d=" M  458.92,  129.26  L  458.92,  120.77  L  456.09,  119.35  L  461.76,  116.52  L  456.09,  113.68  L  461.76,  110.85  L  456.09,  108.02  L  461.76,  105.18  L  458.92,  103.77  L  458.92,   95.27 " style="stroke-width: 0.85 ;&st7; "/>
	<path d=" M  458.92,   95.27  L  458.92,   86.77  L  433.43,   86.77 " style="stroke-width: 0.85 ;&st7; "/>
	<path d=" M  458.92,  129.26  L  458.92,  137.76  L  433.43,  137.76 " style="stroke-width: 0.85 ;&st7; "/>
	<path d=" M  432.23,   85.77  L  431.96,   86.24  L  431.87,   86.77  L  431.96,   87.30  L  432.23,   87.77  L  432.65,   88.12  L  433.16,   88.31  L  433.70,   88.31  L  434.21,   88.12  L  434.62,   87.77  L  434.89,   87.30  L  434.99,   86.77  L  434.89,   86.24  L  434.62,   85.77  L  434.21,   85.42  L  433.70,   85.24  L  433.16,   85.24  L  432.65,   85.42  L  432.23,   85.77  L  432.63,   86.48  L  432.63,   87.06  L  433.00,   87.51  L  433.57,   87.61  L  434.08,   87.32  L  434.28,   86.77  L  434.08,   86.22  L  433.57,   85.94  L  433.00,   86.03  L  433.43,   86.77 " style="stroke-width: 0.85 ;&st7; "/>
	<path d=" M  432.23,  136.76  L  431.96,  137.23  L  431.87,  137.76  L  431.96,  138.30  L  432.23,  138.77  L  432.65,  139.11  L  433.16,  139.30  L  433.70,  139.30  L  434.21,  139.11  L  434.62,  138.77  L  434.89,  138.30  L  434.99,  137.76  L  434.89,  137.23  L  434.62,  136.76  L  434.21,  136.41  L  433.70,  136.23  L  433.16,  136.23  L  432.65,  136.41  L  432.23,  136.76  L  432.63,  137.47  L  432.63,  138.05  L  433.00,  138.50  L  433.57,  138.60  L  434.08,  138.31  L  434.28,  137.76  L  434.08,  137.22  L  433.57,  136.93  L  433.00,  137.03  L  433.43,  137.76 " style="stroke-width: 0.85 ;&st7; "/>
	<path d=" M   66.80,  170.75  L   66.52,  171.22  L   66.43,  171.76  L   66.52,  172.29  L   66.80,  172.76  L   67.21,  173.11  L   67.72,  173.29  L   68.26,  173.29  L   68.77,  173.11  L   69.18,  172.76  L   69.45,  172.29  L   69.55,  171.76  L   69.45,  171.22  L   69.18,  170.75  L   68.77,  170.41  L   68.26,  170.22  L   67.72,  170.22  L   67.21,  170.41  L   66.80,  170.75  L   67.19,  171.47  L   67.19,  172.05  L   67.56,  172.49  L   68.14,  172.59  L   68.64,  172.30  L   68.84,  171.76  L   68.64,  171.21  L   68.14,  170.92  L   67.56,  171.02  L   67.99,  171.76 " style="stroke-width: 0.85 ;&st7; "/>
	<path d=" M   66.80,  119.76  L   66.52,  120.23  L   66.43,  120.77  L   66.52,  121.30  L   66.80,  121.77  L   67.21,  122.11  L   67.72,  122.30  L   68.26,  122.30  L   68.77,  122.11  L   69.18,  121.77  L   69.45,  121.30  L   69.55,  120.77  L   69.45,  120.23  L   69.18,  119.76  L   68.77,  119.42  L   68.26,  119.23  L   67.72,  119.23  L   67.21,  119.42  L   66.80,  119.76  L   67.19,  120.47  L   67.19,  121.06  L   67.56,  121.50  L   68.14,  121.60  L   68.64,  121.31  L   68.84,  120.77  L   68.64,  120.22  L   68.14,  119.93  L   67.56,  120.03  L   67.99,  120.77 " style="stroke-width: 0.85 ;&st7; "/>
	<path d=" M  101.98,  380.26  L  131.73,  380.26 " style="stroke-width: 0.85 ;&st7;stroke-dasharray:3, 1.5;"/>
	<path d=" M  101.98,  389.32  L  131.73,  389.32 " style="stroke-width: 0.85 ;&st7;stroke-dasharray:3, 1.5;"/>
	<path d=" M  152.97,  456.18  L  182.72,  456.18 " style="stroke-width: 0.85 ;&st7;stroke-dasharray:3, 1.5;"/>
	<path d=" M  152.97,  447.11  L  182.72,  447.11 " style="stroke-width: 0.85 ;&st7;stroke-dasharray:3, 1.5;"/>
	<path d=" M  152.97,  389.32  L  182.72,  389.32 " style="stroke-width: 0.85 ;&st7;stroke-dasharray:3, 1.5;"/>
	<path d=" M  773.37,  188.75  L  756.37,  188.75  L  756.37,  195.84 " style="stroke-width: 0.85 ;&st7; "/>
	<path d=" M  756.37,  215.67  L  756.37,  222.75  L  773.37,  222.75 " style="stroke-width: 0.85 ;&st7; "/>
	<path d=" M  713.88,  239.75  L  773.37,  239.75  L  773.37,  171.76  L  713.88,  171.76  L  713.88,  239.75 " style="stroke-width: 1.42 ;&st7; "/>
	<path d=" M  741.94,  183.23  L  732.10,  205.04  L  748.81,  187.91 " style="stroke-width: 1.42 ;&st7; "/>
	<path d=" M  671.39,   90.37  L  668.55,   87.54  L  668.55,   91.79  L  671.39,   94.62  L  674.22,   91.79  L  674.22,   87.54  L  671.39,   90.37 " style="stroke-width: 0.28 ;&st9;"/>
	<path d=" M  658.64,   35.78  L  658.64,   78.27  L  684.14,   78.27  L  684.14,   35.78  L  658.64,   35.78 " style="stroke-width: 1.42 ;&st7; "/>
	<path d=" M  875.35,  205.75  L  875.35,  239.75  L  909.35,  239.75  L  909.35,  205.75  L  875.35,  205.75 " style="stroke-width: 1.42 ;&st7; "/>
	<path d=" M  892.35,   90.37  L  889.52,   87.54  L  889.52,   91.79  L  892.35,   94.62  L  895.18,   91.79  L  895.18,   87.54  L  892.35,   90.37 " style="stroke-width: 0.28 ;&st9;"/>
	<path d=" M  879.60,   35.78  L  879.60,   78.27  L  905.10,   78.27  L  905.10,   35.78  L  879.60,   35.78 " style="stroke-width: 1.42 ;&st7; "/>
	<path d=" M   67.99,  154.76  C   69.94   154.76    71.53   153.17    71.53   151.22 " style="stroke-width: 0.85 ;&st7; "/>
	<path d=" M   71.53,  151.22  C   71.53   149.26    69.94   147.68    67.99   147.68 " style="stroke-width: 0.85 ;&st7; "/>
	<path d=" M   67.99,  147.68  C   67.00   147.68    66.15   148.03    65.46   148.74 " style="stroke-width: 0.85 ;&st7; "/>
	<path d=" M   65.46,  148.74  C   66.83   150.14    69.07   150.16    70.47   148.79 " style="stroke-width: 0.85 ;&st7; "/>
	<path d=" M   70.47,  148.79  C   71.86   147.42    71.89   145.18    70.52   143.78 " style="stroke-width: 0.85 ;&st7; "/>
	<path d=" M   70.52,  143.78  C   69.15   142.38    66.91   142.36    65.51   143.73 " style="stroke-width: 0.85 ;&st7; "/>
	<path d=" M   65.51,  143.73  C   65.49   143.75    65.48   143.76    65.46   143.78 " style="stroke-width: 0.85 ;&st7; "/>
	<path d=" M   65.46,  143.78  C   66.83   145.18    69.07   145.20    70.47   143.83 " style="stroke-width: 0.85 ;&st7; "/>
	<path d=" M   70.47,  143.83  C   71.86   142.46    71.89   140.22    70.52   138.82 " style="stroke-width: 0.85 ;&st7; "/>
	<path d=" M   70.52,  138.82  C   69.83   138.12    68.98   137.76    67.99   137.76 " style="stroke-width: 0.85 ;&st7; "/>
	<path d=" M   94.90,  134.93  C   94.90   134.15    94.27   133.51    93.48   133.51 " style="stroke-width: 0.85 ;&st7; "/>
	<path d=" M   93.48,  133.51  C   92.70   133.51    92.07   134.15    92.07   134.93 " style="stroke-width: 0.85 ;&st7; "/>
	<path d=" M   92.07,  134.93  C   92.07   135.71    92.70   136.35    93.48   136.35 " style="stroke-width: 0.85 ;&st7; "/>
	<path d=" M   93.48,  136.35  C   94.27   136.35    94.90   135.71    94.90   134.93 " style="stroke-width: 0.85 ;&st7; "/>
	<path d=" M   94.90,  157.59  C   94.90   156.81    94.27   156.18    93.48   156.18 " style="stroke-width: 0.85 ;&st7; "/>
	<path d=" M   93.48,  156.18  C   92.70   156.18    92.07   156.81    92.07   157.59 " style="stroke-width: 0.85 ;&st7; "/>
	<path d=" M   92.07,  157.59  C   92.07   158.37    92.70   159.01    93.48   159.01 " style="stroke-width: 0.85 ;&st7; "/>
	<path d=" M   93.48,  159.01  C   94.27   159.01    94.90   158.37    94.90   157.59 " style="stroke-width: 0.85 ;&st7; "/>
	<path d=" M   25.50,   47.11  C   22.76    48.72    21.85    52.25    23.46    54.99 " style="stroke-width: 1.42 ;&st7; "/>
	<path d=" M   23.46,   54.99  C   23.98    55.87    24.61    56.51    25.50    57.03 " style="stroke-width: 1.42 ;&st7; "/>
	<path d=" M   25.50,   66.94  C   28.23    65.33    29.15    61.80    27.53    59.06 " style="stroke-width: 1.42 ;&st7; "/>
	<path d=" M   27.53,   59.06  C   27.01    58.18    26.38    57.55    25.50    57.03 " style="stroke-width: 1.42 ;&st7; "/>
	<path d=" M   26.91,   45.69  C   26.91    44.91    26.28    44.28    25.50    44.28 " style="stroke-width: 0.85 ;&st7; "/>
	<path d=" M   25.50,   44.28  C   24.71    44.28    24.08    44.91    24.08    45.69 " style="stroke-width: 0.85 ;&st7; "/>
	<path d=" M   24.08,   45.69  C   24.08    46.48    24.71    47.11    25.50    47.11 " style="stroke-width: 0.85 ;&st7; "/>
	<path d=" M   25.50,   47.11  C   26.28    47.11    26.91    46.48    26.91    45.69 " style="stroke-width: 0.85 ;&st7; "/>
	<path d=" M   26.91,   68.36  C   26.91    67.57    26.28    66.94    25.50    66.94 " style="stroke-width: 0.85 ;&st7; "/>
	<path d=" M   25.50,   66.94  C   24.71    66.94    24.08    67.57    24.08    68.36 " style="stroke-width: 0.85 ;&st7; "/>
	<path d=" M   24.08,   68.36  C   24.08    69.14    24.71    69.77    25.50    69.77 " style="stroke-width: 0.85 ;&st7; "/>
	<path d=" M   25.50,   69.77  C   26.28    69.77    26.91    69.14    26.91    68.36 " style="stroke-width: 0.85 ;&st7; "/>
	<path d=" M  409.35,   68.36  C  409.35    67.57   408.71    66.94   407.93    66.94 " style="stroke-width: 0.85 ;&st7; "/>
	<path d=" M  407.93,   66.94  C  407.15    66.94   406.52    67.57   406.52    68.36 " style="stroke-width: 0.85 ;&st7; "/>
	<path d=" M  406.52,   68.36  C  406.52    69.14   407.15    69.77   407.93    69.77 " style="stroke-width: 0.85 ;&st7; "/>
	<path d=" M  407.93,   69.77  C  408.71    69.77   409.35    69.14   409.35    68.36 " style="stroke-width: 0.85 ;&st7; "/>
	<path d=" M  409.35,   45.69  C  409.35    44.91   408.71    44.28   407.93    44.28 " style="stroke-width: 0.85 ;&st7; "/>
	<path d=" M  407.93,   44.28  C  407.15    44.28   406.52    44.91   406.52    45.69 " style="stroke-width: 0.85 ;&st7; "/>
	<path d=" M  406.52,   45.69  C  406.52    46.48   407.15    47.11   407.93    47.11 " style="stroke-width: 0.85 ;&st7; "/>
	<path d=" M  407.93,   47.11  C  408.71    47.11   409.35    46.48   409.35    45.69 " style="stroke-width: 0.85 ;&st7; "/>
	<path d=" M  407.93,   66.94  C  410.67    65.33   411.58    61.80   409.97    59.06 " style="stroke-width: 1.42 ;&st7; "/>
	<path d=" M  409.97,   59.06  C  409.45    58.18   408.81    57.55   407.93    57.03 " style="stroke-width: 1.42 ;&st7; "/>
	<path d=" M  407.93,   47.11  C  405.19    48.72   404.28    52.25   405.90    54.99 " style="stroke-width: 1.42 ;&st7; "/>
	<path d=" M  405.90,   54.99  C  406.41    55.87   407.05    56.51   407.93    57.03 " style="stroke-width: 1.42 ;&st7; "/>
	<path d=" M  409.35,  123.60  C  409.35   122.82   408.71   122.18   407.93   122.18 " style="stroke-width: 0.85 ;&st7; "/>
	<path d=" M  407.93,  122.18  C  407.15   122.18   406.52   122.82   406.52   123.60 " style="stroke-width: 0.85 ;&st7; "/>
	<path d=" M  406.52,  123.60  C  406.52   124.38   407.15   125.01   407.93   125.01 " style="stroke-width: 0.85 ;&st7; "/>
	<path d=" M  407.93,  125.01  C  408.71   125.01   409.35   124.38   409.35   123.60 " style="stroke-width: 0.85 ;&st7; "/>
	<path d=" M  409.35,  100.94  C  409.35   100.15   408.71    99.52   407.93    99.52 " style="stroke-width: 0.85 ;&st7; "/>
	<path d=" M  407.93,   99.52  C  407.15    99.52   406.52   100.15   406.52   100.94 " style="stroke-width: 0.85 ;&st7; "/>
	<path d=" M  406.52,  100.94  C  406.52   101.72   407.15   102.35   407.93   102.35 " style="stroke-width: 0.85 ;&st7; "/>
	<path d=" M  407.93,  102.35  C  408.71   102.35   409.35   101.72   409.35   100.94 " style="stroke-width: 0.85 ;&st7; "/>
	<path d=" M  430.90,  109.79  C  432.27   111.18   434.51   111.21   435.91   109.84 " style="stroke-width: 0.85 ;&st7; "/>
	<path d=" M  435.91,  109.84  C  437.30   108.47   437.33   106.23   435.96   104.83 " style="stroke-width: 0.85 ;&st7; "/>
	<path d=" M  435.96,  104.83  C  435.26   104.12   434.42   103.77   433.43   103.77 " style="stroke-width: 0.85 ;&st7; "/>
	<path d=" M  430.90,  114.75  C  432.27   116.14   434.51   116.17   435.91   114.80 " style="stroke-width: 0.85 ;&st7; "/>
	<path d=" M  435.91,  114.80  C  437.30   113.43   437.33   111.18   435.96   109.79 " style="stroke-width: 0.85 ;&st7; "/>
	<path d=" M  435.96,  109.79  C  434.59   108.39   432.35   108.37   430.95   109.74 " style="stroke-width: 0.85 ;&st7; "/>
	<path d=" M  430.95,  109.74  C  430.93   109.75   430.92   109.77   430.90   109.79 " style="stroke-width: 0.85 ;&st7; "/>
	<path d=" M  433.43,  120.77  C  435.38   120.77   436.97   119.18   436.97   117.22 " style="stroke-width: 0.85 ;&st7; "/>
	<path d=" M  436.97,  117.22  C  436.97   115.27   435.38   113.68   433.43   113.68 " style="stroke-width: 0.85 ;&st7; "/>
	<path d=" M  433.43,  113.68  C  432.44   113.68   431.59   114.04   430.90   114.75 " style="stroke-width: 0.85 ;&st7; "/>
	<path d=" M  414.31,  167.51  C  414.31   165.16   412.40   163.26   410.06   163.26 " style="stroke-width: 1.42 ;&st7; "/>
	<path d=" M  410.06,  171.76  C  412.40   171.76   414.31   169.85   414.31   167.51 " style="stroke-width: 1.42 ;&st7; "/>
	<path d=" M  401.56,  167.51  C  401.56   169.85   403.46   171.76   405.81   171.76 " style="stroke-width: 1.42 ;&st7; "/>
	<path d=" M  405.81,  163.26  C  403.46   163.26   401.56   165.16   401.56   167.51 " style="stroke-width: 1.42 ;&st7; "/>
	<path d=" M  439.80,  167.51  C  439.80   165.16   437.90   163.26   435.55   163.26 " style="stroke-width: 1.42 ;&st7; "/>
	<path d=" M  435.55,  171.76  C  437.90   171.76   439.80   169.85   439.80   167.51 " style="stroke-width: 1.42 ;&st7; "/>
	<path d=" M  427.05,  167.51  C  427.05   169.85   428.96   171.76   431.30   171.76 " style="stroke-width: 1.42 ;&st7; "/>
	<path d=" M  431.30,  163.26  C  428.96   163.26   427.05   165.16   427.05   167.51 " style="stroke-width: 1.42 ;&st7; "/>
	<path d=" M  584.28,  167.51  C  584.28   165.16   582.37   163.26   580.03   163.26 " style="stroke-width: 1.42 ;&st7; "/>
	<path d=" M  580.03,  171.76  C  582.37   171.76   584.28   169.85   584.28   167.51 " style="stroke-width: 1.42 ;&st7; "/>
	<path d=" M  571.53,  167.51  C  571.53   169.85   573.43   171.76   575.78   171.76 " style="stroke-width: 1.42 ;&st7; "/>
	<path d=" M  575.78,  163.26  C  573.43   163.26   571.53   165.16   571.53   167.51 " style="stroke-width: 1.42 ;&st7; "/>
	<path d=" M   94.90,   68.36  C   94.90    67.57    94.27    66.94    93.48    66.94 " style="stroke-width: 0.85 ;&st7; "/>
	<path d=" M   93.48,   66.94  C   92.70    66.94    92.07    67.57    92.07    68.36 " style="stroke-width: 0.85 ;&st7; "/>
	<path d=" M   92.07,   68.36  C   92.07    69.14    92.70    69.77    93.48    69.77 " style="stroke-width: 0.85 ;&st7; "/>
	<path d=" M   93.48,   69.77  C   94.27    69.77    94.90    69.14    94.90    68.36 " style="stroke-width: 0.85 ;&st7; "/>
	<path d=" M   94.90,   45.69  C   94.90    44.91    94.27    44.28    93.48    44.28 " style="stroke-width: 0.85 ;&st7; "/>
	<path d=" M   93.48,   44.28  C   92.70    44.28    92.07    44.91    92.07    45.69 " style="stroke-width: 0.85 ;&st7; "/>
	<path d=" M   92.07,   45.69  C   92.07    46.48    92.70    47.11    93.48    47.11 " style="stroke-width: 0.85 ;&st7; "/>
	<path d=" M   93.48,   47.11  C   94.27    47.11    94.90    46.48    94.90    45.69 " style="stroke-width: 0.85 ;&st7; "/>
	<path d=" M   93.48,   66.94  C   96.22    65.33    97.13    61.80    95.52    59.06 " style="stroke-width: 1.42 ;&st7; "/>
	<path d=" M   95.52,   59.06  C   95.00    58.18    94.37    57.55    93.48    57.03 " style="stroke-width: 1.42 ;&st7; "/>
	<path d=" M   93.48,   47.11  C   90.75    48.72    89.83    52.25    91.45    54.99 " style="stroke-width: 1.42 ;&st7; "/>
	<path d=" M   91.45,   54.99  C   91.97    55.87    92.60    56.51    93.48    57.03 " style="stroke-width: 1.42 ;&st7; "/>
	<path d=" M   91.36,  188.75  C   89.01   188.75    87.11   190.66    87.11   193.00 " style="stroke-width: 1.42 ;&st7; "/>
	<path d=" M   87.11,  193.00  C   87.11   195.35    89.01   197.25    91.36   197.25 " style="stroke-width: 1.42 ;&st7; "/>
	<path d=" M   95.61,  197.25  C   97.96   197.25    99.86   195.35    99.86   193.00 " style="stroke-width: 1.42 ;&st7; "/>
	<path d=" M   99.86,  193.00  C   99.86   190.66    97.96   188.75    95.61   188.75 " style="stroke-width: 1.42 ;&st7; "/>
	<path d=" M   74.36,  193.00  C   74.36   190.66    72.46   188.75    70.11   188.75 " style="stroke-width: 1.42 ;&st7; "/>
	<path d=" M   70.11,  197.25  C   72.46   197.25    74.36   195.35    74.36   193.00 " style="stroke-width: 1.42 ;&st7; "/>
	<path d=" M   61.61,  193.00  C   61.61   195.35    63.52   197.25    65.86   197.25 " style="stroke-width: 1.42 ;&st7; "/>
	<path d=" M   65.86,  188.75  C   63.52   188.75    61.61   190.66    61.61   193.00 " style="stroke-width: 1.42 ;&st7; "/>
	<path d=" M  278.33,  163.26  C  275.98   163.26   274.08   165.16   274.08   167.51 " style="stroke-width: 1.42 ;&st7; "/>
	<path d=" M  274.08,  167.51  C  274.08   169.85   275.98   171.76   278.33   171.76 " style="stroke-width: 1.42 ;&st7; "/>
	<path d=" M  282.58,  171.76  C  284.92   171.76   286.83   169.85   286.83   167.51 " style="stroke-width: 1.42 ;&st7; "/>
	<path d=" M  286.83,  167.51  C  286.83   165.16   284.92   163.26   282.58   163.26 " style="stroke-width: 1.42 ;&st7; "/>
	<path d=" M   98.02,  337.20  C   98.02   334.69    95.99   332.66    93.48   332.66 " style="stroke-width: 1.42 ;&st7; "/>
	<path d=" M   93.48,  332.66  C   90.98   332.66    88.95   334.69    88.95   337.20 " style="stroke-width: 1.42 ;&st7; "/>
	<path d=" M   88.95,  337.20  C   88.95   339.70    90.98   341.73    93.48   341.73 " style="stroke-width: 1.42 ;&st7; "/>
	<path d=" M   93.48,  341.73  C   95.99   341.73    98.02   339.70    98.02   337.20 " style="stroke-width: 1.42 ;&st7; "/>
	<path d=" M   98.02,  328.13  C   98.02   325.63    95.99   323.60    93.48   323.60 " style="stroke-width: 1.42 ;&st7; "/>
	<path d=" M   93.48,  323.60  C   90.98   323.60    88.95   325.63    88.95   328.13 " style="stroke-width: 1.42 ;&st7; "/>
	<path d=" M   88.95,  328.13  C   88.95   330.63    90.98   332.66    93.48   332.66 " style="stroke-width: 1.42 ;&st7; "/>
	<path d=" M   93.48,  332.66  C   95.99   332.66    98.02   330.63    98.02   328.13 " style="stroke-width: 1.42 ;&st7; "/>
	<path d=" M  149.01,  456.18  C  149.01   453.67   146.98   451.64   144.48   451.64 " style="stroke-width: 1.42 ;&st7; "/>
	<path d=" M  144.48,  451.64  C  141.97   451.64   139.94   453.67   139.94   456.18 " style="stroke-width: 1.42 ;&st7; "/>
	<path d=" M  139.94,  456.18  C  139.94   458.68   141.97   460.71   144.48   460.71 " style="stroke-width: 1.42 ;&st7; "/>
	<path d=" M  144.48,  460.71  C  146.98   460.71   149.01   458.68   149.01   456.18 " style="stroke-width: 1.42 ;&st7; "/>
	<path d=" M  149.01,  447.11  C  149.01   444.61   146.98   442.58   144.48   442.58 " style="stroke-width: 1.42 ;&st7; "/>
	<path d=" M  144.48,  442.58  C  141.97   442.58   139.94   444.61   139.94   447.11 " style="stroke-width: 1.42 ;&st7; "/>
	<path d=" M  139.94,  447.11  C  139.94   449.61   141.97   451.64   144.48   451.64 " style="stroke-width: 1.42 ;&st7; "/>
	<path d=" M  144.48,  451.64  C  146.98   451.64   149.01   449.61   149.01   447.11 " style="stroke-width: 1.42 ;&st7; "/>
	<path d=" M  200.00,  456.18  C  200.00   453.67   197.97   451.64   195.47   451.64 " style="stroke-width: 1.42 ;&st7; "/>
	<path d=" M  195.47,  451.64  C  192.96   451.64   190.93   453.67   190.93   456.18 " style="stroke-width: 1.42 ;&st7; "/>
	<path d=" M  190.93,  456.18  C  190.93   458.68   192.96   460.71   195.47   460.71 " style="stroke-width: 1.42 ;&st7; "/>
	<path d=" M  195.47,  460.71  C  197.97   460.71   200.00   458.68   200.00   456.18 " style="stroke-width: 1.42 ;&st7; "/>
	<path d=" M  200.00,  447.11  C  200.00   444.61   197.97   442.58   195.47   442.58 " style="stroke-width: 1.42 ;&st7; "/>
	<path d=" M  195.47,  442.58  C  192.96   442.58   190.93   444.61   190.93   447.11 " style="stroke-width: 1.42 ;&st7; "/>
	<path d=" M  190.93,  447.11  C  190.93   449.61   192.96   451.64   195.47   451.64 " style="stroke-width: 1.42 ;&st7; "/>
	<path d=" M  195.47,  451.64  C  197.97   451.64   200.00   449.61   200.00   447.11 " style="stroke-width: 1.42 ;&st7; "/>
	<path d=" M   98.02,  389.32  C   98.02   386.82    95.99   384.79    93.48   384.79 " style="stroke-width: 1.42 ;&st7; "/>
	<path d=" M   93.48,  384.79  C   90.98   384.79    88.95   386.82    88.95   389.32 " style="stroke-width: 1.42 ;&st7; "/>
	<path d=" M   88.95,  389.32  C   88.95   391.82    90.98   393.85    93.48   393.85 " style="stroke-width: 1.42 ;&st7; "/>
	<path d=" M   93.48,  393.85  C   95.99   393.85    98.02   391.82    98.02   389.32 " style="stroke-width: 1.42 ;&st7; "/>
	<path d=" M   98.02,  380.26  C   98.02   377.75    95.99   375.72    93.48   375.72 " style="stroke-width: 1.42 ;&st7; "/>
	<path d=" M   93.48,  375.72  C   90.98   375.72    88.95   377.75    88.95   380.26 " style="stroke-width: 1.42 ;&st7; "/>
	<path d=" M   88.95,  380.26  C   88.95   382.76    90.98   384.79    93.48   384.79 " style="stroke-width: 1.42 ;&st7; "/>
	<path d=" M   93.48,  384.79  C   95.99   384.79    98.02   382.76    98.02   380.26 " style="stroke-width: 1.42 ;&st7; "/>
	<path d=" M  149.01,  389.32  C  149.01   386.82   146.98   384.79   144.48   384.79 " style="stroke-width: 1.42 ;&st7; "/>
	<path d=" M  144.48,  384.79  C  141.97   384.79   139.94   386.82   139.94   389.32 " style="stroke-width: 1.42 ;&st7; "/>
	<path d=" M  139.94,  389.32  C  139.94   391.82   141.97   393.85   144.48   393.85 " style="stroke-width: 1.42 ;&st7; "/>
	<path d=" M  144.48,  393.85  C  146.98   393.85   149.01   391.82   149.01   389.32 " style="stroke-width: 1.42 ;&st7; "/>
	<path d=" M  149.01,  380.26  C  149.01   377.75   146.98   375.72   144.48   375.72 " style="stroke-width: 1.42 ;&st7; "/>
	<path d=" M  144.48,  375.72  C  141.97   375.72   139.94   377.75   139.94   380.26 " style="stroke-width: 1.42 ;&st7; "/>
	<path d=" M  139.94,  380.26  C  139.94   382.76   141.97   384.79   144.48   384.79 " style="stroke-width: 1.42 ;&st7; "/>
	<path d=" M  144.48,  384.79  C  146.98   384.79   149.01   382.76   149.01   380.26 " style="stroke-width: 1.42 ;&st7; "/>
	<path d=" M  200.00,  389.32  C  200.00   386.82   197.97   384.79   195.47   384.79 " style="stroke-width: 1.42 ;&st7; "/>
	<path d=" M  195.47,  384.79  C  192.96   384.79   190.93   386.82   190.93   389.32 " style="stroke-width: 1.42 ;&st7; "/>
	<path d=" M  190.93,  389.32  C  190.93   391.82   192.96   393.85   195.47   393.85 " style="stroke-width: 1.42 ;&st7; "/>
	<path d=" M  195.47,  393.85  C  197.97   393.85   200.00   391.82   200.00   389.32 " style="stroke-width: 1.42 ;&st7; "/>
	<path d=" M  200.00,  380.26  C  200.00   377.75   197.97   375.72   195.47   375.72 " style="stroke-width: 1.42 ;&st7; "/>
	<path d=" M  195.47,  375.72  C  192.96   375.72   190.93   377.75   190.93   380.26 " style="stroke-width: 1.42 ;&st7; "/>
	<path d=" M  190.93,  380.26  C  190.93   382.76   192.96   384.79   195.47   384.79 " style="stroke-width: 1.42 ;&st7; "/>
	<path d=" M  195.47,  384.79  C  197.97   384.79   200.00   382.76   200.00   380.26 " style="stroke-width: 1.42 ;&st7; "/>
	<path d=" M  200.00,  508.30  C  200.00   505.80   197.97   503.77   195.47   503.77 " style="stroke-width: 1.42 ;&st7; "/>
	<path d=" M  195.47,  503.77  C  192.96   503.77   190.93   505.80   190.93   508.30 " style="stroke-width: 1.42 ;&st7; "/>
	<path d=" M  190.93,  508.30  C  190.93   510.80   192.96   512.83   195.47   512.83 " style="stroke-width: 1.42 ;&st7; "/>
	<path d=" M  195.47,  512.83  C  197.97   512.83   200.00   510.80   200.00   508.30 " style="stroke-width: 1.42 ;&st7; "/>
	<path d=" M  200.00,  499.24  C  200.00   496.73   197.97   494.70   195.47   494.70 " style="stroke-width: 1.42 ;&st7; "/>
	<path d=" M  195.47,  494.70  C  192.96   494.70   190.93   496.73   190.93   499.24 " style="stroke-width: 1.42 ;&st7; "/>
	<path d=" M  190.93,  499.24  C  190.93   501.74   192.96   503.77   195.47   503.77 " style="stroke-width: 1.42 ;&st7; "/>
	<path d=" M  195.47,  503.77  C  197.97   503.77   200.00   501.74   200.00   499.24 " style="stroke-width: 1.42 ;&st7; "/>
	<path d=" M  732.29,  205.75  C  732.29   204.97   731.66   204.33   730.88   204.33 " style="stroke-width: 0.85 ;&st7; "/>
	<path d=" M  730.88,  204.33  C  730.10   204.33   729.46   204.97   729.46   205.75 " style="stroke-width: 0.85 ;&st7; "/>
	<path d=" M  729.46,  205.75  C  729.46   206.53   730.10   207.17   730.88   207.17 " style="stroke-width: 0.85 ;&st7; "/>
	<path d=" M  730.88,  207.17  C  731.66   207.17   732.29   206.53   732.29   205.75 " style="stroke-width: 0.85 ;&st7; "/>
	<path d=" M  757.79,  197.25  C  757.79   196.47   757.16   195.84   756.37   195.84 " style="stroke-width: 0.85 ;&st7; "/>
	<path d=" M  756.37,  195.84  C  755.59   195.84   754.96   196.47   754.96   197.25 " style="stroke-width: 0.85 ;&st7; "/>
	<path d=" M  754.96,  197.25  C  754.96   198.03   755.59   198.67   756.37   198.67 " style="stroke-width: 0.85 ;&st7; "/>
	<path d=" M  756.37,  198.67  C  757.16   198.67   757.79   198.03   757.79   197.25 " style="stroke-width: 0.85 ;&st7; "/>
	<path d=" M  757.79,  214.25  C  757.79   213.47   757.16   212.83   756.37   212.83 " style="stroke-width: 0.85 ;&st7; "/>
	<path d=" M  756.37,  212.83  C  755.59   212.83   754.96   213.47   754.96   214.25 " style="stroke-width: 0.85 ;&st7; "/>
	<path d=" M  754.96,  214.25  C  754.96   215.03   755.59   215.67   756.37   215.67 " style="stroke-width: 0.85 ;&st7; "/>
	<path d=" M  756.37,  215.67  C  757.16   215.67   757.79   215.03   757.79   214.25 " style="stroke-width: 0.85 ;&st7; "/>
	<path d=" M  760.62,  205.75  C  760.62   204.97   759.99   204.33   759.21   204.33 " style="stroke-width: 0.85 ;&st7; "/>
	<path d=" M  759.21,  204.33  C  758.42   204.33   757.79   204.97   757.79   205.75 " style="stroke-width: 0.85 ;&st7; "/>
	<path d=" M  757.79,  205.75  C  757.79   206.53   758.42   207.17   759.21   207.17 " style="stroke-width: 0.85 ;&st7; "/>
	<path d=" M  759.21,  207.17  C  759.99   207.17   760.62   206.53   760.62   205.75 " style="stroke-width: 0.85 ;&st7; "/>
	<path d=" M  748.81,  187.91  C  747.83   184.92   745.08   183.05   741.94   183.23 " style="stroke-width: 1.42 ;&st7; "/>
	<path d=" M  671.39,   47.11  C  668.65    48.72   667.74    52.25   669.35    54.99 " style="stroke-width: 1.42 ;&st7; "/>
	<path d=" M  669.35,   54.99  C  669.87    55.87   670.51    56.51   671.39    57.03 " style="stroke-width: 1.42 ;&st7; "/>
	<path d=" M  671.39,   66.94  C  674.13    65.33   675.04    61.80   673.42    59.06 " style="stroke-width: 1.42 ;&st7; "/>
	<path d=" M  673.42,   59.06  C  672.91    58.18   672.27    57.55   671.39    57.03 " style="stroke-width: 1.42 ;&st7; "/>
	<path d=" M  672.80,   45.69  C  672.80    44.91   672.17    44.28   671.39    44.28 " style="stroke-width: 0.85 ;&st7; "/>
	<path d=" M  671.39,   44.28  C  670.61    44.28   669.97    44.91   669.97    45.69 " style="stroke-width: 0.85 ;&st7; "/>
	<path d=" M  669.97,   45.69  C  669.97    46.48   670.61    47.11   671.39    47.11 " style="stroke-width: 0.85 ;&st7; "/>
	<path d=" M  671.39,   47.11  C  672.17    47.11   672.80    46.48   672.80    45.69 " style="stroke-width: 0.85 ;&st7; "/>
	<path d=" M  672.80,   68.36  C  672.80    67.57   672.17    66.94   671.39    66.94 " style="stroke-width: 0.85 ;&st7; "/>
	<path d=" M  671.39,   66.94  C  670.61    66.94   669.97    67.57   669.97    68.36 " style="stroke-width: 0.85 ;&st7; "/>
	<path d=" M  669.97,   68.36  C  669.97    69.14   670.61    69.77   671.39    69.77 " style="stroke-width: 0.85 ;&st7; "/>
	<path d=" M  671.39,   69.77  C  672.17    69.77   672.80    69.14   672.80    68.36 " style="stroke-width: 0.85 ;&st7; "/>
	<path d=" M  669.26,   95.27  C  666.92    95.27   665.01    97.17   665.01    99.52 " style="stroke-width: 1.42 ;&st7; "/>
	<path d=" M  665.01,   99.52  C  665.01   101.87   666.92   103.77   669.26   103.77 " style="stroke-width: 1.42 ;&st7; "/>
	<path d=" M  673.51,  103.77  C  675.86   103.77   677.76   101.87   677.76    99.52 " style="stroke-width: 1.42 ;&st7; "/>
	<path d=" M  677.76,   99.52  C  677.76    97.17   675.86    95.27   673.51    95.27 " style="stroke-width: 1.42 ;&st7; "/>
	<path d=" M  896.88,  201.22  C  896.88   198.72   894.85   196.69   892.35   196.69 " style="stroke-width: 1.42 ;&st7; "/>
	<path d=" M  892.35,  196.69  C  889.85   196.69   887.82   198.72   887.82   201.22 " style="stroke-width: 1.42 ;&st7; "/>
	<path d=" M  887.82,  201.22  C  887.82   203.72   889.85   205.75   892.35   205.75 " style="stroke-width: 1.42 ;&st7; "/>
	<path d=" M  892.35,  205.75  C  894.85   205.75   896.88   203.72   896.88   201.22 " style="stroke-width: 1.42 ;&st7; "/>
	<path d=" M  896.88,  244.28  C  896.88   241.77   894.85   239.75   892.35   239.75 " style="stroke-width: 1.42 ;&st7; "/>
	<path d=" M  892.35,  239.75  C  889.85   239.75   887.82   241.77   887.82   244.28 " style="stroke-width: 1.42 ;&st7; "/>
	<path d=" M  887.82,  244.28  C  887.82   246.78   889.85   248.81   892.35   248.81 " style="stroke-width: 1.42 ;&st7; "/>
	<path d=" M  892.35,  248.81  C  894.85   248.81   896.88   246.78   896.88   244.28 " style="stroke-width: 1.42 ;&st7; "/>
	<path d=" M  892.35,   47.11  C  889.61    48.72   888.70    52.25   890.31    54.99 " style="stroke-width: 1.42 ;&st7; "/>
	<path d=" M  890.31,   54.99  C  890.83    55.87   891.47    56.51   892.35    57.03 " style="stroke-width: 1.42 ;&st7; "/>
	<path d=" M  892.35,   66.94  C  895.09    65.33   896.00    61.80   894.39    59.06 " style="stroke-width: 1.42 ;&st7; "/>
	<path d=" M  894.39,   59.06  C  893.87    58.18   893.23    57.55   892.35    57.03 " style="stroke-width: 1.42 ;&st7; "/>
	<path d=" M  893.77,   45.69  C  893.77    44.91   893.13    44.28   892.35    44.28 " style="stroke-width: 0.85 ;&st7; "/>
	<path d=" M  892.35,   44.28  C  891.57    44.28   890.93    44.91   890.93    45.69 " style="stroke-width: 0.85 ;&st7; "/>
	<path d=" M  890.93,   45.69  C  890.93    46.48   891.57    47.11   892.35    47.11 " style="stroke-width: 0.85 ;&st7; "/>
	<path d=" M  892.35,   47.11  C  893.13    47.11   893.77    46.48   893.77    45.69 " style="stroke-width: 0.85 ;&st7; "/>
	<path d=" M  893.77,   68.36  C  893.77    67.57   893.13    66.94   892.35    66.94 " style="stroke-width: 0.85 ;&st7; "/>
	<path d=" M  892.35,   66.94  C  891.57    66.94   890.93    67.57   890.93    68.36 " style="stroke-width: 0.85 ;&st7; "/>
	<path d=" M  890.93,   68.36  C  890.93    69.14   891.57    69.77   892.35    69.77 " style="stroke-width: 0.85 ;&st7; "/>
	<path d=" M  892.35,   69.77  C  893.13    69.77   893.77    69.14   893.77    68.36 " style="stroke-width: 0.85 ;&st7; "/>
	<path d=" M  890.23,   95.27  C  887.88    95.27   885.98    97.17   885.98    99.52 " style="stroke-width: 1.42 ;&st7; "/>
	<path d=" M  885.98,   99.52  C  885.98   101.87   887.88   103.77   890.23   103.77 " style="stroke-width: 1.42 ;&st7; "/>
	<path d=" M  894.48,  103.77  C  896.82   103.77   898.72   101.87   898.72    99.52 " style="stroke-width: 1.42 ;&st7; "/>
	<path d=" M  898.72,   99.52  C  898.72    97.17   896.82    95.27   894.48    95.27 " style="stroke-width: 1.42 ;&st7; "/>
	<text ewd:textID="2" style="&st18;" transform="matrix(&st16;  770.85  445.68 )">* 2 :w/o Entry &amp; Start System</text>
	<text ewd:textID="8" style="&st18;" transform="matrix(&st17;  381.29  335.75 )">Front Power Outlet <tspan dy="6" x="0">Socket Assembly</tspan></text>
	<text style="&st18;" transform="matrix(&st17;  404.24  208.51 )">G</text>
	<text style="&st18;" transform="matrix(&st16;  405.6  306.87 )">B</text>
	<text style="&st18;" transform="matrix(&st16;  401.92  295.55 )">1</text>
	<text style="&st18;" transform="matrix(&st16;  405.6  329.53 )">E</text>
	<text style="&st18;" transform="matrix(&st16;  401.14  341.42 )">2</text>
	<text style="&st18;" transform="matrix(&st17;  404.24  383.42 )">W-B</text>
	<text style="&st18;" transform="matrix(&st17;  404.24  493.9 )">W-B</text>
	<text style="&st18;" transform="matrix(&st17;  374.18  335.75 )">E46</text>
	<text style="&st18;" transform="matrix(&st16;  398.82  32.08 )">(BAT)</text>
	<text style="&st18;" transform="matrix(&st16;  425.24  56.17 )">15A <tspan dy="6" x="0">P/OUTLET</tspan></text>
	<text style="&st18;" transform="matrix(&st16;  395.24  169.48 )">2</text>
	<text style="&st18;" transform="matrix(&st16;  404.19  169.48 )">2J</text>
	<text style="&st18;" transform="matrix(&st16;  421.52  169.48 )">1</text>
	<text style="&st18;" transform="matrix(&st16;  429.68  169.48 )">2J</text>
	<text style="&st18;" transform="matrix(&st16;  562.03  169.48 )">18</text>
	<text style="&st18;" transform="matrix(&st16;  574.16  169.48 )">2J</text>
	<text style="&st18;" transform="matrix(&st17;  489.22  383.42 )">W-B</text>
	<text style="&st18;" transform="matrix(&st17;  64.29  255.94 )">W-B</text>
	<text style="&st18;" transform="matrix(&st16;  56.08  194.97 )">1</text>
	<text style="&st18;" transform="matrix(&st16;  19.42  32.08 )">(IG)</text>
	<text style="&st18;" transform="matrix(&st16;  64.24  194.97 )">2J</text>
	<text style="&st18;" transform="matrix(&st16;  42.8  53.34 )">10A <tspan dy="6" x="0">ECU-IG </tspan><tspan dy="6" x="0">NO.2</tspan></text>
	<text style="&st18;" transform="matrix(&st16;  84.37  32.08 )">(BAT)</text>
	<text style="&st18;" transform="matrix(&st16;  110.79  56.17 )">15A <tspan dy="6" x="0">INV</tspan></text>
	<text style="&st18;" transform="matrix(&st16;  89.18  194.97 )">2K</text>
	<text style="&st18;" transform="matrix(&st16;  77.62  194.97 )">12</text>
	<text ewd:textID="9" style="&st18;" transform="matrix(&st16;  105.12  145.4 )">INVERTER <tspan dy="6" x="0">Relay</tspan></text>
	<text style="&st18;" transform="matrix(&st17;  13.3  621.38 )">W-B</text>
	<text style="&st18;" transform="matrix(&st16;  89.74  349.36 )">IG</text>
	<text style="&st18;" transform="matrix(&st16;  193.14  491.01 )">E</text>
	<text style="&st18;" transform="matrix(&st17;  89.79  425.92 )">W-B</text>
	<text style="&st18;" transform="matrix(&st17;  191.77  544.9 )">W-B</text>
	<text style="&st18;" transform="matrix(&st16;  138.08  372.03 )">AC1</text>
	<text style="&st18;" transform="matrix(&st16;  188.69  372.03 )">AC2</text>
	<text ewd:textID="6" style="&st18;" transform="matrix(&st16;  770.85  479.67 )">* 6 :RHD, LHD w/o Entry &amp; Start System</text>
	<text style="&st18;" transform="matrix(&st16;  186.21  468.34 )">ACC2</text>
	<text style="&st18;" transform="matrix(&st16;  135.61  468.34 )">ACC1</text>
	<text style="&st18;" transform="matrix(&st17;  191.77  426.87 )">LA-B</text>
	<text style="&st18;" transform="matrix(&st17;  89.79  256.9 )">LA-B</text>
	<text style="&st18;" transform="matrix(&st16;  85.78  372.03 )">GND</text>
	<text style="&st18;" transform="matrix(&st17;  140.78  427.89 )">LA-W</text>
	<text ewd:textID="5" style="&st18;" transform="matrix(&st16;  770.85  471.18 )">* 5 :LHD w/ Entry &amp; Start System</text>
	<text style="&st18;" transform="matrix(&st17;  404.24  276.49 )">G</text>
	<text ewd:textID="14" style="&st18;" transform="matrix(&st17;  313.3  335.75 )">Rear Power Outlet <tspan dy="6" x="0">Socket Assembly</tspan></text>
	<text style="&st18;" transform="matrix(&st16;  337.61  306.87 )">B</text>
	<text style="&st18;" transform="matrix(&st16;  333.93  295.55 )">1</text>
	<text style="&st18;" transform="matrix(&st16;  337.61  329.53 )">E</text>
	<text style="&st18;" transform="matrix(&st16;  333.15  341.42 )">2</text>
	<text style="&st18;" transform="matrix(&st17;  306.19  335.75 )">E127</text>
	<text style="&st18;" transform="matrix(&st17;  336.25  276.49 )">G</text>
	<text style="&st18;" transform="matrix(&st17;  336.25  383.42 )">W-B</text>
	<text style="&st18;" transform="matrix(&st16;  207.11  659.54 )">K52</text>
	<text style="&st18;" transform="matrix(&st16;  188.68  652.49 )">5</text>
	<text style="&st18;" transform="matrix(&st17;  191.77  621.38 )">W-B</text>
	<text style="&st18;" transform="matrix(&st16;  276.14  169.48 )">2K</text>
	<text style="&st18;" transform="matrix(&st16;  264.58  169.48 )">10</text>
	<text ewd:textID="14" style="&st18;" transform="matrix(&st17;  253.81  335.75 )">Rear Power Outlet <tspan dy="6" x="0">Socket Assembly</tspan></text>
	<text style="&st18;" transform="matrix(&st16;  278.12  306.87 )">B</text>
	<text style="&st18;" transform="matrix(&st16;  274.44  295.55 )">1</text>
	<text style="&st18;" transform="matrix(&st16;  278.12  329.53 )">E</text>
	<text style="&st18;" transform="matrix(&st16;  273.66  341.42 )">2</text>
	<text style="&st18;" transform="matrix(&st17;  246.7  335.75 )">K41</text>
	<text style="&st18;" transform="matrix(&st17;  276.76  276.49 )">G</text>
	<text style="&st18;" transform="matrix(&st17;  276.76  383.42 )">W-B</text>
	<text ewd:textID="12" style="&st18;" transform="matrix(&st16;  362.03  111.41 )">P/OUTLET <tspan dy="6" x="0">Relay</tspan></text>
	<text style="&st18;" transform="matrix(&st17;  500.55  381.9 )">(*5)</text>
	<text style="&st18;" transform="matrix(&st17;  455.23  383.42 )">W-B</text>
	<text style="&st18;" transform="matrix(&st17;  466.56  381.9 )">(*6)</text>
	<text ewd:textID="11" style="&st18;" transform="matrix(&st16;  207.11  666.64 )">Junction <tspan dy="6" x="0">Connector</tspan></text>
	<text style="&st18;" transform="matrix(&st16;  99.46  339.16 )">(*3)</text>
	<text style="&st18;" transform="matrix(&st16;  91.15  339.16 )">B</text>
	<text style="&st18;" transform="matrix(&st16;  83.38  339.16 )">1</text>
	<text style="&st18;" transform="matrix(&st16;  99.46  330.1 )">(*4)</text>
	<text style="&st18;" transform="matrix(&st16;  91.15  330.1 )">A</text>
	<text style="&st18;" transform="matrix(&st16;  82.61  330.1 )">5</text>
	<text style="&st18;" transform="matrix(&st16;  142.14  458.14 )">B</text>
	<text style="&st18;" transform="matrix(&st16;  134.38  458.14 )">1</text>
	<text style="&st18;" transform="matrix(&st16;  142.14  449.08 )">A</text>
	<text style="&st18;" transform="matrix(&st16;  133.6  449.08 )">5</text>
	<text style="&st18;" transform="matrix(&st16;  201.44  458.14 )">(*3)</text>
	<text style="&st18;" transform="matrix(&st16;  193.14  458.14 )">B</text>
	<text style="&st18;" transform="matrix(&st16;  184.59  458.14 )">2</text>
	<text style="&st18;" transform="matrix(&st16;  201.44  449.08 )">(*4)</text>
	<text style="&st18;" transform="matrix(&st16;  193.14  449.08 )">A</text>
	<text style="&st18;" transform="matrix(&st16;  184.59  449.08 )">8</text>
	<text style="&st18;" transform="matrix(&st16;  91.15  391.29 )">B</text>
	<text style="&st18;" transform="matrix(&st16;  82.61  391.29 )">4</text>
	<text style="&st18;" transform="matrix(&st16;  91.15  382.22 )">A</text>
	<text style="&st18;" transform="matrix(&st16;  83.38  382.22 )">1</text>
	<text ewd:textID="1" style="&st18;" transform="matrix(&st16;  770.85  437.18 )">* 1 :w/ Entry &amp; Start System</text>
	<text style="&st18;" transform="matrix(&st16;  142.14  391.29 )">B</text>
	<text style="&st18;" transform="matrix(&st16;  133.6  391.29 )">3</text>
	<text style="&st18;" transform="matrix(&st16;  142.14  382.22 )">A</text>
	<text style="&st18;" transform="matrix(&st16;  133.6  382.22 )">4</text>
	<text style="&st18;" transform="matrix(&st16;  201.44  391.29 )">(*3)</text>
	<text ewd:textID="4" style="&st18;" transform="matrix(&st16;  770.85  462.68 )">* 4 :w/o Trailer Towing</text>
	<text style="&st18;" transform="matrix(&st16;  193.14  391.29 )">B</text>
	<text ewd:textID="3" style="&st18;" transform="matrix(&st16;  770.85  454.18 )">* 3 :w/ Trailer Towing</text>
	<text style="&st18;" transform="matrix(&st16;  184.59  391.29 )">7</text>
	<text style="&st18;" transform="matrix(&st16;  201.44  382.22 )">(*4)</text>
	<text style="&st18;" transform="matrix(&st16;  193.14  382.22 )">A</text>
	<text style="&st18;" transform="matrix(&st16;  184.59  382.22 )">8</text>
	<text style="&st18;" transform="matrix(&st16;  201.44  510.27 )">(*3)</text>
	<text style="&st18;" transform="matrix(&st16;  193.14  510.27 )">B</text>
	<text style="&st18;" transform="matrix(&st16;  184.59  510.27 )">5</text>
	<text style="&st18;" transform="matrix(&st16;  201.44  501.2 )">(*4)</text>
	<text style="&st18;" transform="matrix(&st16;  193.14  501.2 )">A</text>
	<text style="&st18;" transform="matrix(&st16;  185.37  501.2 )">1</text>
	<text ewd:textID="10" style="&st18;" transform="matrix(&st16;  719.85  254.46 )">Ignition or Starter <tspan dy="6" x="0">Switch Assembly</tspan></text>
	<text style="&st18;" transform="matrix(&st16;  707.09  202.06 )">4</text>
	<text style="&st18;" transform="matrix(&st16;  776.2  185.06 )">2</text>
	<text style="&st18;" transform="matrix(&st16;  716.01  202.06 )">AM1</text>
	<text style="&st18;" transform="matrix(&st16;  757.4  185.06 )">ACC</text>
	<text style="&st18;" transform="matrix(&st16;  761.29  202.06 )">IG1</text>
	<text style="&st18;" transform="matrix(&st16;  759.87  219.06 )">ST1</text>
	<text style="&st18;" transform="matrix(&st16;  719.85  247.36 )">E93</text>
	<text style="&st18;" transform="matrix(&st16;  689.28  202.05 )">W</text>
	<text style="&st18;" transform="matrix(&st16;  686.45  213.39 )">(*2)</text>
	<text style="&st18;" transform="matrix(&st16;  805.03  185.06 )">B</text>
	<text style="&st18;" transform="matrix(&st16;  688.69  56.17 )">5A <tspan dy="6" x="0">AM1</tspan></text>
	<text style="&st18;" transform="matrix(&st16;  668.42  101.49 )">2I</text>
	<text style="&st18;" transform="matrix(&st16;  654.74  101.49 )">32</text>
	<text style="&st18;" transform="matrix(&st16;  662.27  32.08 )">(BAT)</text>
	<text ewd:textID="7" style="&st18;" transform="matrix(&st17;  865.71  242.27 )">Certification ECU <tspan dy="6" x="0">Assembly</tspan></text>
	<text style="&st18;" transform="matrix(&st16;  888.01  213.39 )">+B</text>
	<text style="&st18;" transform="matrix(&st16;  882.6  236.05 )">ACCD</text>
	<text style="&st18;" transform="matrix(&st17;  858.6  242.27 )">E130(C)</text>
	<text style="&st18;" transform="matrix(&st16;  878.3  203.19 )">10</text>
	<text style="&st18;" transform="matrix(&st16;  889.88  203.19 )">C</text>
	<text style="&st18;" transform="matrix(&st16;  881.47  246.25 )">9</text>
	<text style="&st18;" transform="matrix(&st16;  889.88  246.25 )">C</text>
	<text style="&st18;" transform="matrix(&st16;  909.66  56.17 )">7.5A <tspan dy="6" x="0">AM2</tspan></text>
	<text style="&st18;" transform="matrix(&st16;  889.38  101.49 )">2I</text>
	<text style="&st18;" transform="matrix(&st16;  875.71  101.49 )">54</text>
	<text style="&st18;" transform="matrix(&st16;  801.18  196.39 )">(*2)</text>
	<text style="&st18;" transform="matrix(&st16;  883.24  32.08 )">(BAT)</text>
	<text style="&st18;" transform="matrix(&st17;  888.65  140.09 )">P</text>
	<text style="&st18;" transform="matrix(&st17;  899.99  143.55 )">(*1)</text>
	<text style="&st18;" transform="matrix(&st17;  888.65  276.07 )">B</text>
	<text style="&st18;" transform="matrix(&st17;  899.99  279.53 )">(*1)</text>
	<text style="&st18;" transform="matrix(&st17;  574.21  225.08 )">B</text>
	<text style="&st18;" transform="matrix(&st17;  585.54  228.54 )">(*1)</text>
	<text style="&st18;" transform="matrix(&st17;  599.7  225.08 )">B</text>
	<text style="&st18;" transform="matrix(&st17;  611.04  228.93 )">(*2)</text>
	<text ewd:textID="15" style="&st18;" transform="matrix(&st17;  227.18  378.25 )">Voltage <tspan dy="6" x="0">Inverter Assembly</tspan></text>
	<text style="&st18;" transform="matrix(&st17;  220.36  378.25 )">K44(A),K63(B)</text>
	<text ewd:textID="13" style="&st18;" transform="matrix(&st17;  227.18  497.23 )">Power Outlet <tspan dy="6" x="0">Socket Assembly</tspan></text>
	<text style="&st18;" transform="matrix(&st17;  220.36  497.23 )">K45(A),K61(B)</text>
	<a ewd:code="E5" ewd:figID="18" ewd:figtype="gp" style="cursor:pointer;">
		<path d=" M    6.37,  681.67  L   27.62,  681.67  L   17.00,  697.25  L    6.37,  681.67 " style="&st2;"/>
		<text style="&st8;" transform="matrix(&st16;  12.46  689.83 )"><tspan style="&st18;" x="0" y="0">E5</tspan></text>
	</a>
	<a ewd:code="K5" ewd:figID="19" ewd:figtype="gp" style="cursor:pointer;">
		<path d=" M  184.84,  681.67  L  206.09,  681.67  L  195.47,  697.25  L  184.84,  681.67 " style="&st2;"/>
		<text style="&st8;" transform="matrix(&st16;  190.93  689.83 )"><tspan style="&st18;" x="0" y="0">K5</tspan></text>
	</a>
	<a ewd:code="E5" ewd:figID="20" ewd:figtype="gp" style="cursor:pointer;">
		<path d=" M  397.31,  681.67  L  418.56,  681.67  L  407.93,  697.25  L  397.31,  681.67 " style="&st2;"/>
		<text style="&st8;" transform="matrix(&st16;  403.4  689.83 )"><tspan style="&st18;" x="0" y="0">E5</tspan></text>
	</a>
	<a ewd:code="5329" ewd:figID="21" ewd:figtype="sp" style="cursor:pointer;">
		<path d=" M  403.68,  231.25  L  412.18,  231.25  L  416.43,  235.50  L  416.43,  243.99  L  412.18,  248.24  L  403.68,  248.24  L  399.43,  243.99  L  399.43,  235.50  L  403.68,  231.25 " style="&st2;"/>
	</a>
	<a ewd:code="5197" ewd:figID="22" ewd:figtype="sp" style="cursor:pointer;">
		<path d=" M  403.68,  409.72  L  412.18,  409.72  L  416.43,  413.97  L  416.43,  422.46  L  412.18,  426.71  L  403.68,  426.71  L  399.43,  422.46  L  399.43,  413.97  L  403.68,  409.72 " style="&st2;"/>
	</a>
	<a ewd:code="5413" ewd:figID="23" ewd:figtype="sp" style="cursor:pointer;">
		<path d=" M  191.22,  562.69  L  199.72,  562.69  L  203.97,  566.94  L  203.97,  575.44  L  199.72,  579.69  L  191.22,  579.69  L  186.97,  575.44  L  186.97,  566.94  L  191.22,  562.69 " style="&st2;"/>
	</a>
</g>
</svg>