﻿<?xml version="1.0" encoding="utf-8"?>
<!DOCTYPE svg PUBLIC "-//W3C//DTD SVG 1.0//EN" "http://www.w3.org/TR/2001/REC-SVG-20010904/DTD/svg10.dtd"[
	<!ENTITY ns_flows "http://ns.adobe.com/Flows/1.0/">
	<!ENTITY ns_svg "http://www.w3.org/2000/svg">
	<!ENTITY ns_xlink "http://www.w3.org/1999/xlink">
	<!ENTITY st0 "font-size:7px;font-family:'MS-PGothic';adobe-font-script:japanese;">
	<!ENTITY st1 "font-size:6px;font-family:'ArialMT';">
	<!-- White fill  -->
	<!ENTITY st2 "fill:#FFFFFF;stroke:#000000; stroke-width:1.41;stroke-linecap:round;stroke-linejoin:round;">
	<!-- Yellow fill  -->
	<!ENTITY st3 "fill:#FFFFCC;stroke:#FFFFCC; stroke-width:0.1;stroke-linecap:round;stroke-linejoin:round;">
	<!-- Gray fill  -->
	<!ENTITY st4 "fill:#CCCCCC;stroke:#CCCCCC; stroke-width:0.1;stroke-linecap:round;stroke-linejoin:round;">
	<!-- Light-blue fill -->
	<!ENTITY st5 "fill:#CCECF4;stroke:#000000; stroke-width:1.133;stroke-linecap:round;stroke-linejoin:round;">
	<!ENTITY st6 "fill:none;stroke-linecap:butt; stroke-linejoin:round;">
	<!ENTITY st7 "fill:none;stroke:#000000;stroke-linecap:round;stroke-linejoin:round;">
	<!ENTITY st8 "enable-background:new    ;">
	<!-- Black fill -->
	<!ENTITY st9 "fill:#000000;stroke:#000000; stroke-linecap:round;stroke-linejoin:round;">
	<!-- SRS note   -->
	<!ENTITY st10 "font-size:9px;font-family:'ArialMT';">
	<!ENTITY st11 "font-size:9px;font-family:'Svg Symbol';">
	<!ENTITY st12 "font-size:6px;font-family:'Svg Symbol';">
	<!ENTITY st13 "fill:none;stroke:#ff0000;stroke-linecap:round;stroke-linejoin:round;">
	<!-- Yellow fill  -->
	<!ENTITY st14 "fill:#FFFF00;stroke:#FFFF00; stroke-width:0.1;stroke-linecap:round;stroke-linejoin:round;">
	<!ENTITY st15 "font-size:6px;font-family:'MS-PGothic';adobe-font-script:japanese;">
	<!ENTITY st16 "1.00 0.00 0.00 1.00">
	<!ENTITY st17 "0.00 -1.00 1.00 0.00">
	<!ENTITY st18 "font-size:6px;font-family:'Arial';">
	<!ENTITY st19 "font-size:9px;font-family:'Arial';">
	<!ENTITY st20 "font-size:6px;font-family:'MS-PGothic','MS PGothic';adobe-font-script:japanese;">
	<!ENTITY st21 "font-size:7px;font-family:'MS-PGothic','MS PGothic';adobe-font-script:japanese;">
	<!ATTLIST svg
		xmlns:ewd CDATA #FIXED "http://shcl.co.jp/ewd"
		xmlns:a CDATA #FIXED "http://ns.adobe.com/AdobeSVGViewerExtensions/3.0/"
		ewd:ver CDATA #IMPLIED
	>
	<!ATTLIST a
		ewd:lineID CDATA #IMPLIED
		ewd:groupID CDATA #IMPLIED
		ewd:figtype CDATA #IMPLIED
		ewd:code CDATA #IMPLIED
		ewd:figID CDATA #IMPLIED
		ewd:pinNo CDATA #IMPLIED
		ewd:comment CDATA #IMPLIED >
	<!ATTLIST g
		ewd:lineID CDATA #IMPLIED
		ewd:groupID CDATA #IMPLIED
		ewd:figtype CDATA #IMPLIED
		ewd:code CDATA #IMPLIED
		ewd:figID CDATA #IMPLIED
		ewd:pinNo CDATA #IMPLIED
		ewd:comment CDATA #IMPLIED >
	<!ATTLIST text
		ewd:textID CDATA #IMPLIED >
	<!ATTLIST title
		ewd:textID CDATA #IMPLIED >
]>
<!-- Generator: Shintec Hozumi YS   -->
<svg onload="call_execInitLoadProc_svg('system')" style="overflow:visible;  enable-background:new 0 0 956.168 710.000" viewBox="0 0 956.168 710.000" height="710.000" width="956.168" xml:space="preserve" ewd:ver="L2.1.2.8" xmlns="&ns_svg;" xmlns:a="http://ns.adobe.com/AdobeSVGViewerExtensions/3.0/" xmlns:ewd="http://shcl.co.jp/ewd" xmlns:xlink="&ns_xlink;">
<path d=" M  858.87,  366.38  L  866.86,  381.39 " style="stroke-width: 1.42 ;&st7; " /><path d=" M  875.35,  367.22  L  875.35,  358.73 " style="stroke-width: 0.85 ;&st7; " /><path d=" M  858.36,  367.22  L  858.36,  358.73 " style="stroke-width: 0.85 ;&st7; " /><path d=" M  866.86,  418.22  L  866.86,  384.22 " style="stroke-width: 0.85 ;&st7; " /><path d=" M  815.35,  366.38  L  807.37,  381.39 " style="stroke-width: 1.42 ;&st7; " /><path d=" M  815.86,  367.22  L  815.86,  333.23 " style="stroke-width: 0.85 ;&st7; " /><path d=" M  798.87,  367.22  L  798.87,  299.24 " style="stroke-width: 0.85 ;&st7; " /><path d=" M  807.37,  418.22  L  807.37,  384.22 " style="stroke-width: 0.85 ;&st7; " /><path d=" M  628.38,  366.38  L  620.40,  381.39 " style="stroke-width: 1.42 ;&st7; " /><path d=" M  628.89,  367.22  L  628.89,  316.23 " style="stroke-width: 0.85 ;&st7; " /><path d=" M  611.90,  367.22  L  611.90,  299.24 " style="stroke-width: 0.85 ;&st7; " /><path d=" M  620.40,  418.22  L  620.40,  384.22 " style="stroke-width: 0.85 ;&st7; " /><path d=" M  811.61,  508.87  L  811.61,  512.83 " style="stroke-width: 1.42 ;&st7; " /><path d=" M  803.12,  512.83  L  803.12,  508.87 " style="stroke-width: 1.42 ;&st7; " /><path d=" M  803.12,  508.87  L  811.61,  508.87 " style="stroke-width: 1.42 ;&st7; " /><path d=" M  811.61,  531.53  L  811.61,  527.56 " style="stroke-width: 1.42 ;&st7; " /><path d=" M  803.12,  527.56  L  803.12,  531.53 " style="stroke-width: 1.42 ;&st7; " /><path d=" M  803.12,  531.53  L  811.61,  531.53 " style="stroke-width: 1.42 ;&st7; " /><path d=" M  616.15,  531.53  L  624.65,  531.53 " style="stroke-width: 1.42 ;&st7; " /><path d=" M  616.15,  527.56  L  616.15,  531.53 " style="stroke-width: 1.42 ;&st7; " /><path d=" M  624.65,  531.53  L  624.65,  527.56 " style="stroke-width: 1.42 ;&st7; " /><path d=" M  616.15,  508.87  L  624.65,  508.87 " style="stroke-width: 1.42 ;&st7; " /><path d=" M  616.15,  512.83  L  616.15,  508.87 " style="stroke-width: 1.42 ;&st7; " /><path d=" M  624.65,  508.87  L  624.65,  512.83 " style="stroke-width: 1.42 ;&st7; " /><path d=" M  679.89,  418.22  L  679.89,  384.22 " style="stroke-width: 0.85 ;&st7; " /><path d=" M  671.39,  367.22  L  671.39,  316.23 " style="stroke-width: 0.85 ;&st7; " /><path d=" M  688.38,  367.22  L  688.38,  299.24 " style="stroke-width: 0.85 ;&st7; " /><path d=" M  671.91,  366.38  L  679.89,  381.39 " style="stroke-width: 1.42 ;&st7; " /><path d=" M  900.85,  562.69  L  909.35,  562.69 " style="stroke-width: 1.42 ;&st7; " /><path d=" M  913.60,  557.03  L  909.35,  561.27  L  905.10,  557.03 " style="stroke-width: 1.42 ;&st7; " /><path d=" M  905.10,  553.63  L  909.35,  557.88  L  913.60,  553.63 " style="stroke-width: 1.42 ;&st7; " /><path d=" M  909.35,  511.70  L  909.35,  494.70 " style="stroke-width: 0.85 ;&st7; " /><path d=" M  900.85,  494.70  L  900.85,  511.70  L  917.85,  511.70  L  917.85,  494.70  L  900.85,  494.70 " style="stroke-width: 1.42 ;&st7; " /><path d=" M  627.70,  315.23  L  627.43,  315.70  L  627.34,  316.23  L  627.43,  316.77  L  627.70,  317.24  L  628.12,  317.58  L  628.62,  317.77  L  629.17,  317.77  L  629.67,  317.58  L  630.09,  317.24  L  630.36,  316.77  L  630.45,  316.23  L  630.36,  315.70  L  630.09,  315.23  L  629.67,  314.88  L  629.17,  314.70  L  628.62,  314.70  L  628.12,  314.88  L  627.70,  315.23  L  628.10,  315.94  L  628.10,  316.52  L  628.47,  316.97  L  629.04,  317.07  L  629.55,  316.78  L  629.74,  316.23  L  629.55,  315.69  L  629.04,  315.40  L  628.47,  315.50  L  628.89,  316.23 " style="stroke-width: 0.85 ;&st7; " /><path d=" M  610.70,  298.23  L  610.43,  298.70  L  610.34,  299.24  L  610.43,  299.77  L  610.70,  300.24  L  611.12,  300.58  L  611.63,  300.77  L  612.17,  300.77  L  612.68,  300.58  L  613.09,  300.24  L  613.36,  299.77  L  613.46,  299.24  L  613.36,  298.70  L  613.09,  298.23  L  612.68,  297.89  L  612.17,  297.70  L  611.63,  297.70  L  611.12,  297.89  L  610.70,  298.23  L  611.10,  298.94  L  611.10,  299.53  L  611.47,  299.97  L  612.04,  300.07  L  612.55,  299.78  L  612.75,  299.24  L  612.55,  298.69  L  612.04,  298.40  L  611.47,  298.50  L  611.90,  299.24 " style="stroke-width: 0.85 ;&st7; " /><path d=" M  797.67,  298.23  L  797.40,  298.70  L  797.31,  299.24  L  797.40,  299.77  L  797.67,  300.24  L  798.09,  300.58  L  798.59,  300.77  L  799.14,  300.77  L  799.65,  300.58  L  800.06,  300.24  L  800.33,  299.77  L  800.42,  299.24  L  800.33,  298.70  L  800.06,  298.23  L  799.65,  297.89  L  799.14,  297.70  L  798.59,  297.70  L  798.09,  297.89  L  797.67,  298.23  L  798.07,  298.94  L  798.07,  299.53  L  798.44,  299.97  L  799.01,  300.07  L  799.52,  299.78  L  799.72,  299.24  L  799.52,  298.69  L  799.01,  298.40  L  798.44,  298.50  L  798.87,  299.24 " style="stroke-width: 0.85 ;&st7; " /><path d=" M  814.67,  332.23  L  814.40,  332.70  L  814.31,  333.23  L  814.40,  333.76  L  814.67,  334.23  L  815.08,  334.58  L  815.59,  334.77  L  816.14,  334.77  L  816.64,  334.58  L  817.06,  334.23  L  817.33,  333.76  L  817.42,  333.23  L  817.33,  332.70  L  817.06,  332.23  L  816.64,  331.88  L  816.14,  331.69  L  815.59,  331.69  L  815.08,  331.88  L  814.67,  332.23  L  815.06,  332.94  L  815.06,  333.52  L  815.44,  333.97  L  816.01,  334.07  L  816.51,  333.78  L  816.71,  333.23  L  816.51,  332.68  L  816.01,  332.39  L  815.44,  332.49  L  815.86,  333.23 " style="stroke-width: 0.85 ;&st7; " /><path d=" M  687.19,  298.23  L  686.92,  298.70  L  686.83,  299.24  L  686.92,  299.77  L  687.19,  300.24  L  687.61,  300.58  L  688.11,  300.77  L  688.66,  300.77  L  689.16,  300.58  L  689.58,  300.24  L  689.85,  299.77  L  689.94,  299.24  L  689.85,  298.70  L  689.58,  298.23  L  689.16,  297.89  L  688.66,  297.70  L  688.11,  297.70  L  687.61,  297.89  L  687.19,  298.23  L  687.59,  298.94  L  687.59,  299.53  L  687.96,  299.97  L  688.53,  300.07  L  689.04,  299.78  L  689.23,  299.24  L  689.04,  298.69  L  688.53,  298.40  L  687.96,  298.50  L  688.38,  299.24 " style="stroke-width: 0.85 ;&st7; " /><path d=" M  670.19,  315.23  L  669.92,  315.70  L  669.83,  316.23  L  669.92,  316.77  L  670.19,  317.24  L  670.61,  317.58  L  671.12,  317.77  L  671.66,  317.77  L  672.17,  317.58  L  672.58,  317.24  L  672.85,  316.77  L  672.95,  316.23  L  672.85,  315.70  L  672.58,  315.23  L  672.17,  314.88  L  671.66,  314.70  L  671.12,  314.70  L  670.61,  314.88  L  670.19,  315.23  L  670.59,  315.94  L  670.59,  316.52  L  670.96,  316.97  L  671.53,  317.07  L  672.04,  316.78  L  672.24,  316.23  L  672.04,  315.69  L  671.53,  315.40  L  670.96,  315.50  L  671.39,  316.23 " style="stroke-width: 0.85 ;&st7; " /><path d=" M  909.35,  697.25  L  909.35,  701.50 " style="stroke-width: 0.85 ;&st7; " /><path d=" M  900.85,  701.50  L  917.85,  701.50 " style="stroke-width: 0.85 ;&st7; " /><path d=" M  905.10,  704.33  L  913.60,  704.33 " style="stroke-width: 0.85 ;&st7; " /><path d=" M  906.51,  707.17  L  912.18,  707.17 " style="stroke-width: 0.85 ;&st7; " /><path d=" M  907.93,  710.00  L  910.76,  710.00 " style="stroke-width: 0.85 ;&st7; " /><path d=" M  815.86,  520.20  C  815.86   515.50   812.06   511.70   807.37   511.70 " style="stroke-width: 1.42 ;&st7; " /><path d=" M  807.37,  511.70  C  802.67   511.70   798.87   515.50   798.87   520.20 " style="stroke-width: 1.42 ;&st7; " /><path d=" M  798.87,  520.20  C  798.87   524.89   802.67   528.70   807.37   528.70 " style="stroke-width: 1.42 ;&st7; " /><path d=" M  807.37,  528.70  C  812.06   528.70   815.86   524.89   815.86   520.20 " style="stroke-width: 1.42 ;&st7; " /><path d=" M  817.28,  368.64  C  817.28   367.86   816.65   367.22   815.86   367.22 " style="stroke-width: 0.85 ;&st7; " /><path d=" M  815.86,  367.22  C  815.08   367.22   814.45   367.86   814.45   368.64 " style="stroke-width: 0.85 ;&st7; " /><path d=" M  814.45,  368.64  C  814.45   369.42   815.08   370.06   815.86   370.06 " style="stroke-width: 0.85 ;&st7; " /><path d=" M  815.86,  370.06  C  816.65   370.06   817.28   369.42   817.28   368.64 " style="stroke-width: 0.85 ;&st7; " /><path d=" M  808.78,  382.80  C  808.78   382.02   808.15   381.39   807.37   381.39 " style="stroke-width: 0.85 ;&st7; " /><path d=" M  807.37,  381.39  C  806.58   381.39   805.95   382.02   805.95   382.80 " style="stroke-width: 0.85 ;&st7; " /><path d=" M  805.95,  382.80  C  805.95   383.59   806.58   384.22   807.37   384.22 " style="stroke-width: 0.85 ;&st7; " /><path d=" M  807.37,  384.22  C  808.15   384.22   808.78   383.59   808.78   382.80 " style="stroke-width: 0.85 ;&st7; " /><path d=" M  800.28,  368.64  C  800.28   367.86   799.65   367.22   798.87   367.22 " style="stroke-width: 0.85 ;&st7; " /><path d=" M  798.87,  367.22  C  798.08   367.22   797.45   367.86   797.45   368.64 " style="stroke-width: 0.85 ;&st7; " /><path d=" M  797.45,  368.64  C  797.45   369.42   798.08   370.06   798.87   370.06 " style="stroke-width: 0.85 ;&st7; " /><path d=" M  798.87,  370.06  C  799.65   370.06   800.28   369.42   800.28   368.64 " style="stroke-width: 0.85 ;&st7; " /><path d=" M  611.90,  520.20  C  611.90   524.89   615.70   528.70   620.40   528.70 " style="stroke-width: 1.42 ;&st7; " /><path d=" M  620.40,  528.70  C  625.09   528.70   628.89   524.89   628.89   520.20 " style="stroke-width: 1.42 ;&st7; " /><path d=" M  621.81,  382.80  C  621.81   382.02   621.18   381.39   620.40   381.39 " style="stroke-width: 0.85 ;&st7; " /><path d=" M  620.40,  381.39  C  619.61   381.39   618.98   382.02   618.98   382.80 " style="stroke-width: 0.85 ;&st7; " /><path d=" M  618.98,  382.80  C  618.98   383.59   619.61   384.22   620.40   384.22 " style="stroke-width: 0.85 ;&st7; " /><path d=" M  620.40,  384.22  C  621.18   384.22   621.81   383.59   621.81   382.80 " style="stroke-width: 0.85 ;&st7; " /><path d=" M  613.31,  368.64  C  613.31   367.86   612.68   367.22   611.90   367.22 " style="stroke-width: 0.85 ;&st7; " /><path d=" M  611.90,  367.22  C  611.12   367.22   610.48   367.86   610.48   368.64 " style="stroke-width: 0.85 ;&st7; " /><path d=" M  610.48,  368.64  C  610.48   369.42   611.12   370.06   611.90   370.06 " style="stroke-width: 0.85 ;&st7; " /><path d=" M  611.90,  370.06  C  612.68   370.06   613.31   369.42   613.31   368.64 " style="stroke-width: 0.85 ;&st7; " /><path d=" M  630.31,  368.64  C  630.31   367.86   629.68   367.22   628.89   367.22 " style="stroke-width: 0.85 ;&st7; " /><path d=" M  628.89,  367.22  C  628.11   367.22   627.48   367.86   627.48   368.64 " style="stroke-width: 0.85 ;&st7; " /><path d=" M  627.48,  368.64  C  627.48   369.42   628.11   370.06   628.89   370.06 " style="stroke-width: 0.85 ;&st7; " /><path d=" M  628.89,  370.06  C  629.68   370.06   630.31   369.42   630.31   368.64 " style="stroke-width: 0.85 ;&st7; " /><path d=" M  628.89,  520.20  C  628.89   515.50   625.09   511.70   620.40   511.70 " style="stroke-width: 1.42 ;&st7; " /><path d=" M  620.40,  511.70  C  615.70   511.70   611.90   515.50   611.90   520.20 " style="stroke-width: 1.42 ;&st7; " /><path d=" M  876.77,  368.64  C  876.77   367.86   876.14   367.22   875.35   367.22 " style="stroke-width: 0.85 ;&st7; " /><path d=" M  875.35,  367.22  C  874.57   367.22   873.94   367.86   873.94   368.64 " style="stroke-width: 0.85 ;&st7; " /><path d=" M  873.94,  368.64  C  873.94   369.42   874.57   370.06   875.35   370.06 " style="stroke-width: 0.85 ;&st7; " /><path d=" M  875.35,  370.06  C  876.14   370.06   876.77   369.42   876.77   368.64 " style="stroke-width: 0.85 ;&st7; " /><path d=" M  859.77,  368.64  C  859.77   367.86   859.14   367.22   858.36   367.22 " style="stroke-width: 0.85 ;&st7; " /><path d=" M  858.36,  367.22  C  857.57   367.22   856.94   367.86   856.94   368.64 " style="stroke-width: 0.85 ;&st7; " /><path d=" M  856.94,  368.64  C  856.94   369.42   857.57   370.06   858.36   370.06 " style="stroke-width: 0.85 ;&st7; " /><path d=" M  858.36,  370.06  C  859.14   370.06   859.77   369.42   859.77   368.64 " style="stroke-width: 0.85 ;&st7; " /><path d=" M  868.27,  382.80  C  868.27   382.02   867.64   381.39   866.86   381.39 " style="stroke-width: 0.85 ;&st7; " /><path d=" M  866.86,  381.39  C  866.07   381.39   865.44   382.02   865.44   382.80 " style="stroke-width: 0.85 ;&st7; " /><path d=" M  865.44,  382.80  C  865.44   383.59   866.07   384.22   866.86   384.22 " style="stroke-width: 0.85 ;&st7; " /><path d=" M  866.86,  384.22  C  867.64   384.22   868.27   383.59   868.27   382.80 " style="stroke-width: 0.85 ;&st7; " /><path d=" M  689.80,  368.64  C  689.80   367.86   689.17   367.22   688.38   367.22 " style="stroke-width: 0.85 ;&st7; " /><path d=" M  688.38,  367.22  C  687.60   367.22   686.97   367.86   686.97   368.64 " style="stroke-width: 0.85 ;&st7; " /><path d=" M  686.97,  368.64  C  686.97   369.42   687.60   370.06   688.38   370.06 " style="stroke-width: 0.85 ;&st7; " /><path d=" M  688.38,  370.06  C  689.17   370.06   689.80   369.42   689.80   368.64 " style="stroke-width: 0.85 ;&st7; " /><path d=" M  672.80,  368.64  C  672.80   367.86   672.17   367.22   671.39   367.22 " style="stroke-width: 0.85 ;&st7; " /><path d=" M  671.39,  367.22  C  670.61   367.22   669.97   367.86   669.97   368.64 " style="stroke-width: 0.85 ;&st7; " /><path d=" M  669.97,  368.64  C  669.97   369.42   670.61   370.06   671.39   370.06 " style="stroke-width: 0.85 ;&st7; " /><path d=" M  671.39,  370.06  C  672.17   370.06   672.80   369.42   672.80   368.64 " style="stroke-width: 0.85 ;&st7; " /><path d=" M  681.30,  382.80  C  681.30   382.02   680.67   381.39   679.89   381.39 " style="stroke-width: 0.85 ;&st7; " /><path d=" M  679.89,  381.39  C  679.10   381.39   678.47   382.02   678.47   382.80 " style="stroke-width: 0.85 ;&st7; " /><path d=" M  678.47,  382.80  C  678.47   383.59   679.10   384.22   679.89   384.22 " style="stroke-width: 0.85 ;&st7; " /><path d=" M  679.89,  384.22  C  680.67   384.22   681.30   383.59   681.30   382.80 " style="stroke-width: 0.85 ;&st7; " /><text style="&st18;" transform="matrix(&st17;  942.74  420.74 )">c2</text><text ewd:textID="6" style="&st18;" transform="matrix(&st17;  949.56  420.74 )">Front Power Seat Switch Assembly RH</text><text style="&st18;" transform="matrix(&st16;  920.99  496.65 )">c12</text><text ewd:textID="9" style="&st18;" transform="matrix(&st16;  920.99  503.75 )">Junction <tspan dy="6" x="0">Connector</tspan></text><text style="&st18;" transform="matrix(&st16;  894.53  568.91 )">9</text><text style="&st18;" transform="matrix(&st16;  902.56  491.01 )">6</text><text style="&st18;" transform="matrix(&st16;  902.56  519.89 )">3</text><text style="&st18;" transform="matrix(&st17;  905.65  612.88 )">W-B</text><text style="&st18;" transform="matrix(&st17;  905.65  544.9 )">W-B</text><text style="&st18;" transform="matrix(&st16;  614.38  505.18 )">1</text><text style="&st18;" transform="matrix(&st16;  801.35  505.18 )">1</text><text style="&st18;" transform="matrix(&st16;  800.58  539.72 )">2</text><text style="&st18;" transform="matrix(&st16;  613.61  539.72 )">2</text><text style="&st18;" transform="matrix(&st17;  823.47  531.22 )">c5</text><text ewd:textID="7" style="&st18;" transform="matrix(&st17;  830.58  531.22 )">Front Power Seat <tspan dy="6" x="0">Vertical Position </tspan><tspan dy="6" x="0">Motor Assembly RH</tspan></text><text ewd:textID="8" style="&st18;" transform="matrix(&st16;  825.38  383.36 )">Front <tspan dy="6" x="0">Vertical</tspan></text><text ewd:textID="14" style="&st18;" transform="matrix(&st17;  885.82  380.17 )">Up</text><text ewd:textID="1" style="&st18;" transform="matrix(&st17;  792.34  384.69 )">Down</text><text ewd:textID="2" style="&st18;" transform="matrix(&st17;  698.85  383.99 )">Front</text><text ewd:textID="11" style="&st18;" transform="matrix(&st17;  605.37  383.35 )">Rear</text><text ewd:textID="13" style="&st18;" transform="matrix(&st16;  642.41  386.19 )">Slide</text><text style="&st18;" transform="matrix(&st16;  912.18  414.53 )">GND2</text><text style="&st18;" transform="matrix(&st16;  869.69  414.53 )">FUP</text><text style="&st18;" transform="matrix(&st16;  810.2  414.53 )">FDWN</text><text style="&st18;" transform="matrix(&st16;  682.72  414.53 )">SLDF</text><text style="&st18;" transform="matrix(&st16;  623.23  414.53 )">SLDR</text><text style="&st18;" transform="matrix(&st16;  902.56  426.41 )">4</text><text style="&st18;" transform="matrix(&st16;  860.07  426.41 )">5</text><text style="&st18;" transform="matrix(&st16;  797.4  426.41 )">10</text><text style="&st18;" transform="matrix(&st16;  673.1  426.41 )">9</text><text style="&st18;" transform="matrix(&st16;  613.61  426.41 )">6</text><text style="&st18;" transform="matrix(&st17;  905.65  476.91 )">W-B</text><text style="&st18;" transform="matrix(&st17;  863.16  471.68 )">R</text><text style="&st18;" transform="matrix(&st17;  803.67  473.94 )">LG</text><text style="&st18;" transform="matrix(&st17;  676.19  471.54 )">B</text><text style="&st18;" transform="matrix(&st17;  616.7  471.54 )">P</text><text style="&st18;" transform="matrix(&st16;  804.47  522.17 )">M</text><text style="&st18;" transform="matrix(&st16;  617.5  522.17 )">M</text><text style="&st18;" transform="matrix(&st17;  636.51  531.22 )">c3</text><text ewd:textID="5" style="&st18;" transform="matrix(&st17;  643.61  531.22 )">Front Power Seat <tspan dy="6" x="0">Slide Position </tspan><tspan dy="6" x="0">Motor Assembly RH</tspan></text></svg>