﻿<?xml version="1.0" encoding="utf-8"?>
<!DOCTYPE svg PUBLIC "-//W3C//DTD SVG 1.0//EN" "http://www.w3.org/TR/2001/REC-SVG-20010904/DTD/svg10.dtd"[
	<!ENTITY ns_flows "http://ns.adobe.com/Flows/1.0/">
	<!ENTITY ns_svg "http://www.w3.org/2000/svg">
	<!ENTITY ns_xlink "http://www.w3.org/1999/xlink">
	<!ENTITY st0 "font-size:7px;font-family:'MS-PGothic';adobe-font-script:japanese;">
	<!ENTITY st1 "font-size:6px;font-family:'ArialMT';">
	<!-- White fill  -->
	<!ENTITY st2 "fill:#FFFFFF;stroke:#000000; stroke-width:1.41;stroke-linecap:round;stroke-linejoin:round;">
	<!-- Yellow fill  -->
	<!ENTITY st3 "fill:#FFFFCC;stroke:#FFFFCC; stroke-width:0.1;stroke-linecap:round;stroke-linejoin:round;">
	<!-- Gray fill  -->
	<!ENTITY st4 "fill:#CCCCCC;stroke:#CCCCCC; stroke-width:0.1;stroke-linecap:round;stroke-linejoin:round;">
	<!-- Light-blue fill -->
	<!ENTITY st5 "fill:#CCECF4;stroke:#000000; stroke-width:1.133;stroke-linecap:round;stroke-linejoin:round;">
	<!ENTITY st6 "fill:none;stroke-linecap:butt; stroke-linejoin:round;">
	<!ENTITY st7 "fill:none;stroke:#000000;stroke-linecap:round;stroke-linejoin:round;">
	<!ENTITY st8 "enable-background:new    ;">
	<!-- Black fill -->
	<!ENTITY st9 "fill:#000000;stroke:#000000; stroke-linecap:round;stroke-linejoin:round;">
	<!-- SRS note   -->
	<!ENTITY st10 "font-size:9px;font-family:'ArialMT';">
	<!ENTITY st11 "font-size:9px;font-family:'Svg Symbol';">
	<!ENTITY st12 "font-size:6px;font-family:'Svg Symbol';">
	<!ENTITY st13 "fill:none;stroke:#ff0000;stroke-linecap:round;stroke-linejoin:round;">
	<!-- Yellow fill  -->
	<!ENTITY st14 "fill:#FFFF00;stroke:#FFFF00; stroke-width:0.1;stroke-linecap:round;stroke-linejoin:round;">
	<!ENTITY st15 "font-size:6px;font-family:'MS-PGothic';adobe-font-script:japanese;">
	<!ENTITY st16 "1.00 0.00 0.00 1.00">
	<!ENTITY st17 "0.00 -1.00 1.00 0.00">
	<!ENTITY st18 "font-size:6px;font-family:'Arial';">
	<!ENTITY st19 "font-size:9px;font-family:'Arial';">
	<!ENTITY st20 "font-size:6px;font-family:'MS-PGothic','MS PGothic';adobe-font-script:japanese;">
	<!ENTITY st21 "font-size:7px;font-family:'MS-PGothic','MS PGothic';adobe-font-script:japanese;">
	<!ATTLIST svg
		xmlns:ewd CDATA #FIXED "http://shcl.co.jp/ewd"
		xmlns:a CDATA #FIXED "http://ns.adobe.com/AdobeSVGViewerExtensions/3.0/"
		ewd:ver CDATA #IMPLIED
	>
	<!ATTLIST a
		ewd:lineID CDATA #IMPLIED
		ewd:groupID CDATA #IMPLIED
		ewd:figtype CDATA #IMPLIED
		ewd:code CDATA #IMPLIED
		ewd:figID CDATA #IMPLIED
		ewd:pinNo CDATA #IMPLIED
		ewd:comment CDATA #IMPLIED >
	<!ATTLIST g
		ewd:lineID CDATA #IMPLIED
		ewd:groupID CDATA #IMPLIED
		ewd:figtype CDATA #IMPLIED
		ewd:code CDATA #IMPLIED
		ewd:figID CDATA #IMPLIED
		ewd:pinNo CDATA #IMPLIED
		ewd:comment CDATA #IMPLIED >
	<!ATTLIST text
		ewd:textID CDATA #IMPLIED >
	<!ATTLIST title
		ewd:textID CDATA #IMPLIED >
]>
<!-- Generator: Shintec Hozumi YS   -->
<svg onload="call_execInitLoadProc_svg('system')" style="overflow:visible;  enable-background:new 0 0 2020.858 710.000" viewBox="0 0 2020.858 710.000" height="710.000" width="2020.858" xml:space="preserve" ewd:ver="L2.1.2.8" xmlns="&ns_svg;" xmlns:a="http://ns.adobe.com/AdobeSVGViewerExtensions/3.0/" xmlns:ewd="http://shcl.co.jp/ewd" xmlns:xlink="&ns_xlink;">
<path d=" M  934.84,   78.27  L  934.84,   95.27 " style="stroke-width: 0.85 ;&st7; " /><path d=" M  936.97,  103.77  L  932.72,  103.77 " style="stroke-width: 1.42 ;&st7; " /><path d=" M  936.97,   95.27  L  932.72,   95.27 " style="stroke-width: 1.42 ;&st7; " /><path d=" M  934.84,   69.77  L  934.84,   78.27 " style="stroke-width: 0.85 ;&st7; " /><path d=" M  926.35,  154.76  L  934.84,  154.76 " style="stroke-width: 1.42 ;&st7; " /><path d=" M  807.37,   78.27  L  807.37,   95.27 " style="stroke-width: 0.85 ;&st7; " /><path d=" M  809.49,  103.77  L  805.24,  103.77 " style="stroke-width: 1.42 ;&st7; " /><path d=" M  809.49,   95.27  L  805.24,   95.27 " style="stroke-width: 1.42 ;&st7; " /><path d=" M  807.37,   69.77  L  807.37,   78.27 " style="stroke-width: 0.85 ;&st7; " /><path d=" M  807.37,  229.83  L  813.03,  252.49 " style="stroke-width: 1.42 ;&st7; " /><path d=" M  807.37,  256.74  L  807.37,  252.49 " style="stroke-width: 0.85 ;&st7; " /><path d=" M  807.37,  222.75  L  807.37,  227.00 " style="stroke-width: 0.85 ;&st7; " /><path d=" M  781.87,  222.75  L  781.87,  231.25 " style="stroke-width: 0.85 ;&st7; " /><path d=" M  781.87,  248.24  L  781.87,  256.74 " style="stroke-width: 0.85 ;&st7; " /><path d=" M  783.99,  180.26  L  779.74,  180.26 " style="stroke-width: 1.42 ;&st7; " /><path d=" M  783.99,  188.75  L  779.74,  188.75 " style="stroke-width: 1.42 ;&st7; " /><path d=" M  809.49,  180.26  L  805.24,  180.26 " style="stroke-width: 1.42 ;&st7; " /><path d=" M  809.49,  188.75  L  805.24,  188.75 " style="stroke-width: 1.42 ;&st7; " /><path d=" M  783.99,  290.74  L  779.74,  290.74 " style="stroke-width: 1.42 ;&st7; " /><path d=" M  783.99,  299.24  L  779.74,  299.24 " style="stroke-width: 1.42 ;&st7; " /><path d=" M  832.86,  384.22  L  832.86,  392.72 " style="stroke-width: 0.85 ;&st7; " /><path d=" M  834.99,  409.72  L  830.74,  409.72 " style="stroke-width: 1.42 ;&st7; " /><path d=" M  834.99,  418.22  L  830.74,  418.22 " style="stroke-width: 1.42 ;&st7; " /><path d=" M  832.86,  392.72  L  832.86,  409.72 " style="stroke-width: 0.85 ;&st7; " /><path d=" M  645.89,  214.25  L  637.39,  214.25 " style="stroke-width: 1.42 ;&st7; " /><path d=" M  637.39,  334.65  L  643.06,  311.98 " style="stroke-width: 1.42 ;&st7; " /><path d=" M  637.39,  341.73  L  637.39,  337.48 " style="stroke-width: 0.85 ;&st7; " /><path d=" M  637.39,  311.98  L  637.39,  307.73 " style="stroke-width: 0.85 ;&st7; " /><path d=" M  560.91,  320.48  L  560.91,  316.23 " style="stroke-width: 0.85 ;&st7; " /><path d=" M  560.91,  350.23  L  560.91,  345.98 " style="stroke-width: 0.85 ;&st7; " /><path d=" M  560.91,  343.14  L  566.57,  320.48 " style="stroke-width: 1.42 ;&st7; " /><path d=" M  569.40,  214.25  L  560.91,  214.25 " style="stroke-width: 1.42 ;&st7; " /><path d=" M  922.10,   35.78  L  922.10,   78.27  L  947.59,   78.27  L  947.59,   35.78  L  922.10,   35.78 " style="stroke-width: 1.42 ;&st7; " /><path d=" M  934.84,   90.37  L  932.01,   87.54  L  932.01,   91.79  L  934.84,   94.62  L  937.68,   91.79  L  937.68,   87.54  L  934.84,   90.37 " style="stroke-width: 0.28 ;&st9;" /><path d=" M  930.59,  145.69  L  934.84,  149.94  L  939.09,  145.69 " style="stroke-width: 1.42 ;&st7; " /><path d=" M  939.09,  149.09  L  934.84,  153.34  L  930.59,  149.09 " style="stroke-width: 1.42 ;&st7; " /><path d=" M  794.62,   35.78  L  794.62,   78.27  L  820.11,   78.27  L  820.11,   35.78  L  794.62,   35.78 " style="stroke-width: 1.42 ;&st7; " /><path d=" M  807.36,   90.37  L  804.53,   87.54  L  804.53,   91.79  L  807.36,   94.62  L  810.20,   91.79  L  810.20,   87.54  L  807.36,   90.37 " style="stroke-width: 0.28 ;&st9;" /><path d=" M  815.86,  222.75  L  773.37,  222.75  L  773.37,  256.74  L  815.86,  256.74  L  815.86,  222.75 " style="stroke-width: 1.42 ;&st7; " /><path d=" M  781.87,  193.65  L  784.70,  196.48  L  784.70,  192.23  L  781.87,  189.40  L  779.04,  192.23  L  779.04,  196.48  L  781.87,  193.65 " style="stroke-width: 0.28 ;&st9;" /><path d=" M  807.36,  193.65  L  810.20,  196.48  L  810.20,  192.23  L  807.36,  189.40  L  804.53,  192.23  L  804.53,  196.48  L  807.36,  193.65 " style="stroke-width: 0.28 ;&st9;" /><path d=" M  781.87,  256.74  L  781.87,  290.74 " style="stroke-width: 0.85 ;&st7; " /><path d=" M  807.36,  188.75  L  807.36,  222.75 " style="stroke-width: 0.85 ;&st7; " /><path d=" M  781.87,  188.75  L  781.87,  222.75 " style="stroke-width: 0.85 ;&st7; " /><path d=" M  781.87,  285.84  L  779.04,  283.01  L  779.04,  287.26  L  781.87,  290.09  L  784.70,  287.26  L  784.70,  283.01  L  781.87,  285.84 " style="stroke-width: 0.28 ;&st9;" /><path d=" M  781.87,  205.75  L  756.37,  205.75  L  756.37,  231.25  L  759.21,  232.66  L  753.54,  235.50  L  759.21,  238.33  L  753.54,  241.16  L  759.21,  243.99  L  753.54,  246.83  L  756.37,  248.24  L  756.37,  273.74  L  781.87,  273.74 " style="stroke-width: 0.85 ;&st7; " /><path d=" M  780.68,  204.75  L  780.40,  205.22  L  780.31,  205.75  L  780.40,  206.28  L  780.68,  206.75  L  781.09,  207.10  L  781.60,  207.29  L  782.14,  207.29  L  782.65,  207.10  L  783.06,  206.75  L  783.33,  206.28  L  783.43,  205.75  L  783.33,  205.22  L  783.06,  204.75  L  782.65,  204.40  L  782.14,  204.22  L  781.60,  204.22  L  781.09,  204.40  L  780.68,  204.75  L  781.07,  205.46  L  781.07,  206.04  L  781.44,  206.49  L  782.02,  206.59  L  782.52,  206.30  L  782.72,  205.75  L  782.52,  205.20  L  782.02,  204.92  L  781.44,  205.01  L  781.87,  205.75 " style="stroke-width: 0.85 ;&st7; " /><path d=" M  780.68,  272.74  L  780.40,  273.21  L  780.31,  273.74  L  780.40,  274.27  L  780.68,  274.74  L  781.09,  275.09  L  781.60,  275.28  L  782.14,  275.28  L  782.65,  275.09  L  783.06,  274.74  L  783.33,  274.27  L  783.43,  273.74  L  783.33,  273.21  L  783.06,  272.74  L  782.65,  272.39  L  782.14,  272.20  L  781.60,  272.20  L  781.09,  272.39  L  780.68,  272.74  L  781.07,  273.45  L  781.07,  274.03  L  781.44,  274.48  L  782.02,  274.58  L  782.52,  274.29  L  782.72,  273.74  L  782.52,  273.19  L  782.02,  272.90  L  781.44,  273.00  L  781.87,  273.74 " style="stroke-width: 0.85 ;&st7; " /><path d=" M  781.87,  697.25  L  781.87,  701.50 " style="stroke-width: 0.85 ;&st7; " /><path d=" M  773.37,  701.50  L  790.37,  701.50 " style="stroke-width: 0.85 ;&st7; " /><path d=" M  777.62,  704.33  L  786.12,  704.33 " style="stroke-width: 0.85 ;&st7; " /><path d=" M  779.04,  707.17  L  784.70,  707.17 " style="stroke-width: 0.85 ;&st7; " /><path d=" M  780.45,  710.00  L  783.29,  710.00 " style="stroke-width: 0.85 ;&st7; " /><path d=" M  832.86,  404.82  L  830.03,  401.99  L  830.03,  406.24  L  832.86,  409.07  L  835.69,  406.24  L  835.69,  401.99  L  832.86,  404.82 " style="stroke-width: 0.28 ;&st9;" /><path d=" M  820.11,  350.23  L  820.11,  392.72  L  845.61,  392.72  L  845.61,  350.23  L  820.11,  350.23 " style="stroke-width: 1.42 ;&st7; " /><path d=" M  832.86,  350.23  L  832.86,  358.73 " style="stroke-width: 0.85 ;&st7; " /><path d=" M  807.36,  256.74  L  807.36,  316.23  L  832.86,  316.23  L  832.86,  350.23 " style="stroke-width: 0.85 ;&st7; " /><path d=" M  641.64,  223.31  L  637.39,  219.07  L  633.14,  223.31 " style="stroke-width: 1.42 ;&st7; " /><path d=" M  641.64,  219.92  L  637.39,  215.67  L  633.14,  219.92 " style="stroke-width: 1.42 ;&st7; " /><path d=" M  645.89,  341.73  L  645.89,  307.73  L  628.89,  307.73  L  628.89,  341.73  L  645.89,  341.73 " style="stroke-width: 1.42 ;&st7; " /><path d=" M  637.39,  341.73  L  637.39,  350.23 " style="stroke-width: 0.85 ;&st7; " /><path d=" M  628.89,  350.23  L  645.89,  350.23 " style="stroke-width: 0.85 ;&st7; " /><path d=" M  633.14,  353.06  L  641.64,  353.06 " style="stroke-width: 0.85 ;&st7; " /><path d=" M  634.56,  355.89  L  640.23,  355.89 " style="stroke-width: 0.85 ;&st7; " /><path d=" M  635.98,  358.73  L  638.81,  358.73 " style="stroke-width: 0.85 ;&st7; " /><path d=" M  565.16,  223.31  L  560.91,  219.07  L  556.66,  223.31 " style="stroke-width: 1.42 ;&st7; " /><path d=" M  569.40,  350.23  L  569.40,  316.23  L  552.41,  316.23  L  552.41,  350.23  L  569.40,  350.23 " style="stroke-width: 1.42 ;&st7; " /><path d=" M  560.91,  350.23  L  560.91,  358.73 " style="stroke-width: 0.85 ;&st7; " /><path d=" M  552.41,  358.73  L  569.40,  358.73 " style="stroke-width: 0.85 ;&st7; " /><path d=" M  556.66,  361.56  L  565.16,  361.56 " style="stroke-width: 0.85 ;&st7; " /><path d=" M  558.07,  364.39  L  563.74,  364.39 " style="stroke-width: 0.85 ;&st7; " /><path d=" M  559.49,  367.22  L  562.32,  367.22 " style="stroke-width: 0.85 ;&st7; " /><path d=" M  565.16,  219.92  L  560.91,  215.67  L  556.66,  219.92 " style="stroke-width: 1.42 ;&st7; " /><path d=" M  941.22,   99.52  C  941.22    97.17   939.32    95.27   936.97    95.27 " style="stroke-width: 1.42 ;&st7; " /><path d=" M  936.97,  103.77  C  939.32   103.77   941.22   101.87   941.22    99.52 " style="stroke-width: 1.42 ;&st7; " /><path d=" M  928.47,   99.52  C  928.47   101.87   930.37   103.77   932.72   103.77 " style="stroke-width: 1.42 ;&st7; " /><path d=" M  932.72,   95.27  C  930.37    95.27   928.47    97.17   928.47    99.52 " style="stroke-width: 1.42 ;&st7; " /><path d=" M  936.26,   68.36  C  936.26    67.57   935.63    66.94   934.84    66.94 " style="stroke-width: 0.85 ;&st7; " /><path d=" M  934.84,   66.94  C  934.06    66.94   933.43    67.57   933.43    68.36 " style="stroke-width: 0.85 ;&st7; " /><path d=" M  933.43,   68.36  C  933.43    69.14   934.06    69.77   934.84    69.77 " style="stroke-width: 0.85 ;&st7; " /><path d=" M  934.84,   69.77  C  935.63    69.77   936.26    69.14   936.26    68.36 " style="stroke-width: 0.85 ;&st7; " /><path d=" M  936.26,   45.69  C  936.26    44.91   935.63    44.28   934.84    44.28 " style="stroke-width: 0.85 ;&st7; " /><path d=" M  934.84,   44.28  C  934.06    44.28   933.43    44.91   933.43    45.69 " style="stroke-width: 0.85 ;&st7; " /><path d=" M  933.43,   45.69  C  933.43    46.48   934.06    47.11   934.84    47.11 " style="stroke-width: 0.85 ;&st7; " /><path d=" M  934.84,   47.11  C  935.63    47.11   936.26    46.48   936.26    45.69 " style="stroke-width: 0.85 ;&st7; " /><path d=" M  934.84,   66.94  C  937.58    65.33   938.49    61.80   936.88    59.06 " style="stroke-width: 1.42 ;&st7; " /><path d=" M  936.88,   59.06  C  936.36    58.18   935.73    57.55   934.84    57.03 " style="stroke-width: 1.42 ;&st7; " /><path d=" M  934.84,   47.11  C  932.11    48.72   931.19    52.25   932.81    54.99 " style="stroke-width: 1.42 ;&st7; " /><path d=" M  932.81,   54.99  C  933.33    55.87   933.96    56.51   934.84    57.03 " style="stroke-width: 1.42 ;&st7; " /><path d=" M  807.37,   47.11  C  806.51    50.03   807.17    52.92   809.21    55.18 " style="stroke-width: 1.42 ;&st7; " /><path d=" M  807.37,   47.11  C  805.19    50.13   805.19    54.00   807.37    57.03 " style="stroke-width: 1.42 ;&st7; " /><path d=" M  807.37,   47.11  C  803.65    49.88   802.83    55.10   805.53    58.87 " style="stroke-width: 1.42 ;&st7; " /><path d=" M  807.37,   66.94  C  811.08    64.17   811.90    58.96   809.21    55.19 " style="stroke-width: 1.42 ;&st7; " /><path d=" M  807.37,   66.94  C  809.54    63.92   809.54    60.05   807.37    57.03 " style="stroke-width: 1.42 ;&st7; " /><path d=" M  807.37,   66.94  C  808.22    64.02   807.56    61.13   805.52    58.87 " style="stroke-width: 1.42 ;&st7; " /><path d=" M  808.78,   45.69  C  808.78    44.91   808.15    44.28   807.37    44.28 " style="stroke-width: 0.85 ;&st7; " /><path d=" M  807.37,   44.28  C  806.58    44.28   805.95    44.91   805.95    45.69 " style="stroke-width: 0.85 ;&st7; " /><path d=" M  805.95,   45.69  C  805.95    46.48   806.58    47.11   807.37    47.11 " style="stroke-width: 0.85 ;&st7; " /><path d=" M  807.37,   47.11  C  808.15    47.11   808.78    46.48   808.78    45.69 " style="stroke-width: 0.85 ;&st7; " /><path d=" M  808.78,   68.36  C  808.78    67.57   808.15    66.94   807.37    66.94 " style="stroke-width: 0.85 ;&st7; " /><path d=" M  807.37,   66.94  C  806.58    66.94   805.95    67.57   805.95    68.36 " style="stroke-width: 0.85 ;&st7; " /><path d=" M  805.95,   68.36  C  805.95    69.14   806.58    69.77   807.37    69.77 " style="stroke-width: 0.85 ;&st7; " /><path d=" M  807.37,   69.77  C  808.15    69.77   808.78    69.14   808.78    68.36 " style="stroke-width: 0.85 ;&st7; " /><path d=" M  813.74,   99.52  C  813.74    97.17   811.84    95.27   809.49    95.27 " style="stroke-width: 1.42 ;&st7; " /><path d=" M  809.49,  103.77  C  811.84   103.77   813.74   101.87   813.74    99.52 " style="stroke-width: 1.42 ;&st7; " /><path d=" M  800.99,   99.52  C  800.99   101.87   802.89   103.77   805.24   103.77 " style="stroke-width: 1.42 ;&st7; " /><path d=" M  805.24,   95.27  C  802.89    95.27   800.99    97.17   800.99    99.52 " style="stroke-width: 1.42 ;&st7; " /><path d=" M  808.78,  251.08  C  808.78   250.29   808.15   249.66   807.37   249.66 " style="stroke-width: 0.85 ;&st7; " /><path d=" M  807.37,  249.66  C  806.58   249.66   805.95   250.29   805.95   251.08 " style="stroke-width: 0.85 ;&st7; " /><path d=" M  805.95,  251.08  C  805.95   251.86   806.58   252.49   807.37   252.49 " style="stroke-width: 0.85 ;&st7; " /><path d=" M  807.37,  252.49  C  808.15   252.49   808.78   251.86   808.78   251.08 " style="stroke-width: 0.85 ;&st7; " /><path d=" M  808.78,  228.41  C  808.78   227.63   808.15   227.00   807.37   227.00 " style="stroke-width: 0.85 ;&st7; " /><path d=" M  807.37,  227.00  C  806.58   227.00   805.95   227.63   805.95   228.41 " style="stroke-width: 0.85 ;&st7; " /><path d=" M  805.95,  228.41  C  805.95   229.20   806.58   229.83   807.37   229.83 " style="stroke-width: 0.85 ;&st7; " /><path d=" M  807.37,  229.83  C  808.15   229.83   808.78   229.20   808.78   228.41 " style="stroke-width: 0.85 ;&st7; " /><path d=" M  779.34,  237.27  C  780.71   238.66   782.95   238.69   784.35   237.32 " style="stroke-width: 0.85 ;&st7; " /><path d=" M  784.35,  237.32  C  785.75   235.95   785.77   233.71   784.40   232.31 " style="stroke-width: 0.85 ;&st7; " /><path d=" M  784.40,  232.31  C  783.71   231.60   782.86   231.25   781.87   231.25 " style="stroke-width: 0.85 ;&st7; " /><path d=" M  779.34,  242.22  C  780.71   243.62   782.95   243.64   784.35   242.27 " style="stroke-width: 0.85 ;&st7; " /><path d=" M  784.35,  242.27  C  785.75   240.91   785.77   238.66   784.40   237.27 " style="stroke-width: 0.85 ;&st7; " /><path d=" M  784.40,  237.27  C  783.03   235.87   780.79   235.85   779.39   237.22 " style="stroke-width: 0.85 ;&st7; " /><path d=" M  779.39,  237.22  C  779.37   237.23   779.36   237.25   779.34   237.27 " style="stroke-width: 0.85 ;&st7; " /><path d=" M  781.87,  248.24  C  783.83   248.24   785.41   246.66   785.41   244.70 " style="stroke-width: 0.85 ;&st7; " /><path d=" M  785.41,  244.70  C  785.41   242.75   783.83   241.16   781.87   241.16 " style="stroke-width: 0.85 ;&st7; " /><path d=" M  781.87,  241.16  C  780.88   241.16   780.03   241.52   779.34   242.22 " style="stroke-width: 0.85 ;&st7; " /><path d=" M  779.74,  180.26  C  777.40   180.26   775.50   182.16   775.50   184.50 " style="stroke-width: 1.42 ;&st7; " /><path d=" M  775.50,  184.50  C  775.50   186.85   777.40   188.75   779.74   188.75 " style="stroke-width: 1.42 ;&st7; " /><path d=" M  783.99,  188.75  C  786.34   188.75   788.24   186.85   788.24   184.50 " style="stroke-width: 1.42 ;&st7; " /><path d=" M  788.24,  184.50  C  788.24   182.16   786.34   180.26   783.99   180.26 " style="stroke-width: 1.42 ;&st7; " /><path d=" M  805.24,  180.26  C  802.89   180.26   800.99   182.16   800.99   184.50 " style="stroke-width: 1.42 ;&st7; " /><path d=" M  800.99,  184.50  C  800.99   186.85   802.89   188.75   805.24   188.75 " style="stroke-width: 1.42 ;&st7; " /><path d=" M  809.49,  188.75  C  811.84   188.75   813.74   186.85   813.74   184.50 " style="stroke-width: 1.42 ;&st7; " /><path d=" M  813.74,  184.50  C  813.74   182.16   811.84   180.26   809.49   180.26 " style="stroke-width: 1.42 ;&st7; " /><path d=" M  779.74,  290.74  C  777.40   290.74   775.50   292.64   775.50   294.99 " style="stroke-width: 1.42 ;&st7; " /><path d=" M  775.50,  294.99  C  775.50   297.33   777.40   299.24   779.74   299.24 " style="stroke-width: 1.42 ;&st7; " /><path d=" M  783.99,  299.24  C  786.34   299.24   788.24   297.33   788.24   294.99 " style="stroke-width: 1.42 ;&st7; " /><path d=" M  788.24,  294.99  C  788.24   292.64   786.34   290.74   783.99   290.74 " style="stroke-width: 1.42 ;&st7; " /><path d=" M  830.74,  409.72  C  828.39   409.72   826.49   411.62   826.49   413.97 " style="stroke-width: 1.42 ;&st7; " /><path d=" M  826.49,  413.97  C  826.49   416.31   828.39   418.22   830.74   418.22 " style="stroke-width: 1.42 ;&st7; " /><path d=" M  834.99,  418.22  C  837.33   418.22   839.23   416.31   839.23   413.97 " style="stroke-width: 1.42 ;&st7; " /><path d=" M  839.23,  413.97  C  839.23   411.62   837.33   409.72   834.99   409.72 " style="stroke-width: 1.42 ;&st7; " /><path d=" M  834.28,  382.80  C  834.28   382.02   833.64   381.39   832.86   381.39 " style="stroke-width: 0.85 ;&st7; " /><path d=" M  832.86,  381.39  C  832.08   381.39   831.44   382.02   831.44   382.80 " style="stroke-width: 0.85 ;&st7; " /><path d=" M  831.44,  382.80  C  831.44   383.59   832.08   384.22   832.86   384.22 " style="stroke-width: 0.85 ;&st7; " /><path d=" M  832.86,  384.22  C  833.64   384.22   834.28   383.59   834.28   382.80 " style="stroke-width: 0.85 ;&st7; " /><path d=" M  834.28,  360.14  C  834.28   359.36   833.64   358.73   832.86   358.73 " style="stroke-width: 0.85 ;&st7; " /><path d=" M  832.86,  358.73  C  832.08   358.73   831.44   359.36   831.44   360.14 " style="stroke-width: 0.85 ;&st7; " /><path d=" M  831.44,  360.14  C  831.44   360.92   832.08   361.56   832.86   361.56 " style="stroke-width: 0.85 ;&st7; " /><path d=" M  832.86,  361.56  C  833.64   361.56   834.28   360.92   834.28   360.14 " style="stroke-width: 0.85 ;&st7; " /><path d=" M  832.86,  381.39  C  833.71   378.47   833.05   375.57   831.02   373.32 " style="stroke-width: 1.42 ;&st7; " /><path d=" M  832.86,  381.39  C  835.03   378.36   835.03   374.50   832.86   371.47 " style="stroke-width: 1.42 ;&st7; " /><path d=" M  832.86,  381.39  C  836.58   378.62   837.39   373.40   834.70   369.63 " style="stroke-width: 1.42 ;&st7; " /><path d=" M  832.86,  361.56  C  829.14   364.33   828.33   369.54   831.02   373.31 " style="stroke-width: 1.42 ;&st7; " /><path d=" M  832.86,  361.56  C  830.69   364.58   830.69   368.45   832.86   371.47 " style="stroke-width: 1.42 ;&st7; " /><path d=" M  832.86,  361.56  C  832.01   364.48   832.67   367.37   834.70   369.63 " style="stroke-width: 1.42 ;&st7; " /><path d=" M  692.92,   91.30  C  692.92    88.80   690.89    86.77   688.38    86.77 " style="stroke-width: 1.42 ;&st7; " /><path d=" M  688.38,   86.77  C  685.88    86.77   683.85    88.80   683.85    91.30 " style="stroke-width: 1.42 ;&st7; " /><path d=" M  683.85,   91.30  C  683.85    93.81   685.88    95.84   688.38    95.84 " style="stroke-width: 1.42 ;&st7; " /><path d=" M  688.38,   95.84  C  690.89    95.84   692.92    93.81   692.92    91.30 " style="stroke-width: 1.42 ;&st7; " /><path d=" M  641.93,   91.30  C  641.93    88.80   639.90    86.77   637.39    86.77 " style="stroke-width: 1.42 ;&st7; " /><path d=" M  637.39,   86.77  C  634.89    86.77   632.86    88.80   632.86    91.30 " style="stroke-width: 1.42 ;&st7; " /><path d=" M  632.86,   91.30  C  632.86    93.81   634.89    95.84   637.39    95.84 " style="stroke-width: 1.42 ;&st7; " /><path d=" M  637.39,   95.84  C  639.90    95.84   641.93    93.81   641.93    91.30 " style="stroke-width: 1.42 ;&st7; " /><path d=" M  638.81,  336.06  C  638.81   335.28   638.18   334.65   637.39   334.65 " style="stroke-width: 0.85 ;&st7; " /><path d=" M  637.39,  334.65  C  636.61   334.65   635.98   335.28   635.98   336.06 " style="stroke-width: 0.85 ;&st7; " /><path d=" M  635.98,  336.06  C  635.98   336.84   636.61   337.48   637.39   337.48 " style="stroke-width: 0.85 ;&st7; " /><path d=" M  637.39,  337.48  C  638.18   337.48   638.81   336.84   638.81   336.06 " style="stroke-width: 0.85 ;&st7; " /><path d=" M  638.81,  313.40  C  638.81   312.62   638.18   311.98   637.39   311.98 " style="stroke-width: 0.85 ;&st7; " /><path d=" M  637.39,  311.98  C  636.61   311.98   635.98   312.62   635.98   313.40 " style="stroke-width: 0.85 ;&st7; " /><path d=" M  635.98,  313.40  C  635.98   314.18   636.61   314.82   637.39   314.82 " style="stroke-width: 0.85 ;&st7; " /><path d=" M  637.39,  314.82  C  638.18   314.82   638.81   314.18   638.81   313.40 " style="stroke-width: 0.85 ;&st7; " /><path d=" M  562.32,  321.90  C  562.32   321.12   561.69   320.48   560.91   320.48 " style="stroke-width: 0.85 ;&st7; " /><path d=" M  560.91,  320.48  C  560.12   320.48   559.49   321.12   559.49   321.90 " style="stroke-width: 0.85 ;&st7; " /><path d=" M  559.49,  321.90  C  559.49   322.68   560.12   323.31   560.91   323.31 " style="stroke-width: 0.85 ;&st7; " /><path d=" M  560.91,  323.31  C  561.69   323.31   562.32   322.68   562.32   321.90 " style="stroke-width: 0.85 ;&st7; " /><path d=" M  562.32,  344.56  C  562.32   343.78   561.69   343.14   560.91   343.14 " style="stroke-width: 0.85 ;&st7; " /><path d=" M  560.91,  343.14  C  560.12   343.14   559.49   343.78   559.49   344.56 " style="stroke-width: 0.85 ;&st7; " /><path d=" M  559.49,  344.56  C  559.49   345.34   560.12   345.98   560.91   345.98 " style="stroke-width: 0.85 ;&st7; " /><path d=" M  560.91,  345.98  C  561.69   345.98   562.32   345.34   562.32   344.56 " style="stroke-width: 0.85 ;&st7; " /><path d=" M  565.44,   91.30  C  565.44    88.80   563.41    86.77   560.91    86.77 " style="stroke-width: 1.42 ;&st7; " /><path d=" M  560.91,   86.77  C  558.40    86.77   556.37    88.80   556.37    91.30 " style="stroke-width: 1.42 ;&st7; " /><path d=" M  556.37,   91.30  C  556.37    93.81   558.40    95.84   560.91    95.84 " style="stroke-width: 1.42 ;&st7; " /><path d=" M  560.91,   95.84  C  563.41    95.84   565.44    93.81   565.44    91.30 " style="stroke-width: 1.42 ;&st7; " /><text style="&st18;" transform="matrix(&st16;  575.38  24.98 )">E118(B)</text><text ewd:textID="11" style="&st18;" transform="matrix(&st16;  575.38  32.08 )">Main Body ECU</text><text style="&st18;" transform="matrix(&st16;  925.73  32.08 )">(BAT)</text><text style="&st18;" transform="matrix(&st16;  918.98  101.49 )">10</text><text style="&st18;" transform="matrix(&st16;  931.88  101.49 )">2I</text><text style="&st18;" transform="matrix(&st16;  952.15  53.34 )">30A <tspan dy="6" x="0">DOOR </tspan><tspan dy="6" x="0">F/P</tspan></text><text style="&st18;" transform="matrix(&st16;  916.85  160.98 )">12</text><text style="&st18;" transform="matrix(&st17;  931.15  190.73 )">L</text><text style="&st18;" transform="matrix(&st17;  931.15  122.74 )">L</text><text style="&st18;" transform="matrix(&st16;  795.45  101.49 )">1</text><text style="&st18;" transform="matrix(&st16;  803.66  101.49 )">1T</text><text style="&st18;" transform="matrix(&st16;  824.67  56.17 )">140A <tspan dy="6" x="0">J/B LH-AM</tspan></text><text style="&st18;" transform="matrix(&st16;  798.25  32.08 )">(BAT)</text><text style="&st18;" transform="matrix(&st16;  778.9  186.47 )">2I</text><text style="&st18;" transform="matrix(&st16;  765.22  186.47 )">42</text><text style="&st18;" transform="matrix(&st16;  802.63  186.47 )">2G</text><text style="&st18;" transform="matrix(&st16;  795.45  186.47 )">1</text><text style="&st18;" transform="matrix(&st16;  778.13  296.96 )">2J</text><text style="&st18;" transform="matrix(&st16;  769.96  296.96 )">1</text><text ewd:textID="13" style="&st18;" transform="matrix(&st17;  823.5  252.99 )">POWER <tspan dy="6" x="0">Relay</tspan></text><text style="&st18;" transform="matrix(&st17;  778.17  391.92 )">W-B</text><text style="&st18;" transform="matrix(&st16;  850.17  367.79 )">30A <tspan dy="6" x="0">DOOR </tspan><tspan dy="6" x="0">F/D</tspan></text><text style="&st18;" transform="matrix(&st16;  829.89  415.94 )">2I</text><text style="&st18;" transform="matrix(&st16;  820.95  415.94 )">1</text><text style="&st18;" transform="matrix(&st16;  826.07  400.91 )">2</text><text style="&st18;" transform="matrix(&st17;  829.17  438.57 )">W</text><text style="&st18;" transform="matrix(&st17;  803.67  166.61 )">W</text><text style="&st18;" transform="matrix(&st16;  826.85  346.54 )">1</text><text style="&st18;" transform="matrix(&st16;  686.05  93.27 )">B</text><text style="&st18;" transform="matrix(&st16;  677.51  93.27 )">9</text><text style="&st18;" transform="matrix(&st16;  680.37  83.07 )">PWS</text><text style="&st18;" transform="matrix(&st17;  778.17  166.61 )">W</text><text style="&st18;" transform="matrix(&st16;  635.06  93.27 )">B</text><text style="&st18;" transform="matrix(&st16;  626.52  93.27 )">6</text><text style="&st18;" transform="matrix(&st16;  628.49  83.07 )">FLCY</text><text style="&st18;" transform="matrix(&st17;  633.7  165.59 )">V</text><text style="&st18;" transform="matrix(&st16;  618.62  211.97 )">23</text><text style="&st18;" transform="matrix(&st17;  633.7  259.07 )">V</text><text style="&st18;" transform="matrix(&st16;  631.38  304.04 )">1</text><text ewd:textID="5" style="&st18;" transform="matrix(&st17;  660.61  344.25 )">Front Door Courtesy Light <tspan dy="6" x="0">Switch Assembly LH</tspan></text><text style="&st18;" transform="matrix(&st17;  653.79  344.25 )">K2</text><text style="&st18;" transform="matrix(&st16;  541.15  465.51 )">G</text><text style="&st18;" transform="matrix(&st16;  558.58  93.27 )">B</text><text style="&st18;" transform="matrix(&st16;  551.51  83.07 )">FRCY</text><text style="&st18;" transform="matrix(&st16;  546.07  93.27 )">27</text><text style="&st18;" transform="matrix(&st16;  554.89  312.54 )">1</text><text style="&st18;" transform="matrix(&st17;  577.02  352.75 )">L1</text><text style="&st18;" transform="matrix(&st17;  557.21  165.59 )">V</text><text style="&st18;" transform="matrix(&st17;  557.21  259.07 )">V</text><text style="&st18;" transform="matrix(&st16;  542.14  211.97 )">76</text><text ewd:textID="6" style="&st18;" transform="matrix(&st17;  584.12  352.75 )">Front Door Courtesy <tspan dy="6" x="0">Light Switch Assembly RH</tspan></text></svg>