﻿<?xml version="1.0" encoding="utf-8"?>
<!DOCTYPE svg PUBLIC "-//W3C//DTD SVG 1.0//EN" "http://www.w3.org/TR/2001/REC-SVG-20010904/DTD/svg10.dtd"[
	<!ENTITY ns_flows "http://ns.adobe.com/Flows/1.0/">
	<!ENTITY ns_svg "http://www.w3.org/2000/svg">
	<!ENTITY ns_xlink "http://www.w3.org/1999/xlink">
	<!ENTITY st0 "font-size:7px;font-family:'MS-PGothic';adobe-font-script:japanese;">
	<!ENTITY st1 "font-size:6px;font-family:'ArialMT';">
	<!-- White fill  -->
	<!ENTITY st2 "fill:#FFFFFF;stroke:#000000; stroke-width:1.41;stroke-linecap:round;stroke-linejoin:round;">
	<!-- Yellow fill  -->
	<!ENTITY st3 "fill:#FFFFCC;stroke:#FFFFCC; stroke-width:0.1;stroke-linecap:round;stroke-linejoin:round;">
	<!-- Gray fill  -->
	<!ENTITY st4 "fill:#CCCCCC;stroke:#CCCCCC; stroke-width:0.1;stroke-linecap:round;stroke-linejoin:round;">
	<!-- Light-blue fill -->
	<!ENTITY st5 "fill:#CCECF4;stroke:#000000; stroke-width:1.133;stroke-linecap:round;stroke-linejoin:round;">
	<!ENTITY st6 "fill:none;stroke-linecap:butt; stroke-linejoin:round;">
	<!ENTITY st7 "fill:none;stroke:#000000;stroke-linecap:round;stroke-linejoin:round;">
	<!ENTITY st8 "enable-background:new    ;">
	<!-- Black fill -->
	<!ENTITY st9 "fill:#000000;stroke:#000000; stroke-linecap:round;stroke-linejoin:round;">
	<!-- SRS note   -->
	<!ENTITY st10 "font-size:9px;font-family:'ArialMT';">
	<!ENTITY st11 "font-size:9px;font-family:'Svg Symbol';">
	<!ENTITY st12 "font-size:6px;font-family:'Svg Symbol';">
	<!ENTITY st13 "fill:none;stroke:#ff0000;stroke-linecap:round;stroke-linejoin:round;">
	<!-- Yellow fill  -->
	<!ENTITY st14 "fill:#FFFF00;stroke:#FFFF00; stroke-width:0.1;stroke-linecap:round;stroke-linejoin:round;">
	<!ENTITY st15 "font-size:6px;font-family:'MS-PGothic';adobe-font-script:japanese;">
	<!ENTITY st16 "1.00 0.00 0.00 1.00">
	<!ENTITY st17 "0.00 -1.00 1.00 0.00">
	<!ENTITY st18 "font-size:6px;font-family:'Arial';">
	<!ENTITY st19 "font-size:9px;font-family:'Arial';">
	<!ENTITY st20 "font-size:6px;font-family:'MS-PGothic','MS PGothic';adobe-font-script:japanese;">
	<!ENTITY st21 "font-size:7px;font-family:'MS-PGothic','MS PGothic';adobe-font-script:japanese;">
	<!ATTLIST svg
		xmlns:ewd CDATA #FIXED "http://shcl.co.jp/ewd"
		xmlns:a CDATA #FIXED "http://ns.adobe.com/AdobeSVGViewerExtensions/3.0/"
		ewd:ver CDATA #IMPLIED
	>
	<!ATTLIST a
		ewd:lineID CDATA #IMPLIED
		ewd:groupID CDATA #IMPLIED
		ewd:figtype CDATA #IMPLIED
		ewd:code CDATA #IMPLIED
		ewd:figID CDATA #IMPLIED
		ewd:pinNo CDATA #IMPLIED
		ewd:comment CDATA #IMPLIED >
	<!ATTLIST g
		ewd:lineID CDATA #IMPLIED
		ewd:groupID CDATA #IMPLIED
		ewd:figtype CDATA #IMPLIED
		ewd:code CDATA #IMPLIED
		ewd:figID CDATA #IMPLIED
		ewd:pinNo CDATA #IMPLIED
		ewd:comment CDATA #IMPLIED >
	<!ATTLIST text
		ewd:textID CDATA #IMPLIED >
	<!ATTLIST title
		ewd:textID CDATA #IMPLIED >
]>
<!-- Generator: Shintec Hozumi YS   -->
<svg onload="call_execInitLoadProc_svg('system')" style="overflow:visible;  enable-background:new 0 0 3611.897 710.000" viewBox="0 0 3611.897 710.000" height="710.000" width="3611.897" xml:space="preserve" ewd:ver="L2.1.2.8" xmlns="&ns_svg;" xmlns:a="http://ns.adobe.com/AdobeSVGViewerExtensions/3.0/" xmlns:ewd="http://shcl.co.jp/ewd" xmlns:xlink="&ns_xlink;">
<path d=" M 1089.94,  180.26  L 1085.69,  180.26 " style="stroke-width: 1.42 ;&st7; " /><path d=" M 1089.94,  188.75  L 1085.69,  188.75 " style="stroke-width: 1.42 ;&st7; " /><path d=" M 1087.82,  146.26  L 1087.82,  154.76 " style="stroke-width: 0.85 ;&st7; " /><path d=" M 1183.43,  180.26  L 1179.18,  180.26 " style="stroke-width: 1.42 ;&st7; " /><path d=" M 1183.43,  188.75  L 1179.18,  188.75 " style="stroke-width: 1.42 ;&st7; " /><path d=" M 1181.30,  146.26  L 1181.30,  154.76 " style="stroke-width: 0.85 ;&st7; " /><path d=" M 1172.80,  256.74  L 1181.30,  256.74 " style="stroke-width: 1.42 ;&st7; " /><path d=" M 1321.53,  650.51  L 1321.53,  646.54 " style="stroke-width: 1.42 ;&st7; " /><path d=" M 1313.03,  646.54  L 1313.03,  650.51 " style="stroke-width: 1.42 ;&st7; " /><path d=" M 1313.03,  650.51  L 1321.53,  650.51 " style="stroke-width: 1.42 ;&st7; " /><path d=" M 1389.52,  627.85  L 1389.52,  631.81 " style="stroke-width: 1.42 ;&st7; " /><path d=" M 1381.02,  631.81  L 1381.02,  627.85 " style="stroke-width: 1.42 ;&st7; " /><path d=" M 1381.02,  627.85  L 1389.52,  627.85 " style="stroke-width: 1.42 ;&st7; " /><path d=" M 1389.52,  650.51  L 1389.52,  646.54 " style="stroke-width: 1.42 ;&st7; " /><path d=" M 1381.02,  646.54  L 1381.02,  650.51 " style="stroke-width: 1.42 ;&st7; " /><path d=" M 1381.02,  650.51  L 1389.52,  650.51 " style="stroke-width: 1.42 ;&st7; " /><path d=" M 1423.51,  627.85  L 1423.51,  631.81 " style="stroke-width: 1.42 ;&st7; " /><path d=" M 1415.01,  631.81  L 1415.01,  627.85 " style="stroke-width: 1.42 ;&st7; " /><path d=" M 1415.01,  627.85  L 1423.51,  627.85 " style="stroke-width: 1.42 ;&st7; " /><path d=" M 1423.51,  650.51  L 1423.51,  646.54 " style="stroke-width: 1.42 ;&st7; " /><path d=" M 1415.01,  646.54  L 1415.01,  650.51 " style="stroke-width: 1.42 ;&st7; " /><path d=" M 1415.01,  650.51  L 1423.51,  650.51 " style="stroke-width: 1.42 ;&st7; " /><path d=" M 1313.03,  627.85  L 1321.53,  627.85 " style="stroke-width: 1.42 ;&st7; " /><path d=" M 1313.03,  631.81  L 1313.03,  627.85 " style="stroke-width: 1.42 ;&st7; " /><path d=" M 1321.53,  627.85  L 1321.53,  631.81 " style="stroke-width: 1.42 ;&st7; " /><path d=" M 1495.75,  447.24  L 1500.72,  452.21 " style="stroke-width: 1.42 ;&st7; " /><path d=" M 1500.72,  435.21  L 1495.75,  440.18 " style="stroke-width: 1.42 ;&st7; " /><path d=" M 1155.81,  443.71  L 1147.31,  443.71 " style="stroke-width: 1.42 ;&st7; " /><path d=" M 1075.07,  112.27  L 1075.07,  154.76  L 1100.57,  154.76  L 1100.57,  112.27  L 1075.07,  112.27 " style="stroke-width: 1.42 ;&st7; " /><path d=" M 1087.82,  154.76  L 1087.82,  180.26 " style="stroke-width: 0.85 ;&st7; " /><path d=" M 1087.82,  175.36  L 1084.98,  172.53  L 1084.98,  176.78  L 1087.82,  179.61  L 1090.65,  176.78  L 1090.65,  172.53  L 1087.82,  175.36 " style="stroke-width: 0.28 ;&st9;" /><path d=" M 1087.82,  282.24  L 1087.82,  299.24 " style="stroke-width: 0.85 ;&st7; " /><path d=" M 1079.32,  282.24  L 1096.32,  282.24  L 1096.32,  299.24  L 1079.32,  299.24  L 1079.32,  282.24 " style="stroke-width: 1.42 ;&st7; " /><path d=" M 1087.82,  452.21  L 1087.82,  469.21 " style="stroke-width: 0.85 ;&st7; " /><path d=" M 1079.32,  452.21  L 1079.32,  469.21  L 1096.32,  469.21  L 1096.32,  452.21  L 1079.32,  452.21 " style="stroke-width: 1.42 ;&st7; " /><path d=" M 1168.55,  112.27  L 1168.55,  154.76  L 1194.05,  154.76  L 1194.05,  112.27  L 1168.55,  112.27 " style="stroke-width: 1.42 ;&st7; " /><path d=" M 1181.30,  154.76  L 1181.30,  180.26 " style="stroke-width: 0.85 ;&st7; " /><path d=" M 1181.30,  175.36  L 1178.47,  172.53  L 1178.47,  176.78  L 1181.30,  179.61  L 1184.13,  176.78  L 1184.13,  172.53  L 1181.30,  175.36 " style="stroke-width: 0.28 ;&st9;" /><path d=" M 1177.05,  247.68  L 1181.30,  251.93  L 1185.55,  247.68 " style="stroke-width: 1.42 ;&st7; " /><path d=" M 1185.55,  251.08  L 1181.30,  255.33  L 1177.05,  251.08 " style="stroke-width: 1.42 ;&st7; " /><path d=" M 1130.31,  324.73  L 1130.31,  358.73  L 2014.16,  358.73  L 2014.16,  324.73  L 1130.31,  324.73 " style="stroke-width: 1.42 ;&st7; " /><path d=" M 1164.30,  605.18  L 1164.30,  681.67  L 1470.25,  681.67  L 1470.25,  605.18  L 1164.30,  605.18 " style="stroke-width: 1.42 ;&st7; " /><path d=" M 1350.08,  663.67  L 1349.81,  664.14  L 1349.72,  664.67  L 1349.81,  665.21  L 1350.08,  665.68  L 1350.49,  666.02  L 1351.00,  666.21  L 1351.55,  666.21  L 1352.05,  666.02  L 1352.47,  665.68  L 1352.74,  665.21  L 1352.83,  664.67  L 1352.74,  664.14  L 1352.47,  663.67  L 1352.05,  663.33  L 1351.55,  663.14  L 1351.00,  663.14  L 1350.49,  663.33  L 1350.08,  663.67  L 1350.47,  664.38  L 1350.47,  664.97  L 1350.85,  665.41  L 1351.42,  665.51  L 1351.93,  665.22  L 1352.12,  664.67  L 1351.93,  664.13  L 1351.42,  663.84  L 1350.85,  663.94  L 1351.27,  664.67 " style="stroke-width: 0.85 ;&st7; " /><path d=" M 1351.27,  605.18  L 1351.27,  664.67 " style="stroke-width: 0.85 ;&st7; " /><path d=" M 1385.27,  650.51  L 1385.27,  664.67  L 1317.28,  664.67  L 1317.28,  650.51 " style="stroke-width: 0.85 ;&st7; " /><path d=" M 1317.28,  605.18  L 1317.28,  627.85 " style="stroke-width: 0.85 ;&st7; " /><path d=" M 1385.27,  605.18  L 1385.27,  627.85 " style="stroke-width: 0.85 ;&st7; " /><path d=" M 1419.26,  605.18  L 1419.26,  627.85 " style="stroke-width: 0.85 ;&st7; " /><path d=" M 1419.26,  650.51  L 1419.26,  664.67  L 1453.26,  664.67  L 1453.26,  605.18 " style="stroke-width: 0.85 ;&st7; " /><path d=" M 1181.30,  605.18  L 1181.30,  664.67  L 1249.29,  664.67  L 1249.29,  647.68 " style="stroke-width: 0.85 ;&st7; " /><path d=" M 1206.80,  630.68  L 1206.80,  647.68  L 1223.80,  647.68  L 1223.80,  630.68  L 1206.80,  630.68 " style="stroke-width: 1.42 ;&st7; " /><path d=" M 1240.79,  630.68  L 1240.79,  647.68  L 1257.79,  647.68  L 1257.79,  630.68  L 1240.79,  630.68 " style="stroke-width: 1.42 ;&st7; " /><path d=" M 1215.30,  605.18  L 1215.30,  630.68 " style="stroke-width: 0.85 ;&st7; " /><path d=" M 1249.29,  630.68  L 1249.29,  605.18 " style="stroke-width: 0.85 ;&st7; " /><path d=" M 1283.29,  605.18  L 1283.29,  639.18  L 1257.79,  639.18 " style="stroke-width: 0.85 ;&st7; " /><path d=" M 1215.30,  647.68  L 1215.30,  664.67 " style="stroke-width: 0.85 ;&st7; " /><path d=" M 1283.29,  622.18  L 1232.29,  622.18  L 1232.29,  639.18  L 1223.80,  639.18 " style="stroke-width: 0.85 ;&st7; " /><path d=" M 1282.09,  621.18  L 1281.82,  621.65  L 1281.73,  622.18  L 1281.82,  622.71  L 1282.09,  623.18  L 1282.51,  623.53  L 1283.01,  623.72  L 1283.56,  623.72  L 1284.06,  623.53  L 1284.48,  623.18  L 1284.75,  622.71  L 1284.84,  622.18  L 1284.75,  621.65  L 1284.48,  621.18  L 1284.06,  620.83  L 1283.56,  620.65  L 1283.01,  620.65  L 1282.51,  620.83  L 1282.09,  621.18  L 1282.49,  621.89  L 1282.49,  622.47  L 1282.86,  622.92  L 1283.43,  623.02  L 1283.94,  622.73  L 1284.13,  622.18  L 1283.94,  621.63  L 1283.43,  621.35  L 1282.86,  621.44  L 1283.29,  622.18 " style="stroke-width: 0.85 ;&st7; " /><path d=" M 1214.10,  663.67  L 1213.83,  664.14  L 1213.74,  664.67  L 1213.83,  665.21  L 1214.10,  665.68  L 1214.52,  666.02  L 1215.02,  666.21  L 1215.57,  666.21  L 1216.08,  666.02  L 1216.49,  665.68  L 1216.76,  665.21  L 1216.85,  664.67  L 1216.76,  664.14  L 1216.49,  663.67  L 1216.08,  663.33  L 1215.57,  663.14  L 1215.02,  663.14  L 1214.52,  663.33  L 1214.10,  663.67  L 1214.50,  664.38  L 1214.50,  664.97  L 1214.87,  665.41  L 1215.44,  665.51  L 1215.95,  665.22  L 1216.15,  664.67  L 1215.95,  664.13  L 1215.44,  663.84  L 1214.87,  663.94  L 1215.30,  664.67 " style="stroke-width: 0.85 ;&st7; " /><path d=" M 1495.75,  701.50  L 1512.75,  701.50 " style="stroke-width: 0.85 ;&st7; " /><path d=" M 1325.78,  591.59  L 1338.53,  591.59 " style="stroke-width: 0.85 ;&st7;stroke-dasharray:3, 1.5;" /><path d=" M 1189.80,  600.65  L 1198.30,  600.65 " style="stroke-width: 0.85 ;&st7;stroke-dasharray:3, 1.5;" /><path d=" M 1189.80,  591.59  L 1198.30,  591.59 " style="stroke-width: 0.85 ;&st7;stroke-dasharray:3, 1.5;" /><path d=" M 1223.80,  591.59  L 1236.54,  591.59 " style="stroke-width: 0.85 ;&st7;stroke-dasharray:3, 1.5;" /><path d=" M 1223.80,  600.65  L 1232.29,  600.65 " style="stroke-width: 0.85 ;&st7;stroke-dasharray:3, 1.5;" /><path d=" M 1257.79,  591.59  L 1270.54,  591.59 " style="stroke-width: 0.85 ;&st7;stroke-dasharray:3, 1.5;" /><path d=" M 1257.79,  600.65  L 1266.29,  600.65 " style="stroke-width: 0.85 ;&st7;stroke-dasharray:3, 1.5;" /><path d=" M 1291.78,  591.59  L 1304.53,  591.59 " style="stroke-width: 0.85 ;&st7;stroke-dasharray:3, 1.5;" /><path d=" M 1291.78,  600.65  L 1304.53,  600.65 " style="stroke-width: 0.85 ;&st7;stroke-dasharray:3, 1.5;" /><path d=" M 1325.78,  600.65  L 1338.53,  600.65 " style="stroke-width: 0.85 ;&st7;stroke-dasharray:3, 1.5;" /><path d=" M 1359.77,  591.59  L 1372.52,  591.59 " style="stroke-width: 0.85 ;&st7;stroke-dasharray:3, 1.5;" /><path d=" M 1359.77,  600.65  L 1372.52,  600.65 " style="stroke-width: 0.85 ;&st7;stroke-dasharray:3, 1.5;" /><path d=" M 1393.77,  591.59  L 1402.27,  591.59 " style="stroke-width: 0.85 ;&st7;stroke-dasharray:3, 1.5;" /><path d=" M 1393.77,  600.65  L 1402.27,  600.65 " style="stroke-width: 0.85 ;&st7;stroke-dasharray:3, 1.5;" /><path d=" M 1427.76,  591.59  L 1436.26,  591.59 " style="stroke-width: 0.85 ;&st7;stroke-dasharray:3, 1.5;" /><path d=" M 1427.76,  600.65  L 1436.26,  600.65 " style="stroke-width: 0.85 ;&st7;stroke-dasharray:3, 1.5;" /><path d=" M 1151.56,  452.78  L 1147.31,  448.53  L 1143.06,  452.78 " style="stroke-width: 1.42 ;&st7; " /><path d=" M 1151.56,  449.38  L 1147.31,  445.13  L 1143.06,  449.38 " style="stroke-width: 1.42 ;&st7; " /><path d=" M 1499.72,  363.26  C 1499.72   365.76  1501.75   367.79  1504.25   367.79 " style="stroke-width: 1.42 ;&st7; " /><path d=" M 1087.82,  143.43  C 1090.56   141.81  1091.47   138.29  1089.86   135.55 " style="stroke-width: 1.42 ;&st7; " /><path d=" M 1089.86,  135.55  C 1089.34   134.67  1088.70   134.03  1087.82   133.51 " style="stroke-width: 1.42 ;&st7; " /><path d=" M 1089.23,  122.18  C 1089.23   121.40  1088.60   120.77  1087.82   120.77 " style="stroke-width: 0.85 ;&st7; " /><path d=" M 1087.82,  120.77  C 1087.04   120.77  1086.40   121.40  1086.40   122.18 " style="stroke-width: 0.85 ;&st7; " /><path d=" M 1086.40,  122.18  C 1086.40   122.96  1087.04   123.60  1087.82   123.60 " style="stroke-width: 0.85 ;&st7; " /><path d=" M 1087.82,  123.60  C 1088.60   123.60  1089.23   122.96  1089.23   122.18 " style="stroke-width: 0.85 ;&st7; " /><path d=" M 1089.23,  144.84  C 1089.23   144.06  1088.60   143.43  1087.82   143.43 " style="stroke-width: 0.85 ;&st7; " /><path d=" M 1087.82,  143.43  C 1087.04   143.43  1086.40   144.06  1086.40   144.84 " style="stroke-width: 0.85 ;&st7; " /><path d=" M 1086.40,  144.84  C 1086.40   145.63  1087.04   146.26  1087.82   146.26 " style="stroke-width: 0.85 ;&st7; " /><path d=" M 1087.82,  146.26  C 1088.60   146.26  1089.23   145.63  1089.23   144.84 " style="stroke-width: 0.85 ;&st7; " /><path d=" M 1087.82,  123.60  C 1085.08   125.21  1084.17   128.74  1085.78   131.48 " style="stroke-width: 1.42 ;&st7; " /><path d=" M 1085.78,  131.48  C 1086.30   132.36  1086.94   132.99  1087.82   133.51 " style="stroke-width: 1.42 ;&st7; " /><path d=" M 1085.69,  180.26  C 1083.35   180.26  1081.44   182.16  1081.44   184.50 " style="stroke-width: 1.42 ;&st7; " /><path d=" M 1081.44,  184.50  C 1081.44   186.85  1083.35   188.75  1085.69   188.75 " style="stroke-width: 1.42 ;&st7; " /><path d=" M 1089.94,  188.75  C 1092.29   188.75  1094.19   186.85  1094.19   184.50 " style="stroke-width: 1.42 ;&st7; " /><path d=" M 1094.19,  184.50  C 1094.19   182.16  1092.29   180.26  1089.94   180.26 " style="stroke-width: 1.42 ;&st7; " /><path d=" M 1457.79,  363.26  C 1457.79   360.75  1455.76   358.73  1453.26   358.73 " style="stroke-width: 1.42 ;&st7; " /><path d=" M 1453.26,  358.73  C 1450.75   358.73  1448.72   360.75  1448.72   363.26 " style="stroke-width: 1.42 ;&st7; " /><path d=" M 1448.72,  363.26  C 1448.72   365.76  1450.75   367.79  1453.26   367.79 " style="stroke-width: 1.42 ;&st7; " /><path d=" M 1453.26,  367.79  C 1455.76   367.79  1457.79   365.76  1457.79   363.26 " style="stroke-width: 1.42 ;&st7; " /><path d=" M 1181.30,  143.43  C 1184.04   141.81  1184.95   138.29  1183.34   135.55 " style="stroke-width: 1.42 ;&st7; " /><path d=" M 1183.34,  135.55  C 1182.82   134.67  1182.18   134.03  1181.30   133.51 " style="stroke-width: 1.42 ;&st7; " /><path d=" M 1182.72,  122.18  C 1182.72   121.40  1182.08   120.77  1181.30   120.77 " style="stroke-width: 0.85 ;&st7; " /><path d=" M 1181.30,  120.77  C 1180.52   120.77  1179.89   121.40  1179.89   122.18 " style="stroke-width: 0.85 ;&st7; " /><path d=" M 1179.89,  122.18  C 1179.89   122.96  1180.52   123.60  1181.30   123.60 " style="stroke-width: 0.85 ;&st7; " /><path d=" M 1181.30,  123.60  C 1182.08   123.60  1182.72   122.96  1182.72   122.18 " style="stroke-width: 0.85 ;&st7; " /><path d=" M 1182.72,  144.84  C 1182.72   144.06  1182.08   143.43  1181.30   143.43 " style="stroke-width: 0.85 ;&st7; " /><path d=" M 1181.30,  143.43  C 1180.52   143.43  1179.89   144.06  1179.89   144.84 " style="stroke-width: 0.85 ;&st7; " /><path d=" M 1179.89,  144.84  C 1179.89   145.63  1180.52   146.26  1181.30   146.26 " style="stroke-width: 0.85 ;&st7; " /><path d=" M 1181.30,  146.26  C 1182.08   146.26  1182.72   145.63  1182.72   144.84 " style="stroke-width: 0.85 ;&st7; " /><path d=" M 1181.30,  123.60  C 1178.56   125.21  1177.65   128.74  1179.27   131.48 " style="stroke-width: 1.42 ;&st7; " /><path d=" M 1179.27,  131.48  C 1179.79   132.36  1180.42   132.99  1181.30   133.51 " style="stroke-width: 1.42 ;&st7; " /><path d=" M 1179.18,  180.26  C 1176.83   180.26  1174.93   182.16  1174.93   184.50 " style="stroke-width: 1.42 ;&st7; " /><path d=" M 1174.93,  184.50  C 1174.93   186.85  1176.83   188.75  1179.18   188.75 " style="stroke-width: 1.42 ;&st7; " /><path d=" M 1183.43,  188.75  C 1185.77   188.75  1187.68   186.85  1187.68   184.50 " style="stroke-width: 1.42 ;&st7; " /><path d=" M 1187.68,  184.50  C 1187.68   182.16  1185.77   180.26  1183.43   180.26 " style="stroke-width: 1.42 ;&st7; " /><path d=" M 1185.84,  320.20  C 1185.84   317.70  1183.81   315.67  1181.30   315.67 " style="stroke-width: 1.42 ;&st7; " /><path d=" M 1181.30,  315.67  C 1178.80   315.67  1176.77   317.70  1176.77   320.20 " style="stroke-width: 1.42 ;&st7; " /><path d=" M 1176.77,  320.20  C 1176.77   322.70  1178.80   324.73  1181.30   324.73 " style="stroke-width: 1.42 ;&st7; " /><path d=" M 1181.30,  324.73  C 1183.81   324.73  1185.84   322.70  1185.84   320.20 " style="stroke-width: 1.42 ;&st7; " /><path d=" M 1185.84,  600.65  C 1185.84   598.15  1183.81   596.12  1181.30   596.12 " style="stroke-width: 1.42 ;&st7; " /><path d=" M 1181.30,  596.12  C 1178.80   596.12  1176.77   598.15  1176.77   600.65 " style="stroke-width: 1.42 ;&st7; " /><path d=" M 1176.77,  600.65  C 1176.77   603.15  1178.80   605.18  1181.30   605.18 " style="stroke-width: 1.42 ;&st7; " /><path d=" M 1181.30,  605.18  C 1183.81   605.18  1185.84   603.15  1185.84   600.65 " style="stroke-width: 1.42 ;&st7; " /><path d=" M 1185.84,  591.59  C 1185.84   589.08  1183.81   587.05  1181.30   587.05 " style="stroke-width: 1.42 ;&st7; " /><path d=" M 1181.30,  587.05  C 1178.80   587.05  1176.77   589.08  1176.77   591.59 " style="stroke-width: 1.42 ;&st7; " /><path d=" M 1176.77,  591.59  C 1176.77   594.09  1178.80   596.12  1181.30   596.12 " style="stroke-width: 1.42 ;&st7; " /><path d=" M 1181.30,  596.12  C 1183.81   596.12  1185.84   594.09  1185.84   591.59 " style="stroke-width: 1.42 ;&st7; " /><path d=" M 1219.83,  600.65  C 1219.83   598.15  1217.80   596.12  1215.30   596.12 " style="stroke-width: 1.42 ;&st7; " /><path d=" M 1215.30,  596.12  C 1212.79   596.12  1210.76   598.15  1210.76   600.65 " style="stroke-width: 1.42 ;&st7; " /><path d=" M 1210.76,  600.65  C 1210.76   603.15  1212.79   605.18  1215.30   605.18 " style="stroke-width: 1.42 ;&st7; " /><path d=" M 1215.30,  605.18  C 1217.80   605.18  1219.83   603.15  1219.83   600.65 " style="stroke-width: 1.42 ;&st7; " /><path d=" M 1219.83,  591.59  C 1219.83   589.08  1217.80   587.05  1215.30   587.05 " style="stroke-width: 1.42 ;&st7; " /><path d=" M 1215.30,  587.05  C 1212.79   587.05  1210.76   589.08  1210.76   591.59 " style="stroke-width: 1.42 ;&st7; " /><path d=" M 1210.76,  591.59  C 1210.76   594.09  1212.79   596.12  1215.30   596.12 " style="stroke-width: 1.42 ;&st7; " /><path d=" M 1215.30,  596.12  C 1217.80   596.12  1219.83   594.09  1219.83   591.59 " style="stroke-width: 1.42 ;&st7; " /><path d=" M 1253.82,  600.65  C 1253.82   598.15  1251.79   596.12  1249.29   596.12 " style="stroke-width: 1.42 ;&st7; " /><path d=" M 1249.29,  596.12  C 1246.79   596.12  1244.76   598.15  1244.76   600.65 " style="stroke-width: 1.42 ;&st7; " /><path d=" M 1244.76,  600.65  C 1244.76   603.15  1246.79   605.18  1249.29   605.18 " style="stroke-width: 1.42 ;&st7; " /><path d=" M 1249.29,  605.18  C 1251.79   605.18  1253.82   603.15  1253.82   600.65 " style="stroke-width: 1.42 ;&st7; " /><path d=" M 1253.82,  591.59  C 1253.82   589.08  1251.79   587.05  1249.29   587.05 " style="stroke-width: 1.42 ;&st7; " /><path d=" M 1249.29,  587.05  C 1246.79   587.05  1244.76   589.08  1244.76   591.59 " style="stroke-width: 1.42 ;&st7; " /><path d=" M 1244.76,  591.59  C 1244.76   594.09  1246.79   596.12  1249.29   596.12 " style="stroke-width: 1.42 ;&st7; " /><path d=" M 1249.29,  596.12  C 1251.79   596.12  1253.82   594.09  1253.82   591.59 " style="stroke-width: 1.42 ;&st7; " /><path d=" M 1287.82,  600.65  C 1287.82   598.15  1285.79   596.12  1283.29   596.12 " style="stroke-width: 1.42 ;&st7; " /><path d=" M 1283.29,  596.12  C 1280.78   596.12  1278.75   598.15  1278.75   600.65 " style="stroke-width: 1.42 ;&st7; " /><path d=" M 1278.75,  600.65  C 1278.75   603.15  1280.78   605.18  1283.29   605.18 " style="stroke-width: 1.42 ;&st7; " /><path d=" M 1283.29,  605.18  C 1285.79   605.18  1287.82   603.15  1287.82   600.65 " style="stroke-width: 1.42 ;&st7; " /><path d=" M 1287.82,  591.59  C 1287.82   589.08  1285.79   587.05  1283.29   587.05 " style="stroke-width: 1.42 ;&st7; " /><path d=" M 1283.29,  587.05  C 1280.78   587.05  1278.75   589.08  1278.75   591.59 " style="stroke-width: 1.42 ;&st7; " /><path d=" M 1278.75,  591.59  C 1278.75   594.09  1280.78   596.12  1283.29   596.12 " style="stroke-width: 1.42 ;&st7; " /><path d=" M 1283.29,  596.12  C 1285.79   596.12  1287.82   594.09  1287.82   591.59 " style="stroke-width: 1.42 ;&st7; " /><path d=" M 1321.81,  600.65  C 1321.81   598.15  1319.78   596.12  1317.28   596.12 " style="stroke-width: 1.42 ;&st7; " /><path d=" M 1317.28,  596.12  C 1314.78   596.12  1312.75   598.15  1312.75   600.65 " style="stroke-width: 1.42 ;&st7; " /><path d=" M 1312.75,  600.65  C 1312.75   603.15  1314.78   605.18  1317.28   605.18 " style="stroke-width: 1.42 ;&st7; " /><path d=" M 1317.28,  605.18  C 1319.78   605.18  1321.81   603.15  1321.81   600.65 " style="stroke-width: 1.42 ;&st7; " /><path d=" M 1321.81,  591.59  C 1321.81   589.08  1319.78   587.05  1317.28   587.05 " style="stroke-width: 1.42 ;&st7; " /><path d=" M 1317.28,  587.05  C 1314.78   587.05  1312.75   589.08  1312.75   591.59 " style="stroke-width: 1.42 ;&st7; " /><path d=" M 1312.75,  591.59  C 1312.75   594.09  1314.78   596.12  1317.28   596.12 " style="stroke-width: 1.42 ;&st7; " /><path d=" M 1317.28,  596.12  C 1319.78   596.12  1321.81   594.09  1321.81   591.59 " style="stroke-width: 1.42 ;&st7; " /><path d=" M 1355.81,  600.65  C 1355.81   598.15  1353.78   596.12  1351.27   596.12 " style="stroke-width: 1.42 ;&st7; " /><path d=" M 1351.27,  596.12  C 1348.77   596.12  1346.74   598.15  1346.74   600.65 " style="stroke-width: 1.42 ;&st7; " /><path d=" M 1346.74,  600.65  C 1346.74   603.15  1348.77   605.18  1351.27   605.18 " style="stroke-width: 1.42 ;&st7; " /><path d=" M 1351.27,  605.18  C 1353.78   605.18  1355.81   603.15  1355.81   600.65 " style="stroke-width: 1.42 ;&st7; " /><path d=" M 1355.81,  591.59  C 1355.81   589.08  1353.78   587.05  1351.27   587.05 " style="stroke-width: 1.42 ;&st7; " /><path d=" M 1351.27,  587.05  C 1348.77   587.05  1346.74   589.08  1346.74   591.59 " style="stroke-width: 1.42 ;&st7; " /><path d=" M 1346.74,  591.59  C 1346.74   594.09  1348.77   596.12  1351.27   596.12 " style="stroke-width: 1.42 ;&st7; " /><path d=" M 1351.27,  596.12  C 1353.78   596.12  1355.81   594.09  1355.81   591.59 " style="stroke-width: 1.42 ;&st7; " /><path d=" M 1389.80,  600.65  C 1389.80   598.15  1387.77   596.12  1385.27   596.12 " style="stroke-width: 1.42 ;&st7; " /><path d=" M 1385.27,  596.12  C 1382.77   596.12  1380.74   598.15  1380.74   600.65 " style="stroke-width: 1.42 ;&st7; " /><path d=" M 1380.74,  600.65  C 1380.74   603.15  1382.77   605.18  1385.27   605.18 " style="stroke-width: 1.42 ;&st7; " /><path d=" M 1385.27,  605.18  C 1387.77   605.18  1389.80   603.15  1389.80   600.65 " style="stroke-width: 1.42 ;&st7; " /><path d=" M 1389.80,  591.59  C 1389.80   589.08  1387.77   587.05  1385.27   587.05 " style="stroke-width: 1.42 ;&st7; " /><path d=" M 1385.27,  587.05  C 1382.77   587.05  1380.74   589.08  1380.74   591.59 " style="stroke-width: 1.42 ;&st7; " /><path d=" M 1380.74,  591.59  C 1380.74   594.09  1382.77   596.12  1385.27   596.12 " style="stroke-width: 1.42 ;&st7; " /><path d=" M 1385.27,  596.12  C 1387.77   596.12  1389.80   594.09  1389.80   591.59 " style="stroke-width: 1.42 ;&st7; " /><path d=" M 1423.80,  600.65  C 1423.80   598.15  1421.77   596.12  1419.26   596.12 " style="stroke-width: 1.42 ;&st7; " /><path d=" M 1419.26,  596.12  C 1416.76   596.12  1414.73   598.15  1414.73   600.65 " style="stroke-width: 1.42 ;&st7; " /><path d=" M 1414.73,  600.65  C 1414.73   603.15  1416.76   605.18  1419.26   605.18 " style="stroke-width: 1.42 ;&st7; " /><path d=" M 1419.26,  605.18  C 1421.77   605.18  1423.80   603.15  1423.80   600.65 " style="stroke-width: 1.42 ;&st7; " /><path d=" M 1423.80,  591.59  C 1423.80   589.08  1421.77   587.05  1419.26   587.05 " style="stroke-width: 1.42 ;&st7; " /><path d=" M 1419.26,  587.05  C 1416.76   587.05  1414.73   589.08  1414.73   591.59 " style="stroke-width: 1.42 ;&st7; " /><path d=" M 1414.73,  591.59  C 1414.73   594.09  1416.76   596.12  1419.26   596.12 " style="stroke-width: 1.42 ;&st7; " /><path d=" M 1419.26,  596.12  C 1421.77   596.12  1423.80   594.09  1423.80   591.59 " style="stroke-width: 1.42 ;&st7; " /><path d=" M 1457.79,  600.65  C 1457.79   598.15  1455.76   596.12  1453.26   596.12 " style="stroke-width: 1.42 ;&st7; " /><path d=" M 1453.26,  596.12  C 1450.75   596.12  1448.72   598.15  1448.72   600.65 " style="stroke-width: 1.42 ;&st7; " /><path d=" M 1448.72,  600.65  C 1448.72   603.15  1450.75   605.18  1453.26   605.18 " style="stroke-width: 1.42 ;&st7; " /><path d=" M 1453.26,  605.18  C 1455.76   605.18  1457.79   603.15  1457.79   600.65 " style="stroke-width: 1.42 ;&st7; " /><path d=" M 1457.79,  591.59  C 1457.79   589.08  1455.76   587.05  1453.26   587.05 " style="stroke-width: 1.42 ;&st7; " /><path d=" M 1453.26,  587.05  C 1450.75   587.05  1448.72   589.08  1448.72   591.59 " style="stroke-width: 1.42 ;&st7; " /><path d=" M 1448.72,  591.59  C 1448.72   594.09  1450.75   596.12  1453.26   596.12 " style="stroke-width: 1.42 ;&st7; " /><path d=" M 1453.26,  596.12  C 1455.76   596.12  1457.79   594.09  1457.79   591.59 " style="stroke-width: 1.42 ;&st7; " /><path d=" M 1092.35,  447.68  C 1092.35   445.17  1090.32   443.14  1087.82   443.14 " style="stroke-width: 1.42 ;&st7; " /><path d=" M 1087.82,  443.14  C 1085.32   443.14  1083.29   445.17  1083.29   447.68 " style="stroke-width: 1.42 ;&st7; " /><path d=" M 1083.29,  447.68  C 1083.29   450.18  1085.32   452.21  1087.82   452.21 " style="stroke-width: 1.42 ;&st7; " /><path d=" M 1087.82,  452.21  C 1090.32   452.21  1092.35   450.18  1092.35   447.68 " style="stroke-width: 1.42 ;&st7; " /><path d=" M 1092.35,  438.61  C 1092.35   436.11  1090.32   434.08  1087.82   434.08 " style="stroke-width: 1.42 ;&st7; " /><path d=" M 1087.82,  434.08  C 1085.32   434.08  1083.29   436.11  1083.29   438.61 " style="stroke-width: 1.42 ;&st7; " /><path d=" M 1083.29,  438.61  C 1083.29   441.12  1085.32   443.14  1087.82   443.14 " style="stroke-width: 1.42 ;&st7; " /><path d=" M 1087.82,  443.14  C 1090.32   443.14  1092.35   441.12  1092.35   438.61 " style="stroke-width: 1.42 ;&st7; " /><path d=" M 1092.35,  482.80  C 1092.35   480.30  1090.32   478.27  1087.82   478.27 " style="stroke-width: 1.42 ;&st7; " /><path d=" M 1087.82,  478.27  C 1085.32   478.27  1083.29   480.30  1083.29   482.80 " style="stroke-width: 1.42 ;&st7; " /><path d=" M 1083.29,  482.80  C 1083.29   485.31  1085.32   487.34  1087.82   487.34 " style="stroke-width: 1.42 ;&st7; " /><path d=" M 1087.82,  487.34  C 1090.32   487.34  1092.35   485.31  1092.35   482.80 " style="stroke-width: 1.42 ;&st7; " /><path d=" M 1092.35,  473.74  C 1092.35   471.24  1090.32   469.21  1087.82   469.21 " style="stroke-width: 1.42 ;&st7; " /><path d=" M 1087.82,  469.21  C 1085.32   469.21  1083.29   471.24  1083.29   473.74 " style="stroke-width: 1.42 ;&st7; " /><path d=" M 1083.29,  473.74  C 1083.29   476.24  1085.32   478.27  1087.82   478.27 " style="stroke-width: 1.42 ;&st7; " /><path d=" M 1087.82,  478.27  C 1090.32   478.27  1092.35   476.24  1092.35   473.74 " style="stroke-width: 1.42 ;&st7; " /><path d=" M 1092.35,  277.71  C 1092.35   275.20  1090.32   273.17  1087.82   273.17 " style="stroke-width: 1.42 ;&st7; " /><path d=" M 1087.82,  273.17  C 1085.32   273.17  1083.29   275.20  1083.29   277.71 " style="stroke-width: 1.42 ;&st7; " /><path d=" M 1083.29,  277.71  C 1083.29   280.21  1085.32   282.24  1087.82   282.24 " style="stroke-width: 1.42 ;&st7; " /><path d=" M 1087.82,  282.24  C 1090.32   282.24  1092.35   280.21  1092.35   277.71 " style="stroke-width: 1.42 ;&st7; " /><path d=" M 1092.35,  303.77  C 1092.35   301.26  1090.32   299.24  1087.82   299.24 " style="stroke-width: 1.42 ;&st7; " /><path d=" M 1087.82,  299.24  C 1085.32   299.24  1083.29   301.26  1083.29   303.77 " style="stroke-width: 1.42 ;&st7; " /><path d=" M 1083.29,  303.77  C 1083.29   306.27  1085.32   308.30  1087.82   308.30 " style="stroke-width: 1.42 ;&st7; " /><path d=" M 1087.82,  308.30  C 1090.32   308.30  1092.35   306.27  1092.35   303.77 " style="stroke-width: 1.42 ;&st7; " /><path d=" M 1287.82,  363.26  C 1287.82   360.75  1285.79   358.73  1283.29   358.73 " style="stroke-width: 1.42 ;&st7; " /><path d=" M 1283.29,  358.73  C 1280.78   358.73  1278.75   360.75  1278.75   363.26 " style="stroke-width: 1.42 ;&st7; " /><path d=" M 1278.75,  363.26  C 1278.75   365.76  1280.78   367.79  1283.29   367.79 " style="stroke-width: 1.42 ;&st7; " /><path d=" M 1283.29,  367.79  C 1285.79   367.79  1287.82   365.76  1287.82   363.26 " style="stroke-width: 1.42 ;&st7; " /><path d=" M 1219.83,  363.26  C 1219.83   360.75  1217.80   358.73  1215.30   358.73 " style="stroke-width: 1.42 ;&st7; " /><path d=" M 1215.30,  358.73  C 1212.79   358.73  1210.76   360.75  1210.76   363.26 " style="stroke-width: 1.42 ;&st7; " /><path d=" M 1210.76,  363.26  C 1210.76   365.76  1212.79   367.79  1215.30   367.79 " style="stroke-width: 1.42 ;&st7; " /><path d=" M 1215.30,  367.79  C 1217.80   367.79  1219.83   365.76  1219.83   363.26 " style="stroke-width: 1.42 ;&st7; " /><path d=" M 1253.82,  363.26  C 1253.82   360.75  1251.79   358.73  1249.29   358.73 " style="stroke-width: 1.42 ;&st7; " /><path d=" M 1249.29,  358.73  C 1246.79   358.73  1244.76   360.75  1244.76   363.26 " style="stroke-width: 1.42 ;&st7; " /><path d=" M 1244.76,  363.26  C 1244.76   365.76  1246.79   367.79  1249.29   367.79 " style="stroke-width: 1.42 ;&st7; " /><path d=" M 1249.29,  367.79  C 1251.79   367.79  1253.82   365.76  1253.82   363.26 " style="stroke-width: 1.42 ;&st7; " /><path d=" M 1321.81,  363.26  C 1321.81   360.75  1319.78   358.73  1317.28   358.73 " style="stroke-width: 1.42 ;&st7; " /><path d=" M 1317.28,  358.73  C 1314.78   358.73  1312.75   360.75  1312.75   363.26 " style="stroke-width: 1.42 ;&st7; " /><path d=" M 1312.75,  363.26  C 1312.75   365.76  1314.78   367.79  1317.28   367.79 " style="stroke-width: 1.42 ;&st7; " /><path d=" M 1317.28,  367.79  C 1319.78   367.79  1321.81   365.76  1321.81   363.26 " style="stroke-width: 1.42 ;&st7; " /><path d=" M 1355.81,  363.26  C 1355.81   360.75  1353.78   358.73  1351.27   358.73 " style="stroke-width: 1.42 ;&st7; " /><path d=" M 1351.27,  358.73  C 1348.77   358.73  1346.74   360.75  1346.74   363.26 " style="stroke-width: 1.42 ;&st7; " /><path d=" M 1346.74,  363.26  C 1346.74   365.76  1348.77   367.79  1351.27   367.79 " style="stroke-width: 1.42 ;&st7; " /><path d=" M 1351.27,  367.79  C 1353.78   367.79  1355.81   365.76  1355.81   363.26 " style="stroke-width: 1.42 ;&st7; " /><path d=" M 1389.80,  363.26  C 1389.80   360.75  1387.77   358.73  1385.27   358.73 " style="stroke-width: 1.42 ;&st7; " /><path d=" M 1385.27,  358.73  C 1382.77   358.73  1380.74   360.75  1380.74   363.26 " style="stroke-width: 1.42 ;&st7; " /><path d=" M 1380.74,  363.26  C 1380.74   365.76  1382.77   367.79  1385.27   367.79 " style="stroke-width: 1.42 ;&st7; " /><path d=" M 1385.27,  367.79  C 1387.77   367.79  1389.80   365.76  1389.80   363.26 " style="stroke-width: 1.42 ;&st7; " /><path d=" M 1423.80,  363.26  C 1423.80   360.75  1421.77   358.73  1419.26   358.73 " style="stroke-width: 1.42 ;&st7; " /><path d=" M 1419.26,  358.73  C 1416.76   358.73  1414.73   360.75  1414.73   363.26 " style="stroke-width: 1.42 ;&st7; " /><path d=" M 1414.73,  363.26  C 1414.73   365.76  1416.76   367.79  1419.26   367.79 " style="stroke-width: 1.42 ;&st7; " /><path d=" M 1419.26,  367.79  C 1421.77   367.79  1423.80   365.76  1423.80   363.26 " style="stroke-width: 1.42 ;&st7; " /><path d=" M 1185.84,  363.26  C 1185.84   360.75  1183.81   358.73  1181.30   358.73 " style="stroke-width: 1.42 ;&st7; " /><path d=" M 1181.30,  358.73  C 1178.80   358.73  1176.77   360.75  1176.77   363.26 " style="stroke-width: 1.42 ;&st7; " /><path d=" M 1176.77,  363.26  C 1176.77   365.76  1178.80   367.79  1181.30   367.79 " style="stroke-width: 1.42 ;&st7; " /><path d=" M 1181.30,  367.79  C 1183.81   367.79  1185.84   365.76  1185.84   363.26 " style="stroke-width: 1.42 ;&st7; " /><path d=" M 1393.77,  639.18  C 1393.77   634.48  1389.96   630.68  1385.27   630.68 " style="stroke-width: 1.42 ;&st7; " /><path d=" M 1385.27,  630.68  C 1380.57   630.68  1376.77   634.48  1376.77   639.18 " style="stroke-width: 1.42 ;&st7; " /><path d=" M 1376.77,  639.18  C 1376.77   643.87  1380.57   647.68  1385.27   647.68 " style="stroke-width: 1.42 ;&st7; " /><path d=" M 1385.27,  647.68  C 1389.96   647.68  1393.77   643.87  1393.77   639.18 " style="stroke-width: 1.42 ;&st7; " /><path d=" M 1427.76,  639.18  C 1427.76   634.48  1423.96   630.68  1419.26   630.68 " style="stroke-width: 1.42 ;&st7; " /><path d=" M 1419.26,  630.68  C 1414.57   630.68  1410.76   634.48  1410.76   639.18 " style="stroke-width: 1.42 ;&st7; " /><path d=" M 1410.76,  639.18  C 1410.76   643.87  1414.57   647.68  1419.26   647.68 " style="stroke-width: 1.42 ;&st7; " /><path d=" M 1419.26,  647.68  C 1423.96   647.68  1427.76   643.87  1427.76   639.18 " style="stroke-width: 1.42 ;&st7; " /><path d=" M 1308.78,  639.18  C 1308.78   643.87  1312.59   647.68  1317.28   647.68 " style="stroke-width: 1.42 ;&st7; " /><path d=" M 1317.28,  647.68  C 1321.97   647.68  1325.78   643.87  1325.78   639.18 " style="stroke-width: 1.42 ;&st7; " /><path d=" M 1325.78,  639.18  C 1325.78   634.48  1321.97   630.68  1317.28   630.68 " style="stroke-width: 1.42 ;&st7; " /><path d=" M 1317.28,  630.68  C 1312.59   630.68  1308.78   634.48  1308.78   639.18 " style="stroke-width: 1.42 ;&st7; " /><path d=" M 1151.84,  363.26  C 1151.84   360.75  1149.81   358.73  1147.31   358.73 " style="stroke-width: 1.42 ;&st7; " /><path d=" M 1147.31,  358.73  C 1144.81   358.73  1142.78   360.75  1142.78   363.26 " style="stroke-width: 1.42 ;&st7; " /><path d=" M 1142.78,  363.26  C 1142.78   365.76  1144.81   367.79  1147.31   367.79 " style="stroke-width: 1.42 ;&st7; " /><path d=" M 1147.31,  367.79  C 1149.81   367.79  1151.84   365.76  1151.84   363.26 " style="stroke-width: 1.42 ;&st7; " /><text style="&st18;" transform="matrix(&st16;  1272.26  24.98 )">E1(A),E2(B),E3(C)</text><text ewd:textID="11" style="&st18;" transform="matrix(&st16;  1272.26  32.08 )">Main Body ECU</text><text style="&st18;" transform="matrix(&st16;  1493.37  365.23 )">9</text><text style="&st18;" transform="matrix(&st16;  1496.55  355.03 )">GND</text><text style="&st18;" transform="matrix(&st16;  1093.79  440.58 )">(*7)</text><text style="&st18;" transform="matrix(&st17;  1084.12  244.97 )">GR</text><text style="&st18;" transform="matrix(&st17;  1143.61  487.18 )">GR</text><text style="&st18;" transform="matrix(&st16;  1099.46  456.99 )">E60(A)</text><text style="&st18;" transform="matrix(&st17;  1103.93  301.76 )">E61(A)</text><text ewd:textID="10" style="&st18;" transform="matrix(&st17;  1111.03  301.76 )">Junction <tspan dy="6" x="0">Connector</tspan></text><text style="&st18;" transform="matrix(&st16;  1105.12  132.66 )">7.5A <tspan dy="6" x="0">ACC</tspan></text><text style="&st18;" transform="matrix(&st16;  1083.37  186.47 )">2D</text><text style="&st18;" transform="matrix(&st16;  1075.13  186.47 )">8</text><text style="&st18;" transform="matrix(&st16;  1078.21  108.57 )">(ACC)</text><text style="&st18;" transform="matrix(&st16;  1229.77  313.93 )">I17(A),I18(B)</text><text ewd:textID="12" style="&st18;" transform="matrix(&st16;  1229.77  321.03 )">Outer Mirror Control ECU Assembly</text><text style="&st18;" transform="matrix(&st17;  1279.59  390.8 )">B</text><text style="&st18;" transform="matrix(&st17;  1211.6  393.7 )">GR</text><text style="&st18;" transform="matrix(&st17;  1245.6  390.45 )">L</text><text style="&st18;" transform="matrix(&st17;  1313.58  391.23 )">G</text><text style="&st18;" transform="matrix(&st16;  1442.38  365.23 )">2</text><text style="&st18;" transform="matrix(&st16;  1450.93  365.23 )">A</text><text style="&st18;" transform="matrix(&st17;  1381.57  390.45 )">L</text><text style="&st18;" transform="matrix(&st17;  1415.57  393.2 )">LG</text><text style="&st18;" transform="matrix(&st16;  1198.61  132.66 )">15A <tspan dy="6" x="0">MIR</tspan></text><text style="&st18;" transform="matrix(&st17;  1449.56  393.13 )">SB</text><text style="&st18;" transform="matrix(&st17;  1347.58  390.8 )">Y</text><text style="&st18;" transform="matrix(&st16;  1176.85  186.47 )">2D</text><text style="&st18;" transform="matrix(&st16;  1164.66  186.47 )">54</text><text style="&st18;" transform="matrix(&st16;  1163.31  262.96 )">14</text><text style="&st18;" transform="matrix(&st17;  1177.61  293.21 )">R</text><text style="&st18;" transform="matrix(&st17;  1177.61  216.72 )">R</text><text style="&st18;" transform="matrix(&st16;  1172.19  108.57 )">(BAT)</text><text style="&st18;" transform="matrix(&st16;  1175.4  355.03 )">LE1</text><text style="&st18;" transform="matrix(&st16;  1272.41  365.23 )">2</text><text style="&st18;" transform="matrix(&st16;  1280.95  365.23 )">B</text><text style="&st18;" transform="matrix(&st16;  1204.42  365.23 )">4</text><text style="&st18;" transform="matrix(&st16;  1212.97  365.23 )">B</text><text style="&st18;" transform="matrix(&st16;  1238.41  365.23 )">5</text><text style="&st18;" transform="matrix(&st16;  1246.96  365.23 )">B</text><text style="&st18;" transform="matrix(&st16;  1303.22  365.23 )">19</text><text style="&st18;" transform="matrix(&st16;  1314.95  365.23 )">B</text><text style="&st18;" transform="matrix(&st16;  1337.22  365.23 )">18</text><text style="&st18;" transform="matrix(&st16;  1348.94  365.23 )">B</text><text style="&st18;" transform="matrix(&st16;  1370.44  365.23 )">20</text><text style="&st18;" transform="matrix(&st16;  1276.5  355.03 )">LVC</text><text style="&st18;" transform="matrix(&st16;  1382.94  365.23 )">B</text><text style="&st18;" transform="matrix(&st16;  1208.16  355.03 )">VSR</text><text style="&st18;" transform="matrix(&st16;  1309.93  355.03 )">MHL</text><text style="&st18;" transform="matrix(&st16;  1344.39  355.03 )">M+L</text><text style="&st18;" transform="matrix(&st16;  1378.06  355.03 )">MVL</text><text style="&st18;" transform="matrix(&st16;  1416.93  365.23 )">A</text><text style="&st18;" transform="matrix(&st16;  1414.81  355.03 )">RL</text><text style="&st18;" transform="matrix(&st16;  1409.16  365.23 )">1</text><text style="&st18;" transform="matrix(&st16;  1240.04  355.03 )">HSRL</text><text style="&st18;" transform="matrix(&st16;  1449.16  355.03 )">FL</text><text style="&st18;" transform="matrix(&st16;  1178.97  365.23 )">B</text><text style="&st18;" transform="matrix(&st16;  1170.43  365.23 )">3</text><text style="&st18;" transform="matrix(&st17;  1177.61  393.27 )">BR</text><text style="&st18;" transform="matrix(&st16;  1382.37  641.15 )">M</text><text style="&st18;" transform="matrix(&st16;  1416.37  641.15 )">M</text><text style="&st18;" transform="matrix(&st16;  1456.09  613.38 )">MF</text><text style="&st18;" transform="matrix(&st16;  1422.1  613.38 )">MR</text><text style="&st18;" transform="matrix(&st16;  1388.1  613.38 )">MV</text><text style="&st18;" transform="matrix(&st16;  1354.11  613.38 )">M+</text><text style="&st18;" transform="matrix(&st16;  1320.11  613.38 )">MH</text><text style="&st18;" transform="matrix(&st16;  1252.12  613.38 )">HSRL</text><text style="&st18;" transform="matrix(&st16;  1218.13  613.38 )">VSRL</text><text style="&st18;" transform="matrix(&st16;  1286.12  613.38 )">VC</text><text style="&st18;" transform="matrix(&st16;  1184.14  613.38 )">E1</text><text style="&st18;" transform="matrix(&st16;  1314.38  641.15 )">M</text><text style="&st18;" transform="matrix(&st16;  1136.43  365.23 )">4</text><text style="&st18;" transform="matrix(&st17;  1084.12  393.7 )">GR</text><text style="&st18;" transform="matrix(&st16;  1140.03  355.03 )">ACC</text><text style="&st18;" transform="matrix(&st16;  1144.98  365.23 )">A</text><text style="&st18;" transform="matrix(&st17;  1143.61  393.7 )">GR</text><text ewd:textID="14" style="&st18;" transform="matrix(&st16;  1161.78  696.39 )">Outer Rear View Mirror Assembly LH</text><text style="&st18;" transform="matrix(&st16;  1161.78  689.28 )">I15(A),I35(B)</text><text style="&st18;" transform="matrix(&st17;  1095.46  249.0 )">(LHD)</text><text style="&st18;" transform="matrix(&st17;  1095.46  397.72 )">(LHD)</text><text style="&st18;" transform="matrix(&st17;  1154.95  491.21 )">(LHD)</text><text style="&st18;" transform="matrix(&st17;  1188.94  299.99 )">(LHD)</text><text style="&st18;" transform="matrix(&st17;  1188.94  223.5 )">(LHD)</text><text style="&st18;" transform="matrix(&st17;  1154.95  397.72 )">(LHD)</text><text style="&st18;" transform="matrix(&st17;  1188.94  397.72 )">(LHD)</text><text style="&st18;" transform="matrix(&st17;  1222.93  397.72 )">(LHD)</text><text style="&st18;" transform="matrix(&st17;  1256.93  397.72 )">(LHD)</text><text style="&st18;" transform="matrix(&st17;  1290.92  397.72 )">(LHD)</text><text style="&st18;" transform="matrix(&st17;  1324.92  397.72 )">(LHD)</text><text style="&st18;" transform="matrix(&st17;  1358.91  397.72 )">(LHD)</text><text style="&st18;" transform="matrix(&st17;  1392.91  397.72 )">(LHD)</text><text style="&st18;" transform="matrix(&st17;  1460.89  397.72 )">(LHD)</text><text style="&st18;" transform="matrix(&st17;  1426.9  397.72 )">(LHD)</text><text style="&st18;" transform="matrix(&st16;  1170.43  322.17 )">3</text><text style="&st18;" transform="matrix(&st16;  1178.97  322.17 )">A</text><text style="&st18;" transform="matrix(&st16;  1178.97  332.37 )">B</text><text ewd:textID="10" style="&st18;" transform="matrix(&st16;  1099.46  464.09 )">Junction <tspan dy="6" x="0">Connector</tspan></text><text style="&st18;" transform="matrix(&st16;  1167.25  593.56 )">17</text><text style="&st18;" transform="matrix(&st16;  1178.97  593.56 )">A</text><text style="&st18;" transform="matrix(&st16;  1167.25  602.62 )">21</text><text style="&st18;" transform="matrix(&st16;  1178.97  602.62 )">B</text><text style="&st18;" transform="matrix(&st16;  1212.97  602.62 )">B</text><text style="&st18;" transform="matrix(&st16;  1200.46  602.62 )">22</text><text style="&st18;" transform="matrix(&st16;  1212.97  593.56 )">A</text><text style="&st18;" transform="matrix(&st16;  1201.24  593.56 )">18</text><text style="&st18;" transform="matrix(&st16;  1246.96  602.62 )">B</text><text style="&st18;" transform="matrix(&st16;  1236.01  602.62 )">11</text><text style="&st18;" transform="matrix(&st16;  1246.96  593.56 )">A</text><text style="&st18;" transform="matrix(&st16;  1238.41  593.56 )">9</text><text style="&st18;" transform="matrix(&st16;  1280.95  602.62 )">B</text><text style="&st18;" transform="matrix(&st16;  1269.23  602.62 )">10</text><text style="&st18;" transform="matrix(&st16;  1280.95  593.56 )">A</text><text style="&st18;" transform="matrix(&st16;  1272.41  593.56 )">8</text><text style="&st18;" transform="matrix(&st16;  1314.95  602.62 )">B</text><text style="&st18;" transform="matrix(&st16;  1306.4  602.62 )">9</text><text style="&st18;" transform="matrix(&st16;  1314.95  593.56 )">A</text><text style="&st18;" transform="matrix(&st16;  1306.4  593.56 )">7</text><text style="&st18;" transform="matrix(&st16;  1348.94  602.62 )">B</text><text style="&st18;" transform="matrix(&st16;  1340.4  602.62 )">8</text><text style="&st18;" transform="matrix(&st16;  1348.94  593.56 )">A</text><text style="&st18;" transform="matrix(&st16;  1340.4  593.56 )">6</text><text style="&st18;" transform="matrix(&st16;  1382.94  602.62 )">B</text><text style="&st18;" transform="matrix(&st16;  1374.39  602.62 )">7</text><text style="&st18;" transform="matrix(&st16;  1382.94  593.56 )">A</text><text style="&st18;" transform="matrix(&st16;  1374.39  593.56 )">5</text><text style="&st18;" transform="matrix(&st16;  1416.93  602.62 )">B</text><text style="&st18;" transform="matrix(&st16;  1405.21  602.62 )">19</text><text style="&st18;" transform="matrix(&st16;  1416.93  593.56 )">A</text><text style="&st18;" transform="matrix(&st16;  1405.21  593.56 )">15</text><text style="&st18;" transform="matrix(&st16;  1450.93  602.62 )">B</text><text style="&st18;" transform="matrix(&st16;  1438.42  602.62 )">20</text><text style="&st18;" transform="matrix(&st16;  1450.93  593.56 )">A</text><text style="&st18;" transform="matrix(&st16;  1439.2  593.56 )">16</text><text style="&st18;" transform="matrix(&st16;  1459.23  593.56 )">(*7)</text><text style="&st18;" transform="matrix(&st16;  1459.23  602.62 )">(*8)</text><text style="&st18;" transform="matrix(&st16;  1129.32  441.43 )">16</text><text style="&st18;" transform="matrix(&st16;  1085.49  449.65 )">A</text><text style="&st18;" transform="matrix(&st16;  1072.99  449.65 )">30</text><text style="&st18;" transform="matrix(&st16;  1085.49  440.58 )">A</text><text style="&st18;" transform="matrix(&st16;  1072.99  440.58 )">47</text><text style="&st18;" transform="matrix(&st16;  1085.49  484.77 )">A</text><text style="&st18;" transform="matrix(&st16;  1072.99  484.77 )">50</text><text style="&st18;" transform="matrix(&st16;  1085.49  475.71 )">A</text><text style="&st18;" transform="matrix(&st16;  1072.99  475.71 )">87</text><text style="&st18;" transform="matrix(&st16;  1093.79  449.65 )">(*8)</text><text style="&st18;" transform="matrix(&st16;  1093.79  475.71 )">(*7)</text><text style="&st18;" transform="matrix(&st16;  1093.79  484.77 )">(*8)</text><text style="&st18;" transform="matrix(&st16;  1072.99  279.67 )">48</text><text style="&st18;" transform="matrix(&st16;  1085.49  279.67 )">A</text><text style="&st18;" transform="matrix(&st16;  1072.99  305.74 )">77</text><text style="&st18;" transform="matrix(&st16;  1085.49  305.74 )">A</text></svg>