﻿<?xml version="1.0" encoding="UTF-8"?>
<!DOCTYPE svg PUBLIC "-//W3C//DTD SVG 1.0//EN" "http://www.w3.org/TR/2001/REC-SVG-20010904/DTD/svg10.dtd"[
	<!ENTITY ns_flows "http://ns.adobe.com/Flows/1.0/">
	<!ENTITY ns_svg "http://www.w3.org/2000/svg">
	<!ENTITY ns_xlink "http://www.w3.org/1999/xlink">
	<!ENTITY st0 "font-size:7px;font-family:'MS-PGothic';adobe-font-script:japanese;">
	<!ENTITY st1 "font-size:6px;font-family:'ArialMT';">
	<!-- White fill  -->
	<!ENTITY st2 "fill:#FFFFFF;stroke:#000000; stroke-width:1.41;stroke-linecap:round;stroke-linejoin:round;">
	<!-- Yellow fill  -->
	<!ENTITY st3 "fill:#FFFFCC;stroke:#FFFFCC; stroke-width:0.1;stroke-linecap:round;stroke-linejoin:round;">
	<!-- Gray fill  -->
	<!ENTITY st4 "fill:#CCCCCC;stroke:#CCCCCC; stroke-width:0.1;stroke-linecap:round;stroke-linejoin:round;">
	<!-- Light-blue fill -->
	<!ENTITY st5 "fill:#CCECF4;stroke:#000000; stroke-width:1.133;stroke-linecap:round;stroke-linejoin:round;">
	<!ENTITY st6 "fill:none;stroke-linecap:butt; stroke-linejoin:round;">
	<!ENTITY st7 "fill:none;stroke:#000000;stroke-linecap:round;stroke-linejoin:round;">
	<!ENTITY st8 "enable-background:new    ;">
	<!-- Black fill -->
	<!ENTITY st9 "fill:#000000;stroke:#000000; stroke-linecap:round;stroke-linejoin:round;">
	<!-- SRS note   -->
	<!ENTITY st10 "font-size:9px;font-family:'ArialMT';">
	<!ENTITY st11 "font-size:9px;font-family:'Svg Symbol';">
	<!ENTITY st12 "font-size:6px;font-family:'Svg Symbol';">
	<!ENTITY st13 "fill:none;stroke:#ff0000;stroke-linecap:round;stroke-linejoin:round;">
	<!-- Yellow fill  -->
	<!ENTITY st14 "fill:#FFFF00;stroke:#FFFF00; stroke-width:0.1;stroke-linecap:round;stroke-linejoin:round;">
	<!ENTITY st15 "font-size:6px;font-family:'MS-PGothic';adobe-font-script:japanese;">
	<!ENTITY st16 "1.00 0.00 0.00 1.00">
	<!ENTITY st17 "0.00 -1.00 1.00 0.00">
	<!ENTITY st18 "font-size:6px;font-family:'Arial';">
	<!ENTITY st19 "font-size:9px;font-family:'Arial';">
	<!ENTITY st20 "font-size:6px;font-family:'MS-PGothic','MS PGothic';adobe-font-script:japanese;">
	<!ENTITY st21 "font-size:7px;font-family:'MS-PGothic','MS PGothic';adobe-font-script:japanese;">
	<!ATTLIST svg
		xmlns:ewd CDATA #FIXED "http://shcl.co.jp/ewd"
		xmlns:a CDATA #FIXED "http://ns.adobe.com/AdobeSVGViewerExtensions/3.0/"
		ewd:ver CDATA #IMPLIED
	>
	<!ATTLIST a
		ewd:lineID CDATA #IMPLIED
		ewd:groupID CDATA #IMPLIED
		ewd:figtype CDATA #IMPLIED
		ewd:code CDATA #IMPLIED
		ewd:figID CDATA #IMPLIED
		ewd:pinNo CDATA #IMPLIED
		ewd:comment CDATA #IMPLIED >
	<!ATTLIST g
		ewd:lineID CDATA #IMPLIED
		ewd:groupID CDATA #IMPLIED
		ewd:figtype CDATA #IMPLIED
		ewd:code CDATA #IMPLIED
		ewd:figID CDATA #IMPLIED
		ewd:pinNo CDATA #IMPLIED
		ewd:comment CDATA #IMPLIED >
	<!ATTLIST text
		ewd:textID CDATA #IMPLIED >
	<!ATTLIST title
		ewd:textID CDATA #IMPLIED >
]>
<!-- Generator: Shintec Hozumi YS   -->
<svg onload="call_execInitLoadProc_svg('system')" style="overflow:visible;  enable-background:new 0 0 926.870 710.000" viewBox="0 0 926.870 710.000" height="710.000" width="926.870" xml:space="preserve" ewd:ver="L2.1.2.8" xmlns="&ns_svg;" xmlns:a="http://ns.adobe.com/AdobeSVGViewerExtensions/3.0/" xmlns:ewd="http://shcl.co.jp/ewd" xmlns:xlink="&ns_xlink;">
	<script type="text/javascript" xlink:href="../../../../../system/js/ewd/fig/svgfig.js"/>
	<defs>
		<font horiz-adv-x="1229">
			<font-face font-family="Svg Symbol" units-per-em="2048" panose-1="5 5 1 2 1 7 6 2 5 7" ascent="2059" descent="450" alphabetic="0"/>
			<missing-glyph d="M 103,0 l 0,1280 1024,0 0,-1280 -1024,0 z m 32,32 l 960,0 0,1216 -960,0 0,-1216 z"/>
			<glyph unicode="&#xF057;" horiz-adv-x="1573" d="M 1517,0 l -567,0 24,279 q 141,59 207.5,168 66.5,109 66.5,306    0,272 -132.5,417.5 -132.5,145.5 -333.5,145.5 -194,0 -328,-147.5 -134,-147.5 -134,-401.5 0,-200 68.5,-319 68.5,-119     206.5,-169 l 25,-279 -564,0 0,279 35,0 q 3,-61 32,-83 45,-35 137,-35 l 270,0 0,70 q -210,61 -324.5,209 -114.5,148     -114.5,349 0,252 186.5,425 186.5,173 504.5,173 195,0 358.5,-73.5 163.5,-73.5 252,-214.5 88.5,-141 88.5,-310 0,-207     -121.5,-360.5 -121.5,-153.5 -317.5,-197.5 l -8,-70 275,0 q 92,0 128,28 36,28 42,90 l 38,0 0,-279 z"/>
		</font>
	</defs>
<g id="ewd_top">
	<a ewd:code="S15" ewd:figID="1" ewd:figtype="conn" style="cursor:pointer;">
		<path d=" M   93.48,  511.70  L  152.97,  511.70  L  152.97,  528.70  L   93.48,  528.70  L   93.48,  511.70 " style="&st5;"/>
		<title ewd:textID="12">Junction Connector</title>
	</a>
	<a ewd:code="E63" ewd:figID="2" ewd:figtype="conn" style="cursor:pointer;">
		<path d=" M  611.90,  307.73  L  679.89,  307.73  L  679.89,  324.73  L  611.90,  324.73  L  611.90,  307.73 " style="&st5;"/>
		<title ewd:textID="12">Junction Connector</title>
	</a>
	<a ewd:code="E60" ewd:figID="3" ewd:figtype="conn" style="cursor:pointer;">
		<path d=" M  849.86,  239.75  L  900.85,  239.75  L  900.85,  222.75  L  849.86,  222.75  L  849.86,  239.75 " style="&st5;"/>
		<title ewd:textID="12">Junction Connector</title>
	</a>
	<a ewd:code="E15,E16" ewd:figID="4" ewd:figtype="conn" style="cursor:pointer;">
		<path d=" M  849.86,  137.76  L  569.40,  137.76  L  569.40,   35.78  L  849.86,   35.78  L  849.86,  137.76 " style="&st5;"/>
		<title ewd:textID="20">Windshield Wiper Switch Assembly</title>
	</a>
	<a ewd:code="FUSE30" ewd:figID="5" ewd:figtype="rb" style="cursor:pointer;">
		<path d=" M  429.18,   35.78  L  429.18,   78.27  L  454.67,   78.27  L  454.67,   35.78  L  429.18,   35.78 " style="&st5;"/>
	</a>
	<a ewd:code="A16" ewd:figID="6" ewd:figtype="conn" style="cursor:pointer;">
		<path d=" M  378.19,  308.87  L  378.19,  308.87  L  378.19,  304.90  L  386.69,  304.90  L  386.69,  308.87  C  388.04   309.65   389.01   310.63   389.80   311.98  L  389.80,  311.98  C  392.14   316.04   390.75   321.24   386.69   323.59  L  386.69,  323.59  L  386.69,  327.56  L  378.19,  327.56  L  378.19,  323.59  C  376.83   322.81   375.86   321.83   375.08   320.48  L  375.08,  320.48  C  372.73   316.41   374.12   311.22   378.19   308.87 " style="&st5;"/>
		<title ewd:textID="19">Windshield Washer Motor and Pump Assembly</title>
	</a>
	<a ewd:code="S16" ewd:figID="7" ewd:figtype="conn" style="cursor:pointer;">
		<path d=" M   93.48,  426.71  L  110.48,  426.71  L  110.48,  443.71  L   93.48,  443.71  L   93.48,  426.71 " style="&st5;"/>
		<title ewd:textID="12">Junction Connector</title>
	</a>
	<a ewd:code="S28,S6,T2" ewd:figID="8" ewd:figtype="conn" style="cursor:pointer;">
		<path d=" M  229.46,  537.20  L  229.46,  673.17  L  790.37,  673.17  L  790.37,  537.20  L  229.46,  537.20 " style="&st5;"/>
		<title ewd:textID="15">Rear Wiper Motor Assembly</title>
	</a>
	<a ewd:code="2" ewd:figID="9" ewd:figtype="jb" style="cursor:pointer;">
		<path d=" M  331.44,   35.78  L  390.93,   35.78  L  390.93,  112.27  L  331.44,  112.27  L  331.44,   35.78 " style="&st4;"/>
	</a>
	<a ewd:code="FUSE30" ewd:figID="10" ewd:figtype="fuse" style="cursor:pointer;">
		<path d=" M  429.18,   35.78  L  429.18,   78.27  L  454.67,   78.27  L  454.67,   35.78  L  429.18,   35.78 " style="&st7;"/>
	</a>
	<a ewd:code="FUSE179" ewd:figID="11" ewd:figtype="fuse" style="cursor:pointer;">
		<path d=" M  361.19,   78.27  L  361.19,   35.78  L  335.69,   35.78  L  335.69,   78.27  L  361.19,   78.27 " style="&st7;"/>
	</a>
	<a ewd:lineID="1" style="cursor:pointer;">
		<path d=" M  101.98,  619.92  L  101.98,  681.67 " style="stroke:#000000;stroke-width: 5.10 ;&st6;"/>
		<path d=" M  101.98,  619.92  L  101.98,  681.67 " style="stroke:#FFFFFF;stroke-width: 4.53 ;&st6;"/>
		<path d=" M  101.98,  619.92  L  101.98,  681.67 " style="stroke:#000000;stroke-width: 1.13 ;&st6;"/>
	</a>
	<a ewd:lineID="2" style="cursor:pointer;">
		<path d=" M  101.98,  528.70  L  101.98,  605.18 " style="stroke:#00A0C6;stroke-width: 5.10 ;&st6;"/>
	</a>
	<a ewd:lineID="3" style="cursor:pointer;">
		<path d=" M  101.98,  605.18  L  101.98,  596.69  L   93.48,  588.19  L   76.49,  588.19  L   76.49,  545.69  L   93.48,  545.69  L  101.98,  537.20  L  101.98,  528.70 " style="stroke:#BFB1C5;stroke-width: 5.10 ;&st6;"/>
		<path d=" M  101.98,  605.18  L  101.98,  596.69  L   93.48,  588.19  L   76.49,  588.19  L   76.49,  545.69  L   93.48,  545.69  L  101.98,  537.20  L  101.98,  528.70 " style="stroke:#FFFFFF;stroke-width: 2.27 ;&st6;"/>
		<path d=" M  101.98,  605.18  L  101.98,  596.69  L   93.48,  588.19  L   76.49,  588.19  L   76.49,  545.69  L   93.48,  545.69  L  101.98,  537.20  L  101.98,  528.70 " style="stroke:#00A0C6;stroke-width: 1.13 ;&st6;"/>
	</a>
	<a ewd:lineID="4" style="cursor:pointer;">
		<path d=" M  101.98,  443.71  L  101.98,  511.70 " style="stroke:#000000;stroke-width: 5.10 ;&st6;"/>
		<path d=" M  101.98,  443.71  L  101.98,  511.70 " style="stroke:#FFFFFF;stroke-width: 4.53 ;&st6;"/>
		<path d=" M  101.98,  443.71  L  101.98,  511.70 " style="stroke:#000000;stroke-width: 1.13 ;&st6;"/>
	</a>
	<a ewd:lineID="5" style="cursor:pointer;">
		<path d=" M  101.98,  426.71  L  101.98,  401.22  L  271.95,  401.22  L  271.95,  480.50  L  271.95,  486.20  L  271.95,  494.70  L  254.96,  494.70  L  246.46,  503.20  L  246.46,  510.00 " style="stroke:#000000;stroke-width: 5.10 ;&st6;"/>
		<path d=" M  101.98,  426.71  L  101.98,  401.22  L  271.95,  401.22  L  271.95,  480.50  L  271.95,  486.20  L  271.95,  494.70  L  254.96,  494.70  L  246.46,  503.20  L  246.46,  510.00 " style="stroke:#FFFFFF;stroke-width: 4.53 ;&st6;"/>
		<path d=" M  101.98,  426.71  L  101.98,  401.22  L  271.95,  401.22  L  271.95,  480.50  L  271.95,  486.20  L  271.95,  494.70  L  254.96,  494.70  L  246.46,  503.20  L  246.46,  510.00 " style="stroke:#000000;stroke-width: 1.13 ;&st6;"/>
	</a>
	<a ewd:lineID="6" style="cursor:pointer;">
		<path d=" M  144.48,  511.70  L  144.48,  426.71  L  246.46,  426.71  L  246.46,  488.89  L  246.46,  494.70  L  246.46,  510.00 " style="stroke:#000000;stroke-width: 5.10 ;&st6;"/>
		<path d=" M  144.48,  511.70  L  144.48,  426.71  L  246.46,  426.71  L  246.46,  488.89  L  246.46,  494.70  L  246.46,  510.00 " style="stroke:#FFFFFF;stroke-width: 4.53 ;&st6;"/>
		<path d=" M  144.48,  511.70  L  144.48,  426.71  L  246.46,  426.71  L  246.46,  488.89  L  246.46,  494.70  L  246.46,  510.00 " style="stroke:#000000;stroke-width: 1.13 ;&st6;"/>
	</a>
	<a ewd:lineID="7" style="cursor:pointer;">
		<path d=" M  186.97,  619.92  L  186.97,  681.67 " style="stroke:#000000;stroke-width: 5.10 ;&st6;"/>
		<path d=" M  186.97,  619.92  L  186.97,  681.67 " style="stroke:#FFFFFF;stroke-width: 4.53 ;&st6;"/>
		<path d=" M  186.97,  619.92  L  186.97,  681.67 " style="stroke:#000000;stroke-width: 1.13 ;&st6;"/>
	</a>
	<a ewd:lineID="8" style="cursor:pointer;">
		<path d=" M  186.97,  605.18  L  186.97,  494.70  L  220.94,  494.70  L  229.46,  494.70  L  237.96,  494.70  L  246.46,  503.20  L  246.46,  510.00 " style="stroke:#000000;stroke-width: 5.10 ;&st6;"/>
		<path d=" M  186.97,  605.18  L  186.97,  494.70  L  220.94,  494.70  L  229.46,  494.70  L  237.96,  494.70  L  246.46,  503.20  L  246.46,  510.00 " style="stroke:#FFFFFF;stroke-width: 4.53 ;&st6;"/>
		<path d=" M  186.97,  605.18  L  186.97,  494.70  L  220.94,  494.70  L  229.46,  494.70  L  237.96,  494.70  L  246.46,  503.20  L  246.46,  510.00 " style="stroke:#000000;stroke-width: 1.13 ;&st6;"/>
	</a>
	<a ewd:lineID="9" style="cursor:pointer;">
		<path d=" M  305.95,  452.21  L  305.95,  476.98  L  305.95,  486.20  L  305.95,  494.70  L  339.94,  494.70  L  348.44,  503.20  L  348.44,  510.00 " style="stroke:#00A0C6;stroke-width: 5.10 ;&st6;"/>
	</a>
	<a ewd:lineID="10" style="cursor:pointer;">
		<path d=" M  305.95,  322.46  L  305.95,  437.48 " style="stroke:#00A0C6;stroke-width: 5.10 ;&st6;"/>
	</a>
	<a ewd:lineID="11" style="cursor:pointer;">
		<path d=" M  348.44,  112.27  L  348.44,  120.77  L  339.94,  129.26  L  305.95,  129.26  L  305.95,  307.73 " style="stroke:#00A0C6;stroke-width: 5.10 ;&st6;"/>
	</a>
	<a ewd:lineID="12" style="cursor:pointer;">
		<path d=" M  348.44,  452.21  L  348.44,  488.08  L  348.44,  494.70  L  348.44,  510.00 " style="stroke:#00A0C6;stroke-width: 5.10 ;&st6;"/>
	</a>
	<a ewd:lineID="13" style="cursor:pointer;">
		<path d=" M  348.44,  437.48  L  348.44,  112.27 " style="stroke:#00A0C6;stroke-width: 5.10 ;&st6;"/>
	</a>
	<a ewd:lineID="14" style="cursor:pointer;">
		<path d=" M  382.44,  327.56  L  382.44,  469.21  L  671.39,  469.21  L  671.39,  407.45 " style="stroke:#000000;stroke-width: 5.10 ;&st6;"/>
	</a>
	<a ewd:lineID="15" style="cursor:pointer;">
		<path d=" M  382.44,  304.90  L  382.44,  112.27 " style="stroke:#00A0C6;stroke-width: 5.10 ;&st6;"/>
	</a>
	<a ewd:lineID="16" style="cursor:pointer;">
		<path d=" M  441.93,  256.74  L  441.93,  503.20  L  611.90,  503.20  L  620.40,  511.70  L  620.40,  519.07 " style="stroke:#000000;stroke-width: 5.10 ;&st6;"/>
	</a>
	<a ewd:lineID="17" style="cursor:pointer;">
		<path d=" M  441.93,  211.98  L  441.93,  242.01 " style="stroke:#000000;stroke-width: 5.10 ;&st6;"/>
	</a>
	<a ewd:lineID="18" style="cursor:pointer;">
		<path d=" M  441.93,  163.26  L  441.93,  197.25 " style="stroke:#FF0000;stroke-width: 5.10 ;&st6;"/>
	</a>
	<a ewd:lineID="19" style="cursor:pointer;">
		<path d=" M  441.93,  103.77  L  441.93,  148.53 " style="stroke:#FF0000;stroke-width: 5.10 ;&st6;"/>
	</a>
	<a ewd:lineID="20" style="cursor:pointer;">
		<path d=" M  620.40,  460.71  L  620.40,  519.07 " style="stroke:#000000;stroke-width: 5.10 ;&st6;"/>
	</a>
	<a ewd:lineID="21" style="cursor:pointer;">
		<path d=" M  620.40,  407.45  L  620.40,  445.98 " style="stroke:#000000;stroke-width: 5.10 ;&st6;"/>
	</a>
	<a ewd:lineID="22" style="cursor:pointer;">
		<path d=" M  620.40,  324.73  L  620.40,  392.72 " style="stroke:#000000;stroke-width: 5.10 ;&st6;"/>
	</a>
	<a ewd:lineID="23" style="cursor:pointer;">
		<path d=" M  671.39,  392.72  L  671.39,  324.73 " style="stroke:#000000;stroke-width: 5.10 ;&st6;"/>
	</a>
	<a ewd:lineID="24" style="cursor:pointer;">
		<path d=" M  671.39,  307.73  L  671.39,  155.89 " style="stroke:#00A0C6;stroke-width: 5.10 ;&st6;"/>
	</a>
	<a ewd:lineID="25" style="cursor:pointer;">
		<path d=" M  722.38,  401.22  L  722.38,  470.69  L  722.38,  477.71  L  722.38,  510.00 " style="stroke:#008837;stroke-width: 5.10 ;&st6;"/>
	</a>
	<a ewd:lineID="26" style="cursor:pointer;">
		<path d=" M  722.38,  510.00  L  722.38,  503.20  L  739.38,  486.20  L  739.38,  477.71  L  756.37,  477.71  L  768.06,  477.71  L  858.36,  477.71  L  858.36,  460.71 " style="stroke:#008837;stroke-width: 5.10 ;&st6;"/>
	</a>
	<a ewd:lineID="27" style="cursor:pointer;">
		<path d=" M  722.38,  386.49  L  722.38,  322.46 " style="stroke:#008837;stroke-width: 5.10 ;&st6;"/>
	</a>
	<a ewd:lineID="28" style="cursor:pointer;">
		<path d=" M  722.38,  322.46  L  722.38,  324.73  L  739.38,  341.73  L  739.38,  350.23  L  858.36,  350.23  L  858.36,  392.72 " style="stroke:#008837;stroke-width: 5.10 ;&st6;"/>
	</a>
	<a ewd:lineID="29" style="cursor:pointer;">
		<path d=" M  722.38,  307.73  L  722.38,  155.89 " style="stroke:#008837;stroke-width: 5.10 ;&st6;"/>
	</a>
	<a ewd:lineID="30" style="cursor:pointer;">
		<path d=" M  858.36,  239.75  L  858.36,  265.24  L  739.38,  265.24  L  739.38,  282.24  L  722.38,  299.24  L  722.38,  307.73 " style="stroke:#008837;stroke-width: 5.10 ;&st6;"/>
	</a>
	<a ewd:lineID="31" style="cursor:pointer;">
		<path d=" M  722.38,  155.89  L  722.38,  163.26  L  739.38,  180.26  L  739.38,  197.25  L  858.36,  197.25  L  858.36,  222.75 " style="stroke:#008837;stroke-width: 5.10 ;&st6;"/>
	</a>
	<a ewd:lineID="32" style="cursor:pointer;">
		<path d=" M  773.37,  510.00  L  773.37,  477.71  L  773.37,  470.43  L  773.37,  401.22 " style="stroke:#FF0000;stroke-width: 5.10 ;&st6;"/>
	</a>
	<a ewd:lineID="33" style="cursor:pointer;">
		<path d=" M  773.37,  510.00  L  773.37,  503.20  L  781.87,  494.70  L  807.37,  494.70  L  817.12,  494.70  L  892.35,  494.70  L  892.35,  460.71 " style="stroke:#FF0000;stroke-width: 5.10 ;&st6;"/>
	</a>
	<a ewd:lineID="34" style="cursor:pointer;">
		<path d=" M  773.37,  322.46  L  773.37,  386.49 " style="stroke:#FF0000;stroke-width: 5.10 ;&st6;"/>
	</a>
	<a ewd:lineID="35" style="cursor:pointer;">
		<path d=" M  773.37,  322.46  L  773.37,  324.73  L  781.87,  333.23  L  892.35,  333.23  L  892.35,  392.72 " style="stroke:#FF0000;stroke-width: 5.10 ;&st6;"/>
	</a>
	<a ewd:lineID="36" style="cursor:pointer;">
		<path d=" M  773.37,  155.89  L  773.37,  307.73 " style="stroke:#FF0000;stroke-width: 5.10 ;&st6;"/>
	</a>
	<a ewd:lineID="37" style="cursor:pointer;">
		<path d=" M  773.37,  307.73  L  773.37,  299.24  L  781.87,  290.74  L  892.35,  290.74  L  892.35,  239.75 " style="stroke:#FF0000;stroke-width: 5.10 ;&st6;"/>
	</a>
	<a ewd:lineID="38" style="cursor:pointer;">
		<path d=" M  773.37,  155.89  L  773.37,  163.26  L  781.87,  171.76  L  892.35,  171.76  L  892.35,  222.75 " style="stroke:#FF0000;stroke-width: 5.10 ;&st6;"/>
	</a>
	<a ewd:lineID="39" style="cursor:pointer;">
		<path d=" M  824.36,  681.67  L  824.36,  537.20 " style="stroke:#000000;stroke-width: 5.10 ;&st6;"/>
		<path d=" M  824.36,  681.67  L  824.36,  537.20 " style="stroke:#FFFFFF;stroke-width: 4.53 ;&st6;"/>
		<path d=" M  824.36,  681.67  L  824.36,  537.20 " style="stroke:#000000;stroke-width: 1.13 ;&st6;"/>
	</a>
	<a ewd:lineID="40" style="cursor:pointer;">
		<path d=" M  824.36,  520.20  L  824.36,  155.89 " style="stroke:#000000;stroke-width: 5.10 ;&st6;"/>
		<path d=" M  824.36,  520.20  L  824.36,  155.89 " style="stroke:#FFFFFF;stroke-width: 4.53 ;&st6;"/>
		<path d=" M  824.36,  520.20  L  824.36,  155.89 " style="stroke:#000000;stroke-width: 1.13 ;&st6;"/>
	</a>
	<a ewd:lineID="41" style="cursor:pointer;">
		<path d=" M  866.86,  681.67  L  866.86,  528.70  L  832.86,  528.70 " style="stroke:#000000;stroke-width: 5.10 ;&st6;"/>
		<path d=" M  866.86,  681.67  L  866.86,  528.70  L  832.86,  528.70 " style="stroke:#FFFFFF;stroke-width: 4.53 ;&st6;"/>
		<path d=" M  866.86,  681.67  L  866.86,  528.70  L  832.86,  528.70 " style="stroke:#000000;stroke-width: 1.13 ;&st6;"/>
	</a>
	<a ewd:lineID="42" style="cursor:pointer;">
		<path d=" M  858.36,  407.45  L  858.36,  445.98 " style="stroke:#008837;stroke-width: 5.10 ;&st6;"/>
	</a>
	<a ewd:lineID="43" style="cursor:pointer;">
		<path d=" M  892.35,  407.45  L  892.35,  445.98 " style="stroke:#FF0000;stroke-width: 5.10 ;&st6;"/>
	</a>
	<path d=" M  386.69,  304.90  L  386.69,  308.87 " style="stroke-width: 1.42 ;&st7; "/>
	<path d=" M  384.56,  112.27  L  380.31,  112.27 " style="stroke-width: 1.42 ;&st7; "/>
	<path d=" M  384.56,  103.77  L  380.31,  103.77 " style="stroke-width: 1.42 ;&st7; "/>
	<path d=" M  764.87,  392.72  L  773.37,  392.72 " style="stroke-width: 1.42 ;&st7; "/>
	<path d=" M  713.88,  392.72  L  722.38,  392.72 " style="stroke-width: 1.42 ;&st7; "/>
	<path d=" M  781.87,  316.23  L  773.37,  316.23 " style="stroke-width: 1.42 ;&st7; "/>
	<path d=" M  378.19,  327.56  L  386.69,  327.56 " style="stroke-width: 1.42 ;&st7; "/>
	<path d=" M  378.19,  308.87  L  378.19,  304.90 " style="stroke-width: 1.42 ;&st7; "/>
	<path d=" M  378.19,  304.90  L  386.69,  304.90 " style="stroke-width: 1.42 ;&st7; "/>
	<path d=" M  378.19,  323.60  L  378.19,  327.56 " style="stroke-width: 1.42 ;&st7; "/>
	<path d=" M  386.69,  327.56  L  386.69,  323.60 " style="stroke-width: 1.42 ;&st7; "/>
	<path d=" M  348.44,   69.77  L  348.44,   78.27 " style="stroke-width: 0.85 ;&st7; "/>
	<path d=" M  350.57,  112.27  L  346.32,  112.27 " style="stroke-width: 1.42 ;&st7; "/>
	<path d=" M  350.57,  103.77  L  346.32,  103.77 " style="stroke-width: 1.42 ;&st7; "/>
	<path d=" M  339.94,  443.71  L  348.44,  443.71 " style="stroke-width: 1.42 ;&st7; "/>
	<path d=" M  679.89,  401.22  L  671.39,  401.22 " style="stroke-width: 1.42 ;&st7; "/>
	<path d=" M  389.52,  596.69  L  348.44,  596.69 " style="stroke-width: 0.85 ;&st7; "/>
	<path d=" M  388.10,  613.40  L  406.52,  605.18 " style="stroke-width: 1.42 ;&st7; "/>
	<path d=" M  110.48,  613.68  L  101.98,  613.68 " style="stroke-width: 1.42 ;&st7; "/>
	<path d=" M  718.13,  638.05  L  718.13,  642.01 " style="stroke-width: 1.42 ;&st7; "/>
	<path d=" M  718.13,  642.01  L  726.63,  642.01 " style="stroke-width: 1.42 ;&st7; "/>
	<path d=" M  718.13,  619.35  L  726.63,  619.35 " style="stroke-width: 1.42 ;&st7; "/>
	<path d=" M  730.88,  316.23  L  722.38,  316.23 " style="stroke-width: 1.42 ;&st7; "/>
	<path d=" M  718.13,  623.31  L  718.13,  619.35 " style="stroke-width: 1.42 ;&st7; "/>
	<path d=" M  726.63,  642.01  L  726.63,  638.05 " style="stroke-width: 1.42 ;&st7; "/>
	<path d=" M  726.63,  619.35  L  726.63,  623.31 " style="stroke-width: 1.42 ;&st7; "/>
	<path d=" M  722.38,  571.19  L  722.38,  579.69 " style="stroke-width: 0.85 ;&st7; "/>
	<path d=" M  722.38,  596.69  L  722.38,  619.35 " style="stroke-width: 0.85 ;&st7; "/>
	<path d=" M  866.86,  401.22  L  858.36,  401.22 " style="stroke-width: 1.42 ;&st7; "/>
	<path d=" M  900.85,  401.22  L  892.35,  401.22 " style="stroke-width: 1.42 ;&st7; "/>
	<path d=" M  849.86,  452.21  L  858.36,  452.21 " style="stroke-width: 1.42 ;&st7; "/>
	<path d=" M  883.85,  452.21  L  892.35,  452.21 " style="stroke-width: 1.42 ;&st7; "/>
	<path d=" M  314.45,  316.23  L  305.95,  316.23 " style="stroke-width: 1.42 ;&st7; "/>
	<path d=" M  297.45,  443.71  L  305.95,  443.71 " style="stroke-width: 1.42 ;&st7; "/>
	<path d=" M  195.47,  613.68  L  186.97,  613.68 " style="stroke-width: 1.42 ;&st7; "/>
	<path d=" M  832.86,  525.17  L  827.89,  520.20 " style="stroke-width: 1.42 ;&st7; "/>
	<path d=" M  815.86,  532.23  L  820.83,  537.20 " style="stroke-width: 1.42 ;&st7; "/>
	<path d=" M  827.89,  537.20  L  832.86,  532.23 " style="stroke-width: 1.42 ;&st7; "/>
	<path d=" M  820.83,  520.20  L  815.86,  525.17 " style="stroke-width: 1.42 ;&st7; "/>
	<path d=" M  628.89,  401.22  L  620.40,  401.22 " style="stroke-width: 1.42 ;&st7; "/>
	<path d=" M  611.90,  452.21  L  620.40,  452.21 " style="stroke-width: 1.42 ;&st7; "/>
	<path d=" M  441.93,   69.77  L  441.93,   78.27 " style="stroke-width: 0.85 ;&st7; "/>
	<path d=" M  444.05,   95.27  L  439.80,   95.27 " style="stroke-width: 1.42 ;&st7; "/>
	<path d=" M  444.05,  103.77  L  439.80,  103.77 " style="stroke-width: 1.42 ;&st7; "/>
	<path d=" M  441.93,   78.27  L  441.93,   95.27 " style="stroke-width: 0.85 ;&st7; "/>
	<path d=" M  433.43,  154.76  L  441.93,  154.76 " style="stroke-width: 1.42 ;&st7; "/>
	<path d=" M  450.42,  205.75  L  441.93,  205.75 " style="stroke-width: 1.42 ;&st7; "/>
	<path d=" M  433.43,  248.24  L  441.93,  248.24 " style="stroke-width: 1.42 ;&st7; "/>
	<path d=" M  888.10,  443.14  L  892.35,  447.39  L  896.60,  443.14 " style="stroke-width: 1.42 ;&st7; "/>
	<path d=" M  191.22,  622.75  L  186.97,  618.50  L  182.72,  622.75 " style="stroke-width: 1.42 ;&st7; "/>
	<path d=" M  185.55,  710.00  L  188.39,  710.00 " style="stroke-width: 0.85 ;&st7; "/>
	<path d=" M  184.14,  707.17  L  189.80,  707.17 " style="stroke-width: 0.85 ;&st7; "/>
	<path d=" M  182.72,  704.33  L  191.22,  704.33 " style="stroke-width: 0.85 ;&st7; "/>
	<path d=" M  178.47,  701.50  L  195.47,  701.50 " style="stroke-width: 0.85 ;&st7; "/>
	<path d=" M  186.97,  697.25  L  186.97,  701.50 " style="stroke-width: 0.85 ;&st7; "/>
	<path d=" M  191.22,  619.35  L  186.97,  615.10  L  182.72,  619.35 " style="stroke-width: 1.42 ;&st7; "/>
	<path d=" M  310.20,  438.05  L  305.95,  442.29  L  301.70,  438.05 " style="stroke-width: 1.42 ;&st7; "/>
	<path d=" M  301.70,  434.65  L  305.95,  438.90  L  310.20,  434.65 " style="stroke-width: 1.42 ;&st7; "/>
	<path d=" M  310.20,  321.90  L  305.95,  317.65  L  301.70,  321.90 " style="stroke-width: 1.42 ;&st7; "/>
	<path d=" M  310.20,  325.30  L  305.95,  321.05  L  301.70,  325.30 " style="stroke-width: 1.42 ;&st7; "/>
	<path d=" M  896.60,  446.54  L  892.35,  450.79  L  888.10,  446.54 " style="stroke-width: 1.42 ;&st7; "/>
	<path d=" M  862.61,  446.54  L  858.36,  450.79  L  854.11,  446.54 " style="stroke-width: 1.42 ;&st7; "/>
	<path d=" M  854.11,  443.14  L  858.36,  447.39  L  862.61,  443.14 " style="stroke-width: 1.42 ;&st7; "/>
	<path d=" M  896.60,  406.88  L  892.35,  402.63  L  888.10,  406.88 " style="stroke-width: 1.42 ;&st7; "/>
	<path d=" M  896.60,  410.28  L  892.35,  406.03  L  888.10,  410.28 " style="stroke-width: 1.42 ;&st7; "/>
	<path d=" M  862.61,  406.88  L  858.36,  402.63  L  854.11,  406.88 " style="stroke-width: 1.42 ;&st7; "/>
	<path d=" M  862.61,  410.28  L  858.36,  406.03  L  854.11,  410.28 " style="stroke-width: 1.42 ;&st7; "/>
	<path d=" M  730.88,  532.66  L  760.62,  532.66 " style="stroke-width: 0.85 ;&st7;stroke-dasharray:3, 1.5;"/>
	<path d=" M  730.88,  523.60  L  760.62,  523.60 " style="stroke-width: 0.85 ;&st7;stroke-dasharray:3, 1.5;"/>
	<path d=" M  254.96,  532.66  L  335.69,  532.66 " style="stroke-width: 0.85 ;&st7;stroke-dasharray:3, 1.5;"/>
	<path d=" M  254.96,  523.60  L  335.69,  523.60 " style="stroke-width: 0.85 ;&st7;stroke-dasharray:3, 1.5;"/>
	<path d=" M  458.92,  656.18  L  722.15,  656.18  L  722.15,  642.01 " style="stroke-width: 0.85 ;&st7; "/>
	<path d=" M  390.93,  615.10  L  390.93,  656.18 " style="stroke-width: 0.85 ;&st7; "/>
	<path d=" M  229.46,  537.20  L  229.46,  673.17  L  790.37,  673.17  L  790.37,  537.20  L  229.46,  537.20 " style="stroke-width: 1.42 ;&st7; "/>
	<path d=" M  229.46,  571.19  L  790.37,  571.19 " style="stroke-width: 1.42 ;&st7; "/>
	<path d=" M  348.44,  596.69  L  348.44,  571.19 " style="stroke-width: 0.85 ;&st7; "/>
	<path d=" M  433.43,  656.18  L  246.46,  656.18  L  246.46,  571.19 " style="stroke-width: 0.85 ;&st7; "/>
	<path d=" M  389.74,  655.17  L  389.47,  655.64  L  389.38,  656.18  L  389.47,  656.71  L  389.74,  657.18  L  390.16,  657.52  L  390.66,  657.71  L  391.21,  657.71  L  391.71,  657.52  L  392.13,  657.18  L  392.40,  656.71  L  392.49,  656.18  L  392.40,  655.64  L  392.13,  655.17  L  391.71,  654.83  L  391.21,  654.64  L  390.66,  654.64  L  390.16,  654.83  L  389.74,  655.17  L  390.14,  655.88  L  390.14,  656.47  L  390.51,  656.91  L  391.08,  657.01  L  391.59,  656.72  L  391.78,  656.18  L  391.59,  655.63  L  391.08,  655.34  L  390.51,  655.44  L  390.93,  656.18 " style="stroke-width: 0.85 ;&st7; "/>
	<path d=" M  679.89,  142.30  L  709.63,  142.30 " style="stroke-width: 0.85 ;&st7;stroke-dasharray:3, 1.5;"/>
	<path d=" M  730.88,  142.30  L  760.62,  142.30 " style="stroke-width: 0.85 ;&st7;stroke-dasharray:3, 1.5;"/>
	<path d=" M  781.87,  142.30  L  811.61,  142.30 " style="stroke-width: 0.85 ;&st7;stroke-dasharray:3, 1.5;"/>
	<path d=" M  679.89,  151.36  L  709.63,  151.36 " style="stroke-width: 0.85 ;&st7;stroke-dasharray:3, 1.5;"/>
	<path d=" M  730.88,  151.36  L  760.62,  151.36 " style="stroke-width: 0.85 ;&st7;stroke-dasharray:3, 1.5;"/>
	<path d=" M  781.87,  151.36  L  811.61,  151.36 " style="stroke-width: 0.85 ;&st7;stroke-dasharray:3, 1.5;"/>
	<path d=" M  348.44,   86.77  L  382.44,   86.77  L  382.44,  103.77 " style="stroke-width: 0.85 ;&st7; "/>
	<path d=" M  675.64,  410.28  L  671.39,  406.03  L  667.14,  410.28 " style="stroke-width: 1.42 ;&st7; "/>
	<path d=" M  675.64,  406.88  L  671.39,  402.63  L  667.14,  406.88 " style="stroke-width: 1.42 ;&st7; "/>
	<path d=" M  671.39,  307.73  L  671.39,  324.73 " style="stroke-width: 0.85 ;&st7; "/>
	<path d=" M  726.63,  325.30  L  722.38,  321.05  L  718.13,  325.30 " style="stroke-width: 1.42 ;&st7; "/>
	<path d=" M  726.63,  321.90  L  722.38,  317.65  L  718.13,  321.90 " style="stroke-width: 1.42 ;&st7; "/>
	<path d=" M  106.23,  622.75  L  101.98,  618.50  L   97.73,  622.75 " style="stroke-width: 1.42 ;&st7; "/>
	<path d=" M   93.48,  511.70  L  152.97,  511.70  L  152.97,  528.70  L   93.48,  528.70  L   93.48,  511.70 " style="stroke-width: 1.42 ;&st7; "/>
	<path d=" M  101.98,  426.71  L  101.98,  443.71 " style="stroke-width: 0.85 ;&st7; "/>
	<path d=" M   93.48,  426.71  L  110.48,  426.71  L  110.48,  443.71  L   93.48,  443.71  L   93.48,  426.71 " style="stroke-width: 1.42 ;&st7; "/>
	<path d=" M  100.57,  710.00  L  103.40,  710.00 " style="stroke-width: 0.85 ;&st7; "/>
	<path d=" M   99.15,  707.17  L  104.82,  707.17 " style="stroke-width: 0.85 ;&st7; "/>
	<path d=" M   97.73,  704.33  L  106.23,  704.33 " style="stroke-width: 0.85 ;&st7; "/>
	<path d=" M   93.48,  701.50  L  110.48,  701.50 " style="stroke-width: 0.85 ;&st7; "/>
	<path d=" M  101.98,  697.25  L  101.98,  701.50 " style="stroke-width: 0.85 ;&st7; "/>
	<path d=" M  611.90,  307.73  L  679.89,  307.73  L  679.89,  324.73  L  611.90,  324.73  L  611.90,  307.73 " style="stroke-width: 1.42 ;&st7; "/>
	<path d=" M  347.25,   85.77  L  346.98,   86.24  L  346.88,   86.77  L  346.98,   87.30  L  347.25,   87.77  L  347.66,   88.12  L  348.17,   88.31  L  348.71,   88.31  L  349.22,   88.12  L  349.63,   87.77  L  349.91,   87.30  L  350.00,   86.77  L  349.91,   86.24  L  349.63,   85.77  L  349.22,   85.42  L  348.71,   85.24  L  348.17,   85.24  L  347.66,   85.42  L  347.25,   85.77  L  347.64,   86.48  L  347.64,   87.06  L  348.02,   87.51  L  348.59,   87.61  L  349.09,   87.32  L  349.29,   86.77  L  349.09,   86.22  L  348.59,   85.94  L  348.02,   86.03  L  348.44,   86.77 " style="stroke-width: 0.85 ;&st7; "/>
	<path d=" M  344.19,  434.65  L  348.44,  438.90  L  352.69,  434.65 " style="stroke-width: 1.42 ;&st7; "/>
	<path d=" M  352.69,  438.05  L  348.44,  442.29  L  344.19,  438.05 " style="stroke-width: 1.42 ;&st7; "/>
	<path d=" M  106.23,  619.35  L  101.98,  615.10  L   97.73,  619.35 " style="stroke-width: 1.42 ;&st7; "/>
	<path d=" M  777.62,  325.30  L  773.37,  321.05  L  769.12,  325.30 " style="stroke-width: 1.42 ;&st7; "/>
	<path d=" M  777.62,  321.90  L  773.37,  317.65  L  769.12,  321.90 " style="stroke-width: 1.42 ;&st7; "/>
	<path d=" M  361.19,   78.27  L  361.19,   35.78  L  335.69,   35.78  L  335.69,   78.27  L  361.19,   78.27 " style="stroke-width: 1.42 ;&st7; "/>
	<path d=" M  348.44,   98.87  L  345.61,   96.04  L  345.61,  100.29  L  348.44,  103.12  L  351.27,  100.29  L  351.27,   96.04  L  348.44,   98.87 " style="stroke-width: 0.28 ;&st9;"/>
	<path d=" M  348.44,  103.77  L  348.44,   78.27 " style="stroke-width: 0.85 ;&st7; "/>
	<path d=" M  815.86,  701.50  L  832.86,  701.50 " style="stroke-width: 0.85 ;&st7; "/>
	<path d=" M  820.11,  704.33  L  828.61,  704.33 " style="stroke-width: 0.85 ;&st7; "/>
	<path d=" M  822.95,  710.00  L  825.78,  710.00 " style="stroke-width: 0.85 ;&st7; "/>
	<path d=" M  821.53,  707.17  L  827.19,  707.17 " style="stroke-width: 0.85 ;&st7; "/>
	<path d=" M  824.36,  697.25  L  824.36,  701.50 " style="stroke-width: 0.85 ;&st7; "/>
	<path d=" M  718.13,  383.65  L  722.38,  387.90  L  726.63,  383.65 " style="stroke-width: 1.42 ;&st7; "/>
	<path d=" M  726.63,  387.05  L  722.38,  391.30  L  718.13,  387.05 " style="stroke-width: 1.42 ;&st7; "/>
	<path d=" M  769.12,  383.65  L  773.37,  387.90  L  777.62,  383.65 " style="stroke-width: 1.42 ;&st7; "/>
	<path d=" M  777.62,  387.05  L  773.37,  391.30  L  769.12,  387.05 " style="stroke-width: 1.42 ;&st7; "/>
	<path d=" M  382.44,   98.87  L  379.60,   96.04  L  379.60,  100.29  L  382.44,  103.12  L  385.27,  100.29  L  385.27,   96.04  L  382.44,   98.87 " style="stroke-width: 0.28 ;&st9;"/>
	<path d=" M  594.90,   35.78  L  594.90,  137.76 " style="stroke-width: 0.85 ;&st7; "/>
	<path d=" M  849.86,  137.76  L  569.40,  137.76  L  569.40,   35.78  L  849.86,   35.78  L  849.86,  137.76 " style="stroke-width: 1.42 ;&st7; "/>
	<path d=" M  569.40,   52.78  L  849.86,   52.78 " style="stroke-width: 0.85 ;&st7; "/>
	<path d=" M  594.90,   69.77  L  849.86,   69.77 " style="stroke-width: 0.85 ;&st7; "/>
	<path d=" M  594.90,   86.77  L  849.86,   86.77 " style="stroke-width: 0.85 ;&st7; "/>
	<path d=" M  594.90,  103.77  L  849.86,  103.77 " style="stroke-width: 0.85 ;&st7; "/>
	<path d=" M  594.90,  120.77  L  849.86,  120.77 " style="stroke-width: 0.85 ;&st7; "/>
	<path d=" M  645.89,   35.78  L  645.89,  137.76 " style="stroke-width: 0.85 ;&st7; "/>
	<path d=" M  696.88,   35.78  L  696.88,  137.76 " style="stroke-width: 0.85 ;&st7; "/>
	<path d=" M  747.87,   35.78  L  747.87,  137.76 " style="stroke-width: 0.85 ;&st7; "/>
	<path d=" M  798.87,   35.78  L  798.87,  137.76 " style="stroke-width: 0.85 ;&st7; "/>
	<path d=" M  723.80,  112.27  L  822.95,  112.27 " style="stroke-width: 0.85 ;&st7; "/>
	<path d=" M  774.79,   95.27  L  822.95,   95.27 " style="stroke-width: 0.85 ;&st7; "/>
	<path d=" M  723.80,  129.26  L  822.95,  129.26 " style="stroke-width: 0.85 ;&st7; "/>
	<path d=" M  672.80,  129.26  L  720.96,  129.26 " style="stroke-width: 0.85 ;&st7; "/>
	<path d=" M  672.80,   61.28  L  822.95,   61.28 " style="stroke-width: 0.85 ;&st7; "/>
	<path d=" M  101.98,  511.70  L  101.98,  528.70 " style="stroke-width: 0.85 ;&st7; "/>
	<path d=" M  858.36,  701.50  L  875.35,  701.50 " style="stroke-width: 0.85 ;&st7; "/>
	<path d=" M  862.61,  704.33  L  871.10,  704.33 " style="stroke-width: 0.85 ;&st7; "/>
	<path d=" M  865.44,  710.00  L  868.27,  710.00 " style="stroke-width: 0.85 ;&st7; "/>
	<path d=" M  864.02,  707.17  L  869.69,  707.17 " style="stroke-width: 0.85 ;&st7; "/>
	<path d=" M  866.85,  697.25  L  866.85,  701.50 " style="stroke-width: 0.85 ;&st7; "/>
	<path d=" M  849.86,  239.75  L  900.85,  239.75  L  900.85,  222.75  L  849.86,  222.75  L  849.86,  239.75 " style="stroke-width: 1.42 ;&st7; "/>
	<path d=" M  858.36,  222.75  L  858.36,  239.75 " style="stroke-width: 0.85 ;&st7; "/>
	<path d=" M  892.35,  222.75  L  892.35,  239.75 " style="stroke-width: 0.85 ;&st7; "/>
	<path d=" M  100.79,  519.20  L  100.52,  519.67  L  100.42,  520.20  L  100.52,  520.73  L  100.79,  521.20  L  101.20,  521.55  L  101.71,  521.73  L  102.25,  521.73  L  102.76,  521.55  L  103.18,  521.20  L  103.45,  520.73  L  103.54,  520.20  L  103.45,  519.67  L  103.18,  519.20  L  102.76,  518.85  L  102.25,  518.66  L  101.71,  518.66  L  101.20,  518.85  L  100.79,  519.20  L  101.18,  519.91  L  101.18,  520.49  L  101.56,  520.94  L  102.13,  521.03  L  102.63,  520.75  L  102.83,  520.20  L  102.63,  519.65  L  102.13,  519.36  L  101.56,  519.46  L  101.98,  520.20 " style="stroke-width: 0.85 ;&st7; "/>
	<path d=" M  101.98,  520.20  L  144.48,  520.20  L  144.48,  511.70 " style="stroke-width: 0.85 ;&st7; "/>
	<path d=" M  409.35,  605.18  L  773.37,  605.18  L  773.37,  571.19 " style="stroke-width: 0.85 ;&st7; "/>
	<path d=" M  254.96,  514.53  L  335.69,  514.53 " style="stroke-width: 0.85 ;&st7;stroke-dasharray:3, 1.5;"/>
	<path d=" M  730.88,  514.53  L  760.62,  514.53 " style="stroke-width: 0.85 ;&st7;stroke-dasharray:3, 1.5;"/>
	<path d=" M  628.89,  532.66  L  709.63,  532.66 " style="stroke-width: 0.85 ;&st7;stroke-dasharray:3, 1.5;"/>
	<path d=" M  624.65,  410.28  L  620.40,  406.03  L  616.15,  410.28 " style="stroke-width: 1.42 ;&st7; "/>
	<path d=" M  624.65,  406.88  L  620.40,  402.63  L  616.15,  406.88 " style="stroke-width: 1.42 ;&st7; "/>
	<path d=" M  616.15,  443.14  L  620.40,  447.39  L  624.65,  443.14 " style="stroke-width: 1.42 ;&st7; "/>
	<path d=" M  624.65,  446.54  L  620.40,  450.79  L  616.15,  446.54 " style="stroke-width: 1.42 ;&st7; "/>
	<path d=" M  620.40,  324.73  L  620.40,  316.23  L  671.39,  316.23 " style="stroke-width: 0.85 ;&st7; "/>
	<path d=" M  670.19,  315.23  L  669.92,  315.70  L  669.83,  316.23  L  669.92,  316.77  L  670.19,  317.24  L  670.61,  317.58  L  671.12,  317.77  L  671.66,  317.77  L  672.17,  317.58  L  672.58,  317.24  L  672.85,  316.77  L  672.95,  316.23  L  672.85,  315.70  L  672.58,  315.23  L  672.17,  314.88  L  671.66,  314.70  L  671.12,  314.70  L  670.61,  314.88  L  670.19,  315.23  L  670.59,  315.94  L  670.59,  316.52  L  670.96,  316.97  L  671.53,  317.07  L  672.04,  316.78  L  672.24,  316.23  L  672.04,  315.69  L  671.53,  315.40  L  670.96,  315.50  L  671.39,  316.23 " style="stroke-width: 0.85 ;&st7; "/>
	<path d=" M  441.93,   90.37  L  439.09,   87.54  L  439.09,   91.79  L  441.93,   94.62  L  444.76,   91.79  L  444.76,   87.54  L  441.93,   90.37 " style="stroke-width: 0.28 ;&st9;"/>
	<path d=" M  429.18,   35.78  L  429.18,   78.27  L  454.67,   78.27  L  454.67,   35.78  L  429.18,   35.78 " style="stroke-width: 1.42 ;&st7; "/>
	<path d=" M  437.68,  145.69  L  441.93,  149.94  L  446.18,  145.69 " style="stroke-width: 1.42 ;&st7; "/>
	<path d=" M  446.18,  149.09  L  441.93,  153.34  L  437.68,  149.09 " style="stroke-width: 1.42 ;&st7; "/>
	<path d=" M  446.18,  214.82  L  441.93,  210.57  L  437.68,  214.82 " style="stroke-width: 1.42 ;&st7; "/>
	<path d=" M  446.18,  211.42  L  441.93,  207.17  L  437.68,  211.42 " style="stroke-width: 1.42 ;&st7; "/>
	<path d=" M  437.68,  239.18  L  441.93,  243.43  L  446.18,  239.18 " style="stroke-width: 1.42 ;&st7; "/>
	<path d=" M  446.18,  242.58  L  441.93,  246.83  L  437.68,  242.58 " style="stroke-width: 1.42 ;&st7; "/>
	<path d=" M  628.89,  523.60  L  709.63,  523.60 " style="stroke-width: 0.85 ;&st7;stroke-dasharray:3, 1.5;"/>
	<path d=" M  376.06,  108.02  C  376.06   110.36   377.96   112.27   380.31   112.27 " style="stroke-width: 1.42 ;&st7; "/>
	<path d=" M  373.94,  316.23  C  373.94   320.93   377.74   324.73   382.44   324.73 " style="stroke-width: 1.42 ;&st7; "/>
	<path d=" M  382.44,  324.73  C  387.13   324.73   390.93   320.93   390.93   316.23 " style="stroke-width: 1.42 ;&st7; "/>
	<path d=" M  380.31,  103.77  C  377.96   103.77   376.06   105.67   376.06   108.02 " style="stroke-width: 1.42 ;&st7; "/>
	<path d=" M  672.80,   61.28  C  672.80    60.49   672.17    59.86   671.39    59.86 " style="stroke-width: 0.85 ;&st7; "/>
	<path d=" M  671.39,   59.86  C  670.61    59.86   669.97    60.49   669.97    61.28 " style="stroke-width: 0.85 ;&st7; "/>
	<path d=" M  669.97,   61.28  C  669.97    62.06   670.61    62.69   671.39    62.69 " style="stroke-width: 0.85 ;&st7; "/>
	<path d=" M  671.39,   62.69  C  672.17    62.69   672.80    62.06   672.80    61.28 " style="stroke-width: 0.85 ;&st7; "/>
	<path d=" M  774.79,   95.27  C  774.79    94.49   774.15    93.85   773.37    93.85 " style="stroke-width: 0.85 ;&st7; "/>
	<path d=" M  773.37,   93.85  C  772.59    93.85   771.95    94.49   771.95    95.27 " style="stroke-width: 0.85 ;&st7; "/>
	<path d=" M  771.95,   95.27  C  771.95    96.05   772.59    96.69   773.37    96.69 " style="stroke-width: 0.85 ;&st7; "/>
	<path d=" M  773.37,   96.69  C  774.15    96.69   774.79    96.05   774.79    95.27 " style="stroke-width: 0.85 ;&st7; "/>
	<path d=" M  672.80,  129.26  C  672.80   128.48   672.17   127.85   671.39   127.85 " style="stroke-width: 0.85 ;&st7; "/>
	<path d=" M  671.39,  127.85  C  670.61   127.85   669.97   128.48   669.97   129.26 " style="stroke-width: 0.85 ;&st7; "/>
	<path d=" M  669.97,  129.26  C  669.97   130.05   670.61   130.68   671.39   130.68 " style="stroke-width: 0.85 ;&st7; "/>
	<path d=" M  671.39,  130.68  C  672.17   130.68   672.80   130.05   672.80   129.26 " style="stroke-width: 0.85 ;&st7; "/>
	<path d=" M  825.78,   61.28  C  825.78    60.49   825.14    59.86   824.36    59.86 " style="stroke-width: 0.85 ;&st7; "/>
	<path d=" M  824.36,   59.86  C  823.58    59.86   822.95    60.49   822.95    61.28 " style="stroke-width: 0.85 ;&st7; "/>
	<path d=" M  822.95,   61.28  C  822.95    62.06   823.58    62.69   824.36    62.69 " style="stroke-width: 0.85 ;&st7; "/>
	<path d=" M  824.36,   62.69  C  825.14    62.69   825.78    62.06   825.78    61.28 " style="stroke-width: 0.85 ;&st7; "/>
	<path d=" M  825.78,  129.26  C  825.78   128.48   825.14   127.85   824.36   127.85 " style="stroke-width: 0.85 ;&st7; "/>
	<path d=" M  824.36,  127.85  C  823.58   127.85   822.95   128.48   822.95   129.26 " style="stroke-width: 0.85 ;&st7; "/>
	<path d=" M  822.95,  129.26  C  822.95   130.05   823.58   130.68   824.36   130.68 " style="stroke-width: 0.85 ;&st7; "/>
	<path d=" M  824.36,  130.68  C  825.14   130.68   825.78   130.05   825.78   129.26 " style="stroke-width: 0.85 ;&st7; "/>
	<path d=" M  825.78,   95.27  C  825.78    94.49   825.14    93.85   824.36    93.85 " style="stroke-width: 0.85 ;&st7; "/>
	<path d=" M  824.36,   93.85  C  823.58    93.85   822.95    94.49   822.95    95.27 " style="stroke-width: 0.85 ;&st7; "/>
	<path d=" M  822.95,   95.27  C  822.95    96.05   823.58    96.69   824.36    96.69 " style="stroke-width: 0.85 ;&st7; "/>
	<path d=" M  824.36,   96.69  C  825.14    96.69   825.78    96.05   825.78    95.27 " style="stroke-width: 0.85 ;&st7; "/>
	<path d=" M  825.78,  112.27  C  825.78   111.48   825.14   110.85   824.36   110.85 " style="stroke-width: 0.85 ;&st7; "/>
	<path d=" M  824.36,  110.85  C  823.58   110.85   822.95   111.48   822.95   112.27 " style="stroke-width: 0.85 ;&st7; "/>
	<path d=" M  822.95,  112.27  C  822.95   113.05   823.58   113.68   824.36   113.68 " style="stroke-width: 0.85 ;&st7; "/>
	<path d=" M  824.36,  113.68  C  825.14   113.68   825.78   113.05   825.78   112.27 " style="stroke-width: 0.85 ;&st7; "/>
	<path d=" M  723.80,  112.27  C  723.80   111.48   723.16   110.85   722.38   110.85 " style="stroke-width: 0.85 ;&st7; "/>
	<path d=" M  722.38,  110.85  C  721.60   110.85   720.96   111.48   720.96   112.27 " style="stroke-width: 0.85 ;&st7; "/>
	<path d=" M  720.96,  112.27  C  720.96   113.05   721.60   113.68   722.38   113.68 " style="stroke-width: 0.85 ;&st7; "/>
	<path d=" M  722.38,  113.68  C  723.16   113.68   723.80   113.05   723.80   112.27 " style="stroke-width: 0.85 ;&st7; "/>
	<path d=" M  723.80,  129.26  C  723.80   128.48   723.16   127.85   722.38   127.85 " style="stroke-width: 0.85 ;&st7; "/>
	<path d=" M  722.38,  127.85  C  721.60   127.85   720.96   128.48   720.96   129.26 " style="stroke-width: 0.85 ;&st7; "/>
	<path d=" M  720.96,  129.26  C  720.96   130.05   721.60   130.68   722.38   130.68 " style="stroke-width: 0.85 ;&st7; "/>
	<path d=" M  722.38,  130.68  C  723.16   130.68   723.80   130.05   723.80   129.26 " style="stroke-width: 0.85 ;&st7; "/>
	<path d=" M  828.89,  142.29  C  828.89   139.79   826.87   137.76   824.36   137.76 " style="stroke-width: 1.42 ;&st7; "/>
	<path d=" M  824.36,  137.76  C  821.86   137.76   819.83   139.79   819.83   142.29 " style="stroke-width: 1.42 ;&st7; "/>
	<path d=" M  819.83,  142.29  C  819.83   144.80   821.86   146.83   824.36   146.83 " style="stroke-width: 1.42 ;&st7; "/>
	<path d=" M  824.36,  146.83  C  826.87   146.83   828.89   144.80   828.89   142.29 " style="stroke-width: 1.42 ;&st7; "/>
	<path d=" M  777.90,  142.29  C  777.90   139.79   775.87   137.76   773.37   137.76 " style="stroke-width: 1.42 ;&st7; "/>
	<path d=" M  773.37,  137.76  C  770.87   137.76   768.84   139.79   768.84   142.29 " style="stroke-width: 1.42 ;&st7; "/>
	<path d=" M  768.84,  142.29  C  768.84   144.80   770.87   146.83   773.37   146.83 " style="stroke-width: 1.42 ;&st7; "/>
	<path d=" M  773.37,  146.83  C  775.87   146.83   777.90   144.80   777.90   142.29 " style="stroke-width: 1.42 ;&st7; "/>
	<path d=" M  675.92,  142.29  C  675.92   139.79   673.89   137.76   671.39   137.76 " style="stroke-width: 1.42 ;&st7; "/>
	<path d=" M  671.39,  137.76  C  668.88   137.76   666.86   139.79   666.86   142.29 " style="stroke-width: 1.42 ;&st7; "/>
	<path d=" M  666.86,  142.29  C  666.86   144.80   668.88   146.83   671.39   146.83 " style="stroke-width: 1.42 ;&st7; "/>
	<path d=" M  671.39,  146.83  C  673.89   146.83   675.92   144.80   675.92   142.29 " style="stroke-width: 1.42 ;&st7; "/>
	<path d=" M  384.56,  112.27  C  386.91   112.27   388.81   110.36   388.81   108.02 " style="stroke-width: 1.42 ;&st7; "/>
	<path d=" M  726.91,  142.29  C  726.91   139.79   724.88   137.76   722.38   137.76 " style="stroke-width: 1.42 ;&st7; "/>
	<path d=" M  722.38,  137.76  C  719.88   137.76   717.85   139.79   717.85   142.29 " style="stroke-width: 1.42 ;&st7; "/>
	<path d=" M  717.85,  142.29  C  717.85   144.80   719.88   146.83   722.38   146.83 " style="stroke-width: 1.42 ;&st7; "/>
	<path d=" M  722.38,  146.83  C  724.88   146.83   726.91   144.80   726.91   142.29 " style="stroke-width: 1.42 ;&st7; "/>
	<path d=" M  388.81,  108.02  C  388.81   105.67   386.91   103.77   384.56   103.77 " style="stroke-width: 1.42 ;&st7; "/>
	<path d=" M  390.93,  316.23  C  390.93   311.54   387.13   307.73   382.44   307.73 " style="stroke-width: 1.42 ;&st7; "/>
	<path d=" M  382.44,  307.73  C  377.74   307.73   373.94   311.54   373.94   316.23 " style="stroke-width: 1.42 ;&st7; "/>
	<path d=" M  342.07,  108.02  C  342.07   110.36   343.97   112.27   346.32   112.27 " style="stroke-width: 1.42 ;&st7; "/>
	<path d=" M  348.44,   47.11  C  345.70    48.72   344.79    52.25   346.40    54.99 " style="stroke-width: 1.42 ;&st7; "/>
	<path d=" M  346.40,   54.99  C  346.92    55.87   347.56    56.51   348.44    57.03 " style="stroke-width: 1.42 ;&st7; "/>
	<path d=" M  346.32,  103.77  C  343.97   103.77   342.07   105.67   342.07   108.02 " style="stroke-width: 1.42 ;&st7; "/>
	<path d=" M  348.44,   66.94  C  351.18    65.33   352.09    61.80   350.48    59.06 " style="stroke-width: 1.42 ;&st7; "/>
	<path d=" M  350.48,   59.06  C  349.96    58.18   349.32    57.55   348.44    57.03 " style="stroke-width: 1.42 ;&st7; "/>
	<path d=" M  349.86,   45.69  C  349.86    44.91   349.22    44.28   348.44    44.28 " style="stroke-width: 0.85 ;&st7; "/>
	<path d=" M  348.44,   44.28  C  347.66    44.28   347.03    44.91   347.03    45.69 " style="stroke-width: 0.85 ;&st7; "/>
	<path d=" M  347.03,   45.69  C  347.03    46.48   347.66    47.11   348.44    47.11 " style="stroke-width: 0.85 ;&st7; "/>
	<path d=" M  348.44,   47.11  C  349.22    47.11   349.86    46.48   349.86    45.69 " style="stroke-width: 0.85 ;&st7; "/>
	<path d=" M  349.86,   68.36  C  349.86    67.57   349.22    66.94   348.44    66.94 " style="stroke-width: 0.85 ;&st7; "/>
	<path d=" M  348.44,   66.94  C  347.66    66.94   347.03    67.57   347.03    68.36 " style="stroke-width: 0.85 ;&st7; "/>
	<path d=" M  347.03,   68.36  C  347.03    69.14   347.66    69.77   348.44    69.77 " style="stroke-width: 0.85 ;&st7; "/>
	<path d=" M  348.44,   69.77  C  349.22    69.77   349.86    69.14   349.86    68.36 " style="stroke-width: 0.85 ;&st7; "/>
	<path d=" M  350.57,  112.27  C  352.91   112.27   354.82   110.36   354.82   108.02 " style="stroke-width: 1.42 ;&st7; "/>
	<path d=" M  354.82,  108.02  C  354.82   105.67   352.91   103.77   350.57   103.77 " style="stroke-width: 1.42 ;&st7; "/>
	<path d=" M  675.92,  151.36  C  675.92   148.86   673.89   146.83   671.39   146.83 " style="stroke-width: 1.42 ;&st7; "/>
	<path d=" M  671.39,  146.83  C  668.88   146.83   666.86   148.86   666.86   151.36 " style="stroke-width: 1.42 ;&st7; "/>
	<path d=" M  666.86,  151.36  C  666.86   153.86   668.88   155.89   671.39   155.89 " style="stroke-width: 1.42 ;&st7; "/>
	<path d=" M  671.39,  155.89  C  673.89   155.89   675.92   153.86   675.92   151.36 " style="stroke-width: 1.42 ;&st7; "/>
	<path d=" M  726.91,  151.36  C  726.91   148.86   724.88   146.83   722.38   146.83 " style="stroke-width: 1.42 ;&st7; "/>
	<path d=" M  722.38,  146.83  C  719.88   146.83   717.85   148.86   717.85   151.36 " style="stroke-width: 1.42 ;&st7; "/>
	<path d=" M  717.85,  151.36  C  717.85   153.86   719.88   155.89   722.38   155.89 " style="stroke-width: 1.42 ;&st7; "/>
	<path d=" M  722.38,  155.89  C  724.88   155.89   726.91   153.86   726.91   151.36 " style="stroke-width: 1.42 ;&st7; "/>
	<path d=" M  777.90,  151.36  C  777.90   148.86   775.87   146.83   773.37   146.83 " style="stroke-width: 1.42 ;&st7; "/>
	<path d=" M  773.37,  146.83  C  770.87   146.83   768.84   148.86   768.84   151.36 " style="stroke-width: 1.42 ;&st7; "/>
	<path d=" M  768.84,  151.36  C  768.84   153.86   770.87   155.89   773.37   155.89 " style="stroke-width: 1.42 ;&st7; "/>
	<path d=" M  773.37,  155.89  C  775.87   155.89   777.90   153.86   777.90   151.36 " style="stroke-width: 1.42 ;&st7; "/>
	<path d=" M  828.89,  151.36  C  828.89   148.86   826.87   146.83   824.36   146.83 " style="stroke-width: 1.42 ;&st7; "/>
	<path d=" M  824.36,  146.83  C  821.86   146.83   819.83   148.86   819.83   151.36 " style="stroke-width: 1.42 ;&st7; "/>
	<path d=" M  819.83,  151.36  C  819.83   153.86   821.86   155.89   824.36   155.89 " style="stroke-width: 1.42 ;&st7; "/>
	<path d=" M  824.36,  155.89  C  826.87   155.89   828.89   153.86   828.89   151.36 " style="stroke-width: 1.42 ;&st7; "/>
	<path d=" M  722.38,  596.69  C  724.33   596.69   725.92   595.10   725.92   593.14 " style="stroke-width: 0.85 ;&st7; "/>
	<path d=" M  725.92,  593.14  C  725.92   591.19   724.33   589.60   722.38   589.60 " style="stroke-width: 0.85 ;&st7; "/>
	<path d=" M  722.38,  589.60  C  721.39   589.60   720.54   589.96   719.85   590.67 " style="stroke-width: 0.85 ;&st7; "/>
	<path d=" M  409.35,  605.18  C  409.35   604.40   408.71   603.77   407.93   603.77 " style="stroke-width: 0.85 ;&st7; "/>
	<path d=" M  407.93,  603.77  C  407.15   603.77   406.52   604.40   406.52   605.18 " style="stroke-width: 0.85 ;&st7; "/>
	<path d=" M  406.52,  605.18  C  406.52   605.97   407.15   606.60   407.93   606.60 " style="stroke-width: 0.85 ;&st7; "/>
	<path d=" M  407.93,  606.60  C  408.71   606.60   409.35   605.97   409.35   605.18 " style="stroke-width: 0.85 ;&st7; "/>
	<path d=" M  392.35,  596.69  C  392.35   595.90   391.72   595.27   390.93   595.27 " style="stroke-width: 0.85 ;&st7; "/>
	<path d=" M  390.93,  595.27  C  390.15   595.27   389.52   595.90   389.52   596.69 " style="stroke-width: 0.85 ;&st7; "/>
	<path d=" M  389.52,  596.69  C  389.52   597.47   390.15   598.10   390.93   598.10 " style="stroke-width: 0.85 ;&st7; "/>
	<path d=" M  390.93,  598.10  C  391.72   598.10   392.35   597.47   392.35   596.69 " style="stroke-width: 0.85 ;&st7; "/>
	<path d=" M  392.35,  613.68  C  392.35   612.90   391.72   612.27   390.93   612.27 " style="stroke-width: 0.85 ;&st7; "/>
	<path d=" M  390.93,  612.27  C  390.15   612.27   389.52   612.90   389.52   613.68 " style="stroke-width: 0.85 ;&st7; "/>
	<path d=" M  389.52,  613.68  C  389.52   614.47   390.15   615.10   390.93   615.10 " style="stroke-width: 0.85 ;&st7; "/>
	<path d=" M  390.93,  615.10  C  391.72   615.10   392.35   614.47   392.35   613.68 " style="stroke-width: 0.85 ;&st7; "/>
	<path d=" M  458.92,  656.18  C  458.92   655.40   458.30   654.77   457.52   654.77 " style="stroke-width: 0.85 ;&st7; "/>
	<path d=" M  457.52,  654.77  C  456.75   654.77   456.12   655.40   456.12   656.18 " style="stroke-width: 0.85 ;&st7; "/>
	<path d=" M  456.12,  656.18  C  456.12   656.95   456.75   657.58   457.52   657.58 " style="stroke-width: 0.85 ;&st7; "/>
	<path d=" M  457.52,  657.58  C  458.30   657.58   458.92   656.95   458.92   656.18 " style="stroke-width: 0.85 ;&st7; "/>
	<path d=" M  432.56,  649.22  C  434.41   656.74   442.00   661.33   449.52   659.48 " style="stroke-width: 0.85 ;&st7; "/>
	<path d=" M  449.52,  659.48  C  454.82   658.17   458.65   654.28   459.85   648.95 " style="stroke-width: 0.85 ;&st7; "/>
	<path d=" M  432.56,  649.22  C  438.26   656.70   448.94   658.15   456.43   652.44 " style="stroke-width: 0.85 ;&st7; "/>
	<path d=" M  456.43,  652.44  C  457.80   651.40   458.83   650.35   459.85   648.95 " style="stroke-width: 0.85 ;&st7; "/>
	<path d=" M  436.22,  656.18  C  436.22   655.40   435.59   654.77   434.82   654.77 " style="stroke-width: 0.85 ;&st7; "/>
	<path d=" M  434.82,  654.77  C  434.04   654.77   433.42   655.40   433.42   656.18 " style="stroke-width: 0.85 ;&st7; "/>
	<path d=" M  433.42,  656.18  C  433.42   656.95   434.04   657.58   434.82   657.58 " style="stroke-width: 0.85 ;&st7; "/>
	<path d=" M  434.82,  657.58  C  435.59   657.58   436.22   656.95   436.22   656.18 " style="stroke-width: 0.85 ;&st7; "/>
	<path d=" M  730.88,  630.68  C  730.88   625.99   727.07   622.18   722.38   622.18 " style="stroke-width: 1.42 ;&st7; "/>
	<path d=" M  722.38,  622.18  C  717.69   622.18   713.88   625.99   713.88   630.68 " style="stroke-width: 1.42 ;&st7; "/>
	<path d=" M  713.88,  630.68  C  713.88   635.37   717.69   639.18   722.38   639.18 " style="stroke-width: 1.42 ;&st7; "/>
	<path d=" M  722.38,  639.18  C  727.07   639.18   730.88   635.37   730.88   630.68 " style="stroke-width: 1.42 ;&st7; "/>
	<path d=" M  719.85,  585.71  C  721.22   587.11   723.46   587.13   724.86   585.76 " style="stroke-width: 0.85 ;&st7; "/>
	<path d=" M  724.86,  585.76  C  726.26   584.39   726.28   582.15   724.91   580.75 " style="stroke-width: 0.85 ;&st7; "/>
	<path d=" M  724.91,  580.75  C  724.22   580.04   723.37   579.69   722.38   579.69 " style="stroke-width: 0.85 ;&st7; "/>
	<path d=" M  719.85,  590.67  C  721.22   592.06   723.46   592.09   724.86   590.72 " style="stroke-width: 0.85 ;&st7; "/>
	<path d=" M  724.86,  590.72  C  726.26   589.35   726.28   587.11   724.91   585.71 " style="stroke-width: 0.85 ;&st7; "/>
	<path d=" M  724.91,  585.71  C  723.54   584.31   721.30   584.29   719.90   585.66 " style="stroke-width: 0.85 ;&st7; "/>
	<path d=" M  719.90,  585.66  C  719.88   585.68   719.87   585.69   719.85   585.71 " style="stroke-width: 0.85 ;&st7; "/>
	<path d=" M  250.99,  532.66  C  250.99   530.16   248.96   528.13   246.46   528.13 " style="stroke-width: 1.42 ;&st7; "/>
	<path d=" M  246.46,  528.13  C  243.96   528.13   241.93   530.16   241.93   532.66 " style="stroke-width: 1.42 ;&st7; "/>
	<path d=" M  241.93,  532.66  C  241.93   535.17   243.96   537.20   246.46   537.20 " style="stroke-width: 1.42 ;&st7; "/>
	<path d=" M  246.46,  537.20  C  248.96   537.20   250.99   535.17   250.99   532.66 " style="stroke-width: 1.42 ;&st7; "/>
	<path d=" M  250.99,  523.60  C  250.99   521.09   248.96   519.07   246.46   519.07 " style="stroke-width: 1.42 ;&st7; "/>
	<path d=" M  246.46,  519.07  C  243.96   519.07   241.93   521.09   241.93   523.60 " style="stroke-width: 1.42 ;&st7; "/>
	<path d=" M  241.93,  523.60  C  241.93   526.10   243.96   528.13   246.46   528.13 " style="stroke-width: 1.42 ;&st7; "/>
	<path d=" M  246.46,  528.13  C  248.96   528.13   250.99   526.10   250.99   523.60 " style="stroke-width: 1.42 ;&st7; "/>
	<path d=" M  352.97,  532.66  C  352.97   530.16   350.95   528.13   348.44   528.13 " style="stroke-width: 1.42 ;&st7; "/>
	<path d=" M  348.44,  528.13  C  345.94   528.13   343.91   530.16   343.91   532.66 " style="stroke-width: 1.42 ;&st7; "/>
	<path d=" M  343.91,  532.66  C  343.91   535.17   345.94   537.20   348.44   537.20 " style="stroke-width: 1.42 ;&st7; "/>
	<path d=" M  348.44,  537.20  C  350.95   537.20   352.97   535.17   352.97   532.66 " style="stroke-width: 1.42 ;&st7; "/>
	<path d=" M  352.97,  523.60  C  352.97   521.09   350.95   519.07   348.44   519.07 " style="stroke-width: 1.42 ;&st7; "/>
	<path d=" M  348.44,  519.07  C  345.94   519.07   343.91   521.09   343.91   523.60 " style="stroke-width: 1.42 ;&st7; "/>
	<path d=" M  343.91,  523.60  C  343.91   526.10   345.94   528.13   348.44   528.13 " style="stroke-width: 1.42 ;&st7; "/>
	<path d=" M  348.44,  528.13  C  350.95   528.13   352.97   526.10   352.97   523.60 " style="stroke-width: 1.42 ;&st7; "/>
	<path d=" M  726.91,  532.66  C  726.91   530.16   724.88   528.13   722.38   528.13 " style="stroke-width: 1.42 ;&st7; "/>
	<path d=" M  722.38,  528.13  C  719.88   528.13   717.85   530.16   717.85   532.66 " style="stroke-width: 1.42 ;&st7; "/>
	<path d=" M  717.85,  532.66  C  717.85   535.17   719.88   537.20   722.38   537.20 " style="stroke-width: 1.42 ;&st7; "/>
	<path d=" M  722.38,  537.20  C  724.88   537.20   726.91   535.17   726.91   532.66 " style="stroke-width: 1.42 ;&st7; "/>
	<path d=" M  726.91,  523.60  C  726.91   521.09   724.88   519.07   722.38   519.07 " style="stroke-width: 1.42 ;&st7; "/>
	<path d=" M  722.38,  519.07  C  719.88   519.07   717.85   521.09   717.85   523.60 " style="stroke-width: 1.42 ;&st7; "/>
	<path d=" M  717.85,  523.60  C  717.85   526.10   719.88   528.13   722.38   528.13 " style="stroke-width: 1.42 ;&st7; "/>
	<path d=" M  722.38,  528.13  C  724.88   528.13   726.91   526.10   726.91   523.60 " style="stroke-width: 1.42 ;&st7; "/>
	<path d=" M  777.90,  532.66  C  777.90   530.16   775.87   528.13   773.37   528.13 " style="stroke-width: 1.42 ;&st7; "/>
	<path d=" M  773.37,  528.13  C  770.87   528.13   768.84   530.16   768.84   532.66 " style="stroke-width: 1.42 ;&st7; "/>
	<path d=" M  768.84,  532.66  C  768.84   535.17   770.87   537.20   773.37   537.20 " style="stroke-width: 1.42 ;&st7; "/>
	<path d=" M  773.37,  537.20  C  775.87   537.20   777.90   535.17   777.90   532.66 " style="stroke-width: 1.42 ;&st7; "/>
	<path d=" M  777.90,  523.60  C  777.90   521.09   775.87   519.07   773.37   519.07 " style="stroke-width: 1.42 ;&st7; "/>
	<path d=" M  773.37,  519.07  C  770.87   519.07   768.84   521.09   768.84   523.60 " style="stroke-width: 1.42 ;&st7; "/>
	<path d=" M  768.84,  523.60  C  768.84   526.10   770.87   528.13   773.37   528.13 " style="stroke-width: 1.42 ;&st7; "/>
	<path d=" M  773.37,  528.13  C  775.87   528.13   777.90   526.10   777.90   523.60 " style="stroke-width: 1.42 ;&st7; "/>
	<path d=" M  250.99,  514.53  C  250.99   512.03   248.96   510.00   246.46   510.00 " style="stroke-width: 1.42 ;&st7; "/>
	<path d=" M  246.46,  510.00  C  243.96   510.00   241.93   512.03   241.93   514.53 " style="stroke-width: 1.42 ;&st7; "/>
	<path d=" M  241.93,  514.53  C  241.93   517.04   243.96   519.07   246.46   519.07 " style="stroke-width: 1.42 ;&st7; "/>
	<path d=" M  246.46,  519.07  C  248.96   519.07   250.99   517.04   250.99   514.53 " style="stroke-width: 1.42 ;&st7; "/>
	<path d=" M  352.97,  514.53  C  352.97   512.03   350.95   510.00   348.44   510.00 " style="stroke-width: 1.42 ;&st7; "/>
	<path d=" M  348.44,  510.00  C  345.94   510.00   343.91   512.03   343.91   514.53 " style="stroke-width: 1.42 ;&st7; "/>
	<path d=" M  343.91,  514.53  C  343.91   517.04   345.94   519.07   348.44   519.07 " style="stroke-width: 1.42 ;&st7; "/>
	<path d=" M  348.44,  519.07  C  350.95   519.07   352.97   517.04   352.97   514.53 " style="stroke-width: 1.42 ;&st7; "/>
	<path d=" M  777.90,  514.53  C  777.90   512.03   775.87   510.00   773.37   510.00 " style="stroke-width: 1.42 ;&st7; "/>
	<path d=" M  773.37,  510.00  C  770.87   510.00   768.84   512.03   768.84   514.53 " style="stroke-width: 1.42 ;&st7; "/>
	<path d=" M  768.84,  514.53  C  768.84   517.04   770.87   519.07   773.37   519.07 " style="stroke-width: 1.42 ;&st7; "/>
	<path d=" M  773.37,  519.07  C  775.87   519.07   777.90   517.04   777.90   514.53 " style="stroke-width: 1.42 ;&st7; "/>
	<path d=" M  726.91,  514.53  C  726.91   512.03   724.88   510.00   722.38   510.00 " style="stroke-width: 1.42 ;&st7; "/>
	<path d=" M  722.38,  510.00  C  719.88   510.00   717.85   512.03   717.85   514.53 " style="stroke-width: 1.42 ;&st7; "/>
	<path d=" M  717.85,  514.53  C  717.85   517.04   719.88   519.07   722.38   519.07 " style="stroke-width: 1.42 ;&st7; "/>
	<path d=" M  722.38,  519.07  C  724.88   519.07   726.91   517.04   726.91   514.53 " style="stroke-width: 1.42 ;&st7; "/>
	<path d=" M  624.93,  532.66  C  624.93   530.16   622.90   528.13   620.40   528.13 " style="stroke-width: 1.42 ;&st7; "/>
	<path d=" M  620.40,  528.13  C  617.89   528.13   615.86   530.16   615.86   532.66 " style="stroke-width: 1.42 ;&st7; "/>
	<path d=" M  615.86,  532.66  C  615.86   535.17   617.89   537.20   620.40   537.20 " style="stroke-width: 1.42 ;&st7; "/>
	<path d=" M  620.40,  537.20  C  622.90   537.20   624.93   535.17   624.93   532.66 " style="stroke-width: 1.42 ;&st7; "/>
	<path d=" M  441.93,   47.11  C  439.19    48.72   438.28    52.25   439.89    54.99 " style="stroke-width: 1.42 ;&st7; "/>
	<path d=" M  439.89,   54.99  C  440.41    55.87   441.04    56.51   441.93    57.03 " style="stroke-width: 1.42 ;&st7; "/>
	<path d=" M  441.93,   66.94  C  444.66    65.33   445.58    61.80   443.96    59.06 " style="stroke-width: 1.42 ;&st7; "/>
	<path d=" M  443.96,   59.06  C  443.44    58.18   442.81    57.55   441.93    57.03 " style="stroke-width: 1.42 ;&st7; "/>
	<path d=" M  443.34,   45.69  C  443.34    44.91   442.71    44.28   441.93    44.28 " style="stroke-width: 0.85 ;&st7; "/>
	<path d=" M  441.93,   44.28  C  441.14    44.28   440.51    44.91   440.51    45.69 " style="stroke-width: 0.85 ;&st7; "/>
	<path d=" M  440.51,   45.69  C  440.51    46.48   441.14    47.11   441.93    47.11 " style="stroke-width: 0.85 ;&st7; "/>
	<path d=" M  441.93,   47.11  C  442.71    47.11   443.34    46.48   443.34    45.69 " style="stroke-width: 0.85 ;&st7; "/>
	<path d=" M  443.34,   68.36  C  443.34    67.57   442.71    66.94   441.93    66.94 " style="stroke-width: 0.85 ;&st7; "/>
	<path d=" M  441.93,   66.94  C  441.14    66.94   440.51    67.57   440.51    68.36 " style="stroke-width: 0.85 ;&st7; "/>
	<path d=" M  440.51,   68.36  C  440.51    69.14   441.14    69.77   441.93    69.77 " style="stroke-width: 0.85 ;&st7; "/>
	<path d=" M  441.93,   69.77  C  442.71    69.77   443.34    69.14   443.34    68.36 " style="stroke-width: 0.85 ;&st7; "/>
	<path d=" M  439.80,   95.27  C  437.45    95.27   435.55    97.17   435.55    99.52 " style="stroke-width: 1.42 ;&st7; "/>
	<path d=" M  435.55,   99.52  C  435.55   101.87   437.45   103.77   439.80   103.77 " style="stroke-width: 1.42 ;&st7; "/>
	<path d=" M  444.05,  103.77  C  446.40   103.77   448.30   101.87   448.30    99.52 " style="stroke-width: 1.42 ;&st7; "/>
	<path d=" M  448.30,   99.52  C  448.30    97.17   446.40    95.27   444.05    95.27 " style="stroke-width: 1.42 ;&st7; "/>
	<path d=" M  624.93,  523.60  C  624.93   521.09   622.90   519.07   620.40   519.07 " style="stroke-width: 1.42 ;&st7; "/>
	<path d=" M  620.40,  519.07  C  617.89   519.07   615.86   521.09   615.86   523.60 " style="stroke-width: 1.42 ;&st7; "/>
	<path d=" M  615.86,  523.60  C  615.86   526.10   617.89   528.13   620.40   528.13 " style="stroke-width: 1.42 ;&st7; "/>
	<path d=" M  620.40,  528.13  C  622.90   528.13   624.93   526.10   624.93   523.60 " style="stroke-width: 1.42 ;&st7; "/>
	<text style="&st18;" transform="matrix(&st17;  769.67  369.7 )">R</text>
	<text style="&st18;" transform="matrix(&st16;  333.63  449.93 )">2</text>
	<text style="&st18;" transform="matrix(&st17;  344.75  233.22 )">L</text>
	<text style="&st18;" transform="matrix(&st17;  378.74  233.22 )">L</text>
	<text style="&st18;" transform="matrix(&st17;  344.75  471.18 )">L</text>
	<text style="&st18;" transform="matrix(&st17;  769.67  429.19 )">R</text>
	<text style="&st18;" transform="matrix(&st17;  718.68  429.47 )">G</text>
	<text style="&st18;" transform="matrix(&st17;  820.67  238.95 )">W-B</text>
	<text style="&st18;" transform="matrix(&st17;  769.67  233.72 )">R</text>
	<text style="&st18;" transform="matrix(&st17;  718.68  234.0 )">G</text>
	<text style="&st18;" transform="matrix(&st17;  98.29  568.92 )">L</text>
	<text style="&st18;" transform="matrix(&st16;  634.87  24.98 )">E15(A),E16(B)</text>
	<text style="&st18;" transform="matrix(&st16;  758.56  313.95 )">3</text>
	<text style="&st18;" transform="matrix(&st16;  365.75  53.34 )">15A <tspan dy="6" x="0">RR </tspan><tspan dy="6" x="0">WIPER</tspan></text>
	<text style="&st18;" transform="matrix(&st16;  332.57  109.99 )">21</text>
	<text style="&st18;" transform="matrix(&st16;  343.99  109.99 )">2C</text>
	<text style="&st18;" transform="matrix(&st17;  378.74  420.55 )">B</text>
	<text style="&st18;" transform="matrix(&st16;  375.65  301.21 )">2</text>
	<text style="&st18;" transform="matrix(&st16;  375.65  335.76 )">5</text>
	<text style="&st18;" transform="matrix(&st16;  379.54  318.2 )">M</text>
	<text style="&st18;" transform="matrix(&st16;  705.16  398.94 )">11</text>
	<text ewd:textID="17" style="&st18;" transform="matrix(&st17;  587.1  124.87 )">Rear Wiper Switch</text>
	<text style="&st18;" transform="matrix(&st16;  720.05  144.26 )">A</text>
	<text style="&st18;" transform="matrix(&st16;  711.5  144.26 )">7</text>
	<text style="&st18;" transform="matrix(&st16;  766.84  46.25 )">C1R</text>
	<text style="&st18;" transform="matrix(&st16;  665.56  46.25 )">WR</text>
	<text ewd:textID="18" style="&st18;" transform="matrix(&st16;  608.14  63.24 )">Washer</text>
	<text style="&st18;" transform="matrix(&st16;  613.4  80.24 )">OFF</text>
	<text style="&st18;" transform="matrix(&st16;  608.32  97.24 )">LO (*6)</text>
	<text style="&st18;" transform="matrix(&st16;  616.93  114.24 )">HI</text>
	<text ewd:textID="13" style="&st18;" transform="matrix(&st16;  601.39  131.23 )">On+Washer</text>
	<text style="&st18;" transform="matrix(&st16;  818.68  46.25 )">EW</text>
	<text style="&st18;" transform="matrix(&st16;  716.3  46.25 )">+1R</text>
	<text style="&st18;" transform="matrix(&st17;  398.55  327.26 )">A16</text>
	<text style="&st18;" transform="matrix(&st16;  342.37  32.08 )">(IG)</text>
	<text style="&st18;" transform="matrix(&st16;  771.04  144.26 )">A</text>
	<text style="&st18;" transform="matrix(&st16;  762.49  144.26 )">6</text>
	<text style="&st18;" transform="matrix(&st16;  822.03  144.26 )">A</text>
	<text style="&st18;" transform="matrix(&st16;  755.38  398.94 )">12</text>
	<text style="&st18;" transform="matrix(&st16;  813.49  144.26 )">2</text>
	<text style="&st18;" transform="matrix(&st16;  669.06  144.26 )">B</text>
	<text style="&st18;" transform="matrix(&st16;  660.51  144.26 )">5</text>
	<text style="&st18;" transform="matrix(&st16;  366.57  109.99 )">21</text>
	<text style="&st18;" transform="matrix(&st16;  378.13  109.99 )">2B</text>
	<text ewd:textID="14" style="&st18;" transform="matrix(&st17;  581.15  127.87 )">Rear Washer Switch</text>
	<text ewd:textID="19" style="&st18;" transform="matrix(&st17;  405.65  327.26 )">Windshield Washer <tspan dy="6" x="-0.01">Motor and Pump Assembly</tspan></text>
	<text style="&st18;" transform="matrix(&st17;  98.29  655.38 )">W-B</text>
	<text style="&st18;" transform="matrix(&st16;  95.19  536.89 )">4</text>
	<text style="&st18;" transform="matrix(&st17;  667.69  369.55 )">B</text>
	<text style="&st18;" transform="matrix(&st16;  87.17  611.4 )">5</text>
	<text style="&st18;" transform="matrix(&st16;  354.42  525.57 )">(*4)</text>
	<text style="&st18;" transform="matrix(&st16;  354.42  534.63 )">(*10)</text>
	<text style="&st18;" transform="matrix(&st17;  718.68  369.98 )">G</text>
	<text ewd:textID="20" style="&st18;" transform="matrix(&st16;  634.87  32.08 )">Windshield Wiper Switch Assembly</text>
	<text style="&st18;" transform="matrix(&st16;  707.57  313.95 )">2</text>
	<text style="&st18;" transform="matrix(&st16;  661.42  332.92 )">12</text>
	<text style="&st18;" transform="matrix(&st16;  664.6  304.04 )">4</text>
	<text style="&st18;" transform="matrix(&st16;  95.97  451.9 )">1</text>
	<text style="&st18;" transform="matrix(&st16;  92.02  423.02 )">13</text>
	<text style="&st18;" transform="matrix(&st16;  95.19  508.01 )">5</text>
	<text style="&st18;" transform="matrix(&st16;  652.62  398.94 )">78</text>
	<text style="&st18;" transform="matrix(&st17;  268.26  476.91 )">W-B</text>
	<text style="&st18;" transform="matrix(&st17;  667.69  429.04 )">B</text>
	<text style="&st18;" transform="matrix(&st17;  667.69  233.22 )">L</text>
	<text style="&st18;" transform="matrix(&st17;  98.29  485.41 )">W-B</text>
	<text ewd:textID="12" style="&st18;" transform="matrix(&st17;  125.2  446.24 )">Junction <tspan dy="6" x="-0.01">Connector</tspan></text>
	<text style="&st18;" transform="matrix(&st17;  118.09  446.24 )">S16</text>
	<text ewd:textID="12" style="&st18;" transform="matrix(&st17;  167.69  531.22 )">Junction <tspan dy="6" x="0">Connector</tspan></text>
	<text style="&st18;" transform="matrix(&st17;  160.59  531.22 )">S15</text>
	<text style="&st18;" transform="matrix(&st16;  657.33  153.33 )">10</text>
	<text style="&st18;" transform="matrix(&st16;  669.06  153.33 )">B</text>
	<text ewd:textID="1" style="&st18;" transform="matrix(&st16;  56.97  29.25 )">* 1 :LHD, RHD Headlight Dimmer Switch Assembly LH Side Type</text>
	<text style="&st18;" transform="matrix(&st16;  720.05  153.33 )">A</text>
	<text style="&st18;" transform="matrix(&st16;  711.5  153.33 )">4</text>
	<text ewd:textID="2" style="&st18;" transform="matrix(&st16;  56.97  37.75 )">* 2 :RHD Headlight Dimmer Switch Assembly RH Side Type</text>
	<text style="&st18;" transform="matrix(&st16;  762.49  153.33 )">5</text>
	<text style="&st18;" transform="matrix(&st16;  771.04  153.33 )">A</text>
	<text style="&st18;" transform="matrix(&st16;  813.49  153.33 )">2</text>
	<text style="&st18;" transform="matrix(&st16;  822.03  153.33 )">A</text>
	<text style="&st18;" transform="matrix(&st16;  830.34  144.26 )">(*1)</text>
	<text style="&st18;" transform="matrix(&st16;  830.34  153.33 )">(*2)</text>
	<text ewd:textID="15" style="&st18;" transform="matrix(&st16;  371.41  687.89 )">Rear Wiper Motor Assembly</text>
	<text style="&st18;" transform="matrix(&st16;  371.41  680.78 )">S6(A),S28(C),T2(B)</text>
	<text ewd:textID="16" style="&st18;" transform="matrix(&st16;  358.57  556.16 )">Rear Wiper Relay</text>
	<text style="&st18;" transform="matrix(&st16;  244.13  544.83 )">E</text>
	<text style="&st18;" transform="matrix(&st16;  769.31  544.83 )">C1</text>
	<text style="&st18;" transform="matrix(&st16;  718.07  544.83 )">LS</text>
	<text style="&st18;" transform="matrix(&st16;  346.11  544.83 )">B</text>
	<text style="&st18;" transform="matrix(&st16;  719.48  632.65 )">M</text>
	<text ewd:textID="3" style="&st18;" transform="matrix(&st16;  56.97  46.25 )">* 3 :Liftgate Type</text>
	<text ewd:textID="4" style="&st18;" transform="matrix(&st16;  56.97  54.75 )">* 4 :Swing Type</text>
	<text ewd:textID="5" style="&st18;" transform="matrix(&st16;  56.97  63.24 )">* 6 :w/ Intermittent</text>
	<text style="&st18;" transform="matrix(&st16;  243.99  534.63 )">C</text>
	<text style="&st18;" transform="matrix(&st16;  235.58  534.63 )">5</text>
	<text style="&st18;" transform="matrix(&st16;  244.13  525.57 )">B</text>
	<text style="&st18;" transform="matrix(&st16;  235.58  525.57 )">5</text>
	<text style="&st18;" transform="matrix(&st16;  345.97  534.63 )">C</text>
	<text style="&st18;" transform="matrix(&st16;  337.57  534.63 )">4</text>
	<text style="&st18;" transform="matrix(&st16;  720.4  550.78 )">L</text>
	<text style="&st18;" transform="matrix(&st16;  346.11  525.57 )">B</text>
	<text style="&st18;" transform="matrix(&st16;  337.57  525.57 )">4</text>
	<text style="&st18;" transform="matrix(&st16;  719.91  534.63 )">C</text>
	<text style="&st18;" transform="matrix(&st16;  711.5  534.63 )">3</text>
	<text style="&st18;" transform="matrix(&st16;  720.05  525.57 )">B</text>
	<text style="&st18;" transform="matrix(&st16;  711.5  525.57 )">3</text>
	<text style="&st18;" transform="matrix(&st16;  779.34  534.63 )">(*10)</text>
	<text style="&st18;" transform="matrix(&st16;  770.9  534.63 )">C</text>
	<text style="&st18;" transform="matrix(&st16;  762.49  534.63 )">2</text>
	<text style="&st18;" transform="matrix(&st16;  779.34  525.57 )">(*4)</text>
	<text style="&st18;" transform="matrix(&st16;  771.04  525.57 )">B</text>
	<text style="&st18;" transform="matrix(&st16;  762.49  525.57 )">2</text>
	<text style="&st18;" transform="matrix(&st16;  726.23  544.83 )">(*3) <tspan dy="5.95" x="0">(*4)</tspan></text>
	<text style="&st18;" transform="matrix(&st16;  843.54  398.94 )">6</text>
	<text style="&st18;" transform="matrix(&st16;  877.54  398.94 )">7</text>
	<text style="&st18;" transform="matrix(&st16;  843.54  458.43 )">6</text>
	<text style="&st18;" transform="matrix(&st16;  877.54  458.43 )">7</text>
	<text style="&st18;" transform="matrix(&st17;  854.66  369.98 )">G</text>
	<text style="&st18;" transform="matrix(&st17;  865.99  373.4 )">(*4)</text>
	<text style="&st18;" transform="matrix(&st17;  888.65  369.7 )">R</text>
	<text style="&st18;" transform="matrix(&st17;  899.99  378.42 )">(*4 *6)</text>
	<text style="&st18;" transform="matrix(&st17;  854.66  429.47 )">G</text>
	<text style="&st18;" transform="matrix(&st17;  865.99  432.89 )">(*4)</text>
	<text style="&st18;" transform="matrix(&st17;  888.65  429.19 )">R</text>
	<text style="&st18;" transform="matrix(&st17;  899.99  437.91 )">(*4 *6)</text>
	<text style="&st18;" transform="matrix(&st17;  854.66  471.96 )">G</text>
	<text style="&st18;" transform="matrix(&st17;  865.99  475.39 )">(*4)</text>
	<text style="&st18;" transform="matrix(&st17;  888.65  480.18 )">R</text>
	<text style="&st18;" transform="matrix(&st17;  899.99  488.9 )">(*4 *6)</text>
	<text style="&st18;" transform="matrix(&st17;  781.01  252.33 )">(*7 *6,*4 *6)</text>
	<text style="&st18;" transform="matrix(&st17;  730.02  373.4 )">(*3)</text>
	<text style="&st18;" transform="matrix(&st17;  730.02  432.89 )">(*3)</text>
	<text style="&st18;" transform="matrix(&st17;  781.01  437.91 )">(*3 *6)</text>
	<text style="&st18;" transform="matrix(&st16;  287.96  313.95 )">17</text>
	<text style="&st18;" transform="matrix(&st16;  291.91  449.93 )">1</text>
	<text style="&st18;" transform="matrix(&st17;  302.25  233.22 )">L</text>
	<text style="&st18;" transform="matrix(&st17;  313.59  237.43 )">(*4)</text>
	<text style="&st18;" transform="matrix(&st17;  302.25  420.19 )">L</text>
	<text style="&st18;" transform="matrix(&st17;  313.59  424.4 )">(*4)</text>
	<text style="&st18;" transform="matrix(&st17;  313.59  475.39 )">(*4)</text>
	<text style="&st18;" transform="matrix(&st17;  302.25  471.18 )">L</text>
	<text style="&st18;" transform="matrix(&st17;  356.08  237.43 )">(*3)</text>
	<text style="&st18;" transform="matrix(&st17;  356.08  475.39 )">(*3)</text>
	<text style="&st18;" transform="matrix(&st17;  279.59  475.39 )">(*7)</text>
	<text style="&st18;" transform="matrix(&st16;  172.15  611.4 )">6</text>
	<text style="&st18;" transform="matrix(&st17;  183.27  655.38 )">W-B</text>
	<text style="&st18;" transform="matrix(&st17;  183.27  574.64 )">W-B</text>
	<text style="&st18;" transform="matrix(&st17;  109.62  483.89 )">(*7)</text>
	<text style="&st18;" transform="matrix(&st17;  109.62  573.12 )">(*7)</text>
	<text style="&st18;" transform="matrix(&st17;  109.62  653.86 )">(*3)</text>
	<text style="&st18;" transform="matrix(&st17;  194.6  573.12 )">(*4)</text>
	<text style="&st18;" transform="matrix(&st17;  194.6  653.86 )">(*4)</text>
	<text style="&st18;" transform="matrix(&st16;  204.76  491.01 )">W-B</text>
	<text style="&st18;" transform="matrix(&st16;  206.28  502.34 )">(*4)</text>
	<text style="&st18;" transform="matrix(&st17;  781.01  378.42 )">(*3 *6)</text>
	<text ewd:textID="6" style="&st18;" transform="matrix(&st16;  56.97  71.74 )">* 7 :Before Jan. 2012 Production Liftgate Type</text>
	<text ewd:textID="7" style="&st18;" transform="matrix(&st16;  56.97  80.24 )">* 8 :From Jan. 2012 Production Liftgate Type</text>
	<text style="&st18;" transform="matrix(&st17;  820.67  621.38 )">W-B</text>
	<text style="&st18;" transform="matrix(&st17;  832.0  622.94 )">(LHD)</text>
	<text style="&st18;" transform="matrix(&st17;  863.16  621.38 )">W-B</text>
	<text style="&st18;" transform="matrix(&st17;  874.49  623.43 )">(RHD)</text>
	<text style="&st18;" transform="matrix(&st16;  847.61  247.94 )">35</text>
	<text style="&st18;" transform="matrix(&st16;  881.61  247.94 )">95</text>
	<text style="&st18;" transform="matrix(&st16;  847.61  219.06 )">25</text>
	<text style="&st18;" transform="matrix(&st16;  881.61  219.06 )">85</text>
	<text ewd:textID="12" style="&st18;" transform="matrix(&st17;  915.57  242.27 )">Junction <tspan dy="6" x="0">Connector</tspan></text>
	<text style="&st18;" transform="matrix(&st17;  908.46  242.27 )">E60</text>
	<text style="&st18;" transform="matrix(&st16;  800.64  168.06 )">R</text>
	<text style="&st18;" transform="matrix(&st16;  791.92  179.39 )">(*8 *6)</text>
	<text style="&st18;" transform="matrix(&st16;  800.36  193.56 )">G</text>
	<text style="&st18;" transform="matrix(&st16;  796.93  204.89 )">(*8)</text>
	<text style="&st18;" transform="matrix(&st16;  800.36  261.54 )">G</text>
	<text style="&st18;" transform="matrix(&st16;  796.93  272.88 )">(*8)</text>
	<text style="&st18;" transform="matrix(&st16;  800.64  287.04 )">R</text>
	<text style="&st18;" transform="matrix(&st16;  791.92  298.37 )">(*8 *6)</text>
	<text style="&st18;" transform="matrix(&st17;  730.02  242.3 )">(*7,*4)</text>
	<text ewd:textID="16" style="&st18;" transform="matrix(&st16;  630.52  556.16 )">Rear Wiper Relay</text>
	<text style="&st18;" transform="matrix(&st16;  541.58  465.51 )">B</text>
	<text style="&st18;" transform="matrix(&st16;  490.59  465.51 )">B</text>
	<text ewd:textID="15" style="&st18;" transform="matrix(&st16;  609.37  687.89 )">Rear Wiper Motor Assembly</text>
	<text style="&st18;" transform="matrix(&st16;  609.37  680.78 )">S6(A),S28(C),T2(B)</text>
	<text style="&st18;" transform="matrix(&st17;  72.79  575.24 )">LA-L</text>
	<text style="&st18;" transform="matrix(&st17;  84.12  573.12 )">(*8)</text>
	<text style="&st18;" transform="matrix(&st16;  134.51  508.01 )">12</text>
	<text style="&st18;" transform="matrix(&st17;  254.1  475.39 )">(*8)</text>
	<text style="&st18;" transform="matrix(&st17;  242.76  476.91 )">W-B</text>
	<text ewd:textID="8" style="&st18;" transform="matrix(&st16;  56.97  88.74 )">* 9 :Before Aug. 2013 Production Liftgate Type</text>
	<text ewd:textID="9" style="&st18;" transform="matrix(&st16;  56.97  97.24 )">*10 :From Aug. 2013 Production Liftgate Type</text>
	<text ewd:textID="10" style="&st18;" transform="matrix(&st16;  56.97  105.74 )">*11 :From Aug. 2013 Production w/ Entry &amp; Start System</text>
	<text style="&st18;" transform="matrix(&st16;  235.58  516.5 )">4</text>
	<text style="&st18;" transform="matrix(&st16;  244.13  516.5 )">A</text>
	<text style="&st18;" transform="matrix(&st16;  354.42  516.5 )">(*9)</text>
	<text style="&st18;" transform="matrix(&st16;  337.57  516.5 )">3</text>
	<text style="&st18;" transform="matrix(&st16;  346.11  516.5 )">A</text>
	<text style="&st18;" transform="matrix(&st16;  779.34  516.5 )">(*9)</text>
	<text style="&st18;" transform="matrix(&st16;  763.27  516.5 )">1</text>
	<text style="&st18;" transform="matrix(&st16;  771.04  516.5 )">A</text>
	<text style="&st18;" transform="matrix(&st16;  711.5  516.5 )">2</text>
	<text style="&st18;" transform="matrix(&st16;  720.05  516.5 )">A</text>
	<text style="&st18;" transform="matrix(&st16;  610.3  534.63 )">1</text>
	<text style="&st18;" transform="matrix(&st16;  617.92  534.63 )">C</text>
	<text style="&st18;" transform="matrix(&st16;  617.04  544.83 )">W</text>
	<text ewd:textID="12" style="&st18;" transform="matrix(&st17;  694.6  327.26 )">Junction <tspan dy="6" x="-0.01">Connector</tspan></text>
	<text style="&st18;" transform="matrix(&st17;  687.78  327.26 )">E63</text>
	<text style="&st18;" transform="matrix(&st16;  602.4  398.94 )">61</text>
	<text style="&st18;" transform="matrix(&st16;  605.58  458.43 )">4</text>
	<text style="&st18;" transform="matrix(&st16;  611.21  332.92 )">11</text>
	<text style="&st18;" transform="matrix(&st17;  616.7  369.55 )">B</text>
	<text style="&st18;" transform="matrix(&st17;  628.03  374.61 )">(*11)</text>
	<text style="&st18;" transform="matrix(&st17;  616.7  429.04 )">B</text>
	<text style="&st18;" transform="matrix(&st17;  628.03  434.1 )">(*11)</text>
	<text style="&st18;" transform="matrix(&st17;  616.7  497.03 )">B</text>
	<text style="&st18;" transform="matrix(&st17;  628.03  502.08 )">(*11)</text>
	<text style="&st18;" transform="matrix(&st16;  459.23  56.17 )">10A <tspan dy="6" x="0">DOME1</tspan></text>
	<text style="&st18;" transform="matrix(&st16;  440.34  101.49 )">1</text>
	<text style="&st18;" transform="matrix(&st16;  435.14  86.47 )">2</text>
	<text style="&st18;" transform="matrix(&st16;  432.81  32.08 )">(BAT)</text>
	<text style="&st18;" transform="matrix(&st16;  423.93  160.98 )">12</text>
	<text style="&st18;" transform="matrix(&st16;  423.16  203.47 )">78</text>
	<text style="&st18;" transform="matrix(&st16;  427.11  254.46 )">3</text>
	<text style="&st18;" transform="matrix(&st17;  438.23  123.24 )">R</text>
	<text style="&st18;" transform="matrix(&st17;  449.56  128.54 )">(*12)</text>
	<text style="&st18;" transform="matrix(&st17;  438.23  182.73 )">R</text>
	<text style="&st18;" transform="matrix(&st17;  449.56  188.03 )">(*12)</text>
	<text style="&st18;" transform="matrix(&st17;  438.23  229.33 )">B</text>
	<text style="&st18;" transform="matrix(&st17;  449.56  234.77 )">(*12)</text>
	<text style="&st18;" transform="matrix(&st16;  610.3  525.57 )">1</text>
	<text style="&st18;" transform="matrix(&st16;  618.07  525.57 )">B</text>
	<text style="&st18;" transform="matrix(&st16;  490.59  499.5 )">B</text>
	<text style="&st18;" transform="matrix(&st16;  485.15  510.84 )">(*12)</text>
	<text style="&st18;" transform="matrix(&st16;  541.58  499.5 )">B</text>
	<text style="&st18;" transform="matrix(&st16;  536.14  510.84 )">(*12)</text>
	<text style="&st18;" transform="matrix(&st17;  438.23  284.57 )">B</text>
	<text style="&st18;" transform="matrix(&st17;  449.56  290.01 )">(*12)</text>
	<text ewd:textID="11" style="&st18;" transform="matrix(&st16;  56.97  114.24 )">*12 :From Aug. 2013 Production Swing Type w/ Intermittent</text>
	<a ewd:code="EK1" ewd:figID="12" ewd:figtype="w2w" ewd:pinNo="3" style="cursor:pointer;">
		<path d=" M  781.87,  307.73  L  764.87,  307.73  L  764.87,  316.23  L  781.87,  316.23  L  781.87,  307.73 " style="&st2;"/>
		<text style="&st8;" transform="matrix(&st16;  766.79  314.48 )"><tspan style="&st18;" x="0" y="0">EK1</tspan></text>
	</a>
	<a ewd:code="SK1" ewd:figID="13" ewd:figtype="w2w" ewd:pinNo="11" style="cursor:pointer;">
		<path d=" M  730.88,  392.72  L  713.88,  392.72  L  713.88,  401.22  L  730.88,  401.22  L  730.88,  392.72 " style="&st2;"/>
		<text style="&st8;" transform="matrix(&st16;  715.8  399.46 )"><tspan style="&st18;" x="0" y="0">SK1</tspan></text>
	</a>
	<a ewd:code="TL1" ewd:figID="14" ewd:figtype="w2w" ewd:pinNo="3" style="cursor:pointer;">
		<path d=" M  450.42,  248.24  L  433.43,  248.24  L  433.43,  256.74  L  450.42,  256.74  L  450.42,  248.24 " style="&st2;"/>
		<text style="&st8;" transform="matrix(&st16;  435.94  254.99 )"><tspan style="&st18;" x="0" y="0">TL1</tspan></text>
	</a>
	<a ewd:code="EL1" ewd:figID="15" ewd:figtype="w2w" ewd:pinNo="78" style="cursor:pointer;">
		<path d=" M  450.42,  197.25  L  433.43,  197.25  L  433.43,  205.75  L  450.42,  205.75  L  450.42,  197.25 " style="&st2;"/>
		<text style="&st8;" transform="matrix(&st16;  435.72  204.0 )"><tspan style="&st18;" x="0" y="0">EL1</tspan></text>
	</a>
	<a ewd:code="EA1" ewd:figID="16" ewd:figtype="w2w" ewd:pinNo="12" style="cursor:pointer;">
		<path d=" M  450.42,  154.76  L  433.43,  154.76  L  433.43,  163.26  L  450.42,  163.26  L  450.42,  154.76 " style="&st2;"/>
		<text style="&st8;" transform="matrix(&st16;  435.35  161.5 )"><tspan style="&st18;" x="0" y="0">EA1</tspan></text>
	</a>
	<a ewd:code="SK1" ewd:figID="17" ewd:figtype="w2w" ewd:pinNo="12" style="cursor:pointer;">
		<path d=" M  781.87,  392.72  L  764.87,  392.72  L  764.87,  401.22  L  781.87,  401.22  L  781.87,  392.72 " style="&st2;"/>
		<text style="&st8;" transform="matrix(&st16;  766.79  399.46 )"><tspan style="&st18;" x="0" y="0">SK1</tspan></text>
	</a>
	<a ewd:code="SK1" ewd:figID="18" ewd:figtype="w2w" ewd:pinNo="5" style="cursor:pointer;">
		<path d=" M  110.48,  605.18  L   93.48,  605.18  L   93.48,  613.68  L  110.48,  613.68  L  110.48,  605.18 " style="&st2;"/>
		<text style="&st8;" transform="matrix(&st16;  95.4  611.93 )"><tspan style="&st18;" x="0" y="0">SK1</tspan></text>
	</a>
	<a ewd:code="SK1" ewd:figID="19" ewd:figtype="w2w" ewd:pinNo="2" style="cursor:pointer;">
		<path d=" M  356.94,  443.71  L  339.94,  443.71  L  339.94,  452.21  L  356.94,  452.21  L  356.94,  443.71 " style="&st2;"/>
		<text style="&st8;" transform="matrix(&st16;  341.86  450.45 )"><tspan style="&st18;" x="0" y="0">SK1</tspan></text>
	</a>
	<a ewd:code="EK1" ewd:figID="20" ewd:figtype="w2w" ewd:pinNo="2" style="cursor:pointer;">
		<path d=" M  730.88,  307.73  L  713.88,  307.73  L  713.88,  316.23  L  730.88,  316.23  L  730.88,  307.73 " style="&st2;"/>
		<text style="&st8;" transform="matrix(&st16;  715.8  314.48 )"><tspan style="&st18;" x="0" y="0">EK1</tspan></text>
	</a>
	<a ewd:code="EA1" ewd:figID="21" ewd:figtype="w2w" ewd:pinNo="78" style="cursor:pointer;">
		<path d=" M  679.89,  392.72  L  662.89,  392.72  L  662.89,  401.22  L  679.89,  401.22  L  679.89,  392.72 " style="&st2;"/>
		<text style="&st8;" transform="matrix(&st16;  664.81  399.46 )"><tspan style="&st18;" x="0" y="0">EA1</tspan></text>
	</a>
	<a ewd:code="KL1" ewd:figID="22" ewd:figtype="w2w" ewd:pinNo="6" style="cursor:pointer;">
		<path d=" M  866.86,  392.72  L  849.86,  392.72  L  849.86,  401.22  L  866.86,  401.22  L  866.86,  392.72 " style="&st2;"/>
		<text style="&st8;" transform="matrix(&st16;  852.15  399.46 )"><tspan style="&st18;" x="0" y="0">KL1</tspan></text>
	</a>
	<a ewd:code="KL1" ewd:figID="23" ewd:figtype="w2w" ewd:pinNo="7" style="cursor:pointer;">
		<path d=" M  900.85,  392.72  L  883.85,  392.72  L  883.85,  401.22  L  900.85,  401.22  L  900.85,  392.72 " style="&st2;"/>
		<text style="&st8;" transform="matrix(&st16;  886.14  399.46 )"><tspan style="&st18;" x="0" y="0">KL1</tspan></text>
	</a>
	<a ewd:code="TL2" ewd:figID="24" ewd:figtype="w2w" ewd:pinNo="6" style="cursor:pointer;">
		<path d=" M  866.86,  452.21  L  849.86,  452.21  L  849.86,  460.71  L  866.86,  460.71  L  866.86,  452.21 " style="&st2;"/>
		<text style="&st8;" transform="matrix(&st16;  851.96  458.95 )"><tspan style="&st18;" x="0" y="0">TL2</tspan></text>
	</a>
	<a ewd:code="TL2" ewd:figID="25" ewd:figtype="w2w" ewd:pinNo="7" style="cursor:pointer;">
		<path d=" M  900.85,  452.21  L  883.85,  452.21  L  883.85,  460.71  L  900.85,  460.71  L  900.85,  452.21 " style="&st2;"/>
		<text style="&st8;" transform="matrix(&st16;  885.96  458.95 )"><tspan style="&st18;" x="0" y="0">TL2</tspan></text>
	</a>
	<a ewd:code="KL1" ewd:figID="26" ewd:figtype="w2w" ewd:pinNo="17" style="cursor:pointer;">
		<path d=" M  314.45,  307.73  L  297.45,  307.73  L  297.45,  316.23  L  314.45,  316.23  L  314.45,  307.73 " style="&st2;"/>
		<text style="&st8;" transform="matrix(&st16;  299.74  314.48 )"><tspan style="&st18;" x="0" y="0">KL1</tspan></text>
	</a>
	<a ewd:code="TL1" ewd:figID="27" ewd:figtype="w2w" ewd:pinNo="1" style="cursor:pointer;">
		<path d=" M  314.45,  443.71  L  297.45,  443.71  L  297.45,  452.21  L  314.45,  452.21  L  314.45,  443.71 " style="&st2;"/>
		<text style="&st8;" transform="matrix(&st16;  299.96  450.45 )"><tspan style="&st18;" x="0" y="0">TL1</tspan></text>
	</a>
	<a ewd:code="TL1" ewd:figID="28" ewd:figtype="w2w" ewd:pinNo="6" style="cursor:pointer;">
		<path d=" M  195.47,  605.18  L  178.47,  605.18  L  178.47,  613.68  L  195.47,  613.68  L  195.47,  605.18 " style="&st2;"/>
		<text style="&st8;" transform="matrix(&st16;  180.98  611.93 )"><tspan style="&st18;" x="0" y="0">TL1</tspan></text>
	</a>
	<a ewd:code="EK2" ewd:figID="29" ewd:figtype="w2w" ewd:pinNo="61" style="cursor:pointer;">
		<path d=" M  628.89,  392.72  L  611.90,  392.72  L  611.90,  401.22  L  628.89,  401.22  L  628.89,  392.72 " style="&st2;"/>
		<text style="&st8;" transform="matrix(&st16;  613.41  399.46 )"><tspan style="&st18;" x="0" y="0">EK2</tspan></text>
	</a>
	<a ewd:code="SK1" ewd:figID="30" ewd:figtype="w2w" ewd:pinNo="4" style="cursor:pointer;">
		<path d=" M  628.89,  452.21  L  611.90,  452.21  L  611.90,  460.71  L  628.89,  460.71  L  628.89,  452.21 " style="&st2;"/>
		<text style="&st8;" transform="matrix(&st16;  613.82  458.95 )"><tspan style="&st18;" x="0" y="0">SK1</tspan></text>
	</a>
	<a ewd:code="L2" ewd:figID="31" ewd:figtype="gp" style="cursor:pointer;">
		<path d=" M  176.35,  681.67  L  197.59,  681.67  L  186.97,  697.25  L  176.35,  681.67 " style="&st2;"/>
		<text style="&st8;" transform="matrix(&st16;  182.8  689.83 )"><tspan style="&st18;" x="0" y="0">L2</tspan></text>
	</a>
	<a ewd:code="K2" ewd:figID="32" ewd:figtype="gp" style="cursor:pointer;">
		<path d=" M   91.36,  681.67  L  112.61,  681.67  L  101.98,  697.25  L   91.36,  681.67 " style="&st2;"/>
		<text style="&st8;" transform="matrix(&st16;  97.45  689.83 )"><tspan style="&st18;" x="0" y="0">K2</tspan></text>
	</a>
	<a ewd:code="E1" ewd:figID="33" ewd:figtype="gp" style="cursor:pointer;">
		<path d=" M  813.74,  681.67  L  834.99,  681.67  L  824.36,  697.25  L  813.74,  681.67 " style="&st2;"/>
		<text style="&st8;" transform="matrix(&st16;  820.24  689.83 )"><tspan style="&st18;" x="0" y="0">E1</tspan></text>
	</a>
	<a ewd:code="E3" ewd:figID="34" ewd:figtype="gp" style="cursor:pointer;">
		<path d=" M  856.23,  681.67  L  877.48,  681.67  L  866.86,  697.25  L  856.23,  681.67 " style="&st2;"/>
		<text style="&st8;" transform="matrix(&st16;  862.32  689.83 )"><tspan style="&st18;" x="0" y="0">E3</tspan></text>
	</a>
	<a ewd:code="5581" ewd:figID="35" ewd:figtype="sp" style="cursor:pointer;">
		<path d=" M  820.11,  520.20  L  828.61,  520.20  L  832.86,  524.45  L  832.86,  532.95  L  828.61,  537.20  L  820.11,  537.20  L  815.86,  532.95  L  815.86,  524.45  L  820.11,  520.20 " style="&st2;"/>
	</a>
</g>
</svg>