﻿<?xml version="1.0" encoding="utf-8"?>
<!DOCTYPE svg PUBLIC "-//W3C//DTD SVG 1.0//EN" "http://www.w3.org/TR/2001/REC-SVG-20010904/DTD/svg10.dtd"[
	<!ENTITY ns_flows "http://ns.adobe.com/Flows/1.0/">
	<!ENTITY ns_svg "http://www.w3.org/2000/svg">
	<!ENTITY ns_xlink "http://www.w3.org/1999/xlink">
	<!ENTITY st0 "font-size:7px;font-family:'MS-PGothic';adobe-font-script:japanese;">
	<!ENTITY st1 "font-size:6px;font-family:'ArialMT';">
	<!-- White fill  -->
	<!ENTITY st2 "fill:#FFFFFF;stroke:#000000; stroke-width:1.41;stroke-linecap:round;stroke-linejoin:round;">
	<!-- Yellow fill  -->
	<!ENTITY st3 "fill:#FFFFCC;stroke:#FFFFCC; stroke-width:0.1;stroke-linecap:round;stroke-linejoin:round;">
	<!-- Gray fill  -->
	<!ENTITY st4 "fill:#CCCCCC;stroke:#CCCCCC; stroke-width:0.1;stroke-linecap:round;stroke-linejoin:round;">
	<!-- Light-blue fill -->
	<!ENTITY st5 "fill:#CCECF4;stroke:#000000; stroke-width:1.133;stroke-linecap:round;stroke-linejoin:round;">
	<!ENTITY st6 "fill:none;stroke-linecap:butt; stroke-linejoin:round;">
	<!ENTITY st7 "fill:none;stroke:#000000;stroke-linecap:round;stroke-linejoin:round;">
	<!ENTITY st8 "enable-background:new    ;">
	<!-- Black fill -->
	<!ENTITY st9 "fill:#000000;stroke:#000000; stroke-linecap:round;stroke-linejoin:round;">
	<!-- SRS note   -->
	<!ENTITY st10 "font-size:9px;font-family:'ArialMT';">
	<!ENTITY st11 "font-size:9px;font-family:'Svg Symbol';">
	<!ENTITY st12 "font-size:6px;font-family:'Svg Symbol';">
	<!ENTITY st13 "fill:none;stroke:#ff0000;stroke-linecap:round;stroke-linejoin:round;">
	<!-- Yellow fill  -->
	<!ENTITY st14 "fill:#FFFF00;stroke:#FFFF00; stroke-width:0.1;stroke-linecap:round;stroke-linejoin:round;">
	<!ENTITY st15 "font-size:6px;font-family:'MS-PGothic';adobe-font-script:japanese;">
	<!ENTITY st16 "1.00 0.00 0.00 1.00">
	<!ENTITY st17 "0.00 -1.00 1.00 0.00">
	<!ENTITY st18 "font-size:6px;font-family:'Arial';">
	<!ENTITY st19 "font-size:9px;font-family:'Arial';">
	<!ENTITY st20 "font-size:6px;font-family:'MS-PGothic','MS PGothic';adobe-font-script:japanese;">
	<!ENTITY st21 "font-size:7px;font-family:'MS-PGothic','MS PGothic';adobe-font-script:japanese;">
	<!ATTLIST svg
		xmlns:ewd CDATA #FIXED "http://shcl.co.jp/ewd"
		xmlns:a CDATA #FIXED "http://ns.adobe.com/AdobeSVGViewerExtensions/3.0/"
		ewd:ver CDATA #IMPLIED
	>
	<!ATTLIST a
		ewd:lineID CDATA #IMPLIED
		ewd:groupID CDATA #IMPLIED
		ewd:figtype CDATA #IMPLIED
		ewd:code CDATA #IMPLIED
		ewd:figID CDATA #IMPLIED
		ewd:pinNo CDATA #IMPLIED
		ewd:comment CDATA #IMPLIED >
	<!ATTLIST g
		ewd:lineID CDATA #IMPLIED
		ewd:groupID CDATA #IMPLIED
		ewd:figtype CDATA #IMPLIED
		ewd:code CDATA #IMPLIED
		ewd:figID CDATA #IMPLIED
		ewd:pinNo CDATA #IMPLIED
		ewd:comment CDATA #IMPLIED >
	<!ATTLIST text
		ewd:textID CDATA #IMPLIED >
	<!ATTLIST title
		ewd:textID CDATA #IMPLIED >
]>
<!-- Generator: Shintec Hozumi YS   -->
<svg onload="call_execInitLoadProc_svg('system')" style="overflow:visible;  enable-background:new 0 0 2567.279 710.000" viewBox="0 0 2567.279 710.000" height="710.000" width="2567.279" xml:space="preserve" ewd:ver="L2.1.2.8" xmlns="&ns_svg;" xmlns:a="http://ns.adobe.com/AdobeSVGViewerExtensions/3.0/" xmlns:ewd="http://shcl.co.jp/ewd" xmlns:xlink="&ns_xlink;">
<path d=" M 1336.40,  129.26  L 1332.15,  129.26 " style="stroke-width: 1.42 ;&st7; " /><path d=" M 1336.40,  137.76  L 1332.15,  137.76 " style="stroke-width: 1.42 ;&st7; " /><path d=" M 1427.76,  447.96  L 1427.76,  443.71 " style="stroke-width: 0.85 ;&st7; " /><path d=" M 1427.76,  477.71  L 1427.76,  473.46 " style="stroke-width: 0.85 ;&st7; " /><path d=" M 1427.76,  470.62  L 1433.43,  447.96 " style="stroke-width: 1.42 ;&st7; " /><path d=" M 1436.26,  358.73  L 1427.76,  358.73 " style="stroke-width: 1.42 ;&st7; " /><path d=" M 1487.25,  447.96  L 1487.25,  443.71 " style="stroke-width: 0.85 ;&st7; " /><path d=" M 1487.25,  477.71  L 1487.25,  473.46 " style="stroke-width: 0.85 ;&st7; " /><path d=" M 1487.25,  470.62  L 1492.92,  447.96 " style="stroke-width: 1.42 ;&st7; " /><path d=" M 1495.75,  358.73  L 1487.25,  358.73 " style="stroke-width: 1.42 ;&st7; " /><path d=" M 1223.80,  290.74  L 1232.29,  290.74 " style="stroke-width: 1.42 ;&st7; " /><path d=" M 1274.79,  290.74  L 1283.29,  290.74 " style="stroke-width: 1.42 ;&st7; " /><path d=" M 1257.79,  364.39  L 1257.79,  381.39 " style="stroke-width: 1.42 ;&st7; " /><path d=" M 1104.82,  290.74  L 1113.31,  290.74 " style="stroke-width: 1.42 ;&st7; " /><path d=" M 1166.43,  129.26  L 1162.18,  129.26 " style="stroke-width: 1.42 ;&st7; " /><path d=" M 1166.43,  120.77  L 1162.18,  120.77 " style="stroke-width: 1.42 ;&st7; " /><path d=" M 1155.81,  290.74  L 1164.31,  290.74 " style="stroke-width: 1.42 ;&st7; " /><path d=" M 1138.81,  364.39  L 1138.81,  381.39 " style="stroke-width: 1.42 ;&st7; " /><path d=" M 1478.75,  282.24  L 1487.25,  282.24 " style="stroke-width: 1.42 ;&st7; " /><path d=" M 1334.28,  124.37  L 1331.44,  121.54  L 1331.44,  125.79  L 1334.28,  128.62  L 1337.11,  125.79  L 1337.11,  121.54  L 1334.28,  124.37 " style="stroke-width: 0.28 ;&st9;" /><path d=" M 1334.28,   86.77  L 1334.28,  129.26 " style="stroke-width: 0.85 ;&st7; " /><path d=" M 1334.28,  697.25  L 1334.28,  701.50 " style="stroke-width: 0.85 ;&st7; " /><path d=" M 1325.78,  701.50  L 1342.78,  701.50 " style="stroke-width: 0.85 ;&st7; " /><path d=" M 1330.03,  704.33  L 1338.53,  704.33 " style="stroke-width: 0.85 ;&st7; " /><path d=" M 1331.44,  707.17  L 1337.11,  707.17 " style="stroke-width: 0.85 ;&st7; " /><path d=" M 1332.86,  710.00  L 1335.69,  710.00 " style="stroke-width: 0.85 ;&st7; " /><path d=" M 1325.78,  197.25  L 1325.78,  214.25  L 1342.78,  214.25  L 1342.78,  197.25  L 1325.78,  197.25 " style="stroke-width: 1.42 ;&st7; " /><path d=" M 1334.28,  214.25  L 1334.28,  197.25 " style="stroke-width: 0.85 ;&st7; " /><path d=" M 1385.27,  197.25  L 1385.27,  214.25 " style="stroke-width: 0.85 ;&st7; " /><path d=" M 1383.85,  710.00  L 1386.68,  710.00 " style="stroke-width: 0.85 ;&st7; " /><path d=" M 1382.44,  707.17  L 1388.10,  707.17 " style="stroke-width: 0.85 ;&st7; " /><path d=" M 1381.02,  704.33  L 1389.52,  704.33 " style="stroke-width: 0.85 ;&st7; " /><path d=" M 1376.77,  701.50  L 1393.77,  701.50 " style="stroke-width: 0.85 ;&st7; " /><path d=" M 1385.27,  697.25  L 1385.27,  701.50 " style="stroke-width: 0.85 ;&st7; " /><path d=" M 1385.27,  197.25  L 1385.27,  214.25 " style="stroke-width: 0.85 ;&st7; " /><path d=" M 1376.77,  197.25  L 1393.77,  197.25  L 1393.77,  214.25  L 1376.77,  214.25  L 1376.77,  197.25 " style="stroke-width: 1.42 ;&st7; " /><path d=" M 1079.32,  197.25  L 1079.32,  214.25 " style="stroke-width: 0.85 ;&st7; " /><path d=" M 1070.82,  197.25  L 1087.82,  197.25  L 1087.82,  214.25  L 1070.82,  214.25  L 1070.82,  197.25 " style="stroke-width: 1.42 ;&st7; " /><path d=" M 1432.01,  364.39  L 1427.76,  360.14  L 1423.51,  364.39 " style="stroke-width: 1.42 ;&st7; " /><path d=" M 1432.01,  367.79  L 1427.76,  363.54  L 1423.51,  367.79 " style="stroke-width: 1.42 ;&st7; " /><path d=" M 1427.76,  197.25  L 1427.76,  214.25 " style="stroke-width: 0.85 ;&st7; " /><path d=" M 1426.34,  494.70  L 1429.18,  494.70 " style="stroke-width: 0.85 ;&st7; " /><path d=" M 1424.93,  491.87  L 1430.59,  491.87 " style="stroke-width: 0.85 ;&st7; " /><path d=" M 1423.51,  489.04  L 1432.01,  489.04 " style="stroke-width: 0.85 ;&st7; " /><path d=" M 1419.26,  486.20  L 1436.26,  486.20 " style="stroke-width: 0.85 ;&st7; " /><path d=" M 1427.76,  477.71  L 1427.76,  486.20 " style="stroke-width: 0.85 ;&st7; " /><path d=" M 1436.26,  477.71  L 1436.26,  443.71  L 1419.26,  443.71  L 1419.26,  477.71  L 1436.26,  477.71 " style="stroke-width: 1.42 ;&st7; " /><path d=" M 1419.26,  197.25  L 1436.26,  197.25  L 1436.26,  214.25  L 1419.26,  214.25  L 1419.26,  197.25 " style="stroke-width: 1.42 ;&st7; " /><path d=" M 1478.75,  197.25  L 1495.75,  197.25  L 1495.75,  214.25  L 1478.75,  214.25  L 1478.75,  197.25 " style="stroke-width: 1.42 ;&st7; " /><path d=" M 1487.25,  197.25  L 1487.25,  214.25 " style="stroke-width: 0.85 ;&st7; " /><path d=" M 1491.50,  364.39  L 1487.25,  360.14  L 1483.00,  364.39 " style="stroke-width: 1.42 ;&st7; " /><path d=" M 1485.83,  494.70  L 1488.67,  494.70 " style="stroke-width: 0.85 ;&st7; " /><path d=" M 1484.42,  491.87  L 1490.08,  491.87 " style="stroke-width: 0.85 ;&st7; " /><path d=" M 1483.00,  489.04  L 1491.50,  489.04 " style="stroke-width: 0.85 ;&st7; " /><path d=" M 1478.75,  486.20  L 1495.75,  486.20 " style="stroke-width: 0.85 ;&st7; " /><path d=" M 1487.25,  477.71  L 1487.25,  486.20 " style="stroke-width: 0.85 ;&st7; " /><path d=" M 1495.75,  477.71  L 1495.75,  443.71  L 1478.75,  443.71  L 1478.75,  477.71  L 1495.75,  477.71 " style="stroke-width: 1.42 ;&st7; " /><path d=" M 1491.50,  367.79  L 1487.25,  363.54  L 1483.00,  367.79 " style="stroke-width: 1.42 ;&st7; " /><path d=" M 1128.89,  368.64  L 1113.31,  368.64  L 1113.31,  341.73 " style="stroke-width: 0.85 ;&st7; " /><path d=" M 1148.72,  368.64  L 1164.30,  368.64  L 1164.30,  341.73 " style="stroke-width: 0.85 ;&st7; " /><path d=" M 1181.30,  341.73  L 1181.30,  418.22  L 1096.32,  418.22  L 1096.32,  341.73  L 1181.30,  341.73 " style="stroke-width: 1.42 ;&st7; " /><path d=" M 1160.06,  281.67  L 1164.30,  285.92  L 1168.55,  281.67 " style="stroke-width: 1.42 ;&st7; " /><path d=" M 1168.55,  285.07  L 1164.30,  289.32  L 1160.06,  285.07 " style="stroke-width: 1.42 ;&st7; " /><path d=" M 1164.30,  115.87  L 1161.47,  113.04  L 1161.47,  117.29  L 1164.30,  120.12  L 1167.14,  117.29  L 1167.14,  113.04  L 1164.30,  115.87 " style="stroke-width: 0.28 ;&st9;" /><path d=" M 1164.30,   86.77  L 1164.30,  120.77 " style="stroke-width: 0.85 ;&st7; " /><path d=" M 1117.56,  285.07  L 1113.31,  289.32  L 1109.06,  285.07 " style="stroke-width: 1.42 ;&st7; " /><path d=" M 1109.06,  281.67  L 1113.31,  285.92  L 1117.56,  281.67 " style="stroke-width: 1.42 ;&st7; " /><path d=" M 1300.28,  341.73  L 1300.28,  418.22  L 1215.30,  418.22  L 1215.30,  341.73  L 1300.28,  341.73 " style="stroke-width: 1.42 ;&st7; " /><path d=" M 1249.29,  701.50  L 1266.29,  701.50 " style="stroke-width: 0.85 ;&st7; " /><path d=" M 1257.79,  697.25  L 1257.79,  701.50 " style="stroke-width: 0.85 ;&st7; " /><path d=" M 1138.81,  697.25  L 1138.81,  701.50 " style="stroke-width: 0.85 ;&st7; " /><path d=" M 1130.31,  701.50  L 1147.31,  701.50 " style="stroke-width: 0.85 ;&st7; " /><path d=" M 1135.98,  707.17  L 1141.64,  707.17 " style="stroke-width: 0.85 ;&st7; " /><path d=" M 1137.39,  710.00  L 1140.23,  710.00 " style="stroke-width: 0.85 ;&st7; " /><path d=" M 1134.56,  704.33  L 1143.06,  704.33 " style="stroke-width: 0.85 ;&st7; " /><path d=" M 1253.54,  704.33  L 1262.04,  704.33 " style="stroke-width: 0.85 ;&st7; " /><path d=" M 1254.96,  707.17  L 1260.62,  707.17 " style="stroke-width: 0.85 ;&st7; " /><path d=" M 1256.37,  710.00  L 1259.21,  710.00 " style="stroke-width: 0.85 ;&st7; " /><path d=" M 1267.70,  368.64  L 1283.29,  368.64  L 1283.29,  341.73 " style="stroke-width: 0.85 ;&st7; " /><path d=" M 1247.87,  368.64  L 1232.29,  368.64  L 1232.29,  341.73 " style="stroke-width: 0.85 ;&st7; " /><path d=" M 1121.81,  337.20  L 1151.56,  337.20 " style="stroke-width: 0.85 ;&st7;stroke-dasharray:3, 1.5;" /><path d=" M 1121.81,  328.13  L 1151.56,  328.13 " style="stroke-width: 0.85 ;&st7;stroke-dasharray:3, 1.5;" /><path d=" M 1287.53,  285.07  L 1283.29,  289.32  L 1279.04,  285.07 " style="stroke-width: 1.42 ;&st7; " /><path d=" M 1279.04,  281.67  L 1283.29,  285.92  L 1287.53,  281.67 " style="stroke-width: 1.42 ;&st7; " /><path d=" M 1236.54,  285.07  L 1232.29,  289.32  L 1228.04,  285.07 " style="stroke-width: 1.42 ;&st7; " /><path d=" M 1228.04,  281.67  L 1232.29,  285.92  L 1236.54,  281.67 " style="stroke-width: 1.42 ;&st7; " /><path d=" M 1240.79,  337.20  L 1270.54,  337.20 " style="stroke-width: 0.85 ;&st7;stroke-dasharray:3, 1.5;" /><path d=" M 1257.79,  384.22  L 1257.79,  418.22 " style="stroke-width: 0.85 ;&st7; " /><path d=" M 1240.79,  328.13  L 1270.54,  328.13 " style="stroke-width: 0.85 ;&st7;stroke-dasharray:3, 1.5;" /><path d=" M 1138.81,  384.22  L 1138.81,  418.22 " style="stroke-width: 0.85 ;&st7; " /><path d=" M 1491.50,  276.57  L 1487.25,  280.82  L 1483.00,  276.57 " style="stroke-width: 1.42 ;&st7; " /><path d=" M 1483.00,  273.17  L 1487.25,  277.42  L 1491.50,  273.17 " style="stroke-width: 1.42 ;&st7; " /><path d=" M 1436.26,  100.37  L 1470.25,  100.37 " style="stroke-width: 0.85 ;&st7;stroke-dasharray:3, 1.5;" /><path d=" M 1436.26,   91.30  L 1470.25,   91.30 " style="stroke-width: 0.85 ;&st7;stroke-dasharray:3, 1.5;" /><path d=" M 1438.38,   81.11  L 1476.63,   81.11 " style="stroke-width: 0.85 ;&st7;stroke-dasharray:3, 1.5;" /><path d=" M 1438.38,   75.16  L 1476.63,   75.16 " style="stroke-width: 0.85 ;&st7;stroke-dasharray:3, 1.5;" /><path d=" M 1332.15,  129.26  C 1329.81   129.26  1327.90   131.17  1327.90   133.51 " style="stroke-width: 1.42 ;&st7; " /><path d=" M 1327.90,  133.51  C 1327.90   135.86  1329.81   137.76  1332.15   137.76 " style="stroke-width: 1.42 ;&st7; " /><path d=" M 1336.40,  137.76  C 1338.75   137.76  1340.65   135.86  1340.65   133.51 " style="stroke-width: 1.42 ;&st7; " /><path d=" M 1340.65,  133.51  C 1340.65   131.17  1338.75   129.26  1336.40   129.26 " style="stroke-width: 1.42 ;&st7; " /><path d=" M 1389.80,   91.30  C 1389.80    88.80  1387.77    86.77  1385.27    86.77 " style="stroke-width: 1.42 ;&st7; " /><path d=" M 1385.27,   86.77  C 1382.77    86.77  1380.74    88.80  1380.74    91.30 " style="stroke-width: 1.42 ;&st7; " /><path d=" M 1380.74,   91.30  C 1380.74    93.81  1382.77    95.84  1385.27    95.84 " style="stroke-width: 1.42 ;&st7; " /><path d=" M 1385.27,   95.84  C 1387.77    95.84  1389.80    93.81  1389.80    91.30 " style="stroke-width: 1.42 ;&st7; " /><path d=" M 1083.85,  227.85  C 1083.85   225.34  1081.82   223.31  1079.32   223.31 " style="stroke-width: 1.42 ;&st7; " /><path d=" M 1079.32,  223.31  C 1076.82   223.31  1074.79   225.34  1074.79   227.85 " style="stroke-width: 1.42 ;&st7; " /><path d=" M 1074.79,  227.85  C 1074.79   230.35  1076.82   232.38  1079.32   232.38 " style="stroke-width: 1.42 ;&st7; " /><path d=" M 1079.32,  232.38  C 1081.82   232.38  1083.85   230.35  1083.85   227.85 " style="stroke-width: 1.42 ;&st7; " /><path d=" M 1083.85,  218.78  C 1083.85   216.28  1081.82   214.25  1079.32   214.25 " style="stroke-width: 1.42 ;&st7; " /><path d=" M 1079.32,  214.25  C 1076.82   214.25  1074.79   216.28  1074.79   218.78 " style="stroke-width: 1.42 ;&st7; " /><path d=" M 1074.79,  218.78  C 1074.79   221.29  1076.82   223.31  1079.32   223.31 " style="stroke-width: 1.42 ;&st7; " /><path d=" M 1079.32,  223.31  C 1081.82   223.31  1083.85   221.29  1083.85   218.78 " style="stroke-width: 1.42 ;&st7; " /><path d=" M 1083.85,  192.72  C 1083.85   190.22  1081.82   188.19  1079.32   188.19 " style="stroke-width: 1.42 ;&st7; " /><path d=" M 1079.32,  188.19  C 1076.82   188.19  1074.79   190.22  1074.79   192.72 " style="stroke-width: 1.42 ;&st7; " /><path d=" M 1074.79,  192.72  C 1074.79   195.22  1076.82   197.25  1079.32   197.25 " style="stroke-width: 1.42 ;&st7; " /><path d=" M 1079.32,  197.25  C 1081.82   197.25  1083.85   195.22  1083.85   192.72 " style="stroke-width: 1.42 ;&st7; " /><path d=" M 1083.85,  183.65  C 1083.85   181.15  1081.82   179.12  1079.32   179.12 " style="stroke-width: 1.42 ;&st7; " /><path d=" M 1079.32,  179.12  C 1076.82   179.12  1074.79   181.15  1074.79   183.65 " style="stroke-width: 1.42 ;&st7; " /><path d=" M 1074.79,  183.65  C 1074.79   186.16  1076.82   188.19  1079.32   188.19 " style="stroke-width: 1.42 ;&st7; " /><path d=" M 1079.32,  188.19  C 1081.82   188.19  1083.85   186.16  1083.85   183.65 " style="stroke-width: 1.42 ;&st7; " /><path d=" M 1432.29,  218.78  C 1432.29   216.28  1430.26   214.25  1427.76   214.25 " style="stroke-width: 1.42 ;&st7; " /><path d=" M 1427.76,  214.25  C 1425.26   214.25  1423.23   216.28  1423.23   218.78 " style="stroke-width: 1.42 ;&st7; " /><path d=" M 1423.23,  218.78  C 1423.23   221.29  1425.26   223.31  1427.76   223.31 " style="stroke-width: 1.42 ;&st7; " /><path d=" M 1427.76,  223.31  C 1430.26   223.31  1432.29   221.29  1432.29   218.78 " style="stroke-width: 1.42 ;&st7; " /><path d=" M 1432.29,  192.72  C 1432.29   190.22  1430.26   188.19  1427.76   188.19 " style="stroke-width: 1.42 ;&st7; " /><path d=" M 1427.76,  188.19  C 1425.26   188.19  1423.23   190.22  1423.23   192.72 " style="stroke-width: 1.42 ;&st7; " /><path d=" M 1423.23,  192.72  C 1423.23   195.22  1425.26   197.25  1427.76   197.25 " style="stroke-width: 1.42 ;&st7; " /><path d=" M 1427.76,  197.25  C 1430.26   197.25  1432.29   195.22  1432.29   192.72 " style="stroke-width: 1.42 ;&st7; " /><path d=" M 1491.78,   91.30  C 1491.78    88.80  1489.75    86.77  1487.25    86.77 " style="stroke-width: 1.42 ;&st7; " /><path d=" M 1487.25,   86.77  C 1484.75    86.77  1482.72    88.80  1482.72    91.30 " style="stroke-width: 1.42 ;&st7; " /><path d=" M 1482.72,   91.30  C 1482.72    93.81  1484.75    95.84  1487.25    95.84 " style="stroke-width: 1.42 ;&st7; " /><path d=" M 1487.25,   95.84  C 1489.75    95.84  1491.78    93.81  1491.78    91.30 " style="stroke-width: 1.42 ;&st7; " /><path d=" M 1491.78,  100.37  C 1491.78    97.87  1489.75    95.84  1487.25    95.84 " style="stroke-width: 1.42 ;&st7; " /><path d=" M 1487.25,   95.84  C 1484.75    95.84  1482.72    97.87  1482.72   100.37 " style="stroke-width: 1.42 ;&st7; " /><path d=" M 1482.72,  100.37  C 1482.72   102.87  1484.75   104.90  1487.25   104.90 " style="stroke-width: 1.42 ;&st7; " /><path d=" M 1487.25,  104.90  C 1489.75   104.90  1491.78   102.87  1491.78   100.37 " style="stroke-width: 1.42 ;&st7; " /><path d=" M 1432.29,   91.30  C 1432.29    88.80  1430.26    86.77  1427.76    86.77 " style="stroke-width: 1.42 ;&st7; " /><path d=" M 1427.76,   86.77  C 1425.26    86.77  1423.23    88.80  1423.23    91.30 " style="stroke-width: 1.42 ;&st7; " /><path d=" M 1423.23,   91.30  C 1423.23    93.81  1425.26    95.84  1427.76    95.84 " style="stroke-width: 1.42 ;&st7; " /><path d=" M 1427.76,   95.84  C 1430.26    95.84  1432.29    93.81  1432.29    91.30 " style="stroke-width: 1.42 ;&st7; " /><path d=" M 1432.29,  100.37  C 1432.29    97.87  1430.26    95.84  1427.76    95.84 " style="stroke-width: 1.42 ;&st7; " /><path d=" M 1427.76,   95.84  C 1425.26    95.84  1423.23    97.87  1423.23   100.37 " style="stroke-width: 1.42 ;&st7; " /><path d=" M 1423.23,  100.37  C 1423.23   102.87  1425.26   104.90  1427.76   104.90 " style="stroke-width: 1.42 ;&st7; " /><path d=" M 1427.76,  104.90  C 1430.26   104.90  1432.29   102.87  1432.29   100.37 " style="stroke-width: 1.42 ;&st7; " /><path d=" M 1083.85,   91.30  C 1083.85    88.80  1081.82    86.77  1079.32    86.77 " style="stroke-width: 1.42 ;&st7; " /><path d=" M 1079.32,   86.77  C 1076.82    86.77  1074.79    88.80  1074.79    91.30 " style="stroke-width: 1.42 ;&st7; " /><path d=" M 1074.79,   91.30  C 1074.79    93.81  1076.82    95.84  1079.32    95.84 " style="stroke-width: 1.42 ;&st7; " /><path d=" M 1079.32,   95.84  C 1081.82    95.84  1083.85    93.81  1083.85    91.30 " style="stroke-width: 1.42 ;&st7; " /><path d=" M 1429.18,  449.38  C 1429.18   448.59  1428.54   447.96  1427.76   447.96 " style="stroke-width: 0.85 ;&st7; " /><path d=" M 1427.76,  447.96  C 1426.98   447.96  1426.35   448.59  1426.35   449.38 " style="stroke-width: 0.85 ;&st7; " /><path d=" M 1426.35,  449.38  C 1426.35   450.16  1426.98   450.79  1427.76   450.79 " style="stroke-width: 0.85 ;&st7; " /><path d=" M 1427.76,  450.79  C 1428.54   450.79  1429.18   450.16  1429.18   449.38 " style="stroke-width: 0.85 ;&st7; " /><path d=" M 1429.18,  472.04  C 1429.18   471.26  1428.54   470.62  1427.76   470.62 " style="stroke-width: 0.85 ;&st7; " /><path d=" M 1427.76,  470.62  C 1426.98   470.62  1426.35   471.26  1426.35   472.04 " style="stroke-width: 0.85 ;&st7; " /><path d=" M 1426.35,  472.04  C 1426.35   472.82  1426.98   473.46  1427.76   473.46 " style="stroke-width: 0.85 ;&st7; " /><path d=" M 1427.76,  473.46  C 1428.54   473.46  1429.18   472.82  1429.18   472.04 " style="stroke-width: 0.85 ;&st7; " /><path d=" M 1488.67,  449.38  C 1488.67   448.59  1488.03   447.96  1487.25   447.96 " style="stroke-width: 0.85 ;&st7; " /><path d=" M 1487.25,  447.96  C 1486.47   447.96  1485.84   448.59  1485.84   449.38 " style="stroke-width: 0.85 ;&st7; " /><path d=" M 1485.84,  449.38  C 1485.84   450.16  1486.47   450.79  1487.25   450.79 " style="stroke-width: 0.85 ;&st7; " /><path d=" M 1487.25,  450.79  C 1488.03   450.79  1488.67   450.16  1488.67   449.38 " style="stroke-width: 0.85 ;&st7; " /><path d=" M 1488.67,  472.04  C 1488.67   471.26  1488.03   470.62  1487.25   470.62 " style="stroke-width: 0.85 ;&st7; " /><path d=" M 1487.25,  470.62  C 1486.47   470.62  1485.84   471.26  1485.84   472.04 " style="stroke-width: 0.85 ;&st7; " /><path d=" M 1485.84,  472.04  C 1485.84   472.82  1486.47   473.46  1487.25   473.46 " style="stroke-width: 0.85 ;&st7; " /><path d=" M 1487.25,  473.46  C 1488.03   473.46  1488.67   472.82  1488.67   472.04 " style="stroke-width: 0.85 ;&st7; " /><path d=" M 1287.82,  337.20  C 1287.82   334.69  1285.79   332.66  1283.29   332.66 " style="stroke-width: 1.42 ;&st7; " /><path d=" M 1283.29,  332.66  C 1280.78   332.66  1278.75   334.69  1278.75   337.20 " style="stroke-width: 1.42 ;&st7; " /><path d=" M 1278.75,  337.20  C 1278.75   339.70  1280.78   341.73  1283.29   341.73 " style="stroke-width: 1.42 ;&st7; " /><path d=" M 1283.29,  341.73  C 1285.79   341.73  1287.82   339.70  1287.82   337.20 " style="stroke-width: 1.42 ;&st7; " /><path d=" M 1143.34,  422.75  C 1143.34   420.24  1141.31   418.22  1138.81   418.22 " style="stroke-width: 1.42 ;&st7; " /><path d=" M 1138.81,  418.22  C 1136.31   418.22  1134.28   420.24  1134.28   422.75 " style="stroke-width: 1.42 ;&st7; " /><path d=" M 1134.28,  422.75  C 1134.28   425.25  1136.31   427.28  1138.81   427.28 " style="stroke-width: 1.42 ;&st7; " /><path d=" M 1138.81,  427.28  C 1141.31   427.28  1143.34   425.25  1143.34   422.75 " style="stroke-width: 1.42 ;&st7; " /><path d=" M 1117.85,   91.30  C 1117.85    88.80  1115.82    86.77  1113.31    86.77 " style="stroke-width: 1.42 ;&st7; " /><path d=" M 1113.31,   86.77  C 1110.81    86.77  1108.78    88.80  1108.78    91.30 " style="stroke-width: 1.42 ;&st7; " /><path d=" M 1108.78,   91.30  C 1108.78    93.81  1110.81    95.84  1113.31    95.84 " style="stroke-width: 1.42 ;&st7; " /><path d=" M 1113.31,   95.84  C 1115.82    95.84  1117.85    93.81  1117.85    91.30 " style="stroke-width: 1.42 ;&st7; " /><path d=" M 1170.68,  125.01  C 1170.68   122.67  1168.78   120.77  1166.43   120.77 " style="stroke-width: 1.42 ;&st7; " /><path d=" M 1166.43,  129.26  C 1168.78   129.26  1170.68   127.36  1170.68   125.01 " style="stroke-width: 1.42 ;&st7; " /><path d=" M 1157.93,  125.01  C 1157.93   127.36  1159.83   129.26  1162.18   129.26 " style="stroke-width: 1.42 ;&st7; " /><path d=" M 1162.18,  120.77  C 1159.83   120.77  1157.93   122.67  1157.93   125.01 " style="stroke-width: 1.42 ;&st7; " /><path d=" M 1140.23,  382.80  C 1140.23   382.02  1139.59   381.39  1138.81   381.39 " style="stroke-width: 0.85 ;&st7; " /><path d=" M 1138.81,  381.39  C 1138.03   381.39  1137.39   382.02  1137.39   382.80 " style="stroke-width: 0.85 ;&st7; " /><path d=" M 1137.39,  382.80  C 1137.39   383.59  1138.03   384.22  1138.81   384.22 " style="stroke-width: 0.85 ;&st7; " /><path d=" M 1138.81,  384.22  C 1139.59   384.22  1140.23   383.59  1140.23   382.80 " style="stroke-width: 0.85 ;&st7; " /><path d=" M 1131.73,  368.64  C 1131.73   367.86  1131.09   367.22  1130.31   367.22 " style="stroke-width: 0.85 ;&st7; " /><path d=" M 1130.31,  367.22  C 1129.53   367.22  1128.89   367.86  1128.89   368.64 " style="stroke-width: 0.85 ;&st7; " /><path d=" M 1128.89,  368.64  C 1128.89   369.42  1129.53   370.06  1130.31   370.06 " style="stroke-width: 0.85 ;&st7; " /><path d=" M 1130.31,  370.06  C 1131.09   370.06  1131.73   369.42  1131.73   368.64 " style="stroke-width: 0.85 ;&st7; " /><path d=" M 1148.72,  368.64  C 1148.72   367.86  1148.09   367.22  1147.31   367.22 " style="stroke-width: 0.85 ;&st7; " /><path d=" M 1147.31,  367.22  C 1146.53   367.22  1145.89   367.86  1145.89   368.64 " style="stroke-width: 0.85 ;&st7; " /><path d=" M 1145.89,  368.64  C 1145.89   369.42  1146.53   370.06  1147.31   370.06 " style="stroke-width: 0.85 ;&st7; " /><path d=" M 1147.31,  370.06  C 1148.09   370.06  1148.72   369.42  1148.72   368.64 " style="stroke-width: 0.85 ;&st7; " /><path d=" M 1143.34,  431.81  C 1143.34   429.31  1141.31   427.28  1138.81   427.28 " style="stroke-width: 1.42 ;&st7; " /><path d=" M 1138.81,  427.28  C 1136.31   427.28  1134.28   429.31  1134.28   431.81 " style="stroke-width: 1.42 ;&st7; " /><path d=" M 1134.28,  431.81  C 1134.28   434.32  1136.31   436.35  1138.81   436.35 " style="stroke-width: 1.42 ;&st7; " /><path d=" M 1138.81,  436.35  C 1141.31   436.35  1143.34   434.32  1143.34   431.81 " style="stroke-width: 1.42 ;&st7; " /><path d=" M 1259.21,  382.80  C 1259.21   382.02  1258.57   381.39  1257.79   381.39 " style="stroke-width: 0.85 ;&st7; " /><path d=" M 1257.79,  381.39  C 1257.01   381.39  1256.37   382.02  1256.37   382.80 " style="stroke-width: 0.85 ;&st7; " /><path d=" M 1256.37,  382.80  C 1256.37   383.59  1257.01   384.22  1257.79   384.22 " style="stroke-width: 0.85 ;&st7; " /><path d=" M 1257.79,  384.22  C 1258.57   384.22  1259.21   383.59  1259.21   382.80 " style="stroke-width: 0.85 ;&st7; " /><path d=" M 1250.71,  368.64  C 1250.71   367.86  1250.07   367.22  1249.29   367.22 " style="stroke-width: 0.85 ;&st7; " /><path d=" M 1249.29,  367.22  C 1248.51   367.22  1247.87   367.86  1247.87   368.64 " style="stroke-width: 0.85 ;&st7; " /><path d=" M 1247.87,  368.64  C 1247.87   369.42  1248.51   370.06  1249.29   370.06 " style="stroke-width: 0.85 ;&st7; " /><path d=" M 1249.29,  370.06  C 1250.07   370.06  1250.71   369.42  1250.71   368.64 " style="stroke-width: 0.85 ;&st7; " /><path d=" M 1267.70,  368.64  C 1267.70   367.86  1267.07   367.22  1266.29   367.22 " style="stroke-width: 0.85 ;&st7; " /><path d=" M 1266.29,  367.22  C 1265.51   367.22  1264.87   367.86  1264.87   368.64 " style="stroke-width: 0.85 ;&st7; " /><path d=" M 1264.87,  368.64  C 1264.87   369.42  1265.51   370.06  1266.29   370.06 " style="stroke-width: 0.85 ;&st7; " /><path d=" M 1266.29,  370.06  C 1267.07   370.06  1267.70   369.42  1267.70   368.64 " style="stroke-width: 0.85 ;&st7; " /><path d=" M 1117.85,  337.20  C 1117.85   334.69  1115.82   332.66  1113.31   332.66 " style="stroke-width: 1.42 ;&st7; " /><path d=" M 1113.31,  332.66  C 1110.81   332.66  1108.78   334.69  1108.78   337.20 " style="stroke-width: 1.42 ;&st7; " /><path d=" M 1108.78,  337.20  C 1108.78   339.70  1110.81   341.73  1113.31   341.73 " style="stroke-width: 1.42 ;&st7; " /><path d=" M 1113.31,  341.73  C 1115.82   341.73  1117.85   339.70  1117.85   337.20 " style="stroke-width: 1.42 ;&st7; " /><path d=" M 1168.84,  337.20  C 1168.84   334.69  1166.81   332.66  1164.31   332.66 " style="stroke-width: 1.42 ;&st7; " /><path d=" M 1164.31,  332.66  C 1161.80   332.66  1159.77   334.69  1159.77   337.20 " style="stroke-width: 1.42 ;&st7; " /><path d=" M 1159.77,  337.20  C 1159.77   339.70  1161.80   341.73  1164.31   341.73 " style="stroke-width: 1.42 ;&st7; " /><path d=" M 1164.31,  341.73  C 1166.81   341.73  1168.84   339.70  1168.84   337.20 " style="stroke-width: 1.42 ;&st7; " /><path d=" M 1117.85,  328.13  C 1117.85   325.63  1115.82   323.60  1113.31   323.60 " style="stroke-width: 1.42 ;&st7; " /><path d=" M 1113.31,  323.60  C 1110.81   323.60  1108.78   325.63  1108.78   328.13 " style="stroke-width: 1.42 ;&st7; " /><path d=" M 1108.78,  328.13  C 1108.78   330.63  1110.81   332.66  1113.31   332.66 " style="stroke-width: 1.42 ;&st7; " /><path d=" M 1113.31,  332.66  C 1115.82   332.66  1117.85   330.63  1117.85   328.13 " style="stroke-width: 1.42 ;&st7; " /><path d=" M 1168.84,  328.13  C 1168.84   325.63  1166.81   323.60  1164.31   323.60 " style="stroke-width: 1.42 ;&st7; " /><path d=" M 1164.31,  323.60  C 1161.80   323.60  1159.77   325.63  1159.77   328.13 " style="stroke-width: 1.42 ;&st7; " /><path d=" M 1159.77,  328.13  C 1159.77   330.63  1161.80   332.66  1164.31   332.66 " style="stroke-width: 1.42 ;&st7; " /><path d=" M 1164.31,  332.66  C 1166.81   332.66  1168.84   330.63  1168.84   328.13 " style="stroke-width: 1.42 ;&st7; " /><path d=" M 1236.83,  337.20  C 1236.83   334.69  1234.80   332.66  1232.29   332.66 " style="stroke-width: 1.42 ;&st7; " /><path d=" M 1232.29,  332.66  C 1229.79   332.66  1227.76   334.69  1227.76   337.20 " style="stroke-width: 1.42 ;&st7; " /><path d=" M 1227.76,  337.20  C 1227.76   339.70  1229.79   341.73  1232.29   341.73 " style="stroke-width: 1.42 ;&st7; " /><path d=" M 1232.29,  341.73  C 1234.80   341.73  1236.83   339.70  1236.83   337.20 " style="stroke-width: 1.42 ;&st7; " /><path d=" M 1287.82,  328.13  C 1287.82   325.63  1285.79   323.60  1283.29   323.60 " style="stroke-width: 1.42 ;&st7; " /><path d=" M 1283.29,  323.60  C 1280.78   323.60  1278.75   325.63  1278.75   328.13 " style="stroke-width: 1.42 ;&st7; " /><path d=" M 1278.75,  328.13  C 1278.75   330.63  1280.78   332.66  1283.29   332.66 " style="stroke-width: 1.42 ;&st7; " /><path d=" M 1283.29,  332.66  C 1285.79   332.66  1287.82   330.63  1287.82   328.13 " style="stroke-width: 1.42 ;&st7; " /><path d=" M 1236.83,  328.13  C 1236.83   325.63  1234.80   323.60  1232.29   323.60 " style="stroke-width: 1.42 ;&st7; " /><path d=" M 1232.29,  323.60  C 1229.79   323.60  1227.76   325.63  1227.76   328.13 " style="stroke-width: 1.42 ;&st7; " /><path d=" M 1227.76,  328.13  C 1227.76   330.63  1229.79   332.66  1232.29   332.66 " style="stroke-width: 1.42 ;&st7; " /><path d=" M 1232.29,  332.66  C 1234.80   332.66  1236.83   330.63  1236.83   328.13 " style="stroke-width: 1.42 ;&st7; " /><path d=" M 1262.32,  422.75  C 1262.32   420.24  1260.29   418.22  1257.79   418.22 " style="stroke-width: 1.42 ;&st7; " /><path d=" M 1257.79,  418.22  C 1255.29   418.22  1253.26   420.24  1253.26   422.75 " style="stroke-width: 1.42 ;&st7; " /><path d=" M 1253.26,  422.75  C 1253.26   425.25  1255.29   427.28  1257.79   427.28 " style="stroke-width: 1.42 ;&st7; " /><path d=" M 1257.79,  427.28  C 1260.29   427.28  1262.32   425.25  1262.32   422.75 " style="stroke-width: 1.42 ;&st7; " /><path d=" M 1262.32,  431.81  C 1262.32   429.31  1260.29   427.28  1257.79   427.28 " style="stroke-width: 1.42 ;&st7; " /><path d=" M 1257.79,  427.28  C 1255.29   427.28  1253.26   429.31  1253.26   431.81 " style="stroke-width: 1.42 ;&st7; " /><path d=" M 1253.26,  431.81  C 1253.26   434.32  1255.29   436.35  1257.79   436.35 " style="stroke-width: 1.42 ;&st7; " /><path d=" M 1257.79,  436.35  C 1260.29   436.35  1262.32   434.32  1262.32   431.81 " style="stroke-width: 1.42 ;&st7; " /><text ewd:textID="20" style="&st18;" transform="matrix(&st16;  1280.76  32.08 )">Main Body ECU</text><text style="&st18;" transform="matrix(&st16;  1280.76  24.98 )">E1(A),E2(B),E3(C)</text><text style="&st18;" transform="matrix(&st17;  1401.38  216.77 )">E67</text><text ewd:textID="17" style="&st18;" transform="matrix(&st17;  1408.48  216.77 )">Junction Connector</text><text style="&st18;" transform="matrix(&st16;  1378.48  193.56 )">7</text><text style="&st18;" transform="matrix(&st17;  1381.57  168.06 )">BR</text><text style="&st18;" transform="matrix(&st16;  1382.8  93.27 )">C</text><text style="&st18;" transform="matrix(&st16;  1375.17  93.27 )">1</text><text style="&st18;" transform="matrix(&st16;  1375.59  83.07 )">GND3</text><text style="&st18;" transform="matrix(&st17;  1381.57  261.55 )">BR</text><text style="&st18;" transform="matrix(&st16;  1375.3  222.44 )">13</text><text style="&st18;" transform="matrix(&st17;  1330.58  170.96 )">W-B</text><text style="&st18;" transform="matrix(&st17;  1330.58  264.44 )">W-B</text><text style="&st18;" transform="matrix(&st16;  1327.49  94.96 )">4</text><text style="&st18;" transform="matrix(&st16;  1324.6  83.07 )">GND2</text><text style="&st18;" transform="matrix(&st16;  1327.49  193.56 )">4</text><text style="&st18;" transform="matrix(&st16;  1328.27  222.44 )">1</text><text style="&st18;" transform="matrix(&st16;  1317.63  135.48 )">62</text><text style="&st18;" transform="matrix(&st16;  1329.83  135.48 )">2D</text><text ewd:textID="17" style="&st18;" transform="matrix(&st17;  1357.49  216.77 )">Junction Connector</text><text style="&st18;" transform="matrix(&st17;  1350.39  216.77 )">E62</text><text style="&st18;" transform="matrix(&st17;  1075.62  259.5 )">G</text><text style="&st18;" transform="matrix(&st16;  1076.85  93.27 )">C</text><text style="&st18;" transform="matrix(&st16;  1065.26  93.27 )">10</text><text style="&st18;" transform="matrix(&st16;  1071.9  83.07 )">LIN2</text><text style="&st18;" transform="matrix(&st17;  1075.62  166.01 )">G</text><text style="&st18;" transform="matrix(&st16;  1008.58  406.02 )">G</text><text style="&st18;" transform="matrix(&st16;  1059.57  406.02 )">G</text><text style="&st18;" transform="matrix(&st17;  1424.07  258.72 )">L</text><text style="&st18;" transform="matrix(&st17;  1443.87  480.23 )">K2</text><text ewd:textID="13" style="&st18;" transform="matrix(&st17;  1450.98  480.23 )">Front Door Courtesy <tspan dy="6" x="0">Light Switch Assembly LH</tspan></text><text style="&st18;" transform="matrix(&st16;  1421.75  440.02 )">1</text><text style="&st18;" transform="matrix(&st17;  1424.07  165.24 )">L</text><text style="&st18;" transform="matrix(&st17;  1443.87  216.77 )">E59(A)</text><text ewd:textID="17" style="&st18;" transform="matrix(&st17;  1450.98  216.77 )">Junction Connector</text><text style="&st18;" transform="matrix(&st17;  1424.07  403.2 )">L</text><text style="&st18;" transform="matrix(&st16;  1408.99  356.45 )">23</text><text style="&st18;" transform="matrix(&st16;  1477.28  193.56 )">19</text><text style="&st18;" transform="matrix(&st16;  1476.51  222.44 )">29</text><text style="&st18;" transform="matrix(&st16;  1468.48  356.45 )">22</text><text style="&st18;" transform="matrix(&st17;  1483.56  403.55 )">Y</text><text style="&st18;" transform="matrix(&st17;  1483.56  327.06 )">Y</text><text style="&st18;" transform="matrix(&st16;  1481.24  440.02 )">1</text><text style="&st18;" transform="matrix(&st17;  1483.56  165.59 )">Y</text><text style="&st18;" transform="matrix(&st17;  1483.56  259.07 )">Y</text><text style="&st18;" transform="matrix(&st16;  1263.76  433.78 )">(*2)</text><text style="&st18;" transform="matrix(&st16;  1289.26  339.16 )">(*2)</text><text style="&st18;" transform="matrix(&st16;  1263.76  424.72 )">(*1)</text><text style="&st18;" transform="matrix(&st17;  1265.43  538.45 )">(RHD)</text><text style="&st18;" transform="matrix(&st16;  1167.14  349.92 )">L</text><text style="&st18;" transform="matrix(&st16;  1116.15  349.92 )">UL</text><text style="&st18;" transform="matrix(&st16;  1260.62  414.53 )">E</text><text style="&st18;" transform="matrix(&st16;  1141.64  414.53 )">E</text><text style="&st18;" transform="matrix(&st17;  1135.11  536.4 )">W-B</text><text style="&st18;" transform="matrix(&st17;  1109.62  259.07 )">Y</text><text style="&st18;" transform="matrix(&st17;  1109.62  314.31 )">Y</text><text style="&st18;" transform="matrix(&st16;  1144.78  424.72 )">(*1)</text><text ewd:textID="18" style="&st18;" transform="matrix(&st17;  1170.53  390.49 )">Key Lock</text><text ewd:textID="19" style="&st18;" transform="matrix(&st17;  1111.04  393.67 )">Key Unlock</text><text style="&st18;" transform="matrix(&st17;  1239.93  321.73 )">(RHD)</text><text style="&st18;" transform="matrix(&st16;  1146.31  296.96 )">15</text><text style="&st18;" transform="matrix(&st17;  1290.92  321.73 )">(RHD)</text><text style="&st18;" transform="matrix(&st16;  1095.32  296.96 )">14</text><text style="&st18;" transform="matrix(&st16;  1159.85  126.98 )">2D</text><text style="&st18;" transform="matrix(&st16;  1147.66  126.98 )">53</text><text style="&st18;" transform="matrix(&st16;  1160.35  83.07 )">L2</text><text style="&st18;" transform="matrix(&st16;  1154.34  94.96 )">10</text><text style="&st18;" transform="matrix(&st17;  1160.61  316.72 )">LG</text><text style="&st18;" transform="matrix(&st17;  1160.61  261.48 )">LG</text><text style="&st18;" transform="matrix(&st16;  1127.93  424.72 )">7</text><text style="&st18;" transform="matrix(&st16;  1099.29  93.27 )">10</text><text style="&st18;" transform="matrix(&st16;  1106.89  83.07 )">UL3</text><text style="&st18;" transform="matrix(&st17;  1254.09  536.4 )">W-B</text><text style="&st18;" transform="matrix(&st16;  1110.98  93.27 )">A</text><text style="&st18;" transform="matrix(&st17;  1146.45  537.95 )">(LHD)</text><text ewd:textID="19" style="&st18;" transform="matrix(&st17;  1225.77  393.67 )">Key Unlock</text><text ewd:textID="18" style="&st18;" transform="matrix(&st17;  1293.76  390.49 )">Key Lock</text><text style="&st18;" transform="matrix(&st17;  1228.6  313.96 )">L</text><text style="&st18;" transform="matrix(&st17;  1279.59  316.72 )">LG</text><text style="&st18;" transform="matrix(&st16;  1136.48  424.72 )">A</text><text style="&st18;" transform="matrix(&st16;  1280.95  339.16 )">B</text><text style="&st18;" transform="matrix(&st16;  1272.41  339.16 )">6</text><text style="&st18;" transform="matrix(&st16;  1127.93  433.78 )">7</text><text style="&st18;" transform="matrix(&st16;  1136.48  433.78 )">B</text><text style="&st18;" transform="matrix(&st16;  1235.13  349.92 )">UL</text><text style="&st18;" transform="matrix(&st16;  1286.12  349.92 )">L</text><text style="&st18;" transform="matrix(&st16;  1099.26  339.16 )">10</text><text style="&st18;" transform="matrix(&st16;  1110.98  339.16 )">B</text><text style="&st18;" transform="matrix(&st16;  1153.43  339.16 )">9</text><text style="&st18;" transform="matrix(&st16;  1161.97  339.16 )">B</text><text ewd:textID="16" style="&st18;" transform="matrix(&st17;  1315.0  412.24 )">Front Door Lock Assembly RH</text><text style="&st18;" transform="matrix(&st16;  1099.26  330.1 )">10</text><text style="&st18;" transform="matrix(&st16;  1110.98  330.1 )">A</text><text style="&st18;" transform="matrix(&st16;  1153.43  330.1 )">9</text><text style="&st18;" transform="matrix(&st16;  1161.97  330.1 )">A</text><text style="&st18;" transform="matrix(&st16;  1221.42  339.16 )">5</text><text style="&st18;" transform="matrix(&st16;  1229.96  339.16 )">B</text><text style="&st18;" transform="matrix(&st16;  1265.29  296.96 )">15</text><text style="&st18;" transform="matrix(&st16;  1214.3  296.96 )">14</text><text style="&st18;" transform="matrix(&st16;  1272.41  330.1 )">6</text><text style="&st18;" transform="matrix(&st16;  1280.95  330.1 )">A</text><text style="&st18;" transform="matrix(&st17;  1171.94  266.0 )">(LHD)</text><text style="&st18;" transform="matrix(&st17;  1120.95  266.0 )">(LHD)</text><text style="&st18;" transform="matrix(&st17;  1171.94  321.24 )">(LHD)</text><text style="&st18;" transform="matrix(&st16;  1221.42  330.1 )">5</text><text style="&st18;" transform="matrix(&st16;  1229.96  330.1 )">A</text><text style="&st18;" transform="matrix(&st17;  1120.95  321.24 )">(LHD)</text><text style="&st18;" transform="matrix(&st17;  1307.89  412.24 )">I6(A),(B)</text><text style="&st18;" transform="matrix(&st16;  1170.28  339.16 )">(*2)</text><text style="&st18;" transform="matrix(&st16;  1246.91  424.72 )">8</text><text style="&st18;" transform="matrix(&st16;  1255.46  424.72 )">A</text><text style="&st18;" transform="matrix(&st17;  1228.6  258.72 )">L</text><text style="&st18;" transform="matrix(&st17;  1279.59  261.48 )">LG</text><text style="&st18;" transform="matrix(&st17;  1239.93  266.49 )">(RHD)</text><text style="&st18;" transform="matrix(&st17;  1290.92  266.49 )">(RHD)</text><text style="&st18;" transform="matrix(&st16;  1246.91  433.78 )">8</text><text style="&st18;" transform="matrix(&st16;  1255.46  433.78 )">B</text><text style="&st18;" transform="matrix(&st16;  1170.28  330.1 )">(*1)</text><text style="&st18;" transform="matrix(&st16;  1144.78  433.78 )">(*2)</text><text style="&st18;" transform="matrix(&st17;  1188.91  412.24 )">I14(A),(B)</text><text ewd:textID="15" style="&st18;" transform="matrix(&st17;  1196.02  412.24 )">Front Door Lock Assembly LH</text><text style="&st18;" transform="matrix(&st16;  1289.26  330.1 )">(*1)</text><text style="&st18;" transform="matrix(&st16;  1000.31  211.69 )">(*7)</text><text style="&st18;" transform="matrix(&st16;  1000.31  202.62 )">(*6)</text><text style="&st18;" transform="matrix(&st16;  1085.29  229.82 )">(*7)</text><text style="&st18;" transform="matrix(&st16;  1076.99  229.82 )">A</text><text style="&st18;" transform="matrix(&st16;  1064.49  229.82 )">60</text><text style="&st18;" transform="matrix(&st16;  1085.29  220.75 )">(*6)</text><text style="&st18;" transform="matrix(&st16;  1076.99  220.75 )">A</text><text style="&st18;" transform="matrix(&st16;  1068.44  220.75 )">8</text><text style="&st18;" transform="matrix(&st16;  1085.29  194.69 )">(*7)</text><text style="&st18;" transform="matrix(&st16;  1076.99  194.69 )">A</text><text style="&st18;" transform="matrix(&st16;  1064.49  194.69 )">80</text><text style="&st18;" transform="matrix(&st16;  1085.29  185.62 )">(*6)</text><text style="&st18;" transform="matrix(&st16;  1076.99  185.62 )">A</text><text style="&st18;" transform="matrix(&st16;  1064.49  185.62 )">39</text><text ewd:textID="17" style="&st18;" transform="matrix(&st17;  1058.34  216.77 )">Junction <tspan dy="6" x="0">Connector</tspan></text><text style="&st18;" transform="matrix(&st17;  1051.24  216.77 )">E58(A)</text><text style="&st18;" transform="matrix(&st16;  1497.16  296.96 )">(*7)</text><text style="&st18;" transform="matrix(&st16;  1497.16  288.46 )">(*6)</text><text style="&st18;" transform="matrix(&st16;  1469.26  296.96 )">15</text><text style="&st18;" transform="matrix(&st16;  1472.44  288.46 )">7</text><text style="&st18;" transform="matrix(&st16;  1425.43  220.75 )">A</text><text style="&st18;" transform="matrix(&st16;  1412.93  220.75 )">43</text><text style="&st18;" transform="matrix(&st16;  1425.43  194.69 )">A</text><text style="&st18;" transform="matrix(&st16;  1412.93  194.69 )">63</text><text style="&st18;" transform="matrix(&st16;  1473.2  93.27 )">21</text><text style="&st18;" transform="matrix(&st16;  1484.92  93.27 )">B</text><text style="&st18;" transform="matrix(&st16;  1484.92  102.34 )">A</text><text style="&st18;" transform="matrix(&st16;  1472.42  102.34 )">24</text><text style="&st18;" transform="matrix(&st16;  1412.93  93.27 )">24</text><text style="&st18;" transform="matrix(&st16;  1425.43  93.27 )">A</text><text style="&st18;" transform="matrix(&st16;  1425.43  102.34 )">B</text><text style="&st18;" transform="matrix(&st16;  1413.71  102.34 )">21</text><text style="&st18;" transform="matrix(&st16;  1493.23  102.34 )">(RHD)</text><text style="&st18;" transform="matrix(&st16;  1493.23  93.27 )">(LHD)</text><text style="&st18;" transform="matrix(&st16;  1495.35  77.13 )">(LHD) <tspan dy="5.94" x="0">(RHD)</tspan></text><text style="&st18;" transform="matrix(&st16;  1418.51  83.07 )">PCTY</text><text style="&st18;" transform="matrix(&st16;  1477.86  83.07 )">DCTY</text><text style="&st18;" transform="matrix(&st16;  1418.37  77.13 )">DCTY</text><text style="&st18;" transform="matrix(&st16;  1478.0  77.13 )">PCTY</text></svg>