﻿<?xml version="1.0" encoding="utf-8"?>
<!DOCTYPE svg PUBLIC "-//W3C//DTD SVG 1.0//EN" "http://www.w3.org/TR/2001/REC-SVG-20010904/DTD/svg10.dtd"[
	<!ENTITY ns_flows "http://ns.adobe.com/Flows/1.0/">
	<!ENTITY ns_svg "http://www.w3.org/2000/svg">
	<!ENTITY ns_xlink "http://www.w3.org/1999/xlink">
	<!ENTITY st0 "font-size:7px;font-family:'MS-PGothic';adobe-font-script:japanese;">
	<!ENTITY st1 "font-size:6px;font-family:'ArialMT';">
	<!-- White fill  -->
	<!ENTITY st2 "fill:#FFFFFF;stroke:#000000; stroke-width:1.41;stroke-linecap:round;stroke-linejoin:round;">
	<!-- Yellow fill  -->
	<!ENTITY st3 "fill:#FFFFCC;stroke:#FFFFCC; stroke-width:0.1;stroke-linecap:round;stroke-linejoin:round;">
	<!-- Gray fill  -->
	<!ENTITY st4 "fill:#CCCCCC;stroke:#CCCCCC; stroke-width:0.1;stroke-linecap:round;stroke-linejoin:round;">
	<!-- Light-blue fill -->
	<!ENTITY st5 "fill:#CCECF4;stroke:#000000; stroke-width:1.133;stroke-linecap:round;stroke-linejoin:round;">
	<!ENTITY st6 "fill:none;stroke-linecap:butt; stroke-linejoin:round;">
	<!ENTITY st7 "fill:none;stroke:#000000;stroke-linecap:round;stroke-linejoin:round;">
	<!ENTITY st8 "enable-background:new    ;">
	<!-- Black fill -->
	<!ENTITY st9 "fill:#000000;stroke:#000000; stroke-linecap:round;stroke-linejoin:round;">
	<!-- SRS note   -->
	<!ENTITY st10 "font-size:9px;font-family:'ArialMT';">
	<!ENTITY st11 "font-size:9px;font-family:'Svg Symbol';">
	<!ENTITY st12 "font-size:6px;font-family:'Svg Symbol';">
	<!ENTITY st13 "fill:none;stroke:#ff0000;stroke-linecap:round;stroke-linejoin:round;">
	<!-- Yellow fill  -->
	<!ENTITY st14 "fill:#FFFF00;stroke:#FFFF00; stroke-width:0.1;stroke-linecap:round;stroke-linejoin:round;">
	<!ENTITY st15 "font-size:6px;font-family:'MS-PGothic';adobe-font-script:japanese;">
	<!ENTITY st16 "1.00 0.00 0.00 1.00">
	<!ENTITY st17 "0.00 -1.00 1.00 0.00">
	<!ENTITY st18 "font-size:6px;font-family:'Arial';">
	<!ENTITY st19 "font-size:9px;font-family:'Arial';">
	<!ENTITY st20 "font-size:6px;font-family:'MS-PGothic','MS PGothic';adobe-font-script:japanese;">
	<!ENTITY st21 "font-size:7px;font-family:'MS-PGothic','MS PGothic';adobe-font-script:japanese;">
	<!ATTLIST svg
		xmlns:ewd CDATA #FIXED "http://shcl.co.jp/ewd"
		xmlns:a CDATA #FIXED "http://ns.adobe.com/AdobeSVGViewerExtensions/3.0/"
		ewd:ver CDATA #IMPLIED
	>
	<!ATTLIST a
		ewd:lineID CDATA #IMPLIED
		ewd:groupID CDATA #IMPLIED
		ewd:figtype CDATA #IMPLIED
		ewd:code CDATA #IMPLIED
		ewd:figID CDATA #IMPLIED
		ewd:pinNo CDATA #IMPLIED
		ewd:comment CDATA #IMPLIED >
	<!ATTLIST g
		ewd:lineID CDATA #IMPLIED
		ewd:groupID CDATA #IMPLIED
		ewd:figtype CDATA #IMPLIED
		ewd:code CDATA #IMPLIED
		ewd:figID CDATA #IMPLIED
		ewd:pinNo CDATA #IMPLIED
		ewd:comment CDATA #IMPLIED >
	<!ATTLIST text
		ewd:textID CDATA #IMPLIED >
	<!ATTLIST title
		ewd:textID CDATA #IMPLIED >
]>
<!-- Generator: Shintec Hozumi YS   -->
<svg onload="call_execInitLoadProc_svg('system')" style="overflow:visible;  enable-background:new 0 0 473.035 710.000" viewBox="0 0 473.035 710.000" height="710.000" width="473.035" xml:space="preserve" ewd:ver="L2.1.2.8" xmlns="&ns_svg;" xmlns:a="http://ns.adobe.com/AdobeSVGViewerExtensions/3.0/" xmlns:ewd="http://shcl.co.jp/ewd" xmlns:xlink="&ns_xlink;"><script type="text/javascript" xlink:href="../../../../../system/js/ewd/fig/svgfig.js" xmlns:xlink="http://www.w3.org/1999/xlink" /><defs><font horiz-adv-x="1229"><font-face font-family="Svg Symbol" units-per-em="2048" panose-1="5 5 1 2 1 7 6 2 5 7" ascent="2059" descent="450" alphabetic="0" /><missing-glyph d="M 103,0 l 0,1280 1024,0 0,-1280 -1024,0 z m 32,32 l 960,0 0,1216 -960,0 0,-1216 z" /><glyph unicode="" horiz-adv-x="1573" d="M 1517,0 l -567,0 24,279 q 141,59 207.5,168 66.5,109 66.5,306    0,272 -132.5,417.5 -132.5,145.5 -333.5,145.5 -194,0 -328,-147.5 -134,-147.5 -134,-401.5 0,-200 68.5,-319 68.5,-119     206.5,-169 l 25,-279 -564,0 0,279 35,0 q 3,-61 32,-83 45,-35 137,-35 l 270,0 0,70 q -210,61 -324.5,209 -114.5,148     -114.5,349 0,252 186.5,425 186.5,173 504.5,173 195,0 358.5,-73.5 163.5,-73.5 252,-214.5 88.5,-141 88.5,-310 0,-207     -121.5,-360.5 -121.5,-153.5 -317.5,-197.5 l -8,-70 275,0 q 92,0 128,28 36,28 42,90 l 38,0 0,-279 z" /></font></defs>
<g id="ewd_top"><a ewd:code="E129" ewd:figID="1" ewd:figtype="conn" style="cursor:pointer;"><path d=" M  280.45,  358.73  L  280.45,  392.72  L  314.45,  392.72  L  314.45,  358.73  L  280.45,  358.73 " style="&st5;" /><title ewd:textID="1">Certification ECU Assembly</title></a><a ewd:code="FUSE42" ewd:figID="2" ewd:figtype="rb" style="cursor:pointer;"><path d=" M  284.70,   35.78  L  284.70,   78.27  L  310.20,   78.27  L  310.20,   35.78  L  284.70,   35.78 " style="&st5;" /></a><a ewd:code="E150" ewd:figID="3" ewd:figtype="conn" style="cursor:pointer;"><path d=" M  161.47,  239.75  L  161.47,  282.24  L  314.45,  282.24  L  314.45,  239.75  L  161.47,  239.75 " style="&st5;" /><title ewd:textID="2">Mobile Wireless Charger Cradle Assembly</title></a><a ewd:code="2" ewd:figID="4" ewd:figtype="jb" style="cursor:pointer;"><path d=" M  161.47,   35.78  L  161.47,  103.77  L  229.46,  103.77  L  229.46,   35.78  L  161.47,   35.78 " style="&st4;" /></a><a ewd:code="FUSE42" ewd:figID="5" ewd:figtype="fuse" style="cursor:pointer;"><path d=" M  284.70,   35.78  L  284.70,   78.27  L  310.20,   78.27  L  310.20,   35.78  L  284.70,   35.78 " style="&st7;" /></a><a ewd:code="FUSE161" ewd:figID="6" ewd:figtype="fuse" style="cursor:pointer;"><path d=" M  165.72,   35.78  L  165.72,   78.27  L  191.22,   78.27  L  191.22,   35.78  L  165.72,   35.78 " style="&st7;" /></a><a ewd:lineID="1" style="cursor:pointer;"><path d=" M  178.47,  494.70  L  178.47,  681.67 " style="stroke:#000000;stroke-width: 5.10 ;&st6;" /><path d=" M  178.47,  494.70  L  178.47,  681.67 " style="stroke:#FFFFFF;stroke-width: 4.53 ;&st6;" /><path d=" M  178.47,  494.70  L  178.47,  681.67 " style="stroke:#000000;stroke-width: 1.13 ;&st6;" /></a><a ewd:lineID="2" style="cursor:pointer;"><path d=" M  178.47,  282.24  L  178.47,  477.71 " style="stroke:#000000;stroke-width: 5.10 ;&st6;" /><path d=" M  178.47,  282.24  L  178.47,  477.71 " style="stroke:#FFFFFF;stroke-width: 4.53 ;&st6;" /><path d=" M  178.47,  282.24  L  178.47,  477.71 " style="stroke:#000000;stroke-width: 1.13 ;&st6;" /></a><a ewd:lineID="3" style="cursor:pointer;"><path d=" M  178.47,  103.77  L  178.47,  239.75 " style="stroke:#C3AF96;stroke-width: 5.10 ;&st6;" /></a><a ewd:lineID="4" style="cursor:pointer;"><path d=" M  220.96,  681.67  L  220.96,  486.20  L  186.97,  486.20 " style="stroke:#000000;stroke-width: 5.10 ;&st6;" /><path d=" M  220.96,  681.67  L  220.96,  486.20  L  186.97,  486.20 " style="stroke:#FFFFFF;stroke-width: 4.53 ;&st6;" /><path d=" M  220.96,  681.67  L  220.96,  486.20  L  186.97,  486.20 " style="stroke:#000000;stroke-width: 1.13 ;&st6;" /></a><a ewd:lineID="5" style="cursor:pointer;"><path d=" M  297.45,  282.24  L  297.45,  349.66 " style="stroke:#F668B2;stroke-width: 5.10 ;&st6;" /></a><a ewd:lineID="6" style="cursor:pointer;"><path d=" M  297.45,  171.76  L  297.45,  239.75 " style="stroke:#56077D;stroke-width: 5.10 ;&st6;" /></a><a ewd:lineID="7" style="cursor:pointer;"><path d=" M  297.45,  103.77  L  297.45,  157.03 " style="stroke:#56077D;stroke-width: 5.10 ;&st6;" /></a><a ewd:code="EA1" ewd:figID="7" ewd:figtype="w2w" ewd:pinNo="46" style="cursor:pointer;"><path d=" M  305.95,  163.26  L  288.95,  163.26  L  288.95,  171.76  L  305.95,  171.76  L  305.95,  163.26 " style="&st2;" /><text style="&st8;" transform="matrix(&st16;  290.87  170.0 )"><tspan style="&st18;" x="0" y="0">EA1</tspan></text></a><a ewd:code="E3" ewd:figID="8" ewd:figtype="gp" style="cursor:pointer;"><path d=" M  167.85,  681.67  L  189.09,  681.67  L  178.47,  697.25  L  167.85,  681.67 " style="&st2;" /><text style="&st8;" transform="matrix(&st16;  173.93  689.83 )"><tspan style="&st18;" x="0" y="0">E3</tspan></text></a><a ewd:code="E4" ewd:figID="9" ewd:figtype="gp" style="cursor:pointer;"><path d=" M  210.34,  681.67  L  231.59,  681.67  L  220.96,  697.25  L  210.34,  681.67 " style="&st2;" /><text style="&st8;" transform="matrix(&st16;  216.43  689.83 )"><tspan style="&st18;" x="0" y="0">E4</tspan></text></a><a ewd:code="769" ewd:figID="10" ewd:figtype="sp" style="cursor:pointer;"><path d=" M  174.22,  477.71  L  182.72,  477.71  L  186.97,  481.95  L  186.97,  490.45  L  182.72,  494.70  L  174.22,  494.70  L  169.97,  490.45  L  169.97,  481.95  L  174.22,  477.71 " style="&st2;" /></a></g></svg>