﻿<?xml version="1.0"?>
<!-- Generator: Adobe Illustrator 10.0, SVG Export Plug-In . SVG Version: 3.0.0 Build 77)  -->
<!DOCTYPE svg PUBLIC "-//W3C//DTD SVG 1.0//EN" "http://www.w3.org/TR/2001/REC-SVG-20010904/DTD/svg10.dtd"[
	<!ENTITY ns_flows "http://ns.adobe.com/Flows/1.0/">
	<!ENTITY ns_svg "http://www.w3.org/2000/svg">
	<!ENTITY ns_xlink "http://www.w3.org/1999/xlink">
	<!ENTITY st0 "fill:none;stroke:#000000;stroke-linecap:round;stroke-linejoin:round;">
	<!ENTITY st1 "fill:none;stroke:#000000;stroke-width:0.6;stroke-linecap:round;stroke-linejoin:round;">
	<!ENTITY st2 "font-size:6px;">
	<!ENTITY st3 "font-family:'Arial';">
	<!ATTLIST svg
		ewd:ver CDATA #IMPLIED
		xmlns:ewd CDATA #FIXED "http://shcl.co.jp/ewd"
		xmlns:a CDATA #FIXED "http://ns.adobe.com/AdobeSVGViewerExtensions/3.0/">
	<!ATTLIST g
		ewd:pinNo CDATA #IMPLIED>
]>
<svg width="108.648" height="94.485" viewBox="0 0 108.648 94.485" style="overflow:visible;enable-background:new 0 0 108.648 94.485" xml:space="preserve" onload="call_execInitLoadProc_svg('connector')" ewd:ver="L2.1.2.8" xmlns="&ns_svg;" xmlns:ewd="http://shcl.co.jp/ewd" xmlns:a="http://ns.adobe.com/AdobeSVGViewerExtensions/3.0/" xmlns:xlink="&ns_xlink;">
<script type="text/javascript" xlink:href="../../../../../system/js/ewd/fig/svgfig.js"/>
<g id="レイヤー_1">
	<path style="&st0;" d="M94.398,0.583c-0.29-0.058-0.54-0.083-0.836-0.083"/>
	<path style="&st0;" d="M15.086,0.5c-0.296,0-0.546,0.025-0.835,0.083"/>
	<path style="&st0;" d="M83.361,0.5c-1.565,0-2.833,1.269-2.833,2.833"/>
	<path style="&st0;" d="M28.12,3.333c0-1.564-1.268-2.833-2.833-2.833"/>
	<path style="&st0;" d="M104.874,89.09c1.947-0.459,3.274-2.135,3.274-4.136"/>
	<path style="&st1;" d="M14.945,0.5c-0.197,0-0.363,0.017-0.555,0.055"/>
	<path style="&st0;" d="M0.5,84.954c0,2.001,1.327,3.677,3.274,4.136"/>
	<path style="&st0;" d="M9.61,1.512c-5.365,1.072-9.109,5.639-9.109,11.11"/>
	<path style="&st0;" d="M108.148,12.623c0-5.472-3.744-10.039-9.11-11.111"/>
	<path style="&st1;" d="M93.984,54.325v25.496"/>
	<path style="&st1;" d="M4.749,54.325h99.15"/>
	<path style="&st1;" d="M54.324,67.073V41.577"/>
	<path style="&st1;" d="M44.409,79.821V31.662"/>
	<path style="&st1;" d="M34.494,79.821V54.325"/>
	<path style="&st1;" d="M14.664,79.821V54.325"/>
	<path style="&st1;" d="M18.206,0.5v22.663"/>
	<path style="&st1;" d="M7.582,23.164h1.417v-7.082"/>
	<path style="&st1;" d="M30.953,7.583h46.742"/>
	<path style="&st0;" d="M30.953,4.75l17.706-2.833H59.99L77.695,4.75"/>
	<path style="&st0;" d="M30.953,4.75v11.332"/>
	<path style="&st1;" d="M47.95,16.082v-5.666h12.748v5.666"/>
	<path style="&st1;" d="M13.248,17.498v5.666H28.12"/>
	<path style="&st0;" d="M28.12,23.164h5.666"/>
	<path style="&st0;" d="M80.528,23.164h-5.666"/>
	<path style="&st1;" d="M66.364,16.082v-3.683h8.499v3.683"/>
	<path style="&st1;" d="M42.285,14.24h5.666"/>
	<path style="&st0;" d="M93.562,0.5H83.361"/>
	<path style="&st0;" d="M80.528,23.164V3.333"/>
	<path style="&st0;" d="M99.038,1.512l-4.64-0.929"/>
	<path style="&st1;" d="M90.443,0.5v22.663"/>
	<path style="&st1;" d="M33.786,16.082h41.076"/>
	<path style="&st0;" d="M77.695,16.082h-2.833v7.082"/>
	<path style="&st1;" d="M33.786,16.082v-3.683h8.499v3.683"/>
	<path style="&st0;" d="M30.953,16.082h2.833v7.082"/>
	<path style="&st0;" d="M77.695,4.75v11.332"/>
	<path style="&st0;" d="M9.61,1.512l4.64-0.929"/>
	<path style="&st1;" d="M7.582,17.498l1.417-1.417h2.833l1.417,1.417"/>
	<path style="&st0;" d="M24.579,93.985h59.49"/>
	<path style="&st1;" d="M60.698,14.24h5.666"/>
	<path style="&st0;" d="M84.069,93.985l20.805-4.895"/>
	<path style="&st0;" d="M3.774,89.09l20.805,4.895"/>
	<path style="&st1;" d="M11.832,16.082v7.082h1.417"/>
	<path style="&st1;" d="M0.5,78.404l4.249,4.25"/>
	<path style="&st1;" d="M103.899,82.654l4.249-4.25"/>
	<path style="&st0;" d="M28.12,23.164V3.333"/>
	<path style="&st0;" d="M0.5,12.623v72.332"/>
	<path style="&st0;" d="M108.148,12.623v72.332"/>
	<path style="&st0;" d="M15.086,0.5h10.201"/>
	<path style="&st1;" d="M74.154,79.821V54.325"/>
	<path style="&st1;" d="M64.239,79.821V31.662"/>
	<path style="&st1;" d="M4.749,54.325v25.496"/>
	<path style="&st1;" d="M24.579,79.821V54.325"/>
	<path style="&st1;" d="M4.749,67.073h99.15"/>
	<path style="&st1;" d="M84.069,54.325v25.496"/>
	<path style="&st1;" d="M64.239,79.821h39.66V54.325"/>
	<path style="&st1;" d="M4.749,82.654h99.15"/>
	<path style="&st1;" d="M4.749,79.821h39.66"/>
	<path style="&st1;" d="M47.242,69.056v13.598"/>
	<path style="&st1;" d="M61.406,69.056v13.598"/>
	<path style="&st1;" d="M47.242,74.863h14.164"/>
	<path style="&st1;" d="M0.5,27.413l4.249-4.25h2.833v-5.666"/>
	<path style="&st1;" d="M95.401,17.498v5.666H80.528"/>
	<path style="&st1;" d="M101.066,23.164H99.65v-7.082"/>
	<path style="&st1;" d="M101.066,17.498l-1.417-1.417h-2.833l-1.416,1.417"/>
	<path style="&st1;" d="M96.817,16.082v7.082h-1.416"/>
	<path style="&st1;" d="M108.148,27.413l-4.249-4.25h-2.833v-5.666"/>
	<path style="&st1;" d="M4.749,82.654v5.666h40.51l1.983-1.983v-3.683"/>
	<path style="&st1;" d="M61.406,82.654v3.683l1.983,1.983h40.51v-5.666"/>
	<path style="&st1;" d="M44.409,41.577h19.83"/>
	<path style="&st1;" d="M10.415,54.325V31.662h33.994"/>
	<path style="&st1;" d="M27.412,54.325V31.662"/>
	<path style="&st1;" d="M64.239,31.662h33.994v22.663"/>
	<path style="&st1;" d="M81.236,54.325V31.662"/>
	<path style="&st1;" d="M47.242,69.056h14.164"/>
	<g ewd:pinNo="18">
		<text transform="matrix(1 0 0 1 16.1387 75.769)"><tspan x="0" y="0" style="&st3; &st2;">18</tspan></text>
	</g>
	<g ewd:pinNo="24">
		<text transform="matrix(1 0 0 1 95.6099 75.769)"><tspan x="0" y="0" style="&st3; &st2;">24</tspan></text>
	</g>
	<g ewd:pinNo="17">
		<text transform="matrix(1 0 0 1 6.2231 75.769)"><tspan x="0" y="0" style="&st3; &st2;">17</tspan></text>
	</g>
	<g ewd:pinNo="8">
		<text transform="matrix(1 0 0 1 18.1577 63.0215)"><tspan x="0" y="0" style="&st3; &st2;">8</tspan></text>
	</g>
	<g ewd:pinNo="7">
		<text transform="matrix(1 0 0 1 8.2427 63.0215)"><tspan x="0" y="0" style="&st3; &st2;">7</tspan></text>
	</g>
	<g ewd:pinNo="9">
		<text transform="matrix(1 0 0 1 28.0728 63.0215)"><tspan x="0" y="0" style="&st3; &st2;">9</tspan></text>
	</g>
	<g ewd:pinNo="10">
		<text transform="matrix(1 0 0 1 35.9683 63.0215)"><tspan x="0" y="0" style="&st3; &st2;">10</tspan></text>
	</g>
	<g ewd:pinNo="23">
		<text transform="matrix(1 0 0 1 85.6948 75.769)"><tspan x="0" y="0" style="&st3; &st2;">23</tspan></text>
	</g>
	<g ewd:pinNo="11">
		<text transform="matrix(1 0 0 1 46.106 63.0215)"><tspan x="0" y="0" style="&st3; &st2;">11</tspan></text>
	</g>
	<g ewd:pinNo="12">
		<text transform="matrix(1 0 0 1 55.6499 63.0215)"><tspan x="0" y="0" style="&st3; &st2;">12</tspan></text>
	</g>
	<g ewd:pinNo="15">
		<text transform="matrix(1 0 0 1 85.5435 63.0215)"><tspan x="0" y="0" style="&st3; &st2;">15</tspan></text>
	</g>
	<g ewd:pinNo="16">
		<text transform="matrix(1 0 0 1 95.4585 63.0215)"><tspan x="0" y="0" style="&st3; &st2;">16</tspan></text>
	</g>
	<g ewd:pinNo="13">
		<text transform="matrix(1 0 0 1 65.7134 63.0215)"><tspan x="0" y="0" style="&st3; &st2;">13</tspan></text>
	</g>
	<g ewd:pinNo="14">
		<text transform="matrix(1 0 0 1 75.6284 63.0215)"><tspan x="0" y="0" style="&st3; &st2;">14</tspan></text>
	</g>
	<g ewd:pinNo="19">
		<text transform="matrix(1 0 0 1 26.0537 75.769)"><tspan x="0" y="0" style="&st3; &st2;">19</tspan></text>
	</g>
	<g ewd:pinNo="20">
		<text transform="matrix(1 0 0 1 36.1196 75.769)"><tspan x="0" y="0" style="&st3; &st2;">20</tspan></text>
	</g>
	<g ewd:pinNo="22">
		<text transform="matrix(1 0 0 1 75.7798 75.769)"><tspan x="0" y="0" style="&st3; &st2;">22</tspan></text>
	</g>
	<g ewd:pinNo="21">
		<text transform="matrix(1 0 0 1 65.8647 75.769)"><tspan x="0" y="0" style="&st3; &st2;">21</tspan></text>
	</g>
	<g ewd:pinNo="1">
		<text transform="matrix(1 0 0 1 17.4497 45.3159)"><tspan x="0" y="0" style="&st3; &st2;">1</tspan></text>
	</g>
	<g ewd:pinNo="2">
		<text transform="matrix(1 0 0 1 34.4468 45.3159)"><tspan x="0" y="0" style="&st3; &st2;">2</tspan></text>
	</g>
	<g ewd:pinNo="5">
		<text transform="matrix(1 0 0 1 71.2739 45.3159)"><tspan x="0" y="0" style="&st3; &st2;">5</tspan></text>
	</g>
	<g ewd:pinNo="6">
		<text transform="matrix(1 0 0 1 88.271 45.3159)"><tspan x="0" y="0" style="&st3; &st2;">6</tspan></text>
	</g>
	<g ewd:pinNo="3">
		<text transform="matrix(1 0 0 1 47.9028 50.2734)"><tspan x="0" y="0" style="&st3; &st2;">3</tspan></text>
	</g>
	<g ewd:pinNo="4">
		<text transform="matrix(1 0 0 1 57.8179 50.2734)"><tspan x="0" y="0" style="&st3; &st2;">4</tspan></text>
	</g>
</g>
</svg>