﻿<?xml version="1.0"?>
<!-- Generator: Adobe Illustrator 10.0, SVG Export Plug-In . SVG Version: 3.0.0 Build 77)  -->
<!DOCTYPE svg PUBLIC "-//W3C//DTD SVG 1.0//EN" "http://www.w3.org/TR/2001/REC-SVG-20010904/DTD/svg10.dtd"[
	<!ENTITY ns_flows "http://ns.adobe.com/Flows/1.0/">
	<!ENTITY ns_svg "http://www.w3.org/2000/svg">
	<!ENTITY ns_xlink "http://www.w3.org/1999/xlink">
	<!ENTITY st0 "fill:none;stroke:#000000;stroke-linecap:round;stroke-linejoin:round;">
	<!ENTITY st1 "fill:none;stroke:#000000;stroke-width:0.6;stroke-linecap:round;stroke-linejoin:round;">
	<!ENTITY st2 "font-size:6px;">
	<!ENTITY st3 "font-family:'Arial';">
	<!ATTLIST svg
		ewd:ver CDATA #IMPLIED
		xmlns:ewd CDATA #FIXED "http://shcl.co.jp/ewd"
		xmlns:a CDATA #FIXED "http://ns.adobe.com/AdobeSVGViewerExtensions/3.0/">
	<!ATTLIST g
		ewd:pinNo CDATA #IMPLIED>
]>
<svg width="119.677" height="57.218" viewBox="0 0 119.677 57.218" style="overflow:visible;enable-background:new 0 0 119.677 57.218" xml:space="preserve" onload="call_execInitLoadProc_svg('connector')" ewd:ver="L2.1.2.8" xmlns="&ns_svg;" xmlns:ewd="http://shcl.co.jp/ewd" xmlns:a="http://ns.adobe.com/AdobeSVGViewerExtensions/3.0/" xmlns:xlink="&ns_xlink;">
<script type="text/javascript" xlink:href="../../../../../system/js/ewd/fig/svgfig.js"/>
<g id="レイヤー_1">
	<path style="&st0;" d="M47.31,0.5h24.782"/>
	<path style="&st0;" d="M86.548,14.956h20.238"/>
	<path style="&st0;" d="M119.177,27.347v12.391"/>
	<path style="&st0;" d="M106.786,52.129H79.061"/>
	<path style="&st0;" d="M16.333,14.956h4.13"/>
	<path style="&st1;" d="M103.069,18.056H74.157"/>
	<path style="&st1;" d="M20.049,49.03h83.02"/>
	<path style="&st1;" d="M115.46,36.642v-6.198"/>
	<path style="&st1;" d="M45.245,18.056H30.56"/>
	<path style="&st1;" d="M74.157,21.036V8.761"/>
	<path style="&st1;" d="M70.027,4.63H49.375"/>
	<path style="&st1;" d="M45.245,8.761v12.275"/>
	<path style="&st1;" d="M111.33,28.378v10.326"/>
	<path style="&st1;" d="M105.134,44.899h-87.15"/>
	<path style="&st1;" d="M11.789,38.704V28.378"/>
	<path style="&st1;" d="M17.984,22.183h87.15"/>
	<path style="&st1;" d="M98.423,22.183v22.717"/>
	<path style="&st1;" d="M85.514,22.183v22.717"/>
	<path style="&st1;" d="M72.607,22.183v22.717"/>
	<path style="&st1;" d="M59.701,22.183v22.717"/>
	<path style="&st1;" d="M47.724,22.183v22.717"/>
	<path style="&st1;" d="M35.746,22.183v22.717"/>
	<path style="&st1;" d="M23.766,22.183v22.717"/>
	<path style="&st0;" d="M32.854,14.956v-2.065"/>
	<path style="&st0;" d="M29.755,9.795H23.56"/>
	<path style="&st0;" d="M20.463,12.891v2.065"/>
	<path style="&st1;" d="M22.758,18.056h-2.708"/>
	<path style="&st1;" d="M22.758,18.056v-3.1"/>
	<path style="&st1;" d="M25.052,12.662h3.212"/>
	<path style="&st1;" d="M30.56,14.956v3.1"/>
	<path style="&st1;" d="M7.658,30.443H5.089"/>
	<path style="&st1;" d="M3.942,31.591v3.904"/>
	<path style="&st1;" d="M5.089,36.642h2.569"/>
	<path style="&st1;" d="M2.843,27.347H2.794"/>
	<path style="&st0;" d="M0.5,29.642v7.802"/>
	<path style="&st1;" d="M2.794,39.738h0.048"/>
	<path style="&st1;" d="M69.568,21.036v-8.374"/>
	<path style="&st1;" d="M50.981,11.515H68.42"/>
	<path style="&st1;" d="M49.834,12.662v8.374"/>
	<path style="&st1;" d="M69.568,13.35H49.834"/>
	<path style="&st1;" d="M74.157,18.056H45.245"/>
	<path style="&st1;" d="M66.126,18.056v-0.688"/>
	<path style="&st1;" d="M64.979,16.217H54.423"/>
	<path style="&st1;" d="M53.276,17.367v0.688"/>
	<path style="&st1;" d="M55.112,16.217v-4.702"/>
	<path style="&st1;" d="M64.29,11.515v4.702"/>
	<path style="&st1;" d="M65.208,18.056v2.98"/>
	<path style="&st1;" d="M54.194,21.036v-2.98"/>
	<path style="&st1;" d="M63.602,18.056v0.227"/>
	<path style="&st1;" d="M65.208,19.43h-0.459"/>
	<path style="&st1;" d="M55.8,18.056v0.227"/>
	<path style="&st1;" d="M54.653,19.43h-0.459"/>
	<path style="&st1;" d="M74.157,13.35h-1.836"/>
	<path style="&st1;" d="M72.321,13.35v-2.294"/>
	<path style="&st1;" d="M70.486,9.22H48.917"/>
	<path style="&st1;" d="M47.081,11.056v2.294"/>
	<path style="&st1;" d="M47.081,13.35h-1.835"/>
	<path style="&st1;" d="M66.154,52.129v4.589"/>
	<path style="&st1;" d="M53.712,52.129v4.589"/>
	<path style="&st0;" d="M70.744,56.718H49.123"/>
	<path style="&st0;" d="M41.735,52.129H16.333"/>
	<path style="&st1;" d="M79.061,52.129H41.735"/>
	<path style="&st0;" d="M47.31,0.5c-3.421,0-6.195,2.774-6.195,6.196"/>
	<path style="&st0;" d="M78.288,6.696c0-3.421-2.774-6.196-6.196-6.196"/>
	<path style="&st0;" d="M78.288,6.696c0,4.562,3.698,8.26,8.26,8.26"/>
	<path style="&st0;" d="M32.854,14.956c4.562,0,8.261-3.698,8.261-8.26"/>
	<path style="&st0;" d="M119.177,27.347c0-6.843-5.547-12.391-12.391-12.391"/>
	<path style="&st0;" d="M106.786,52.129c6.843,0,12.391-5.547,12.391-12.391"/>
	<path style="&st0;" d="M16.333,14.956c-6.474,0-11.797,4.89-12.347,11.34"/>
	<path style="&st0;" d="M3.987,40.789c0.549,6.45,5.873,11.339,12.346,11.339"/>
	<path style="&st1;" d="M115.46,30.443c0-6.843-5.548-12.391-12.391-12.391"/>
	<path style="&st1;" d="M103.069,49.033c6.843,0,12.391-5.548,12.391-12.391"/>
	<path style="&st1;" d="M20.049,18.056c-6.841,0-12.388,5.546-12.388,12.388"/>
	<path style="&st1;" d="M7.658,36.642c0,6.843,5.548,12.391,12.391,12.391"/>
	<path style="&st1;" d="M74.157,8.761c0-2.281-1.849-4.13-4.13-4.13"/>
	<path style="&st1;" d="M49.375,4.63c-2.281,0-4.13,1.849-4.13,4.13"/>
	<path style="&st1;" d="M111.33,28.381c0.001-3.422-2.771-6.197-6.193-6.199"/>
	<path style="&st1;" d="M105.137,22.183c0,0-0.002,0-0.003,0"/>
	<path style="&st1;" d="M105.134,44.899c3.422,0,6.196-2.773,6.196-6.195"/>
	<path style="&st1;" d="M17.984,22.183c-3.422,0-6.195,2.774-6.195,6.196"/>
	<path style="&st1;" d="M11.789,28.378c0,0.001,0,0.002,0,0.003"/>
	<path style="&st1;" d="M11.789,38.704c0,3.422,2.773,6.195,6.195,6.195"/>
	<path style="&st0;" d="M32.854,12.891c0-1.711-1.388-3.099-3.099-3.099"/>
	<path style="&st0;" d="M23.56,9.795c-1.71,0-3.097,1.386-3.097,3.096"/>
	<path style="&st1;" d="M30.56,14.956c0-1.267-1.027-2.294-2.295-2.294"/>
	<path style="&st1;" d="M25.052,12.662c-1.267,0-2.294,1.027-2.294,2.294"/>
	<path style="&st0;" d="M2.794,27.347c-1.267,0-2.294,1.027-2.294,2.294"/>
	<path style="&st0;" d="M0.5,37.443c0,1.268,1.027,2.295,2.294,2.295"/>
	<path style="&st0;" d="M2.843,27.347c0.6,0,1.093-0.454,1.143-1.051"/>
	<path style="&st0;" d="M3.987,40.789c-0.051-0.598-0.544-1.052-1.145-1.052"/>
	<path style="&st1;" d="M5.089,30.443c-0.634,0-1.147,0.514-1.147,1.147"/>
	<path style="&st1;" d="M3.942,35.495c0,0.634,0.514,1.147,1.147,1.147"/>
	<path style="&st1;" d="M66.126,17.367c0-0.634-0.514-1.147-1.147-1.147"/>
	<path style="&st1;" d="M54.423,16.217c-0.635,0-1.15,0.515-1.15,1.15"/>
	<path style="&st1;" d="M54.653,19.43c0.634,0,1.147-0.514,1.147-1.147"/>
	<path style="&st1;" d="M63.602,18.282c0,0.634,0.514,1.147,1.147,1.147"/>
	<path style="&st1;" d="M48.917,9.22c-1.014,0-1.836,0.822-1.836,1.836"/>
	<path style="&st1;" d="M72.321,11.056c0-1.014-0.822-1.836-1.835-1.836"/>
	<path style="&st1;" d="M69.568,12.662c0-0.633-0.514-1.147-1.147-1.147"/>
	<path style="&st1;" d="M50.981,11.515c-0.634,0-1.147,0.514-1.147,1.147"/>
	<path style="&st1;" d="M54.194,21.036c0,0.633,0.514,1.147,1.147,1.147"/>
	<path style="&st1;" d="M64.061,22.183c0.633,0,1.147-0.514,1.147-1.147"/>
	<path style="&st1;" d="M45.245,21.036c0,0.633,0.514,1.147,1.147,1.147"/>
	<path style="&st1;" d="M73.01,22.183c0.634,0,1.147-0.514,1.147-1.147"/>
	<path style="&st1;" d="M69.568,21.036c0,0.633,0.514,1.147,1.147,1.147"/>
	<path style="&st1;" d="M48.687,22.183c0.633,0,1.147-0.514,1.147-1.147"/>
	<path style="&st0;" d="M70.744,56.718c3.345-0.606,6.021-2.083,8.318-4.588"/>
	<path style="&st0;" d="M41.735,52.129c2.1,2.274,4.419,3.714,7.388,4.589"/>
	<g ewd:pinNo="8">
		<text transform="matrix(1 0 0 1 103.2168 35.8018)"><tspan x="0" y="0" style="&st3; &st2;">8</tspan></text>
	</g>
	<g ewd:pinNo="7">
		<text transform="matrix(1 0 0 1 90.3101 35.8018)"><tspan x="0" y="0" style="&st3; &st2;">7</tspan></text>
	</g>
	<g ewd:pinNo="6">
		<text transform="matrix(1 0 0 1 77.4009 35.8018)"><tspan x="0" y="0" style="&st3; &st2;">6</tspan></text>
	</g>
	<g ewd:pinNo="5">
		<text transform="matrix(1 0 0 1 64.4946 35.8018)"><tspan x="0" y="0" style="&st3; &st2;">5</tspan></text>
	</g>
	<g ewd:pinNo="4">
		<text transform="matrix(1 0 0 1 52.0522 35.8018)"><tspan x="0" y="0" style="&st3; &st2;">4</tspan></text>
	</g>
	<g ewd:pinNo="3">
		<text transform="matrix(1 0 0 1 40.0752 35.8018)"><tspan x="0" y="0" style="&st3; &st2;">3</tspan></text>
	</g>
	<g ewd:pinNo="2">
		<text transform="matrix(1 0 0 1 28.0952 35.8018)"><tspan x="0" y="0" style="&st3; &st2;">2</tspan></text>
	</g>
	<g ewd:pinNo="1">
		<text transform="matrix(1 0 0 1 16.1177 35.8018)"><tspan x="0" y="0" style="&st3; &st2;">1</tspan></text>
	</g>
</g>
</svg>