﻿<?xml version="1.0"?>
<!-- Generator: Adobe Illustrator 10.0, SVG Export Plug-In . SVG Version: 3.0.0 Build 77)  -->
<!DOCTYPE svg PUBLIC "-//W3C//DTD SVG 1.0//EN" "http://www.w3.org/TR/2001/REC-SVG-20010904/DTD/svg10.dtd"[
	<!ENTITY ns_flows "http://ns.adobe.com/Flows/1.0/">
	<!ENTITY ns_svg "http://www.w3.org/2000/svg">
	<!ENTITY ns_xlink "http://www.w3.org/1999/xlink">
	<!ENTITY st0 "fill:none;">
	<!ENTITY st1 "stroke:#000000;">
	<!ENTITY st2 "stroke-linecap:round;">
	<!ENTITY st3 "stroke-linejoin:round;">
	<!ENTITY st4 "stroke-width:0.6;">
	<!ENTITY st5 "font-size:6px;">
	<!ENTITY st6 "font-family:'Arial';">
	<!ENTITY st7 "stroke-width:1.4;">
	<!ATTLIST svg
		ewd:ver CDATA #IMPLIED
		xmlns:ewd CDATA #FIXED "http://shcl.co.jp/ewd"
		xmlns:a CDATA #FIXED "http://ns.adobe.com/AdobeSVGViewerExtensions/3.0/">
	<!ATTLIST g
		ewd:pinNo CDATA #IMPLIED>
]>
<svg width="135.156" height="70.499" viewBox="0 0 135.156 70.499" style="overflow:visible;enable-background:new 0 0 49.159 47.317" xml:space="preserve" onload="call_execInitLoadProc_svg('connector')" ewd:ver="L2.1.2.8" xmlns="&ns_svg;" xmlns:ewd="http://shcl.co.jp/ewd" xmlns:a="http://ns.adobe.com/AdobeSVGViewerExtensions/3.0/" xmlns:xlink="&ns_xlink;">
<script type="text/javascript" xlink:href="../../../../../system/js/ewd/fig/svgfig.js"/>
<g id="レイヤー_1" transform="translate(0,17.008)">
	<path style="&st0;&st1;&st2;&st3;" d="M0.5,40.869c0,0.782,0.634,1.417,1.416,1.417"/>
	<path style="&st0;&st1;&st2;&st3;" d="M1.916,17.498c-0.782,0-1.416,0.634-1.416,1.417"/>
	<path style="&st0;&st1;&st2;&st3;" d="M8.432,17.498c0.782,0,1.416-0.634,1.416-1.417"/>
	<path style="&st0;&st1;&st2;&st3;" d="M13.248,16.081c0,0.782,0.634,1.417,1.416,1.417"/>
	<path style="&st0;&st1;&st2;&st3;" d="M17.497,17.498c0.782,0,1.417-0.634,1.417-1.417"/>
	<path style="&st0;&st1;&st2;&st3;" d="M18.914,10.367c0-0.342-0.134-0.634-0.392-0.857"/>
	<path style="&st0;&st1;&st2;&st3;" d="M14.664,5.52c0,0.427,0.167,0.792,0.49,1.071"/>
	<path style="&st0;&st1;&st2;&st3;" d="M16.081,0.5c-0.782,0-1.417,0.634-1.417,1.417"/>
	<path style="&st0;&st1;&st2;&st3;" d="M10.698,0.5c-0.469,0-0.85,0.381-0.85,0.85"/>
	<path style="&st0;&st1;&st2;&st3;" d="M13.248,1.35c0-0.469-0.381-0.85-0.85-0.85"/>
	<path style="&st0;&st1;&st4;&st2;&st3;" d="M10.698,6.166c-0.469,0-0.85,0.38-0.85,0.85"/>
	<path style="&st0;&st1;&st4;&st2;&st3;" d="M13.248,7.016c0-0.47-0.381-0.85-0.85-0.85"/>
	<path style="&st0;&st1;&st2;&st3;" d="M6.591,46.251c0.277,0.369,0.671,0.566,1.133,0.566"/>
	<path style="&st0;&st1;&st2;&st3;" d="M5.486,44.778c-0.111-0.148-0.269-0.227-0.454-0.227"/>
	<path style="&st0;&st1;&st2;&st3;" d="M47.242,42.285c0.782,0,1.417-0.634,1.417-1.417"/>
	<path style="&st0;&st1;&st2;&st3;" d="M48.659,18.914c0-0.782-0.634-1.417-1.417-1.417"/>
	<path style="&st0;&st1;&st2;&st3;" d="M39.31,16.081c0,0.782,0.634,1.417,1.417,1.417"/>
	<path style="&st0;&st1;&st2;&st3;" d="M34.494,17.498c0.782,0,1.417-0.634,1.417-1.417"/>
	<path style="&st0;&st1;&st2;&st3;" d="M30.245,16.081c0,0.782,0.634,1.417,1.417,1.417"/>
	<path style="&st0;&st1;&st2;&st3;" d="M30.636,9.509c-0.259,0.224-0.393,0.516-0.393,0.858"/>
	<path style="&st0;&st1;&st2;&st3;" d="M34.004,6.591c0.323-0.279,0.49-0.644,0.49-1.071"/>
	<path style="&st0;&st1;&st2;&st3;" d="M34.494,1.917c0-0.782-0.634-1.417-1.417-1.417"/>
	<path style="&st0;&st1;&st2;&st3;" d="M39.31,1.35c0-0.469-0.38-0.85-0.85-0.85"/>
	<path style="&st0;&st1;&st2;&st3;" d="M36.761,0.5c-0.47,0-0.85,0.381-0.85,0.85"/>
	<path style="&st0;&st1;&st4;&st2;&st3;" d="M39.31,7.016c0-0.47-0.38-0.85-0.85-0.85"/>
	<path style="&st0;&st1;&st4;&st2;&st3;" d="M36.761,6.166c-0.47,0-0.85,0.38-0.85,0.85"/>
	<path style="&st0;&st1;&st2;&st3;" d="M41.435,46.817c0.462,0,0.856-0.197,1.133-0.566"/>
	<path style="&st0;&st1;&st2;&st3;" d="M44.126,44.551c-0.185,0-0.342,0.079-0.453,0.227"/>
	<path style="&st0;&st1;&st2;&st3;" d="M0.5,18.914v21.955"/>
	<path style="&st0;&st1;&st2;&st3;" d="M1.916,17.498h6.516"/>
	<path style="&st0;&st1;&st2;&st3;" d="M7.724,46.817h33.711"/>
	<path style="&st0;&st1;&st2;&st3;" d="M10.698,0.5h1.7"/>
	<path style="&st0;&st1;&st2;&st3;" d="M13.248,1.35v14.731"/>
	<path style="&st0;&st1;&st2;&st3;" d="M14.664,17.498h2.833"/>
	<path style="&st0;&st1;&st4;&st2;&st3;" d="M18.914,6.166v4.201"/>
	<path style="&st0;&st1;&st4;&st2;&st3;" d="M30.245,8.432H18.914"/>
	<path style="&st0;&st1;&st2;&st3;" d="M33.078,0.5H16.081"/>
	<path style="&st0;&st1;&st2;&st3;" d="M14.664,1.917V5.52"/>
	<path style="&st0;&st1;&st2;&st3;" d="M15.154,6.591l3.368,2.918"/>
	<path style="&st0;&st1;&st4;&st2;&st3;" d="M18.914,6.166h1.7"/>
	<path style="&st0;&st1;&st4;&st2;&st3;" d="M3.333,43.418h42.493"/>
	<path style="&st0;&st1;&st4;&st2;&st3;" d="M6.166,42.285v2.266"/>
	<path style="&st0;&st1;&st4;&st2;&st3;" d="M22.455,42.285v2.266"/>
	<path style="&st0;&st1;&st4;&st2;&st3;" d="M24.579,39.027h-2.125v2.125h2.125"/>
	<path style="&st0;&st1;&st4;&st2;&st3;" d="M0.5,21.747l1.7,0.85v14.164l-1.7,0.85"/>
	<path style="&st0;&st1;&st2;&st3;" d="M9.848,1.35v14.731"/>
	<path style="&st0;&st1;&st4;&st2;&st3;" d="M10.698,6.166h1.7"/>
	<path style="&st0;&st1;&st2;&st3;" d="M3.333,42.285v2.266"/>
	<path style="&st0;&st1;&st2;&st3;" d="M3.333,44.551h1.7"/>
	<path style="&st0;&st1;&st2;&st3;" d="M5.486,44.778l1.105,1.473"/>
	<path style="&st0;&st1;&st4;&st2;&st3;" d="M44.126,44.551H5.032"/>
	<path style="&st0;&st1;&st4;&st2;&st3;" d="M3.899,39.027v2.125H7.44v-2.125H3.899"/>
	<path style="&st0;&st1;&st2;&st3;" d="M48.659,18.914v21.955"/>
	<path style="&st0;&st1;&st2;&st3;" d="M47.242,17.498h-6.516"/>
	<path style="&st0;&st1;&st2;&st3;" d="M38.46,0.5h-1.7"/>
	<path style="&st0;&st1;&st2;&st3;" d="M35.911,1.35v14.731"/>
	<path style="&st0;&st1;&st2;&st3;" d="M34.494,17.498h-2.833"/>
	<path style="&st0;&st1;&st4;&st2;&st3;" d="M30.245,6.166v4.201"/>
	<path style="&st0;&st1;&st2;&st3;" d="M34.494,1.917V5.52"/>
	<path style="&st0;&st1;&st2;&st3;" d="M34.004,6.591l-3.368,2.918"/>
	<path style="&st0;&st1;&st4;&st2;&st3;" d="M30.245,6.166h-1.7"/>
	<path style="&st0;&st1;&st4;&st2;&st3;" d="M42.993,42.285v2.266"/>
	<path style="&st0;&st1;&st4;&st2;&st3;" d="M26.704,42.285v2.266"/>
	<path style="&st0;&st1;&st4;&st2;&st3;" d="M24.579,39.027h2.125v2.125h-2.125"/>
	<path style="&st0;&st1;&st4;&st2;&st3;" d="M48.659,21.747l-1.7,0.85v14.164l1.7,0.85"/>
	<path style="&st0;&st1;&st2;&st3;" d="M39.31,1.35v14.731"/>
	<path style="&st0;&st1;&st4;&st2;&st3;" d="M38.46,6.166h-1.7"/>
	<path style="&st0;&st1;&st2;&st3;" d="M45.826,42.285v2.266"/>
	<path style="&st0;&st1;&st2;&st3;" d="M45.826,44.551h-1.7"/>
	<path style="&st0;&st1;&st2;&st3;" d="M43.673,44.778l-1.105,1.473"/>
	<path style="&st0;&st1;&st4;&st2;&st3;" d="M45.259,39.027v2.125h-3.541v-2.125H45.259"/>
	<path style="&st0;&st1;&st4;&st2;&st3;" d="M6.166,23.163v14.448h36.827V23.163H6.166"/>
	<path style="&st0;&st1;&st4;&st2;&st3;" d="M24.579,23.163v14.448"/>
	<path style="&st0;&st1;&st4;&st2;&st3;" d="M20.613,3.333v3.966h7.932V3.333H20.613"/>
	<path style="&st0;&st1;&st4;&st2;&st3;" d="M23.163,17.498v2.266h2.833v-2.266H23.163"/>
	<path style="&st0;&st1;&st2;&st3;" d="M18.914,10.367v5.714"/>
	<path style="&st0;&st1;&st2;&st3;" d="M30.245,10.367v5.714"/>
	<path style="&st0;&st1;&st4;&st2;&st3;" d="M3.333,42.285h42.493"/>
	<path style="&st0;&st1;&st2;&st3;" d="M1.916,42.285h1.417"/>
	<path style="&st0;&st1;&st2;&st3;" d="M45.826,42.285h1.417"/>
	<g ewd:pinNo="1">
		<text transform="matrix(1 0 0 1 13.5996 32.6206)"><tspan x="0" y="0" style="&st6; &st5;">1</tspan></text>
	</g>
	<g ewd:pinNo="2">
		<text transform="matrix(1 0 0 1 32.0132 32.6206)"><tspan x="0" y="0" style="&st6; &st5;">2</tspan></text>
	</g>
</g>
<g id="レイヤー_1" transform="translate(69,17.008)">
	<path style="&st0;&st1;&st2;&st3;" d="M13.248,2.625v5"/>
	<path style="&st0;&st1;&st4;&st2;&st3;" d="M17.497,2.625v14.873"/>
	<path style="&st0;&st1;&st4;&st2;&st3;" d="M21.747,6.208v12.082"/>
	<path style="&st0;&st1;&st4;&st2;&st3;" d="M25.996,6.208v12.082"/>
	<path style="&st0;&st1;&st2;&st3;" d="M52.908,2.625v5"/>
	<path style="&st0;&st1;&st4;&st2;&st3;" d="M48.659,2.625v14.873"/>
	<path style="&st0;&st1;&st4;&st2;&st3;" d="M44.409,6.208v12.082"/>
	<path style="&st0;&st1;&st4;&st2;&st3;" d="M40.16,6.208v12.082"/>
	<path style="&st0;&st1;&st2;&st3;" d="M15.373,0.5h35.411"/>
	<path style="&st0;&st1;&st4;&st2;&st3;" d="M13.248,7.625v5.708"/>
	<path style="&st0;&st1;&st4;&st2;&st3;" d="M52.908,7.625v5.708"/>
	<path style="&st0;&st1;&st4;&st2;&st3;" d="M15.656,41.662c-0.548,0-0.992,0.444-0.992,0.992"/>
	<path style="&st0;&st1;&st4;&st2;&st3;" d="M14.664,43.503c0,0.548,0.444,0.992,0.992,0.992"/>
	<path style="&st0;&st1;&st4;&st2;&st3;" d="M15.656,44.495c-0.548,0-0.992,0.444-0.992,0.991"/>
	<path style="&st0;&st1;&st4;&st2;&st3;" d="M14.664,46.336c0,0.547,0.444,0.991,0.992,0.991"/>
	<path style="&st0;&st1;&st4;&st2;&st3;" d="M31.662,42.653c0-0.548-0.444-0.992-0.992-0.992"/>
	<path style="&st0;&st1;&st4;&st2;&st3;" d="M30.67,44.495c0.547,0,0.992-0.444,0.992-0.992"/>
	<path style="&st0;&st1;&st4;&st2;&st3;" d="M31.662,45.486c0-0.547-0.444-0.991-0.992-0.991"/>
	<path style="&st0;&st1;&st4;&st2;&st3;" d="M30.67,47.327c0.547,0,0.992-0.444,0.992-0.991"/>
	<path style="&st0;&st1;&st4;&st2;&st3;" d="M35.486,41.662c-0.548,0-0.992,0.444-0.992,0.992"/>
	<path style="&st0;&st1;&st4;&st2;&st3;" d="M51.491,42.653c0-0.548-0.444-0.992-0.991-0.992"/>
	<path style="&st0;&st1;&st4;&st2;&st3;" d="M50.5,44.495c0.547,0,0.991-0.444,0.991-0.992"/>
	<path style="&st0;&st1;&st4;&st2;&st3;" d="M34.494,43.503c0,0.548,0.444,0.992,0.992,0.992"/>
	<path style="&st0;&st1;&st4;&st2;&st3;" d="M35.486,44.495c-0.548,0-0.992,0.444-0.992,0.991"/>
	<path style="&st0;&st1;&st4;&st2;&st3;" d="M34.494,46.336c0,0.547,0.444,0.991,0.992,0.991"/>
	<path style="&st0;&st1;&st4;&st2;&st3;" d="M50.5,47.327c0.547,0,0.991-0.444,0.991-0.991"/>
	<path style="&st0;&st1;&st4;&st2;&st3;" d="M51.491,45.486c0-0.547-0.444-0.991-0.991-0.991"/>
	<path style="&st0;&st1;&st4;&st2;&st3;" d="M4.749,45.911c0,1.564,1.269,2.833,2.833,2.833"/>
	<path style="&st0;&st1;&st4;&st2;&st3;" d="M6.166,45.911c0,0.782,0.634,1.416,1.417,1.416"/>
	<path style="&st0;&st1;&st4;&st2;&st3;" d="M58.574,48.744c1.564,0,2.833-1.268,2.833-2.833"/>
	<path style="&st0;&st1;&st4;&st2;&st3;" d="M58.574,47.327c0.782,0,1.417-0.634,1.417-1.416"/>
	<path style="&st0;&st1;&st2;&st3;" d="M0.5,45.911c0,3.911,3.17,7.082,7.082,7.082"/>
	<path style="&st0;&st1;&st2;&st3;" d="M58.574,52.993c3.911,0,7.082-3.171,7.082-7.082"/>
	<path style="&st0;&st1;&st4;&st2;&st3;" d="M7.582,18.999c-1.564,0-2.833,1.268-2.833,2.833"/>
	<path style="&st0;&st1;&st4;&st2;&st3;" d="M7.582,20.416c-0.782,0-1.417,0.634-1.417,1.416"/>
	<path style="&st0;&st1;&st2;&st3;" d="M7.582,14.75C3.67,14.75,0.5,17.92,0.5,21.832"/>
	<path style="&st0;&st1;&st4;&st2;&st3;" d="M15.996,18.999c0.829,0,1.501-0.672,1.501-1.501"/>
	<path style="&st0;&st1;&st4;&st2;&st3;" d="M17.497,2.625c0-1.173-0.951-2.125-2.125-2.125"/>
	<path style="&st0;&st1;&st4;&st2;&st3;" d="M11.832,14.75c0.782,0,1.417-0.634,1.417-1.417"/>
	<path style="&st0;&st1;&st2;&st3;" d="M11.832,7.625c-0.782,0-1.417,0.634-1.417,1.417"/>
	<path style="&st0;&st1;&st4;&st2;&st3;" d="M21.747,18.291c0,1.173,0.951,2.125,2.125,2.125"/>
	<path style="&st0;&st1;&st4;&st2;&st3;" d="M23.871,20.416c1.173,0,2.125-0.952,2.125-2.125"/>
	<path style="&st0;&st1;&st4;&st2;&st3;" d="M61.406,21.832c0-1.564-1.268-2.833-2.833-2.833"/>
	<path style="&st0;&st1;&st4;&st2;&st3;" d="M59.99,21.832c0-0.782-0.634-1.416-1.417-1.416"/>
	<path style="&st0;&st1;&st2;&st3;" d="M65.656,21.832c0-3.911-3.171-7.082-7.082-7.082"/>
	<path style="&st0;&st1;&st4;&st2;&st3;" d="M48.659,17.498c0,0.829,0.672,1.501,1.501,1.501"/>
	<path style="&st0;&st1;&st2;&st3;" d="M52.908,2.625c0-1.173-0.951-2.125-2.125-2.125"/>
	<path style="&st0;&st1;&st4;&st2;&st3;" d="M52.908,13.333c0,0.782,0.634,1.417,1.417,1.417"/>
	<path style="&st0;&st1;&st2;&st3;" d="M55.741,9.041c0-0.782-0.634-1.417-1.417-1.417"/>
	<path style="&st0;&st1;&st4;&st2;&st3;" d="M40.16,18.291c0,1.173,0.951,2.125,2.125,2.125"/>
	<path style="&st0;&st1;&st4;&st2;&st3;" d="M42.285,20.416c1.173,0,2.125-0.952,2.125-2.125"/>
	<path style="&st0;&st1;&st4;&st2;&st3;" d="M21.747,6.208c0-0.782-0.634-1.417-1.417-1.417"/>
	<path style="&st0;&st1;&st4;&st2;&st3;" d="M45.826,4.792c-0.782,0-1.417,0.634-1.417,1.417"/>
	<path style="&st0;&st1;&st4;&st2;&st3;" d="M25.996,4.792c-0.782,0-1.417,0.634-1.417,1.417"/>
	<path style="&st0;&st1;&st4;&st2;&st3;" d="M41.577,6.208c0-0.782-0.634-1.417-1.417-1.417"/>
	<path style="&st0;&st1;&st2;&st3;" d="M15.373,0.5c-1.173,0-2.125,0.952-2.125,2.125"/>
	<path style="&st0;&st1;&st4;&st2;&st3;" d="M50.783,0.5c-1.173,0-2.125,0.952-2.125,2.125"/>
	<path style="&st0;&st1;&st4;&st2;&st3;" d="M13.248,28.914v9.915h16.997v-9.915H13.248"/>
	<path style="&st0;&st1;&st4;&st2;&st3;" d="M35.911,28.914v9.915h16.997v-9.915H35.911"/>
	<path style="&st0;&st1;&st4;&st2;&st3;" d="M14.664,20.416h16.998v5.666H14.664V20.416"/>
	<path style="&st0;&st1;&st4;&st2;&st3;" d="M14.664,22.398h16.998"/>
	<path style="&st0;&st1;&st4;&st2;&st3;" d="M51.491,20.416H34.494v5.666h16.997V20.416"/>
	<path style="&st0;&st1;&st4;&st2;&st3;" d="M51.491,22.398H34.494"/>
	<path style="&st0;&st1;&st4;&st2;&st3;" d="M15.656,41.662H30.67"/>
	<path style="&st0;&st1;&st4;&st2;&st3;" d="M35.486,41.662H50.5"/>
	<path style="&st0;&st1;&st4;&st2;&st3;" d="M15.656,47.327H30.67"/>
	<path style="&st0;&st1;&st4;&st2;&st3;" d="M35.486,47.327H50.5"/>
	<path style="&st0;&st1;&st4;&st2;&st3;" d="M15.656,44.495H30.67"/>
	<path style="&st0;&st1;&st4;&st2;&st3;" d="M35.486,44.495H50.5"/>
	<path style="&st0;&st1;&st4;&st2;&st3;" d="M14.664,42.653v0.85"/>
	<path style="&st0;&st1;&st4;&st2;&st3;" d="M31.662,42.653v0.85"/>
	<path style="&st0;&st1;&st4;&st2;&st3;" d="M14.664,45.486v0.85"/>
	<path style="&st0;&st1;&st4;&st2;&st3;" d="M31.662,45.486v0.85"/>
	<path style="&st0;&st1;&st4;&st2;&st3;" d="M34.494,42.653v0.85"/>
	<path style="&st0;&st1;&st4;&st2;&st3;" d="M34.494,45.486v0.85"/>
	<path style="&st0;&st1;&st4;&st2;&st3;" d="M51.491,42.653v0.85"/>
	<path style="&st0;&st1;&st4;&st2;&st3;" d="M51.491,45.486v0.85"/>
	<path style="&st0;&st1;&st4;&st2;&st3;" d="M7.582,48.744h50.992"/>
	<path style="&st0;&st1;&st4;&st2;&st3;" d="M15.656,47.327l2.833,2.833h29.178l2.833-2.833"/>
	<path style="&st0;&st1;&st4;&st2;&st3;" d="M4.749,21.832v24.08"/>
	<path style="&st0;&st1;&st4;&st2;&st3;" d="M61.406,21.832v24.08"/>
	<path style="&st0;&st1;&st4;&st2;&st3;" d="M7.582,47.327h8.074"/>
	<path style="&st0;&st1;&st4;&st2;&st3;" d="M6.166,40.245v5.666"/>
	<path style="&st0;&st1;&st4;&st2;&st3;" d="M11.832,40.245H8.999v2.833h2.833V40.245"/>
	<path style="&st0;&st1;&st4;&st2;&st3;" d="M6.166,40.245l-1.417-1.417"/>
	<path style="&st0;&st1;&st4;&st2;&st3;" d="M58.574,47.327H50.5"/>
	<path style="&st0;&st1;&st4;&st2;&st3;" d="M59.99,40.245v5.666"/>
	<path style="&st0;&st1;&st4;&st2;&st3;" d="M54.324,40.245h2.833v2.833h-2.833V40.245"/>
	<path style="&st0;&st1;&st4;&st2;&st3;" d="M59.99,40.245l1.416-1.417"/>
	<path style="&st0;&st1;&st2;&st3;" d="M7.582,52.993h50.992"/>
	<path style="&st0;&st1;&st2;&st3;" d="M65.656,21.832v24.08"/>
	<path style="&st0;&st1;&st4;&st2;&st3;" d="M11.832,20.416v3.682H8.999v-3.682H11.832"/>
	<path style="&st0;&st1;&st4;&st2;&st3;" d="M14.664,20.416l1.417-1.417"/>
	<path style="&st0;&st1;&st4;&st2;&st3;" d="M11.832,20.416h2.833"/>
	<path style="&st0;&st1;&st4;&st2;&st3;" d="M15.996,18.999H7.582"/>
	<path style="&st0;&st1;&st4;&st2;&st3;" d="M7.582,20.416h1.417"/>
	<path style="&st0;&st1;&st4;&st2;&st3;" d="M6.166,21.832v4.25l-1.417,1.417"/>
	<path style="&st0;&st1;&st2;&st3;" d="M10.415,14.75H7.582"/>
	<path style="&st0;&st1;&st2;&st3;" d="M0.5,21.832v24.08"/>
	<path style="&st0;&st1;&st2;&st3;" d="M13.248,7.625h-1.417"/>
	<path style="&st0;&st1;&st2;&st3;" d="M10.415,9.041v5.708"/>
	<path style="&st0;&st1;&st4;&st2;&st3;" d="M17.497,4.792h2.833"/>
	<path style="&st0;&st1;&st4;&st2;&st3;" d="M54.324,20.416v3.682h2.833v-3.682H54.324"/>
	<path style="&st0;&st1;&st4;&st2;&st3;" d="M51.491,20.416l-1.416-1.417"/>
	<path style="&st0;&st1;&st4;&st2;&st3;" d="M54.324,20.416h-2.833"/>
	<path style="&st0;&st1;&st4;&st2;&st3;" d="M50.16,18.999h8.414"/>
	<path style="&st0;&st1;&st4;&st2;&st3;" d="M58.574,20.416h-1.417"/>
	<path style="&st0;&st1;&st4;&st2;&st3;" d="M59.99,21.832v4.25l1.416,1.417"/>
	<path style="&st0;&st1;&st2;&st3;" d="M55.741,14.75h2.833"/>
	<path style="&st0;&st1;&st2;&st3;" d="M52.908,7.625h1.417"/>
	<path style="&st0;&st1;&st2;&st3;" d="M55.741,9.041v5.708"/>
	<path style="&st0;&st1;&st4;&st2;&st3;" d="M48.659,4.792h-2.833"/>
	<path style="&st0;&st1;&st4;&st2;&st3;" d="M25.996,6.208H40.16"/>
	<path style="&st0;&st1;&st4;&st2;&st3;" d="M17.497,7.625h4.25"/>
	<path style="&st0;&st1;&st4;&st2;&st3;" d="M44.409,7.625h4.25"/>
	<path style="&st0;&st1;&st4;&st2;&st3;" d="M24.579,12.625l1.417,5.666"/>
	<path style="&st0;&st1;&st4;&st2;&st3;" d="M41.577,12.625l-1.417,5.666"/>
	<path style="&st0;&st1;&st4;&st2;&st3;" d="M25.996,4.792H40.16"/>
	<path style="&st0;&st1;&st4;&st2;&st3;" d="M25.996,15.458H40.16"/>
	<path style="&st0;&st1;&st4;&st2;&st3;" d="M41.577,6.208v6.416"/>
	<path style="&st0;&st1;&st4;&st2;&st3;" d="M24.579,6.208v6.416"/>
	<path style="&st0;&st1;&st4;&st2;&st3;" d="M25.996,11.208H40.16"/>
	<path style="&st0;&st1;&st4;&st2;&st3;" d="M29.537,11.208v2.833h7.083v-2.833"/>
	<path style="&st0;&st1;&st4;&st2;&st3;" d="M30.953,11.208V9.084h4.25v2.125"/>
	<path style="&st0;&st1;&st4;&st2;&st3;" d="M30.953,9.934h4.25"/>
	<path style="&st0;&st1;&st4;&st2;&st3;" d="M25.996,7.341H40.16"/>
	<path style="&st0;&st1;&st4;&st2;&st3;" d="M11.832,14.75h-1.417"/>
	<path style="&st0;&st1;&st4;&st2;&st3;" d="M54.324,14.75h1.417"/>
	<g ewd:pinNo="2">
		<text transform="matrix(1 0 0 1 19.9063 35.9365)"><tspan x="0" y="0" style="&st6; &st5;">2</tspan></text>
	</g>
	<g ewd:pinNo="1">
		<text transform="matrix(1 0 0 1 42.5693 35.9365)"><tspan x="0" y="0" style="&st6; &st5;">1</tspan></text>
	</g>
</g>
<path d="M24.5795,9.069v-8.504h77.4985v8.504" style="&st0;&st1;&st7;&st2;&st3;"/>
</svg>