﻿<?xml version="1.0"?>
<!-- Generator: Adobe Illustrator 10.0, SVG Export Plug-In . SVG Version: 3.0.0 Build 77)  -->
<!DOCTYPE svg PUBLIC "-//W3C//DTD SVG 1.0//EN" "http://www.w3.org/TR/2001/REC-SVG-20010904/DTD/svg10.dtd"[
	<!ENTITY ns_flows "http://ns.adobe.com/Flows/1.0/">
	<!ENTITY ns_svg "http://www.w3.org/2000/svg">
	<!ENTITY ns_xlink "http://www.w3.org/1999/xlink">
	<!ENTITY st0 "fill:none;">
	<!ENTITY st1 "stroke:#000000;">
	<!ENTITY st2 "stroke-linecap:round;">
	<!ENTITY st3 "stroke-linejoin:round;">
	<!ENTITY st4 "stroke-width:0.6;">
	<!ENTITY st5 "font-size:6px;">
	<!ENTITY st6 "font-family:'Arial';">
	<!ENTITY st7 "stroke-width:1.4;">
	<!ATTLIST svg
		ewd:ver CDATA #IMPLIED
		xmlns:ewd CDATA #FIXED "http://shcl.co.jp/ewd"
		xmlns:a CDATA #FIXED "http://ns.adobe.com/AdobeSVGViewerExtensions/3.0/">
	<!ATTLIST g
		ewd:pinNo CDATA #IMPLIED>
]>
<svg width="73.116" height="51.576" viewBox="0 0 73.116 51.576" style="overflow:visible;enable-background:new 0 0 24.796 34.57" xml:space="preserve" onload="call_execInitLoadProc_svg('connector')" ewd:ver="L2.1.2.8" xmlns="&ns_svg;" xmlns:ewd="http://shcl.co.jp/ewd" xmlns:a="http://ns.adobe.com/AdobeSVGViewerExtensions/3.0/" xmlns:xlink="&ns_xlink;">
<script type="text/javascript" xlink:href="../../../../../system/js/ewd/fig/svgfig.js"/>
<g id="レイヤー_1" transform="translate(0,17.008)">
	<path style="&st0;&st1;&st2;&st3;" d="M0.5,16.789v9.065"/>
	<path style="&st0;&st1;&st4;&st2;&st3;" d="M5.599,30.812h13.598"/>
	<path style="&st0;&st1;&st2;&st3;" d="M24.296,16.789v9.065"/>
	<path style="&st0;&st1;&st2;&st3;" d="M8.715,0.5h7.365"/>
	<path style="&st0;&st1;&st2;&st3;" d="M5.599,11.832h1.7"/>
	<path style="&st0;&st1;&st2;&st3;" d="M22.03,6.591v8.08"/>
	<path style="&st0;&st1;&st2;&st3;" d="M2.766,6.591v8.08"/>
	<path style="&st0;&st1;&st2;&st3;" d="M19.48,6.591v5.255"/>
	<path style="&st0;&st1;&st2;&st3;" d="M5.316,6.591v5.255"/>
	<path style="&st0;&st1;&st4;&st2;&st3;" d="M8.715,5.316h7.365"/>
	<path style="&st0;&st1;&st2;&st3;" d="M17.497,1.917v9.915"/>
	<path style="&st0;&st1;&st2;&st3;" d="M7.299,1.917v9.915"/>
	<path style="&st0;&st1;&st4;&st2;&st3;" d="M14.948,2.625v2.691"/>
	<path style="&st0;&st1;&st4;&st2;&st3;" d="M9.848,2.625v2.691"/>
	<path style="&st0;&st1;&st4;&st2;&st3;" d="M7.299,2.625h10.198"/>
	<path style="&st0;&st1;&st2;&st3;" d="M17.497,11.832h1.7"/>
	<path style="&st0;&st1;&st4;&st2;&st3;" d="M20.613,14.665v13.314"/>
	<path style="&st0;&st1;&st4;&st2;&st3;" d="M17.497,13.248h1.7"/>
	<path style="&st0;&st1;&st4;&st2;&st3;" d="M5.599,29.396h13.598"/>
	<path style="&st0;&st1;&st4;&st2;&st3;" d="M4.183,14.665v13.314"/>
	<path style="&st0;&st1;&st4;&st2;&st3;" d="M5.599,13.248h1.7"/>
	<path style="&st0;&st1;&st2;&st3;" d="M2.625,14.665h0.142"/>
	<path style="&st0;&st1;&st2;&st3;" d="M2.625,27.979h0.142"/>
	<path style="&st0;&st1;&st2;&st3;" d="M22.03,14.665h0.142"/>
	<path style="&st0;&st1;&st2;&st3;" d="M22.03,27.979h0.142"/>
	<path style="&st0;&st1;&st4;&st2;&st3;" d="M5.599,30.812v1.841"/>
	<path style="&st0;&st1;&st4;&st2;&st3;" d="M19.197,30.812v1.841"/>
	<path style="&st0;&st1;&st4;&st2;&st3;" d="M7.299,11.832v1.417"/>
	<path style="&st0;&st1;&st4;&st2;&st3;" d="M17.497,11.832v1.417"/>
	<path style="&st0;&st1;&st2;&st3;" d="M7.016,34.07H17.78"/>
	<path style="&st0;&st1;&st2;&st3;" d="M3.596,29.982l2.003,2.671"/>
	<path style="&st0;&st1;&st2;&st3;" d="M21.2,29.982l-2.003,2.671"/>
	<path style="&st0;&st1;&st4;&st2;&st3;" d="M15.373,30.812v3.258"/>
	<path style="&st0;&st1;&st4;&st2;&st3;" d="M15.373,32.228h3.824"/>
	<path style="&st0;&st1;&st4;&st2;&st3;" d="M2.766,14.67v13.309"/>
	<path style="&st0;&st1;&st4;&st2;&st3;" d="M22.03,14.665v13.314"/>
	<path style="&st0;&st1;&st2;&st3;" d="M5.316,6.591c0-0.704-0.571-1.275-1.275-1.275"/>
	<path style="&st0;&st1;&st2;&st3;" d="M4.041,5.316c-0.704,0-1.275,0.571-1.275,1.275"/>
	<path style="&st0;&st1;&st2;&st3;" d="M22.03,6.591c0-0.704-0.571-1.275-1.275-1.275"/>
	<path style="&st0;&st1;&st2;&st3;" d="M20.755,5.316c-0.704,0-1.275,0.571-1.275,1.275"/>
	<path style="&st0;&st1;&st2;&st3;" d="M8.715,0.5c-0.783,0-1.417,0.634-1.417,1.417"/>
	<path style="&st0;&st1;&st2;&st3;" d="M17.497,1.917c0-0.782-0.634-1.417-1.417-1.417"/>
	<path style="&st0;&st1;&st4;&st2;&st3;" d="M8.715,5.316c-0.783,0-1.417,0.634-1.417,1.417"/>
	<path style="&st0;&st1;&st4;&st2;&st3;" d="M17.497,6.732c0-0.782-0.634-1.417-1.417-1.417"/>
	<path style="&st0;&st1;&st2;&st3;" d="M2.766,27.979c0,0.782,0.276,1.45,0.83,2.003"/>
	<path style="&st0;&st1;&st4;&st2;&st3;" d="M19.197,30.812c0.782,0,1.45-0.277,2.003-0.83"/>
	<path style="&st0;&st1;&st4;&st2;&st3;" d="M22.03,14.665c0-1.465-1.092-2.672-2.55-2.819"/>
	<path style="&st0;&st1;&st2;&st3;" d="M5.599,11.832c-0.1,0-0.184,0.004-0.283,0.014"/>
	<path style="&st0;&st1;&st4;&st2;&st3;" d="M20.613,14.665c0-0.782-0.634-1.417-1.417-1.417"/>
	<path style="&st0;&st1;&st4;&st2;&st3;" d="M19.197,29.396c0.782,0,1.417-0.634,1.417-1.417"/>
	<path style="&st0;&st1;&st4;&st2;&st3;" d="M4.183,27.979c0,0.782,0.634,1.417,1.417,1.417"/>
	<path style="&st0;&st1;&st4;&st2;&st3;" d="M5.599,13.248c-0.782,0-1.417,0.634-1.417,1.417"/>
	<path style="&st0;&st1;&st2;&st3;" d="M2.625,14.665c-1.173,0-2.125,0.951-2.125,2.125"/>
	<path style="&st0;&st1;&st2;&st3;" d="M0.5,25.854c0,1.174,0.951,2.125,2.125,2.125"/>
	<path style="&st0;&st1;&st2;&st3;" d="M24.296,16.789c0-1.173-0.951-2.125-2.125-2.125"/>
	<path style="&st0;&st1;&st2;&st3;" d="M22.171,27.979c1.173,0,2.125-0.951,2.125-2.125"/>
	<path style="&st0;&st1;&st2;&st3;" d="M5.599,32.653c0,0.782,0.634,1.417,1.417,1.417"/>
	<path style="&st0;&st1;&st2;&st3;" d="M17.78,34.07c0.782,0,1.417-0.634,1.417-1.417"/>
	<path style="&st0;&st1;&st4;&st2;&st3;" d="M5.316,11.846c-1.458,0.146-2.55,1.354-2.55,2.819"/>
	<path style="&st0;&st1;&st2;&st3;" d="M19.48,11.846c-0.099-0.01-0.184-0.014-0.283-0.014"/>
	<path style="&st0;&st1;&st4;&st2;&st3;" d="M3.596,29.982c0.553,0.553,1.221,0.83,2.003,0.83"/>
	<path style="&st0;&st1;&st2;&st3;" d="M21.2,29.982c0.553-0.553,0.83-1.221,0.83-2.003"/>
	<path style="&st0;&st1;&st4;&st2;&st3;" d="M17.497,26.138V15.373H7.299v12.606h7.791"/>
	<path style="&st0;&st1;&st4;&st2;&st3;" d="M19.905,26.138h-4.815v2.549h4.815V26.138"/>
	<g ewd:pinNo="1">
		<text transform="matrix(1 0 0 1 10.4927 24.0161)"><tspan x="0" y="0" style="&st6; &st5;">1</tspan></text>
	</g>
</g>
<g id="レイヤー_1" transform="translate(44.637,17.008)">
	<path style="&st0;&st1;&st2;&st3;" d="M4.749,33.361h18.98"/>
	<path style="&st0;&st1;&st2;&st3;" d="M0.5,10.416v18.697"/>
	<path style="&st0;&st1;&st2;&st3;" d="M27.979,10.416v18.697"/>
	<path style="&st0;&st1;&st2;&st3;" d="M7.157,0.5h14.164"/>
	<path style="&st0;&st1;&st2;&st3;" d="M4.749,6.166h0.142"/>
	<path style="&st0;&st1;&st2;&st3;" d="M23.588,2.767v3.399"/>
	<path style="&st0;&st1;&st2;&st3;" d="M4.891,2.767v3.399"/>
	<path style="&st0;&st1;&st2;&st3;" d="M23.588,6.166h0.142"/>
	<path style="&st0;&st1;&st4;&st2;&st3;" d="M19.905,1.917v7.083"/>
	<path style="&st0;&st1;&st4;&st2;&st3;" d="M8.574,1.917v7.083"/>
	<path style="&st0;&st1;&st4;&st2;&st3;" d="M5.882,29.679h16.714"/>
	<path style="&st0;&st1;&st4;&st2;&st3;" d="M5.882,9.849h1.841"/>
	<path style="&st0;&st1;&st4;&st2;&st3;" d="M24.296,11.548v16.431"/>
	<path style="&st0;&st1;&st4;&st2;&st3;" d="M4.183,11.548v16.431"/>
	<path style="&st0;&st1;&st4;&st2;&st3;" d="M20.755,9.849h1.841"/>
	<path style="&st0;&st1;&st4;&st2;&st3;" d="M8.574,4.183h11.331"/>
	<path style="&st0;&st1;&st4;&st2;&st3;" d="M7.653,10.557h13.173"/>
	<path style="&st0;&st1;&st4;&st2;&st3;" d="M7.653,14.523h13.173"/>
	<path style="&st0;&st1;&st4;&st2;&st3;" d="M6.803,11.407v2.266"/>
	<path style="&st0;&st1;&st4;&st2;&st3;" d="M21.675,11.407v2.266"/>
	<path style="&st0;&st1;&st4;&st2;&st3;" d="M7.653,12.54h13.173"/>
	<path style="&st0;&st1;&st4;&st2;&st3;" d="M16.364,0.5v3.683"/>
	<path style="&st0;&st1;&st4;&st2;&st3;" d="M12.115,4.183V0.5"/>
	<path style="&st0;&st1;&st2;&st3;" d="M23.729,33.361c2.347,0,4.249-1.902,4.249-4.249"/>
	<path style="&st0;&st1;&st2;&st3;" d="M0.5,29.112c0,2.347,1.902,4.249,4.249,4.249"/>
	<path style="&st0;&st1;&st2;&st3;" d="M4.749,6.166c-2.347,0-4.249,1.902-4.249,4.25"/>
	<path style="&st0;&st1;&st2;&st3;" d="M27.979,10.416c0-2.347-1.902-4.25-4.249-4.25"/>
	<path style="&st0;&st1;&st4;&st2;&st3;" d="M24.296,11.548c0-0.939-0.761-1.7-1.7-1.7"/>
	<path style="&st0;&st1;&st4;&st2;&st3;" d="M22.596,29.679c0.939,0,1.7-0.761,1.7-1.7"/>
	<path style="&st0;&st1;&st4;&st2;&st3;" d="M4.183,27.979c0,0.939,0.761,1.7,1.7,1.7"/>
	<path style="&st0;&st1;&st4;&st2;&st3;" d="M5.882,9.849c-0.938,0-1.7,0.761-1.7,1.7"/>
	<path style="&st0;&st1;&st4;&st2;&st3;" d="M19.905,8.999c0,0.469,0.381,0.85,0.85,0.85"/>
	<path style="&st0;&st1;&st4;&st2;&st3;" d="M7.724,9.849c0.47,0,0.85-0.38,0.85-0.85"/>
	<path style="&st0;&st1;&st2;&st3;" d="M7.157,0.5c-1.251,0-2.267,1.015-2.267,2.267"/>
	<path style="&st0;&st1;&st2;&st3;" d="M23.588,2.767c0-1.252-1.015-2.267-2.267-2.267"/>
	<path style="&st0;&st1;&st4;&st2;&st3;" d="M21.321,0.5c-0.782,0-1.417,0.634-1.417,1.417"/>
	<path style="&st0;&st1;&st4;&st2;&st3;" d="M8.574,1.917c0-0.782-0.634-1.417-1.417-1.417"/>
	<path style="&st0;&st1;&st4;&st2;&st3;" d="M21.675,11.407c0-0.469-0.38-0.85-0.85-0.85"/>
	<path style="&st0;&st1;&st4;&st2;&st3;" d="M7.653,10.557c-0.469,0-0.85,0.381-0.85,0.85"/>
	<path style="&st0;&st1;&st4;&st2;&st3;" d="M6.803,13.673c0,0.47,0.38,0.85,0.85,0.85"/>
	<path style="&st0;&st1;&st4;&st2;&st3;" d="M20.826,14.523c0.469,0,0.85-0.38,0.85-0.85"/>
	<path style="&st0;&st1;&st4;&st2;&st3;" d="M6.803,11.69c0,0.469,0.38,0.85,0.85,0.85"/>
	<path style="&st0;&st1;&st4;&st2;&st3;" d="M20.826,12.54c0.469,0,0.85-0.381,0.85-0.85"/>
	<path style="&st0;&st1;&st4;&st2;&st3;" d="M16.506,24.084h4.249v2.125h-4.249V24.084"/>
	<path style="&st0;&st1;&st4;&st2;&st3;" d="M18.63,24.084v-8.145H9.848v9.207h6.658"/>
	<path style="&st0;&st1;&st4;&st2;&st3;" d="M17.072,4.183v1.7h-5.666v-1.7"/>
	<g ewd:pinNo="1">
		<text transform="matrix(1 0 0 1 12.4619 22.7729)"><tspan x="0" y="0" style="&st6; &st5;">1</tspan></text>
	</g>
</g>
<path d="M12.398,9.069v-8.504h46.4785v8.504" style="&st0;&st1;&st7;&st2;&st3;"/>
</svg>