﻿<?xml version="1.0"?>
<!-- Generator: Adobe Illustrator 10.0, SVG Export Plug-In . SVG Version: 3.0.0 Build 77)  -->
<!DOCTYPE svg PUBLIC "-//W3C//DTD SVG 1.0//EN" "http://www.w3.org/TR/2001/REC-SVG-20010904/DTD/svg10.dtd"[
	<!ENTITY ns_flows "http://ns.adobe.com/Flows/1.0/">
	<!ENTITY ns_svg "http://www.w3.org/2000/svg">
	<!ENTITY ns_xlink "http://www.w3.org/1999/xlink">
	<!ENTITY st0 "fill:none;stroke:#000000;stroke-linecap:round;stroke-linejoin:round;">
	<!ENTITY st1 "fill:none;stroke:#000000;stroke-width:0.6;stroke-linecap:round;stroke-linejoin:round;">
	<!ENTITY st2 "font-size:6px;">
	<!ENTITY st3 "font-family:'Arial';">
	<!ATTLIST svg
		ewd:ver CDATA #IMPLIED
		xmlns:ewd CDATA #FIXED "http://shcl.co.jp/ewd"
		xmlns:a CDATA #FIXED "http://ns.adobe.com/AdobeSVGViewerExtensions/3.0/">
	<!ATTLIST g
		ewd:pinNo CDATA #IMPLIED>
]>
<svg width="42.926" height="34.853" viewBox="0 0 42.926 34.853" style="overflow:visible;enable-background:new 0 0 42.926 34.853" xml:space="preserve" onload="call_execInitLoadProc_svg('connector')" ewd:ver="L2.1.2.8" xmlns="&ns_svg;" xmlns:ewd="http://shcl.co.jp/ewd" xmlns:a="http://ns.adobe.com/AdobeSVGViewerExtensions/3.0/" xmlns:xlink="&ns_xlink;">
<script type="text/javascript" xlink:href="../../../../../system/js/ewd/fig/svgfig.js"/>
<g id="レイヤー_1">
	<path style="&st0;" d="M6.308,34.353h30.312"/>
	<path style="&st1;" d="M7.865,5.458h1.417"/>
	<path style="&st1;" d="M33.645,5.458h1.417"/>
	<path style="&st1;" d="M25.712,11.407v17.28"/>
	<path style="&st1;" d="M17.214,11.407v17.28"/>
	<path style="&st0;" d="M7.865,2.625h1.417"/>
	<path style="&st0;" d="M33.645,2.625h1.417"/>
	<path style="&st1;" d="M17.214,3.333h8.499"/>
	<path style="&st1;" d="M17.214,31.52v2.833"/>
	<path style="&st1;" d="M25.712,31.52v2.833"/>
	<path style="&st1;" d="M17.214,4.75h8.499"/>
	<path style="&st0;" d="M14.239,0.5h14.448"/>
	<path style="&st1;" d="M4.749,15.656h11.048"/>
	<path style="&st1;" d="M27.129,15.656h11.048"/>
	<path style="&st1;" d="M17.214,26.563h8.499"/>
	<path style="&st1;" d="M17.214,23.021h8.499"/>
	<path style="&st1;" d="M17.214,19.48h8.499"/>
	<path style="&st1;" d="M3.333,13.956v12.182"/>
	<path style="&st1;" d="M39.593,13.956v12.182"/>
	<path style="&st1;" d="M5.458,31.52h32.011"/>
	<path style="&st0;" d="M4.749,8.574c-0.782,0-1.417,0.634-1.417,1.416"/>
	<path style="&st0;" d="M39.593,9.99c0-0.782-0.634-1.416-1.417-1.416"/>
	<path style="&st0;" d="M3.333,30.104c0,0.782,0.634,1.417,1.417,1.417"/>
	<path style="&st0;" d="M38.177,31.52c0.782,0,1.417-0.634,1.417-1.417"/>
	<path style="&st0;" d="M5.458,33.503c0,0.47,0.38,0.85,0.85,0.85"/>
	<path style="&st0;" d="M36.619,34.353c0.469,0,0.85-0.38,0.85-0.85"/>
	<path style="&st0;" d="M7.865,2.625c-0.782,0-1.416,0.634-1.416,1.417"/>
	<path style="&st0;" d="M10.698,4.041c0-0.782-0.634-1.417-1.417-1.417"/>
	<path style="&st1;" d="M36.477,6.874c0-0.782-0.634-1.417-1.416-1.417"/>
	<path style="&st0;" d="M36.477,4.041c0-0.782-0.634-1.417-1.416-1.417"/>
	<path style="&st0;" d="M33.645,2.625c-0.782,0-1.417,0.634-1.417,1.417"/>
	<path style="&st1;" d="M33.645,5.458c-0.782,0-1.417,0.634-1.417,1.417"/>
	<path style="&st1;" d="M7.865,5.458c-0.782,0-1.416,0.634-1.416,1.417"/>
	<path style="&st1;" d="M10.698,6.874c0-0.782-0.634-1.417-1.417-1.417"/>
	<path style="&st1;" d="M35.061,8.574c0,0.782,0.634,1.416,1.416,1.416"/>
	<path style="&st1;" d="M6.449,9.99c0.782,0,1.416-0.634,1.416-1.416"/>
	<path style="&st1;" d="M17.214,11.407c0-0.782-0.634-1.417-1.417-1.417"/>
	<path style="&st1;" d="M27.129,9.99c-0.782,0-1.417,0.634-1.417,1.417"/>
	<path style="&st1;" d="M17.214,4.75c-0.782,0-1.417,0.634-1.417,1.417"/>
	<path style="&st1;" d="M27.129,6.166c0-0.782-0.634-1.417-1.417-1.417"/>
	<path style="&st1;" d="M17.214,3.333c-0.782,0-1.417,0.634-1.417,1.417"/>
	<path style="&st1;" d="M27.129,4.75c0-0.782-0.634-1.417-1.417-1.417"/>
	<path style="&st0;" d="M14.239,0.5c-1.173,0-2.125,0.952-2.125,2.125"/>
	<path style="&st0;" d="M12.115,2.625c0,1.174,0.951,2.125,2.125,2.125"/>
	<path style="&st0;" d="M28.687,4.75c1.173,0,2.125-0.951,2.125-2.125"/>
	<path style="&st0;" d="M30.812,2.625c0-1.173-0.951-2.125-2.125-2.125"/>
	<path style="&st1;" d="M17.214,28.687c0,0.782,0.634,1.417,1.417,1.417"/>
	<path style="&st1;" d="M24.296,30.104c0.782,0,1.417-0.634,1.417-1.417"/>
	<path style="&st1;" d="M18.63,3.333V1.917h-6.394"/>
	<path style="&st1;" d="M30.69,1.917h-6.394v1.417"/>
	<path style="&st0;" d="M4.749,8.574h1.7V4.041"/>
	<path style="&st0;" d="M14.239,4.75h1.558V9.99h-5.099V4.041"/>
	<path style="&st0;" d="M32.228,4.041V9.99h-5.099V4.75h1.558"/>
	<path style="&st1;" d="M27.129,30.104V11.407h6.516V6.874h1.417v1.7"/>
	<path style="&st0;" d="M38.177,8.574h-1.7V4.041"/>
	<path style="&st1;" d="M6.449,9.99h-1.7v20.113h33.428V9.99h-1.7"/>
	<path style="&st0;" d="M39.593,30.104v-3.966h2.833V13.956h-2.833V9.99"/>
	<path style="&st1;" d="M24.296,13.814H18.63v4.25h5.666V13.814"/>
	<path style="&st0;" d="M37.469,33.503V31.52h0.708"/>
	<path style="&st0;" d="M5.458,33.503V31.52H4.749"/>
	<path style="&st0;" d="M3.333,30.104v-3.966H0.5V13.956h2.833V9.99"/>
	<path style="&st1;" d="M15.797,30.104V11.407H9.282V6.874H7.865v1.7"/>
	<g ewd:pinNo="1">
		<text transform="matrix(1 0 0 1 8.6924 25.2407)"><tspan x="0" y="0" style="&st3; &st2;">1</tspan></text>
	</g>
	<g ewd:pinNo="2">
		<text transform="matrix(1 0 0 1 31.0723 25.2407)"><tspan x="0" y="0" style="&st3; &st2;">2</tspan></text>
	</g>
</g>
</svg>