﻿<?xml version="1.0"?>
<!-- Generator: Adobe Illustrator 10.0, SVG Export Plug-In . SVG Version: 3.0.0 Build 77)  -->
<!DOCTYPE svg PUBLIC "-//W3C//DTD SVG 1.0//EN" "http://www.w3.org/TR/2001/REC-SVG-20010904/DTD/svg10.dtd"[
	<!ENTITY ns_flows "http://ns.adobe.com/Flows/1.0/">
	<!ENTITY ns_svg "http://www.w3.org/2000/svg">
	<!ENTITY ns_xlink "http://www.w3.org/1999/xlink">
	<!ENTITY st0 "fill:none;stroke:#000000;stroke-linecap:round;stroke-linejoin:round;">
	<!ENTITY st1 "fill:none;stroke:#000000;stroke-width:0.6;stroke-linecap:round;stroke-linejoin:round;">
	<!ENTITY st2 "font-size:6px;">
	<!ENTITY st3 "font-family:'Arial';">
	<!ATTLIST svg
		ewd:ver CDATA #IMPLIED
		xmlns:ewd CDATA #FIXED "http://shcl.co.jp/ewd"
		xmlns:a CDATA #FIXED "http://ns.adobe.com/AdobeSVGViewerExtensions/3.0/">
	<!ATTLIST g
		ewd:pinNo CDATA #IMPLIED>
]>
<svg width="58.214" height="25.221" viewBox="0 0 58.214 25.221" style="overflow:visible;enable-background:new 0 0 58.214 25.221" xml:space="preserve" onload="call_execInitLoadProc_svg('connector')" ewd:ver="L2.1.2.8" xmlns="&ns_svg;" xmlns:ewd="http://shcl.co.jp/ewd" xmlns:a="http://ns.adobe.com/AdobeSVGViewerExtensions/3.0/" xmlns:xlink="&ns_xlink;">
<script type="text/javascript" xlink:href="../../../../../system/js/ewd/fig/svgfig.js"/>
<g id="レイヤー_1">
	<path style="&st1;" d="M23.871,10.741v3.74"/>
	<path style="&st1;" d="M47.307,12.611c0-3.65-2.959-6.609-6.609-6.609"/>
	<path style="&st1;" d="M40.698,6.001c-3.65,0-6.609,2.959-6.609,6.609"/>
	<path style="&st1;" d="M34.089,12.611c0,3.65,2.959,6.609,6.609,6.609"/>
	<path style="&st1;" d="M40.698,19.22c3.65,0,6.609-2.959,6.609-6.609"/>
	<path style="&st0;" d="M29.134,16.35c2.065,6.386,8.917,9.89,15.303,7.824"/>
	<path style="&st0;" d="M44.438,24.174c6.386-2.065,9.89-8.917,7.824-15.303"/>
	<path style="&st0;" d="M52.262,8.872c-2.065-6.387-8.917-9.89-15.303-7.825"/>
	<path style="&st0;" d="M36.959,1.047c-3.843,1.243-6.582,3.981-7.825,7.825"/>
	<path style="&st0;" d="M29.134,8.872L27.61,9.806h-3.739v0.935H0.5"/>
	<path style="&st0;" d="M29.134,16.35l-1.524-0.935h-3.739V14.48H0.5"/>
	<g ewd:pinNo="1">
		<text transform="matrix(1 0 0 1 54.877 14.8716)"><tspan x="0" y="0" style="&st3; &st2;">1</tspan></text>
	</g>
</g>
</svg>