﻿<?xml version="1.0"?>
<!-- Generator: Adobe Illustrator 10.0, SVG Export Plug-In . SVG Version: 3.0.0 Build 77)  -->
<!DOCTYPE svg PUBLIC "-//W3C//DTD SVG 1.0//EN" "http://www.w3.org/TR/2001/REC-SVG-20010904/DTD/svg10.dtd"[
	<!ENTITY ns_flows "http://ns.adobe.com/Flows/1.0/">
	<!ENTITY ns_svg "http://www.w3.org/2000/svg">
	<!ENTITY ns_xlink "http://www.w3.org/1999/xlink">
	<!ENTITY st0 "fill:none;stroke:#000000;stroke-linecap:round;stroke-linejoin:round;">
	<!ENTITY st1 "fill:none;stroke:#000000;stroke-width:0.6;stroke-linecap:round;stroke-linejoin:round;">
	<!ENTITY st2 "font-size:6px;">
	<!ENTITY st3 "font-family:'Arial';">
	<!ATTLIST svg
		ewd:ver CDATA #IMPLIED
		xmlns:ewd CDATA #FIXED "http://shcl.co.jp/ewd"
		xmlns:a CDATA #FIXED "http://ns.adobe.com/AdobeSVGViewerExtensions/3.0/">
	<!ATTLIST g
		ewd:pinNo CDATA #IMPLIED>
]>
<svg width="160.207" height="60.416" viewBox="0 0 160.207 60.416" style="overflow:visible;enable-background:new 0 0 160.207 60.416" xml:space="preserve" onload="call_execInitLoadProc_svg('connector')" ewd:ver="L2.1.2.8" xmlns="&ns_svg;" xmlns:ewd="http://shcl.co.jp/ewd" xmlns:a="http://ns.adobe.com/AdobeSVGViewerExtensions/3.0/" xmlns:xlink="&ns_xlink;">
<script type="text/javascript" xlink:href="../../../../../system/js/ewd/fig/svgfig.js"/>
<g id="レイヤー_1">
	<path style="&st0;" d="M11.832,4.712c-0.912-3.129-4.188-4.926-7.317-4.014"/>
	<path style="&st0;" d="M4.514,0.698C2.515,1.281,1.083,2.713,0.5,4.712"/>
	<path style="&st0;" d="M0.5,55.704c0.912,3.129,4.188,4.926,7.317,4.014"/>
	<path style="&st0;" d="M7.817,59.718c2-0.583,3.432-2.015,4.015-4.014"/>
	<path style="&st1;" d="M114.522,32.191c1.095,0,1.983-0.888,1.983-1.983"/>
	<path style="&st1;" d="M71.888,30.208c0,1.095,0.888,1.983,1.983,1.983"/>
	<path style="&st1;" d="M73.871,28.225c-1.095,0-1.983,0.888-1.983,1.983"/>
	<path style="&st1;" d="M116.505,30.208c0-1.095-0.888-1.983-1.983-1.983"/>
	<path style="&st0;" d="M159.707,6.695c-0.912-3.129-4.188-4.926-7.317-4.014"/>
	<path style="&st0;" d="M152.39,2.681c-2,0.583-3.432,2.015-4.015,4.014"/>
	<path style="&st0;" d="M148.375,53.721c0.912,3.129,4.188,4.926,7.317,4.014"/>
	<path style="&st0;" d="M155.692,57.735c1.999-0.583,3.432-2.015,4.014-4.014"/>
	<path style="&st1;" d="M71.888,23.126V10.378"/>
	<path style="&st1;" d="M63.39,10.378v12.748"/>
	<path style="&st1;" d="M8.999,10.378v39.66h29.745v-39.66H8.999"/>
	<path style="&st1;" d="M18.914,50.038v-39.66"/>
	<path style="&st1;" d="M28.829,50.038v-39.66"/>
	<path style="&st1;" d="M8.999,20.293h29.745"/>
	<path style="&st1;" d="M8.999,30.208h29.745"/>
	<path style="&st1;" d="M8.999,40.123h29.745"/>
	<path style="&st1;" d="M48.659,55.704V10.378"/>
	<path style="&st1;" d="M38.744,47.205h9.915"/>
	<path style="&st1;" d="M48.659,42.956h3.399v4.249h-3.399"/>
	<path style="&st1;" d="M38.744,10.378h9.915"/>
	<path style="&st1;" d="M58.574,53.721V33.607"/>
	<path style="&st1;" d="M48.659,25.958h11.898"/>
	<path style="&st1;" d="M60.557,31.625v-5.666"/>
	<path style="&st1;" d="M58.574,33.607l1.983-1.983"/>
	<path style="&st0;" d="M48.659,4.712l9.915,1.983"/>
	<path style="&st1;" d="M8.999,10.378V7.545h21.813v2.833"/>
	<path style="&st1;" d="M11.832,7.545V4.712"/>
	<path style="&st1;" d="M17.497,7.545V4.712"/>
	<path style="&st0;" d="M0.5,4.712v50.992"/>
	<path style="&st1;" d="M0.5,55.704h11.332"/>
	<path style="&st0;" d="M48.659,55.704l9.915-1.983"/>
	<path style="&st0;" d="M11.832,4.712h36.827"/>
	<path style="&st0;" d="M11.832,55.704h36.827"/>
	<path style="&st1;" d="M0.5,4.712h11.332"/>
	<path style="&st1;" d="M63.39,23.126h84.985"/>
	<path style="&st1;" d="M63.39,10.378h84.985"/>
	<path style="&st1;" d="M84.636,23.126V10.378"/>
	<path style="&st1;" d="M97.384,23.126V10.378"/>
	<path style="&st1;" d="M110.132,23.126V10.378"/>
	<path style="&st1;" d="M122.879,23.126V10.378"/>
	<path style="&st1;" d="M135.627,23.126V10.378"/>
	<path style="&st1;" d="M148.375,23.126V10.378"/>
	<path style="&st1;" d="M148.375,53.721h11.332"/>
	<path style="&st1;" d="M73.871,32.191h40.651"/>
	<path style="&st1;" d="M69.055,37.29v12.748"/>
	<path style="&st1;" d="M154.041,50.038V37.29"/>
	<path style="&st1;" d="M69.055,37.29h84.986"/>
	<path style="&st1;" d="M69.055,50.038h84.986"/>
	<path style="&st1;" d="M81.803,37.29v12.748"/>
	<path style="&st1;" d="M94.551,37.29v12.748"/>
	<path style="&st1;" d="M107.299,37.29v12.748"/>
	<path style="&st1;" d="M120.046,37.29v12.748"/>
	<path style="&st1;" d="M132.794,37.29v12.748"/>
	<path style="&st1;" d="M145.542,37.29v12.748"/>
	<path style="&st1;" d="M121.463,6.695h22.663"/>
	<path style="&st0;" d="M144.126,53.721h4.249"/>
	<path style="&st1;" d="M73.871,28.225h40.651"/>
	<path style="&st1;" d="M94.551,32.191v-3.966"/>
	<path style="&st0;" d="M121.463,6.695l4.25-4.25h14.164l4.25,4.25"/>
	<path style="&st1;" d="M83.219,32.191v-3.966"/>
	<path style="&st1;" d="M121.463,53.721h22.663"/>
	<path style="&st0;" d="M159.707,53.721V6.695"/>
	<path style="&st0;" d="M58.574,53.721h62.889"/>
	<path style="&st0;" d="M58.574,6.695h62.889"/>
	<path style="&st1;" d="M148.375,6.695h11.332"/>
	<path style="&st0;" d="M121.463,53.721l4.25,4.25h14.164l4.25-4.25"/>
	<path style="&st0;" d="M144.126,6.695h4.249"/>
	<path style="&st1;" d="M48.659,35.024h9.915"/>
	<path style="&st1;" d="M55.316,54.373V35.024"/>
	<g ewd:pinNo="18">
		<text transform="matrix(1 0 0 1 30.2197 47.0933)"><tspan x="0" y="0" style="&st3; &st2;">18</tspan></text>
	</g>
	<g ewd:pinNo="17">
		<text transform="matrix(1 0 0 1 20.3047 47.0933)"><tspan x="0" y="0" style="&st3; &st2;">17</tspan></text>
	</g>
	<g ewd:pinNo="16">
		<text transform="matrix(1 0 0 1 10.3896 47.0933)"><tspan x="0" y="0" style="&st3; &st2;">16</tspan></text>
	</g>
	<g ewd:pinNo="15">
		<text transform="matrix(1 0 0 1 30.2197 37.1782)"><tspan x="0" y="0" style="&st3; &st2;">15</tspan></text>
	</g>
	<g ewd:pinNo="14">
		<text transform="matrix(1 0 0 1 20.3047 37.1782)"><tspan x="0" y="0" style="&st3; &st2;">14</tspan></text>
	</g>
	<g ewd:pinNo="13">
		<text transform="matrix(1 0 0 1 10.3896 37.1782)"><tspan x="0" y="0" style="&st3; &st2;">13</tspan></text>
	</g>
	<g ewd:pinNo="12">
		<text transform="matrix(1 0 0 1 30.2197 27.2632)"><tspan x="0" y="0" style="&st3; &st2;">12</tspan></text>
	</g>
	<g ewd:pinNo="11">
		<text transform="matrix(1 0 0 1 20.5273 27.2632)"><tspan x="0" y="0" style="&st3; &st2;">11</tspan></text>
	</g>
	<g ewd:pinNo="10">
		<text transform="matrix(1 0 0 1 10.3896 27.2632)"><tspan x="0" y="0" style="&st3; &st2;">10</tspan></text>
	</g>
	<g ewd:pinNo="3">
		<text transform="matrix(1 0 0 1 32.0503 17.3481)"><tspan x="0" y="0" style="&st3; &st2;">3</tspan></text>
	</g>
	<g ewd:pinNo="2">
		<text transform="matrix(1 0 0 1 22.1357 17.3481)"><tspan x="0" y="0" style="&st3; &st2;">2</tspan></text>
	</g>
	<g ewd:pinNo="1">
		<text transform="matrix(1 0 0 1 12.2207 17.3481)"><tspan x="0" y="0" style="&st3; &st2;">1</tspan></text>
	</g>
	<g ewd:pinNo="4">
		<text transform="matrix(1 0 0 1 76.5264 18.7646)"><tspan x="0" y="0" style="&st3; &st2;">4</tspan></text>
	</g>
	<g ewd:pinNo="5">
		<text transform="matrix(1 0 0 1 89.2744 18.7646)"><tspan x="0" y="0" style="&st3; &st2;">5</tspan></text>
	</g>
	<g ewd:pinNo="6">
		<text transform="matrix(1 0 0 1 102.022 18.7646)"><tspan x="0" y="0" style="&st3; &st2;">6</tspan></text>
	</g>
	<g ewd:pinNo="7">
		<text transform="matrix(1 0 0 1 114.77 18.7646)"><tspan x="0" y="0" style="&st3; &st2;">7</tspan></text>
	</g>
	<g ewd:pinNo="8">
		<text transform="matrix(1 0 0 1 127.5181 18.7646)"><tspan x="0" y="0" style="&st3; &st2;">8</tspan></text>
	</g>
	<g ewd:pinNo="9">
		<text transform="matrix(1 0 0 1 140.2656 18.7646)"><tspan x="0" y="0" style="&st3; &st2;">9</tspan></text>
	</g>
	<g ewd:pinNo="19">
		<text transform="matrix(1 0 0 1 71.8628 45.6768)"><tspan x="0" y="0" style="&st3; &st2;">19</tspan></text>
	</g>
	<g ewd:pinNo="20">
		<text transform="matrix(1 0 0 1 84.9116 45.6768)"><tspan x="0" y="0" style="&st3; &st2;">20</tspan></text>
	</g>
	<g ewd:pinNo="21">
		<text transform="matrix(1 0 0 1 97.6592 45.6768)"><tspan x="0" y="0" style="&st3; &st2;">21</tspan></text>
	</g>
	<g ewd:pinNo="22">
		<text transform="matrix(1 0 0 1 110.4072 45.6768)"><tspan x="0" y="0" style="&st3; &st2;">22</tspan></text>
	</g>
	<g ewd:pinNo="23">
		<text transform="matrix(1 0 0 1 123.1553 45.6768)"><tspan x="0" y="0" style="&st3; &st2;">23</tspan></text>
	</g>
	<g ewd:pinNo="24">
		<text transform="matrix(1 0 0 1 135.9028 45.6768)"><tspan x="0" y="0" style="&st3; &st2;">24</tspan></text>
	</g>
</g>
</svg>