﻿<?xml version="1.0"?>
<!-- Generator: Adobe Illustrator 10.0, SVG Export Plug-In . SVG Version: 3.0.0 Build 77)  -->
<!DOCTYPE svg PUBLIC "-//W3C//DTD SVG 1.0//EN" "http://www.w3.org/TR/2001/REC-SVG-20010904/DTD/svg10.dtd"[
	<!ENTITY ns_flows "http://ns.adobe.com/Flows/1.0/">
	<!ENTITY ns_svg "http://www.w3.org/2000/svg">
	<!ENTITY ns_xlink "http://www.w3.org/1999/xlink">
	<!ENTITY st0 "fill:#B2B2B2;stroke:#000000;stroke-width:0.52;stroke-linecap:round;stroke-linejoin:round;">
	<!ENTITY st1 "fill:none;stroke:#000000;stroke-width:0.28;stroke-linecap:round;stroke-linejoin:round;">
	<!ENTITY st2 "fill:#B2B2B2;">
	<!ENTITY st3 "fill:none;stroke:#000000;stroke-width:0.3;stroke-linecap:round;stroke-linejoin:round;">
	<!ENTITY st4 "fill:none;stroke:#FFFFFF;stroke-width:0.8;stroke-linecap:round;stroke-linejoin:bevel;">
	<!ENTITY st5 "fill:none;stroke:#000000;stroke-width:0.5;">
	<!ENTITY st6 "fill:none;stroke:#FFFFFF;stroke-width:2;">
	<!ENTITY st7 "fill:none;stroke:#FFFFFF;stroke-width:0.8;stroke-linecap:round;stroke-linejoin:round;">
	<!ENTITY st8 "fill:none;stroke:#FF0000;stroke-width:0.28;stroke-linecap:round;stroke-linejoin:round;">
	<!ENTITY st9 "fill:#FFFFFF;stroke:#000000;stroke-width:0.3;stroke-linecap:round;stroke-linejoin:round;">
	<!ENTITY st10 "fill:none;stroke:#000000;stroke-width:0.2801;stroke-linecap:round;stroke-linejoin:bevel;">
	<!ENTITY st11 "fill:#FFFFFF;stroke:#000000;stroke-width:0.28;stroke-linecap:round;stroke-linejoin:round;">
	<!ENTITY st12 "fill:none;">
	<!ENTITY st13 "fill:#B2B2B2;stroke:#000000;stroke-width:0.28;stroke-linecap:round;stroke-linejoin:round;">
	<!ENTITY st14 "font-family:'Arial';">
	<!ENTITY st15 "fill:#B2B2B2;stroke:#000000;stroke-width:0.6;stroke-linecap:round;stroke-linejoin:round;">
	<!ENTITY st16 "font-size:10px;">
	<!ENTITY st17 "fill:none;stroke:#000000;stroke-width:0.28;stroke-linecap:round;stroke-linejoin:bevel;">
	<!ATTLIST svg
		xmlns:ewd CDATA #FIXED "http://shcl.co.jp/ewd"
		xmlns:a CDATA #FIXED "http://ns.adobe.com/AdobeSVGViewerExtensions/3.0/"
		ewd:ver CDATA #IMPLIED>
	<!ATTLIST a
		ewd:innerGroupID CDATA #IMPLIED
		ewd:figtype CDATA #IMPLIED
		ewd:code CDATA #IMPLIED
		ewd:pinNo CDATA #IMPLIED>
]>
<svg width="521.495" height="313.084" viewBox="0 0 521.495 313.084" style="overflow:visible;enable-background:new 0 0 521.495 313.084" xml:space="preserve" onload="call_execInitLoadProc_svg('location')" ewd:ver="L2.1.2.8" xmlns="&ns_svg;" xmlns:ewd="http://shcl.co.jp/ewd" xmlns:a="http://ns.adobe.com/AdobeSVGViewerExtensions/3.0/" xmlns:xlink="&ns_xlink;">
<script type="text/javascript" xlink:href="../../../../../system/js/ewd/fig/svgfig.js"/>
<g id="台紙">
	<path style="&st12;" d="M521.495,0H0v313.084h521.495V0z"/>
</g>
<g id="イラスト">
	<path style="&st15;" d="M178.053,72.947c-0.327,0.057-0.545,0.368-0.489,0.694c0.057,0.327,0.368,0.545,0.694,0.488    c2.132-0.371,5.828,0.3,7.91,1.436c0.291,0.159,0.656,0.052,0.814-0.239c0.159-0.291,0.052-0.655-0.239-0.814    C184.386,73.225,180.487,72.523,178.053,72.947z"/>
	<path style="&st15;" d="M169.348,80.365c-0.394,1.313-0.042,2.778,0.963,4.02c1.443,1.78,3.908,2.708,6.595,2.484    c0.33-0.027,0.576-0.317,0.548-0.647c-0.027-0.331-0.317-0.576-0.647-0.548c-2.291,0.191-4.371-0.573-5.563-2.044    c-0.752-0.928-1.024-1.992-0.746-2.918c0.095-0.317-0.085-0.652-0.402-0.747S169.443,80.048,169.348,80.365z"/>
	<g>
		<path style="&st0;" d="M178.164,87.511l3.257-0.968l-0.39-2.032l-2.817-0.069l-3.256,0.968l0.39,2.032L178.164,87.511z"/>
		<path style="&st3;" d="M175.127,85.612l2.616-0.004l3.18-0.97"/>
		<path style="&st9;" d="M177.944,85.682l0.362,1.917"/>
	</g>
	<g>
		<path style="&st0;" d="M176.621,75.483l3.256-0.968l-0.39-2.032l-1.932-0.545l-3.256,0.968l0.39,2.032L176.621,75.483z"/>
		<path style="&st3;" d="M174.47,73.109l1.73,0.471l3.179-0.97"/>
		<path style="&st9;" d="M176.401,73.654l0.362,1.917"/>
	</g>
	<path style="&st2;" d="M433.201,105.733l-5.257-1.838l-0.841-5.43l2.523-1.224l8.388,2.932l0.843,5.431l-0.451,0.218l0.116,0.315    l0.269,1.733c0.032,0.467-0.234,0.667-0.5,0.6l-0.301-0.1l-0.167-0.367l-0.156-0.038l-0.321-0.097l-0.022,0.302l0.066,0.5    l-0.833,0.667l-0.967-0.266l-0.2-0.601L433.201,105.733z"/>
	<path style="&st15;" d="M205.43,72.634c2.71-0.692,8.699-2.138,10.84-2.545c1.166-0.223,2.967-1.052,4.279-1.971    c1.271-0.89,6.422-5.511,6.445-5.531c0.414-0.365,1.046-0.326,1.411,0.088c0.367,0.414,0.327,1.046-0.087,1.411    c-0.094,0.084-5.257,4.715-6.621,5.67c-1.304,0.912-3.371,1.976-5.054,2.296c-1.973,0.376-11.987,2.152-12.998,3.68    c-0.319,0.481-0.608,1.132-0.893,2.142c-0.735,2.615-2.389,3.768-5.053,3.525c-1.553-0.141-4.156-1.655-5.917-3.001    c-1.692-1.294-3.321-1.834-4.845-1.605c-1.007,0.151-4.119,0.804-7.129,1.436c-2.937,0.617-5.711,1.199-6.889,1.396    c-1.285,0.214-1.973,1.023-2.209,1.362c-0.326,0.467-0.394,0.852-0.374,0.956l0.017,0.083c0.207,1.032,0.52,2.593,0.064,4.188    l-0.18,0.605c-0.31,1.021-0.627,2.071-0.551,3.321c2.045,0.612,4.384,0.136,6.474-0.293l0.981-0.198    c0.325-0.065,0.637,0.146,0.701,0.471c0.066,0.325-0.15,0.642-0.475,0.708l-0.967,0.194c-2.152,0.442-4.552,0.931-6.801,0.342    c-0.023,0.038-0.053,0.07-0.08,0.104c0.752,1.198,2.043,2.291,3.566,2.371c1.9,0.101,4.37-0.366,5.557-0.59    c0.326-0.061,0.639,0.153,0.701,0.479c0.062,0.326-0.152,0.639-0.479,0.701c-1.232,0.233-3.799,0.717-5.843,0.61    c-2.126-0.112-3.874-1.704-4.751-3.328c-0.263-0.146-0.459-0.404-0.506-0.723c-0.292-1.945,0.158-3.434,0.555-4.748l0.171-0.575    c0.322-1.129,0.088-2.303-0.102-3.246l-0.018-0.084c-0.146-0.732,0.102-1.632,0.681-2.471c0.804-1.165,2.093-1.971,3.536-2.211    c1.137-0.189,4.019-0.795,6.807-1.38c3.177-0.667,6.178-1.297,7.242-1.456c2.079-0.313,4.217,0.359,6.356,1.994    c1.733,1.326,3.97,2.516,4.883,2.599c1.701,0.154,2.473-0.389,2.946-2.075c0.41-1.457,0.856-2.604,1.723-3.371    C203.256,73.338,204.271,72.93,205.43,72.634z"/>
	<path style="&st15;" d="M409.706,106.871l4.7-2.2l-0.85-1.95l-4.699,2.2L409.706,106.871z"/>
	<path style="&st11;" d="M410.906,104.021l0.85,1.95"/>
	<path style="&st15;" d="M408.373,101.804l4.7-2.199l-0.849-1.951l-4.701,2.201L408.373,101.804z"/>
	<path style="&st15;" d="M437.323,108.171l0.066,0.5l-0.833,0.667l-0.967-0.266l-0.2-0.601"/>
	<g>
		<path style="&st15;" d="M438.857,105.604l-0.843-5.431l-8.388-2.932l-2.523,1.224l0.841,5.43l8.388,2.932L438.857,105.604z"/>
		<path style="&st1;" d="M435.166,101.285l-7.582-2.654"/>
		<path style="&st1;" d="M435.753,101.271l2.262-1.097"/>
		<path style="&st1;" d="M435.723,102.892l-0.182-1.173"/>
	</g>
	<path style="&st15;" d="M436.857,107.588l-1.367,1.433l-1.4-0.55l-1.6-2.283l1.367-1.433l1.399,0.549L436.857,107.588z"/>
	<path style="&st11;" d="M434.025,106.571l1.599,2.283"/>
	<path style="&st11;" d="M432.624,106.021l1.401,0.55"/>
	<path style="&st1;" d="M434.051,106.563l0.994-1.026"/>
	<path style="&st15;" d="M434.156,104.771v-0.3l1.366-1.5l0.7,0.3l0.967-1.133l1-0.533"/>
	<path style="&st13;" d="M436.257,106.237c0,0,0.332-0.21,0.466-0.434c0.201-0.333,0.201-0.732,0.008-1.041l1.242-1.113    c0.104-0.082,0.195-0.085,0.226-0.062c0.031,0.024,0.063,0.151-0.04,0.389c-0.413,0.937-0.526,1.518-0.369,1.885    c0.084,0.196,0.3,0.274,0.5,0.2c0.201-0.074,0.3-0.309,0.236-0.512c-0.003-0.01-0.073-0.259,0.363-1.252    c0.289-0.655,0.084-1.124-0.203-1.345c-0.343-0.264-0.83-0.234-1.213,0.072l-1.29,1.154l-0.293-0.008l-0.566,0.8l0.199,0.267    L436.257,106.237z"/>
	<path style="&st1;" d="M435.689,105.304c0.267-0.267,0.434-0.367,0.467-0.267c0.033,0.101,0.133,0.333-0.033,0.534l-0.199,0.233"/>
	<path style="&st1;" d="M435.189,105.171c0,0,0.333-0.4,0.533-0.634c0.201-0.233,0.268-0.5-0.033-0.667"/>
	<path style="&st15;" d="M436.791,99.604c0,0-0.184-1.283-0.25-1.684c-0.068-0.4-0.75-0.85-0.852-1.316l-2.5-1.4l-1.766-0.434    l-0.201,0.634c-0.066,0.233,0.268,0.466,0.667,0.667c0.401,0.199,1.8,0.899,1.8,0.899l0.176,1.05l-1.008,0.317"/>
	<path style="&st11;" d="M433.865,96.771l1.1,0.25"/>
	<path style="&st15;" d="M438.522,106.138l0.269,1.733c0.032,0.467-0.234,0.667-0.5,0.6l-0.301-0.1l-0.167-0.367l-0.156-0.038    l-0.665-0.201l-0.245-0.061l-0.367,0.5l0.067,0.233"/>
	<path style="&st11;" d="M437.689,106.438l0.2,1.4"/>
	<path style="&st15;" d="M427.67,102.294c-0.494-0.135-1.343-0.478-1.502-1.05l-0.658-2.703c-0.144-0.637-0.574-2.579-2.53-2.99    c-1.556-0.327-2.696,0.25-3.7,1.872c-0.628,1.015-1.573,3.337-1.881,4.108c-0.016,0.007-0.025,0.021-0.041,0.03    c-0.039,0.021-0.078,0.042-0.113,0.075c-0.996,0.945-4.983,0.928-7.758-0.032c-0.347-0.12-0.402-0.39-0.412-0.47    c-0.014-0.117,0.022-0.181,0.033-0.188c0.281-0.176,0.367-0.546,0.191-0.827c-0.176-0.28-0.546-0.366-0.827-0.19    c-0.427,0.268-0.653,0.78-0.59,1.34c0.077,0.674,0.54,1.237,1.211,1.469c1.801,0.623,4.633,0.982,6.735,0.656    c-0.053,0.072-0.107,0.147-0.158,0.217c-0.344,0.472-0.641,0.879-0.988,1.254c-0.805,0.872-1.623,1.646-2.77,1.543    c-0.675-0.062-0.948-0.259-1.004-0.367c-0.01-0.018,0.02-0.107,0.002-0.072c0.213-0.465-0.1-0.733-0.388-0.897    c-0.246-0.142-0.665,0.066-0.706,0.428c-0.154,0.352-0.152,0.751,0.027,1.096c0.206,0.396,0.714,0.893,1.959,1.006    c1.832,0.167,3.039-1.142,3.762-1.924c0.393-0.426,0.724-0.88,1.074-1.36c0.372-0.512,0.798-1.09,1.373-1.74    c0.178-0.048,0.331-0.171,0.404-0.354c0.012-0.03,1.199-3.062,1.884-4.169c0.84-1.356,1.554-1.514,2.433-1.329    c0.829,0.175,1.324,0.815,1.605,2.076l0.674,2.764c0.422,1.521,2.443,1.923,2.674,1.964c0.057,0.01,0.114,0.012,0.169,0.006    L427.67,102.294z"/>
	<path style="&st11;" d="M409.573,98.954l0.851,1.95"/>
	<g>
		<path style="&st15;" d="M226.607,61.12l-1.367,1.334l1.985,1.76l3.113-0.857l1.367-1.333l-1.985-1.76L226.607,61.12z"/>
		<path style="&st11;" d="M228.592,62.88l-1.367,1.333"/>
		<path style="&st1;" d="M228.592,62.88l-1.985-1.76"/>
		<path style="&st1;" d="M231.706,62.023l-3.113,0.857"/>
	</g>
	<g>
		<path style="&st15;" d="M227.974,59.787l-1.367,1.333l1.985,1.76l3.113-0.857l1.367-1.333l-1.985-1.76L227.974,59.787z"/>
		<path style="&st11;" d="M229.959,61.548l-1.367,1.333"/>
		<path style="&st1;" d="M229.959,61.548l-1.985-1.761"/>
		<path style="&st1;" d="M233.073,60.69l-3.113,0.857"/>
	</g>
	<path style="&st15;" d="M435.49,109.021l-1.367,1.433l-1.4-0.55l-1.6-2.284l1.367-1.433l1.399,0.55L435.49,109.021z"/>
	<path style="&st11;" d="M432.658,108.004l1.599,2.284"/>
	<path style="&st11;" d="M431.257,107.454l1.401,0.55"/>
	<path style="&st1;" d="M432.684,107.996l0.994-1.026"/>
	<path style="&st15;" d="M441.676,99.967c-1.063-3.335-2.923-7.77-4.682-10.155c-2.359-3.205-5.602-6.381-8.671-8.498    c-2.716-1.873-6.831-2.883-10.485-2.573l-4.425,0.39c-4.655,0.414-11.028,0.981-12.614,1.075    c-2.521,0.148-4.788-0.411-5.914-0.758l-3.672-1.092c-3.886-1.148-9.758-2.884-11.125-3.363c-1.699-0.594-2.835-1.167-4.148-1.831    l-0.636-0.319l-14.017-6.675c-1.275-0.637-3.119-1.38-4.914-1.979c-1.807-0.602-54.632-12.638-57.972-13.398    c-0.207-0.105-6.609-3.394-7.235-3.715c-0.519-0.365-1.176-0.5-1.913-0.386c-1.204,0.187-2.532,1.048-3.228,2.093    c-0.331,0.495-1.722,0.653-4.633-0.387c-2.871-1.025-9.651-2.426-12.385-2.847c-0.955-0.147-1.535-0.707-2.205-1.356    c-0.835-0.807-1.781-1.723-3.47-1.852c-1.575-0.121-5.476-0.403-7.676-0.403c-2.034,0-4.658,1.093-7.201,3    c-2.383,1.787-17.219,13.453-17.973,14.05c-0.433,0.342-0.507,0.971-0.164,1.404c0.343,0.434,0.972,0.507,1.404,0.164    c0.185-0.146,15.571-12.246,17.934-14.019c2.17-1.628,4.413-2.6,6-2.6c1.479,0,4.291,0.148,7.523,0.397    c0.97,0.074,1.526,0.613,2.232,1.295c0.76,0.736,1.707,1.652,3.293,1.895c2.598,0.4,9.297,1.783,12.016,2.754    c3.646,1.302,5.926,1.176,6.969-0.387c0.389-0.585,1.211-1.124,1.871-1.226c0.216-0.034,0.387-0.015,0.471,0.052    c0.053,0.042,0.108,0.078,0.168,0.109l7.4,3.8c0.074,0.038,0.153,0.067,0.234,0.085c15.611,3.556,56.446,12.889,57.906,13.374    c1.686,0.562,3.475,1.282,4.669,1.879l14.017,6.675c-0.017-0.008,0.611,0.308,0.611,0.308c1.32,0.666,2.567,1.296,4.389,1.934    c1.416,0.495,7.082,2.17,11.221,3.393l3.649,1.086c1.257,0.386,3.785,1.009,6.62,0.842c1.614-0.095,8.008-0.664,12.674-1.079    l4.418-0.389c3.17-0.269,6.859,0.625,9.182,2.227c2.852,1.967,5.992,5.047,8.195,8.037c1.623,2.204,3.372,6.398,4.387,9.577    c0.477,1.498,0.574,4.058,0.422,5.811c-0.082,0.949-0.773,2.255-1.452,2.739c-1.035,0.739-3.039,2.031-3.953,2.431    c-0.151,0.066-0.317,0.105-0.493,0.116c-0.27,0.016-0.508,0.138-0.676,0.321c-0.367-0.099-0.702-0.284-0.917-0.522    c-0.396-0.44-0.246-1.322,0.343-2.009c0.216-0.251,0.188-0.63-0.065-0.846c-0.251-0.216-0.63-0.187-0.845,0.065    c-0.99,1.153-1.129,2.698-0.324,3.592c0.414,0.461,1.033,0.786,1.699,0.924c0.188,0.3,0.523,0.493,0.902,0.471    c0.414-0.024,0.81-0.119,1.18-0.28c1.203-0.527,3.466-2.03,4.313-2.636c1.146-0.819,2.149-2.662,2.281-4.194    C442.35,104.665,442.26,101.796,441.676,99.967z"/>
	<path style="&st2;" d="M181.632,90.217c0,0-0.119,0.384-0.458,0.474c-0.338,0.09-3.508,0.621-3.508,0.621    s-0.872-0.005-0.985-0.837c-0.113-0.832,0.405-1.168,0.847-1.227c0.441-0.059,2.728-0.473,3.039-0.526    c0.311-0.054,0.869,0.23,0.935,0.419c0.064,0.188,1.711-0.243,1.711-0.243s0.138-0.404,0.715-0.417    c0.576-0.013,0.927,0.052,1.011,0.063c0.083,0.011,0.411,0.083,0.466,0.474c0.054,0.39-0.121,0.647-0.409,0.772    c-0.287,0.125-1.004,0.265-1.09,0.281c-0.087,0.017-0.48-0.205-0.5-0.265C183.385,89.749,181.632,90.217,181.632,90.217z"/>
	<path style="&st15;" d="M181.524,88.989c-0.199-0.216-0.484-0.335-0.783-0.297l-3.196,0.561c-0.51,0.064-0.868,0.56-0.799,1.106    c0.07,0.546,0.539,0.937,1.049,0.872l3.195-0.561c0.271-0.035,0.498-0.189,0.642-0.408"/>
	<path style="&st3;" d="M180.838,88.73c-0.51,0.064-0.868,0.56-0.799,1.106c0.068,0.545,0.539,0.936,1.049,0.872"/>
	<path style="&st15;" d="M185.077,89.733L183.993,90c-0.344,0.062-0.687-0.244-0.765-0.682c-0.077-0.438,0.138-0.843,0.483-0.904    l1.043,0.033"/>
	<path style="&st15;" d="M185.046,89.716c0.276-0.049,0.449-0.373,0.386-0.724c-0.062-0.35-0.336-0.595-0.611-0.545"/>
	<path style="&st15;" d="M181.276,89.237l1.781-0.328"/>
	<path style="&st15;" d="M181.362,90.136l1.78-0.327"/>
	<path style="&st3;" d="M181.223,89.079c-0.145,0.025-0.37,0.396-0.322,0.674c0.049,0.277,0.262,0.522,0.637,0.487"/>
	<path style="&st2;" d="M182.166,93.851c0,0-0.119,0.384-0.458,0.474c-0.338,0.089-3.508,0.621-3.508,0.621    s-0.872-0.005-0.985-0.836c-0.113-0.832,0.405-1.168,0.846-1.227c0.441-0.06,2.728-0.473,3.039-0.526    c0.311-0.054,0.869,0.23,0.935,0.419c0.064,0.188,1.711-0.243,1.711-0.243s0.138-0.403,0.715-0.416    c0.576-0.013,0.927,0.052,1.01,0.063c0.083,0.012,0.412,0.084,0.466,0.474c0.053,0.39-0.121,0.648-0.409,0.773    c-0.287,0.125-1.005,0.265-1.091,0.281c-0.086,0.017-0.479-0.205-0.5-0.265C183.918,93.383,182.166,93.851,182.166,93.851z"/>
	<path style="&st15;" d="M182.057,92.623c-0.199-0.216-0.484-0.335-0.783-0.297l-3.196,0.561c-0.51,0.064-0.869,0.56-0.799,1.106    c0.069,0.545,0.538,0.936,1.049,0.872l3.195-0.561c0.27-0.035,0.498-0.189,0.641-0.409"/>
	<path style="&st3;" d="M181.372,92.364c-0.51,0.064-0.868,0.56-0.799,1.106c0.068,0.545,0.539,0.936,1.049,0.872"/>
	<path style="&st15;" d="M185.611,93.367l-1.085,0.266c-0.344,0.063-0.686-0.244-0.764-0.682c-0.078-0.438,0.138-0.844,0.483-0.904    l1.043,0.033"/>
	<path style="&st15;" d="M185.58,93.349c0.276-0.049,0.448-0.373,0.386-0.724c-0.062-0.35-0.336-0.595-0.611-0.545"/>
	<path style="&st15;" d="M181.81,92.871l1.78-0.328"/>
	<path style="&st15;" d="M181.895,93.77l1.781-0.327"/>
	<path style="&st3;" d="M181.756,92.713c-0.145,0.025-0.37,0.396-0.322,0.674c0.049,0.277,0.262,0.521,0.637,0.487"/>
	<g>
		<path style="&st7;" d="M308.141,202.121c0,0-1.6,4.666-2.4,6.266c-0.801,1.601-2.4,3.734-4.801,2.934     c-2.398-0.799-24.266-5.865-26.666-6.399s-7-0.601-8.066-0.866"/>
		<path style="&st7;" d="M467.007,181.054c0.267-1.334-2.622,12.107-2.649,12.266c-0.232,1.318-0.881,2.945-1.164,3.668     c-0.851,2.168-1.59,2.852-3.484,3.639c-22.702,9.428-51.59,20.447-80.797,31.002c-9.105,3.025-24.973,7.957-29.371,9.158"/>
		<path style="&st4;" d="M119.35,84.058c-2.762,0.889-8.969,3.728-9.977,4.166c-1.777,0.77-2.432,1.95-2.355,4.152     c0.075,2.162-0.025,6.127,0.178,7.54c0.146,1.021,1.014,1.903,2.025,1.983"/>
		<path style="&st4;" d="M180.83,121.982c-4.559,10.654-5.3,30.4-3.622,51.205c0.447,5.543-0.602,12.167,0.485,17.514l1.114,3.152"/>
		<path style="&st4;" d="M109.829,102.999c-6.262,10.572-0.754,47.394,2.208,60.148c0.47,1.706,1.894,3.407,3.231,4.356     l45.861,19.01l35.458,14.697l27.286,11.311c0.934,0.266,2.4,0.133,2.133-1.467"/>
		<path style="&st4;" d="M143.788,62.093c-19.75,1.487-33.247,5.093-58.447,13.293c-1.953,0.636-6.193,4.074-8.623,5.039     c-1.388,0.549-7.854,2.492-12.016,5.404c-0.865,0.654-1.896,1.409-2.865,2.379c-0.564,0.586-1.43,1.312-1.83,2.079"/>
		<path style="&st4;" d="M67.594,148.522c-4.254-11.302-5.691-31.308,4.861-29.425c8.355,1.492,17.402,9.29,20.358,15.97     c3.36,7.594,6.505,17.065,8.505,23.944c0.555,1.91,3.217,18.282,3.488,19.91c0.4,2.399,2,3.733,3.334,3.733     c1.333,0,6.799-0.8,9.732-0.934"/>
		<path style="&st4;" d="M65.136,113.768c1.519-1.255,3.496-1.786,6.011-1.337c10.598,1.891,22.069,11.78,25.818,20.251     c3.653,8.257,6.631,18.42,9.412,26.514"/>
		<path style="&st4;" d="M64.983,149.746c-3.834-10.185-5.863-25.942-1.916-33.354"/>
		<path style="&st4;" d="M54.7,109.219c2.6-2.534,8.533-6.934,12.934-9.733c2.624-1.67,9.443,0.355,13.041,1.435     c5.333,1.6,19.533,6.4,24.934,8.134"/>
		<path style="&st4;" d="M67.608,154.788c-2.579-1.018-4.977-2.539-6.596-4.619c-2.207-2.837-7.406-13.459-9.172-16.779     c-1.473-2.769-1.523-6.416-1.434-10.47c0.041-1.833,0.113-4.815,0.191-6.036c0.209-3.297,3.52-8.172,4.742-9.364"/>
		<path style="&st4;" d="M116.007,167.054c5.333,1.199,17.601,5.199,24.827,8.202l75.841,31.53     c1.866,0.801,5.133,3.268,6.732,4.666"/>
		<path style="&st4;" d="M124.407,171.453c-2.266-0.799-5.188-0.758-7.199,0c-2.301,0.867-6.201,3.9-7.467,6     c-0.779,1.293,0.133,2.534,0.934,2.534c0.799,0,2.399-0.267,3.637,0.272l112.629,48.795c0.934,0.398,2.268,0.666,3.467,0     c1.201-0.668,3.467-2,3.467-2"/>
		<path style="&st4;" d="M115.856,178.189l107.797,45.864"/>
		<path style="&st4;" d="M126.735,83.226l-2.727,18.759l-1.115,0.531l-6.152-2.146"/>
		<path style="&st4;" d="M196.989,71.205c-5.261,15.323-15.084,45.161-16.16,50.778"/>
		<path style="&st4;" d="M181.458,97.755c-2.866,7.906-5.444,15.464-6.85,20.298"/>
		<path style="&st4;" d="M126.836,83.24c1.76-1.796,18.006-15.572,20.025-17.04c2.934-2.134,7.043-3.056,13.732-2.533     c3.346,0.261,11.908,1.819,20.893,3.891"/>
		<path style="&st4;" d="M252.856,86.538c-3.623,25.6-6.982,53.981-6.982,53.981l-122.675-38.161"/>
		<path style="&st4;" d="M186.795,122.184c0.565-2.632,6.979-24.254,11.293-38.136"/>
		<path style="&st4;" d="M123.198,95.421c0,0,0.405-3.757,0.304-4.869c-0.102-1.111-0.304-2.018-0.71-3.021     c-1.075-2.67-2.43-4.912-4.557-5.778c-1.625-0.661-2.814-0.283-4.152,0.191c-1.822,0.646-5.772,2.453-8.102,3.923     c-1.705,1.072-3.336,3.7-3.546,5.24c-0.304,2.235-0.606,5.887-0.304,8.209c0.25,1.914,1.215,2.912,2.734,3.487     c1.52,0.575,3.604,0.68,4.963,0.196c2.127-0.754,7.148-2.787,9.42-3.745c1.012-0.429,2.025,0.057,2.43,0.758"/>
		<path style="&st4;" d="M238.608,82.453c-6.352,20.994-9.167,31.874-13.201,51.4"/>
		<path style="&st4;" d="M240.556,82.938c-2.131,7.235-5.034,17.56-6.456,23.374l-2.791,12.172     c-1.066,4.926-2.132,10.118-3.369,16.103"/>
		<path style="&st7;" d="M327.472,99.906c17.176-7.26,43.944-12.952,66.586-16.064"/>
		<path style="&st7;" d="M283.406,244.518c-0.6,0.8-2,2.336-1.6,3.935c0.4,1.601,1.461,7.977,2.2,12.201     c0.739,4.224,1.522,10.697,1.82,13.224c0.298,2.531,2.094,3.181,4.687,2.306c7.223-2.434,19.927-7.699,19.927-7.699     c1.859-0.93,2.687-2.271,2.995-4.133"/>
		<path style="&st7;" d="M244.94,183.587c4.268,1.333,11.585,4.092,15.201,6.133c4.132,2.334,8.919,6.777,11.666,9.934"/>
		<path style="&st7;" d="M472.666,202.072c0.833-3.66,1.834-8.471,2.141-10.219"/>
		<path style="&st7;" d="M346.007,234.853c-3.399,0.6-6.19,1.086-9.313,1.459c-2.969,0.354-6.438-0.076-8.848-1.041     c-8.182-3.271-41.57-17.475-49.676-21.119"/>
		<path style="&st7;" d="M89.848,131.166c-3.82-3.492-7.896-5.117-11.658-4.199c-9.287,2.264-13.145,19.158-8.615,37.732     c4.527,18.574,15.729,31.797,25.016,29.531c4.318-1.051,7.463-5.268,9.137-11.346"/>
		<path style="&st7;" d="M93.266,141.239c-4.705-7.522-10.664-11.784-15.938-10.498c-8.358,2.036-11.83,17.242-7.754,33.958     c4.075,16.717,14.155,28.619,22.514,26.578c5.643-1.373,9.059-8.75,9.428-18.541"/>
		<path style="&st7;" d="M89.505,180.667c5.433-1.326,7.689-11.207,5.04-22.071c-2.648-10.869-9.201-18.603-14.634-17.277     c-5.433,1.324-7.69,11.207-5.04,22.072C77.52,174.257,84.073,181.992,89.505,180.667z"/>
		<path style="&st7;" d="M78.19,126.967c1.85-0.509,3.973-0.995,6.6-1.532"/>
		<path style="&st7;" d="M118.212,181.88c-1.767,3.924-4.337,6.672-7.545,7.74c-3.567,1.193-11.073,3.576-16.077,4.609"/>
		<path style="&st4;" d="M255.59,83.178c-0.25,2.021-1.435,11.7-1.755,14.278l-0.681,5.489c-2.29,18.439-5.384,43.267-5.499,44.459     c-1.775,2.259-3.713,4.68-4.197,6.294c-0.482,1.614-1.451,7.584-1.936,12.425c-1.131,4.357-1.451,6.295-1.774,9.037     c0,0,0,2.583-0.163,4.52c-0.174,2.098-1.129,2.91-2.905,3.067c-5.486,0.483-8.391,4.035-10.979,10.716     c-2.279,6.279,0.129,16.16,1.191,23.125c0.447,2.598,0.18,6.73-0.886,7.664"/>
		<path style="&st4;" d="M237.854,189.265c-3.433,0.789-6.868,6.98-7.14,12.146c-0.307,5.842,1.093,11.041,2.41,15.348     c0.217,1.361,1.15,4.561,1.816,5.494"/>
		<path style="&st7;" d="M119.552,82.13c11.04-9.353,22.294-18.811,28.175-22.766c6.445-4.334,10.266-6.09,21.252-8.924     c17.61-4.541,47.097-10.225,62.898-11.771c7.717-0.758,18.519,0.51,29.746,1.857c26.417,3.169,112.814,19.968,159.3,36.78     c6.107,2.209,10.668,3.393,14.406,8.217c8.568,11.058,15.72,25.14,24.337,48.707"/>
		<path style="&st7;" d="M469.307,206.054c1.051-2.65,2.98-12.11,3.329-14.26c0.082-0.504,0.45-0.951,0.851-0.951     c0.399,0,0.871,0.061,1.42,0.061c0.551,0,1.69-0.576,2.119-0.727c0.248-0.086,0.423,0.162,0.41,0.354     c-0.209,1.918-1.258,8.939-2.195,12.689c-0.195,0.861-0.73,2.043-0.967,2.5c-0.799,1.551-2.416,3.334-3.732,4.267     c-1.541,1.091-3.242,2.145-10.188,5.071c-15.578,6.566-87.979,36.546-105.146,41.596c-7.801,2-13.2,1.2-14-1.8     c-0.801-3-1.4-7.601-1.6-9.401c-0.201-1.799,0.07-3.18,1.67-3.379c0.363-0.047,0.822-0.122,1.33-0.22l6.934-1.067"/>
		<path style="&st7;" d="M450.021,110.621c3.99,9.461,6.904,18.675,8.648,24.67"/>
		<path style="&st7;" d="M268.201,222.796c-6.58-8.719-14.869-13.307-22.064-11.13c-11.219,3.396-15.525,21.966-9.617,41.478     c5.906,19.511,19.789,32.578,31.005,29.178c7.607-2.3,12.037-11.576,12.26-23.386"/>
		<path style="&st7;" d="M295.658,274.462c-2.111,2.58-4.805,4.642-8.101,6.08c-3.323,1.453-10.325,3.578-16.585,5.022     c-13.476,3.11-27.89-10.741-34.453-32.421c-6.563-21.678-2.373-40.911,10.688-46.088c3.453-1.367,7.371-2.684,10.926-3.674"/>
		<path style="&st7;" d="M270.973,285.565c5.762-1.745,9.879-7.085,11.998-14.468"/>
		<path style="&st7;" d="M263.638,211.183c-5.413-4.063-11.184-5.715-16.43-4.127"/>
		<path style="&st7;" d="M249.973,223.935c-7.303,2.176-10.16,14.23-6.381,26.931c3.779,12.699,12.764,21.234,20.067,19.06     c7.304-2.173,10.159-14.228,6.378-26.928C266.258,230.296,257.272,221.763,249.973,223.935z"/>
		<path style="&st4;" d="M51.741,116.986c0.889,1.482,4.05,3.331,7.146,4.678"/>
		<path style="&st4;" d="M55.874,106.453c0.801-1.533,4.4-4.934,5-5.6s1.4-1.6,1.734-2.4c0.332-0.8,1.275-3.341,1.275-3.341     c0.258-0.729,0-1.201-0.289-1.36c-0.75-0.413-0.904-0.413-1.959-0.981c-0.965-0.52-1.725-1.174-1.627-1.967l0.02-0.385     c2.379-3.766,9.379-4.166,15.779-3.766s19.801,2.2,26.6,3.4"/>
		<path style="&st4;" d="M281.063,170.677c11.713,3.853,22.381,7.26,31.344,9.977"/>
		<path style="&st4;" d="M185.45,138.158c5.58,1.959,30.102,10.225,35.729,12.181"/>
		<path style="&st4;" d="M112.007,111.054c3.302,1.261,7.259,2.749,11.767,4.424l14.805,5.452     c5.813,2.124,12.121,4.413,18.798,6.82"/>
		<path style="&st4;" d="M223.874,212.521l2.547,1.648"/>
		<path style="&st4;" d="M117.94,84.587c0.4,0,1.268,1.267,1.601,3.133c0.333,1.867,0.134,7.066,0,7.934s-0.534,1.733-1.2,2.133     c-0.666,0.4-9.934,3.8-9.934,3.8"/>
		<path style="&st7;" d="M341.485,206.666c-0.304,0.049-0.575,0.09-0.812,0.121c-4,0.533-11.667,0.268-15.467-0.533     c-4.373-0.92-17.066-4.133-17.066-4.133s3.23-8.896,6.244-17.074l4.922-13.06c0.7-2.267,2.833-3.067,4.699-2.8     c3.078,0.142,8.761,0.649,14.468,1.226"/>
		<path style="&st7;" d="M308.141,202.121c0,0-1.6,4.666-2.4,6.266c-0.801,1.601-2.4,3.734-4.801,2.934     c-2.398-0.799-24.266-5.865-26.666-6.399s-7-0.601-8.066-0.866"/>
		<path style="&st7;" d="M283.406,245.053c1,0,1.801,2.601,2.601,5.601s2.399,7.399,4.399,8.6c2,1.199,5.801,1.199,8.801,0.4"/>
		<path style="&st7;" d="M338.607,220.253c0,0,5.6,6.4,7.199,9c1.638,2.66,3,6.6,3.4,9.4c0.4,2.799,2,14.399,2,14.399     s0.529,3.331,0.558,3.664s-0.138,0.694-0.388,0.75"/>
		<path style="&st7;" d="M467.209,166.957c0.538-0.28,0.955-0.521,1.197-0.703c1.601-1.199,3.201-2.401,3-4.8     c-0.199-2.4-2.399-14.599-2.799-16.8c-0.4-2.2-1.4-3.4-2.201-4.4c-0.799-1-6.799-6-6.799-6l-0.836,1.114"/>
		<path style="&st7;" d="M469.701,174.863c-0.209,0.676-0.525,1.279-1.045,2.186"/>
		<path style="&st7;" d="M468.807,178.253l6.533,6.801"/>
		<path style="&st7;" d="M475.607,185.853c0,0-0.055,2.041-0.588,4.373"/>
		<path style="&st7;" d="M467.207,166.92c0,0,0.4,10.532-0.2,14.134"/>
		<path style="&st7;" d="M469.406,165.654c0.301,2.799,0.301,5.199,0.601,7.6c0,0,6.884,9.582,7.399,10.4     c1.401,2.221,1.303,4.869,1.201,7c-0.201,4.199-1.4,16.199-2.951,21.885c-0.949,3.479-3.024,6.66-6.533,8.727     c-7.855,4.133-23.885,12.307-44.316,20.988c-29.182,12.4-62,24-77.6,27.199c-6.52,1.339-15.811,1.273-22.801-1.199     c-7.139-2.529-15.156-5.529-19.615-7.02c-1.488-0.493-3.711-1.146-6.172-1.828"/>
		<path style="&st7;" d="M467.604,159.946c0.26-0.12,0.465-0.219,0.603-0.292c1-0.534,2.199-1.799,2.4-3"/>
		<path style="&st7;" d="M471.307,161.053c0,1-0.9,1.799-2.5,2.799c-0.206,0.129-0.53,0.305-0.941,0.514"/>
		<path style="&st7;" d="M332.902,108.123c33.691-8.463,83.639-19.069,103.904-20.669"/>
		<path style="&st4;" d="M60.807,104.453c0,0,2,7.4,2.801,9.8c0,0,2,4.4,3.399,6.6"/>
		<path style="&st7;" d="M459.507,200.853c0,1,0.399,2,1.7,2.5c1.3,0.5,9.65,3.65,10.35,3.85c0.7,0.201,1.6-0.148,2.2-0.549"/>
		<path style="&st4;" d="M61.625,88.478c-1.201,0.333-3.959,2.688-5.085,3.842c-0.626,0.642-1.213,1.886-1.467,2.8     c-0.333,1.2-0.667,3.233-0.566,4.333c0.101,1.101,0.462,2.333,0.833,3.2c0.5,1.167,0.73,2.483,0.467,3.6     s-0.707,1.966-1.107,2.966"/>
		<path style="&st4;" d="M87.608,77.453c4.799,0.8,16.799,3.2,24,5.601"/>
		<path style="&st7;" d="M341.242,198.002c-3.725,0.294-9.628,0.396-13.436,0.052c-4.4-0.4-14.6-2.801-14.6-2.801l-1.801,5     c5.801,1.4,11.4,2.6,15.4,3.199c3.564,0.535,9.985,0.435,14.597-0.019"/>
		<path style="&st7;" d="M229.167,196.345c0.619-5.162,7.023-8.262,12.393-6.814c5.615,1.51,12.949,5.471,16.682,7.828     c5.652,3.57,9.369,7.733,12.343,13.385c2.619,4.975,3.764,7.521,4.173,8.68c0.718,2.029,1.427,4.023,2.339,6.227     c1.855,4.486,4.643,12.15,6.311,19.403"/>
		<path style="&st7;" d="M351.26,252.978c1.313,0.939,2.863,0.967,5.141,0.45c3.271-0.742,5.622-1.573,8.774-2.827     c13.433-5.348,83.763-33.59,95.897-38.869c1.896-0.824,5.42-2.467,7.822-3.699"/>
		<path style="&st7;" d="M458.67,135.291c1.337,0.962,3.801,3.824,4.938,6.295c1.133,2.467,3.399,15.467,3.799,17.268     c0.4,1.799,0.467,4.066,0.467,5.266c0,1.2-0.666,2.801-0.666,2.801"/>
		<path style="&st7;" d="M150.021,57.92c4.491-2.417,10.267-2.333,17.601-1.052c13.195,2.107,50.844,9.922,76.785,17.118     c24.917,7.172,51.068,14.604,75.257,22.349c7.49,2.399,11.936,5.577,13.238,11.788c3.526,16.828,4.498,38.966,5.057,57.408     c0.125,4.172,2.074,13.541,2.453,17.698c0.205,2.245,0.389,4.519,0.52,6.88c0.275,4.945,0.941,26.744,0.676,33.145"/>
		<path style="&st7;" d="M205.829,69.442c30.956,7.438,65.006,17.652,96.178,29.268c4.8,2.4,4.685,5.313,4.88,8.514     c0.25,4.104-0.455,28.19-0.846,36.667c-0.148,1.6-0.35,2.6-0.949,3.199c-0.6,0.601-9.758,7.217-11.129,7.909     c-1.916,0.966-4.271,1.392-6.471,0.892c-3.396-0.771-161.044-50.233-172.818-54.571"/>
		<path style="&st7;" d="M121.325,84.017l2.941-2.308l3.034-2.379c0,0,15.804-13.298,18.974-15.477     c4.267-2.933,7.646-3.879,14.314-3.613c10.304,1.64,21.58,3.826,33.458,6.473"/>
		<path style="&st7;" d="M294.742,154.331c-1.04,0.295-5.111,0.006-6.451-0.44c-2.189-0.732-42.417-13.371-42.417-13.371"/>
		<path style="&st7;" d="M170.794,134.018c-0.042-0.938-0.163-1.655-0.55-2.365c-0.66-1.21-1.926-1.925-3.41-2.311     c-3.24-0.84-5.453-1.088-8.342-0.824c-2.73,0.249-3.814,4.62-2.164,6.27c4.377,4.377,9.256,6.445,11.624,5.17     c0.715-0.385,1.265-0.824,1.375-1.649"/>
		<path style="&st7;" d="M155.78,131.23c0.334-1.209,1.098-1.527,2.365-1.338c2.199,0.33,8.469,2.365,10.779,3.3     c1.957,0.792,4.424,2.286,4.858,2.658c0.513,0.44,0.477,1.173,0.257,1.979c-0.221,0.808-0.846,1.429-1.815,1.192     c-2.255-0.55-14.017-4.874-15.345-5.519C155.669,132.918,155.45,132.422,155.78,131.23z"/>
		<path style="&st7;" d="M170.464,134.018c-0.385,0-0.77,0.715-1.209,1.76s-0.605,2.035-0.109,2.255"/>
		<path style="&st7;" d="M157.209,130.498c4.015,1.045,13.197,4.09,15.895,5.664"/>
		<path style="&st7;" d="M236.928,156.684c-0.043-0.938-0.164-1.654-0.551-2.364c-0.66-1.21-1.925-1.925-3.41-2.309     c-3.239-0.841-5.453-1.089-8.342-0.827c-2.729,0.25-3.813,4.621-2.162,6.271c4.375,4.377,9.254,6.445,11.623,5.169     c0.715-0.385,1.264-0.824,1.375-1.648"/>
		<path style="&st7;" d="M221.913,153.897c0.335-1.21,1.098-1.528,2.365-1.339c2.199,0.331,8.47,2.366,10.779,3.301     c1.957,0.792,4.424,2.285,4.859,2.659c0.514,0.439,0.477,1.172,0.256,1.979c-0.22,0.808-0.846,1.429-1.814,1.193     c-2.256-0.551-14.018-4.875-15.346-5.519C221.803,155.584,221.583,155.089,221.913,153.897z"/>
		<path style="&st7;" d="M236.598,156.684c-0.385,0-0.771,0.715-1.211,1.761c-0.439,1.045-0.604,2.035-0.109,2.255"/>
		<path style="&st7;" d="M223.342,153.164c4.016,1.045,13.197,4.091,15.895,5.665"/>
		<path style="&st4;" d="M119.874,160.387c20.533,6.667,86.4,31.467,101.334,39.734"/>
		<path style="&st4;" d="M123.34,159.586c4.801-0.533,11.734-0.533,16.801,0.534c5.066,1.067,61.6,22.134,67.199,24.534     s11.467,8.266,13.066,12.533"/>
		<path style="&st4;" d="M98.704,115.14c0.66-0.027,1.397,0.07,2.146,0.305c2.131,0.671,3.545,2.212,3.157,3.444     c-0.19,0.602-0.775,1.018-1.573,1.208l-0.961,0.158c-0.656,0.026-1.389-0.071-2.133-0.306c-2.131-0.671-3.544-2.212-3.156-3.443     c0.177-0.564,0.701-0.966,1.423-1.17L98.704,115.14z"/>
		<path style="&st4;" d="M98.339,115.788c0.502,0.032,1.035,0.129,1.574,0.299c2.131,0.67,3.482,2.004,3.094,3.236"/>
		<path style="&st4;" d="M195.389,70.805c13.703,3.573,49.638,13.252,57.467,15.733"/>
		<path style="&st4;" d="M338.273,166.253c33.066-5.867,94.133-22.934,119.2-33.6"/>
		<path style="&st4;" d="M400.54,206.386c0.4,2.2,1.267,15.066,1.267,16.066"/>
		<path style="&st4;" d="M376.807,86.653c2.601,1.4,6.601,4.4,7.4,9.6c0.8,5.2,10.2,57.067,11,63.867"/>
		<path style="&st4;" d="M386.407,162.52c0,0,27.464-7.34,31.066-8.667c5.066-1.867,9.467,3.067,14,1.6     c2.97-0.961,18.082-6.124,20.533-7.067c5.2-2,6.533,3.2,6.533,5.2s0.267,24.934,0.267,26.667c0,1.732-1.333,5.467-6.133,7.199     c-4.8,1.733-94.2,31.801-95.934,32.2c-1.733,0.4-5.6-0.399-6.133-5.6s-1.4-24.067-1.4-26.467c0-5.467,3.2-8.4,6-9.467     s18.044-4.802,21.467-6C382.007,170.252,380.74,164.386,386.407,162.52z"/>
		<path style="&st4;" d="M349.307,190.453c2.101,0.9,5.967,2.5,10.067,1.4c5.255-1.41,33.8-8.8,36.5-9.6     c2.7-0.801,3.1-3.098,3.1-4.7c0-1.7-0.61-10.21-0.8-12.101c-0.267-2.666-3.667-4.933-6.367-4.333"/>
		<path style="&st4;" d="M354.007,190.753c0,0,0-4.067,0-4.967c0-0.9,0.7-4.634,4.4-5.733c3.7-1.101,17.267-4.567,20.467-5.367     s4.2-2.2,5-3.7s1.533-4.643,3.866-5.466c1.325-0.468,4.877-1.496,6.4-1.801c1.333-0.266,2.533,0.4,3.199,1.534"/>
		<path style="&st4;" d="M395.707,206.653c2.4-0.899,3.4-2.7,3.4-4.899c0-2.2-1.634-20.167-1.634-20.167"/>
		<path style="&st4;" d="M338.273,166.253c33.066-5.867,94.133-22.934,119.2-33.6"/>
		<path style="&st4;" d="M400.54,206.386c0.4,2.2,1.267,15.066,1.267,16.066"/>
		<path style="&st4;" d="M376.807,86.653c2.601,1.4,6.601,4.4,7.4,9.6c0.8,5.2,10.2,57.067,11,63.867"/>
		<path style="&st4;" d="M386.407,162.52c0,0,27.464-7.34,31.066-8.667c5.066-1.867,9.467,3.067,14,1.6     c2.97-0.961,18.082-6.124,20.533-7.067c5.2-2,6.533,3.2,6.533,5.2s0.267,24.934,0.267,26.667c0,1.732-1.333,5.467-6.133,7.199     c-4.8,1.733-94.2,31.801-95.934,32.2c-1.733,0.4-5.6-0.399-6.133-5.6s-1.4-24.067-1.4-26.467c0-5.467,3.2-8.4,6-9.467     s18.044-4.802,21.467-6C382.007,170.252,380.74,164.386,386.407,162.52z"/>
		<path style="&st4;" d="M349.307,190.453c2.101,0.9,5.967,2.5,10.067,1.4c5.255-1.41,33.8-8.8,36.5-9.6     c2.7-0.801,3.1-3.098,3.1-4.7c0-1.7-0.61-10.21-0.8-12.101c-0.267-2.666-3.667-4.933-6.367-4.333"/>
		<path style="&st4;" d="M354.007,190.753c0,0,0-4.067,0-4.967c0-0.9,0.7-4.634,4.4-5.733c3.7-1.101,17.267-4.567,20.467-5.367     s4.2-2.2,5-3.7s1.533-4.643,3.866-5.466c1.325-0.468,4.877-1.496,6.4-1.801c1.333-0.266,2.533,0.4,3.199,1.534"/>
		<path style="&st4;" d="M395.707,206.653c2.4-0.899,3.4-2.7,3.4-4.899c0-2.2-1.634-20.167-1.634-20.167"/>
	</g>
	<g>
		<path style="&st8;" d="M308.141,202.121c0,0-1.6,4.666-2.4,6.266c-0.801,1.601-2.4,3.734-4.801,2.934     c-2.398-0.799-24.266-5.865-26.666-6.399s-7-0.601-8.066-0.866"/>
		<path style="&st1;" d="M467.007,181.054c0.267-1.334-2.622,12.107-2.649,12.266c-0.232,1.318-0.881,2.945-1.164,3.668     c-0.851,2.168-1.59,2.852-3.484,3.639c-22.702,9.428-51.59,20.447-80.797,31.002c-9.105,3.025-24.973,7.957-29.371,9.158"/>
		<path style="&st17;" d="M119.35,84.058c-2.762,0.889-8.969,3.728-9.977,4.166c-1.777,0.77-2.432,1.95-2.355,4.152     c0.075,2.162-0.025,6.127,0.178,7.54c0.146,1.021,1.014,1.903,2.025,1.983"/>
		<path style="&st17;" d="M180.83,121.982c-4.559,10.654-5.3,30.4-3.622,51.205c0.447,5.543-0.602,12.167,0.485,17.514l1.114,3.152     "/>
		<path style="&st17;" d="M109.829,102.999c-6.262,10.572-0.754,47.394,2.208,60.148c0.47,1.706,1.894,3.407,3.231,4.356     l45.861,19.01l35.458,14.697l27.286,11.311c0.934,0.266,2.4,0.133,2.133-1.467"/>
		<path style="&st17;" d="M143.788,62.093c-19.75,1.487-33.247,5.093-58.447,13.293c-1.953,0.636-6.193,4.074-8.623,5.039     c-1.388,0.549-7.854,2.492-12.016,5.404c-0.865,0.654-1.896,1.409-2.865,2.379c-0.564,0.586-1.43,1.312-1.83,2.079"/>
		<path style="&st17;" d="M67.594,148.522c-4.254-11.302-5.691-31.308,4.861-29.425c8.355,1.492,17.402,9.29,20.358,15.97     c3.36,7.594,6.505,17.065,8.505,23.944c0.555,1.91,3.217,18.282,3.488,19.91c0.4,2.399,2,3.733,3.334,3.733     c1.333,0,6.799-0.8,9.732-0.934"/>
		<path style="&st17;" d="M65.136,113.768c1.519-1.255,3.496-1.786,6.011-1.337c10.598,1.891,22.069,11.78,25.818,20.251     c3.653,8.257,6.631,18.42,9.412,26.514"/>
		<path style="&st17;" d="M64.983,149.746c-3.834-10.185-5.863-25.942-1.916-33.354"/>
		<path style="&st17;" d="M54.7,109.219c2.6-2.534,8.533-6.934,12.934-9.733c2.624-1.67,9.443,0.355,13.041,1.435     c5.333,1.6,19.533,6.4,24.934,8.134"/>
		<path style="&st17;" d="M67.608,154.788c-2.579-1.018-4.977-2.539-6.596-4.619c-2.207-2.837-7.406-13.459-9.172-16.779     c-1.473-2.769-1.523-6.416-1.434-10.47c0.041-1.833,0.113-4.815,0.191-6.036c0.209-3.297,3.52-8.172,4.742-9.364"/>
		<path style="&st17;" d="M116.007,167.054c5.333,1.199,17.601,5.199,24.827,8.202l75.841,31.53     c1.866,0.801,5.133,3.268,6.732,4.666"/>
		<path style="&st17;" d="M124.407,171.453c-2.266-0.799-5.188-0.758-7.199,0c-2.301,0.867-6.201,3.9-7.467,6     c-0.779,1.293,0.133,2.534,0.934,2.534c0.799,0,2.399-0.267,3.637,0.272l112.629,48.795c0.934,0.398,2.268,0.666,3.467,0     c1.201-0.668,3.467-2,3.467-2"/>
		<path style="&st17;" d="M115.856,178.189l107.797,45.864"/>
		<path style="&st17;" d="M126.735,83.226l-2.727,18.759l-1.115,0.531l-6.152-2.146"/>
		<path style="&st17;" d="M196.989,71.205c-5.261,15.323-15.084,45.161-16.16,50.778"/>
		<path style="&st17;" d="M181.458,97.755c-2.866,7.906-5.444,15.464-6.85,20.298"/>
		<path style="&st17;" d="M252.856,86.538c-3.623,25.6-6.982,53.981-6.982,53.981l-122.675-38.161"/>
		<path style="&st17;" d="M186.795,122.184c0.565-2.632,6.979-24.254,11.293-38.136"/>
		<path style="&st17;" d="M123.198,95.421c0,0,0.405-3.757,0.304-4.869c-0.102-1.111-0.304-2.018-0.71-3.021     c-1.075-2.67-2.43-4.912-4.557-5.778c-1.625-0.661-2.814-0.283-4.152,0.191c-1.822,0.646-5.772,2.453-8.102,3.923     c-1.705,1.072-3.336,3.7-3.546,5.24c-0.304,2.235-0.606,5.887-0.304,8.209c0.25,1.914,1.215,2.912,2.734,3.487     c1.52,0.575,3.604,0.68,4.963,0.196c2.127-0.754,7.148-2.787,9.42-3.745c1.012-0.429,2.025,0.057,2.43,0.758"/>
		<path style="&st17;" d="M238.608,82.453c-6.352,20.994-9.167,31.874-13.201,51.4"/>
		<path style="&st17;" d="M240.556,82.938c-2.131,7.235-5.034,17.56-6.456,23.374l-2.791,12.172     c-1.066,4.926-2.132,10.118-3.369,16.103"/>
		<path style="&st1;" d="M327.472,99.906c17.176-7.26,43.944-12.952,66.586-16.064"/>
		<path style="&st1;" d="M283.406,244.518c-0.6,0.8-2,2.336-1.6,3.935c0.4,1.601,1.461,7.977,2.2,12.201     c0.739,4.224,1.522,10.697,1.82,13.224c0.298,2.531,2.094,3.181,4.687,2.306c7.223-2.434,19.927-7.699,19.927-7.699     c1.859-0.93,2.687-2.271,2.995-4.133"/>
		<path style="&st1;" d="M244.94,183.587c4.268,1.333,11.585,4.092,15.201,6.133c4.132,2.334,8.919,6.777,11.666,9.934"/>
		<path style="&st1;" d="M472.666,202.072c0.833-3.66,1.834-8.471,2.141-10.219"/>
		<path style="&st1;" d="M346.007,234.853c-3.399,0.6-6.19,1.086-9.313,1.459c-2.969,0.354-6.438-0.076-8.848-1.041     c-8.182-3.271-41.57-17.475-49.676-21.119"/>
		<path style="&st1;" d="M89.848,131.166c-3.82-3.492-7.896-5.117-11.658-4.199c-9.287,2.264-13.145,19.158-8.615,37.732     c4.527,18.574,15.729,31.797,25.016,29.531c4.318-1.051,7.463-5.268,9.137-11.346"/>
		<path style="&st1;" d="M93.266,141.239c-4.705-7.522-10.664-11.784-15.938-10.498c-8.358,2.036-11.83,17.242-7.754,33.958     c4.075,16.717,14.155,28.619,22.514,26.578c5.643-1.373,9.059-8.75,9.428-18.541"/>
		<path style="&st1;" d="M89.505,180.667c5.433-1.326,7.689-11.207,5.04-22.071c-2.648-10.869-9.201-18.603-14.634-17.277     c-5.433,1.324-7.69,11.207-5.04,22.072C77.52,174.257,84.073,181.992,89.505,180.667z"/>
		<path style="&st1;" d="M78.19,126.967c1.85-0.509,3.973-0.995,6.6-1.532"/>
		<path style="&st1;" d="M118.212,181.88c-1.767,3.924-4.337,6.672-7.545,7.74c-3.567,1.193-11.073,3.576-16.077,4.609"/>
		<path style="&st17;" d="M255.59,83.178c-0.25,2.021-1.435,11.7-1.755,14.278l-0.681,5.489     c-2.29,18.439-5.384,43.267-5.499,44.459c-1.775,2.259-3.713,4.68-4.197,6.294c-0.482,1.614-1.451,7.584-1.936,12.425     c-1.131,4.357-1.451,6.295-1.774,9.037c0,0,0,2.583-0.163,4.52c-0.174,2.098-1.129,2.91-2.905,3.067     c-5.486,0.483-8.391,4.035-10.979,10.716c-2.279,6.279,0.129,16.16,1.191,23.125c0.447,2.598,0.18,6.73-0.886,7.664"/>
		<path style="&st17;" d="M237.854,189.265c-3.433,0.789-6.868,6.98-7.14,12.146c-0.307,5.842,1.093,11.041,2.41,15.348     c0.217,1.361,1.15,4.561,1.816,5.494"/>
		<path style="&st1;" d="M119.552,82.13c11.04-9.353,22.294-18.811,28.175-22.766c6.445-4.334,10.266-6.09,21.252-8.924     c17.61-4.541,47.097-10.225,62.898-11.771c7.717-0.758,18.519,0.51,29.746,1.857c26.417,3.169,112.814,19.968,159.3,36.78     c6.107,2.209,10.668,3.393,14.406,8.217c8.568,11.058,15.72,25.14,24.337,48.707"/>
		<path style="&st1;" d="M469.307,206.054c1.051-2.65,2.98-12.11,3.329-14.26c0.082-0.504,0.45-0.951,0.851-0.951     c0.399,0,0.871,0.061,1.42,0.061c0.551,0,1.69-0.576,2.119-0.727c0.248-0.086,0.423,0.162,0.41,0.354     c-0.209,1.918-1.258,8.939-2.195,12.689c-0.195,0.861-0.73,2.043-0.967,2.5c-0.799,1.551-2.416,3.334-3.732,4.267     c-1.541,1.091-3.242,2.145-10.188,5.071c-15.578,6.566-87.979,36.546-105.146,41.596c-7.801,2-13.2,1.2-14-1.8     c-0.801-3-1.4-7.601-1.6-9.401c-0.201-1.799,0.07-3.18,1.67-3.379c0.363-0.047,0.822-0.122,1.33-0.22l6.934-1.067"/>
		<path style="&st1;" d="M450.021,110.621c3.99,9.461,6.904,18.675,8.648,24.67"/>
		<path style="&st1;" d="M268.201,222.796c-6.58-8.719-14.869-13.307-22.064-11.13c-11.219,3.396-15.525,21.966-9.617,41.478     c5.906,19.511,19.789,32.578,31.005,29.178c7.607-2.3,12.037-11.576,12.26-23.386"/>
		<path style="&st1;" d="M295.658,274.462c-2.111,2.58-4.805,4.642-8.101,6.08c-3.323,1.453-10.325,3.578-16.585,5.022     c-13.476,3.11-27.89-10.741-34.453-32.421c-6.563-21.678-2.373-40.911,10.688-46.088c3.453-1.367,7.371-2.684,10.926-3.674"/>
		<path style="&st1;" d="M270.973,285.565c5.762-1.745,9.879-7.085,11.998-14.468"/>
		<path style="&st1;" d="M263.638,211.183c-5.413-4.063-11.184-5.715-16.43-4.127"/>
		<path style="&st1;" d="M249.973,223.935c-7.303,2.176-10.16,14.23-6.381,26.931c3.779,12.699,12.764,21.234,20.067,19.06     c7.304-2.173,10.159-14.228,6.378-26.928C266.258,230.296,257.272,221.763,249.973,223.935z"/>
		<path style="&st17;" d="M51.741,116.986c0.889,1.482,4.05,3.331,7.146,4.678"/>
		<path style="&st17;" d="M55.874,106.453c0.801-1.533,4.4-4.934,5-5.6s1.4-1.6,1.734-2.4c0.332-0.8,1.275-3.341,1.275-3.341     c0.258-0.729,0-1.201-0.289-1.36c-0.75-0.413-0.904-0.413-1.959-0.981c-0.965-0.52-1.725-1.174-1.627-1.967l0.02-0.385     c2.379-3.766,9.379-4.166,15.779-3.766s19.801,2.2,26.6,3.4"/>
		<path style="&st17;" d="M281.063,170.677c11.713,3.853,22.381,7.26,31.344,9.977"/>
		<path style="&st17;" d="M185.45,138.158c5.58,1.959,30.102,10.225,35.729,12.181"/>
		<path style="&st17;" d="M112.007,111.054c3.302,1.261,7.259,2.749,11.767,4.424l14.805,5.452     c5.813,2.124,12.121,4.413,18.798,6.82"/>
		<path style="&st17;" d="M223.874,212.521l2.547,1.648"/>
		<path style="&st17;" d="M117.94,84.587c0.4,0,1.268,1.267,1.601,3.133c0.333,1.867,0.134,7.066,0,7.934s-0.534,1.733-1.2,2.133     c-0.666,0.4-9.934,3.8-9.934,3.8"/>
		<path style="&st1;" d="M341.485,206.666c-0.304,0.049-0.575,0.09-0.812,0.121c-4,0.533-11.667,0.268-15.467-0.533     c-4.373-0.92-17.066-4.133-17.066-4.133s3.23-8.896,6.244-17.074l4.922-13.06c0.7-2.267,2.833-3.067,4.699-2.8     c3.078,0.142,8.761,0.649,14.468,1.226"/>
		<path style="&st1;" d="M308.141,202.121c0,0-1.6,4.666-2.4,6.266c-0.801,1.601-2.4,3.734-4.801,2.934     c-2.398-0.799-24.266-5.865-26.666-6.399s-7-0.601-8.066-0.866"/>
		<path style="&st1;" d="M283.406,245.053c1,0,1.801,2.601,2.601,5.601s2.399,7.399,4.399,8.6c2,1.199,5.801,1.199,8.801,0.4"/>
		<path style="&st1;" d="M338.607,220.253c0,0,5.6,6.4,7.199,9c1.638,2.66,3,6.6,3.4,9.4c0.4,2.799,2,14.399,2,14.399     s0.529,3.331,0.558,3.664s-0.138,0.694-0.388,0.75"/>
		<path style="&st1;" d="M467.209,166.957c0.538-0.28,0.955-0.521,1.197-0.703c1.601-1.199,3.201-2.401,3-4.8     c-0.199-2.4-2.399-14.599-2.799-16.8c-0.4-2.2-1.4-3.4-2.201-4.4c-0.799-1-6.799-6-6.799-6l-0.836,1.114"/>
		<path style="&st1;" d="M469.701,174.863c-0.209,0.676-0.525,1.279-1.045,2.186"/>
		<path style="&st1;" d="M468.807,178.253l6.533,6.801"/>
		<path style="&st1;" d="M475.607,185.853c0,0-0.055,2.041-0.588,4.373"/>
		<path style="&st1;" d="M467.207,166.92c0,0,0.4,10.532-0.2,14.134"/>
		<path style="&st1;" d="M469.406,165.654c0.301,2.799,0.301,5.199,0.601,7.6c0,0,6.884,9.582,7.399,10.4     c1.401,2.221,1.303,4.869,1.201,7c-0.201,4.199-1.4,16.199-2.951,21.885c-0.949,3.479-3.024,6.66-6.533,8.727     c-7.855,4.133-23.885,12.307-44.316,20.988c-29.182,12.4-62,24-77.6,27.199c-6.52,1.339-15.811,1.273-22.801-1.199     c-7.139-2.529-15.156-5.529-19.615-7.02c-1.488-0.493-3.711-1.146-6.172-1.828"/>
		<path style="&st1;" d="M467.604,159.946c0.26-0.12,0.465-0.219,0.603-0.292c1-0.534,2.199-1.799,2.4-3"/>
		<path style="&st1;" d="M471.307,161.053c0,1-0.9,1.799-2.5,2.799c-0.206,0.129-0.53,0.305-0.941,0.514"/>
		<path style="&st1;" d="M332.902,108.123c33.691-8.463,83.639-19.069,103.904-20.669"/>
		<path style="&st17;" d="M60.807,104.453c0,0,2,7.4,2.801,9.8c0,0,2,4.4,3.399,6.6"/>
		<path style="&st1;" d="M459.507,200.853c0,1,0.399,2,1.7,2.5c1.3,0.5,9.65,3.65,10.35,3.85c0.7,0.201,1.6-0.148,2.2-0.549"/>
		<path style="&st17;" d="M61.625,88.478c-1.201,0.333-3.959,2.688-5.085,3.842c-0.626,0.642-1.213,1.886-1.467,2.8     c-0.333,1.2-0.667,3.233-0.566,4.333c0.101,1.101,0.462,2.333,0.833,3.2c0.5,1.167,0.73,2.483,0.467,3.6     s-0.707,1.966-1.107,2.966"/>
		<path style="&st17;" d="M87.608,77.453c4.799,0.8,16.799,3.2,24,5.601"/>
		<path style="&st1;" d="M341.242,198.002c-3.725,0.294-9.628,0.396-13.436,0.052c-4.4-0.4-14.6-2.801-14.6-2.801l-1.801,5     c5.801,1.4,11.4,2.6,15.4,3.199c3.564,0.535,9.985,0.435,14.597-0.019"/>
		<path style="&st1;" d="M229.167,196.345c0.619-5.162,7.023-8.262,12.393-6.814c5.615,1.51,12.949,5.471,16.682,7.828     c5.652,3.57,9.369,7.733,12.343,13.385c2.619,4.975,3.764,7.521,4.173,8.68c0.718,2.029,1.427,4.023,2.339,6.227     c1.855,4.486,4.643,12.15,6.311,19.403"/>
		<path style="&st1;" d="M351.26,252.978c1.313,0.939,2.863,0.967,5.141,0.45c3.271-0.742,5.622-1.573,8.774-2.827     c13.433-5.348,83.763-33.59,95.897-38.869c1.896-0.824,5.42-2.467,7.822-3.699"/>
		<path style="&st1;" d="M458.67,135.291c1.337,0.962,3.801,3.824,4.938,6.295c1.133,2.467,3.399,15.467,3.799,17.268     c0.4,1.799,0.467,4.066,0.467,5.266c0,1.2-0.666,2.801-0.666,2.801"/>
		<path style="&st1;" d="M150.021,57.92c4.491-2.417,10.267-2.333,17.601-1.052c13.195,2.107,50.844,9.922,76.785,17.118     c24.917,7.172,51.068,14.604,75.257,22.349c7.49,2.399,11.936,5.577,13.238,11.788c3.526,16.828,4.498,38.966,5.057,57.408     c0.125,4.172,2.074,13.541,2.453,17.698c0.205,2.245,0.389,4.519,0.52,6.88c0.275,4.945,0.941,26.744,0.676,33.145"/>
		<path style="&st1;" d="M121.325,84.017l2.941-2.308l3.034-2.379c0,0,15.804-13.298,18.974-15.477     c4.267-2.933,7.646-3.879,14.314-3.613c10.304,1.64,21.58,3.826,33.458,6.473l11.783,2.73     c30.956,7.438,65.006,17.652,96.178,29.268c4.8,2.4,4.685,5.313,4.88,8.514c0.25,4.104-0.455,28.19-0.846,36.667     c-0.148,1.6-0.35,2.6-0.949,3.199c-0.6,0.601-9.758,7.217-11.129,7.909c-1.916,0.966-4.271,1.392-6.471,0.892     c-3.396-0.771-161.044-50.233-172.818-54.571"/>
		<path style="&st1;" d="M294.742,154.331c-1.04,0.295-5.111,0.006-6.451-0.44c-2.189-0.732-42.417-13.371-42.417-13.371"/>
		<path style="&st1;" d="M170.794,134.018c-0.042-0.938-0.163-1.655-0.55-2.365c-0.66-1.21-1.926-1.925-3.41-2.311     c-3.24-0.84-5.453-1.088-8.342-0.824c-2.73,0.249-3.814,4.62-2.164,6.27c4.377,4.377,9.256,6.445,11.624,5.17     c0.715-0.385,1.265-0.824,1.375-1.649"/>
		<path style="&st1;" d="M155.78,131.23c0.334-1.209,1.098-1.527,2.365-1.338c2.199,0.33,8.469,2.365,10.779,3.3     c1.957,0.792,4.424,2.286,4.858,2.658c0.513,0.44,0.477,1.173,0.257,1.979c-0.221,0.808-0.846,1.429-1.815,1.192     c-2.255-0.55-14.017-4.874-15.345-5.519C155.669,132.918,155.45,132.422,155.78,131.23z"/>
		<path style="&st1;" d="M170.464,134.018c-0.385,0-0.77,0.715-1.209,1.76s-0.605,2.035-0.109,2.255"/>
		<path style="&st1;" d="M157.209,130.498c4.015,1.045,13.197,4.09,15.895,5.664"/>
		<path style="&st1;" d="M236.928,156.684c-0.043-0.938-0.164-1.654-0.551-2.364c-0.66-1.21-1.925-1.925-3.41-2.309     c-3.239-0.841-5.453-1.089-8.342-0.827c-2.729,0.25-3.813,4.621-2.162,6.271c4.375,4.377,9.254,6.445,11.623,5.169     c0.715-0.385,1.264-0.824,1.375-1.648"/>
		<path style="&st1;" d="M221.913,153.897c0.335-1.21,1.098-1.528,2.365-1.339c2.199,0.331,8.47,2.366,10.779,3.301     c1.957,0.792,4.424,2.285,4.859,2.659c0.514,0.439,0.477,1.172,0.256,1.979c-0.22,0.808-0.846,1.429-1.814,1.193     c-2.256-0.551-14.018-4.875-15.346-5.519C221.803,155.584,221.583,155.089,221.913,153.897z"/>
		<path style="&st1;" d="M236.598,156.684c-0.385,0-0.771,0.715-1.211,1.761c-0.439,1.045-0.604,2.035-0.109,2.255"/>
		<path style="&st1;" d="M223.342,153.164c4.016,1.045,13.197,4.091,15.895,5.665"/>
		<path style="&st17;" d="M119.874,160.387c20.533,6.667,86.4,31.467,101.334,39.734"/>
		<path style="&st17;" d="M123.34,159.586c4.801-0.533,11.734-0.533,16.801,0.534c5.066,1.067,61.6,22.134,67.199,24.534     s11.467,8.266,13.066,12.533"/>
		<path style="&st10;" d="M98.704,115.14c0.66-0.027,1.397,0.07,2.146,0.305c2.131,0.671,3.545,2.212,3.157,3.444     c-0.19,0.602-0.775,1.018-1.573,1.208l-0.961,0.158c-0.656,0.026-1.389-0.071-2.133-0.306c-2.131-0.671-3.544-2.212-3.156-3.443     c0.177-0.564,0.701-0.966,1.423-1.17L98.704,115.14z"/>
		<path style="&st10;" d="M98.339,115.788c0.502,0.032,1.035,0.129,1.574,0.299c2.131,0.67,3.482,2.004,3.094,3.236"/>
		<path style="&st17;" d="M126.836,83.24c1.76-1.796,18.006-15.572,20.025-17.04c2.934-2.134,7.043-3.056,13.732-2.533     c3.346,0.261,11.908,1.819,20.893,3.891l13.902,3.247c13.703,3.573,49.638,13.252,57.467,15.733"/>
		<path style="&st4;" d="M338.273,166.253c33.066-5.867,94.133-22.934,119.2-33.6"/>
		<path style="&st4;" d="M400.54,206.386c0.4,2.2,1.267,15.066,1.267,16.066"/>
		<path style="&st4;" d="M376.807,86.653c2.601,1.4,6.601,4.4,7.4,9.6c0.8,5.2,10.2,57.067,11,63.867"/>
		<path style="&st4;" d="M386.407,162.52c0,0,27.464-7.34,31.066-8.667c5.066-1.867,9.467,3.067,14,1.6     c2.97-0.961,18.082-6.124,20.533-7.067c5.2-2,6.533,3.2,6.533,5.2s0.267,24.934,0.267,26.667c0,1.732-1.333,5.467-6.133,7.199     c-4.8,1.733-94.2,31.801-95.934,32.2c-1.733,0.4-5.6-0.399-6.133-5.6s-1.4-24.067-1.4-26.467c0-5.467,3.2-8.4,6-9.467     s18.044-4.802,21.467-6C382.007,170.252,380.74,164.386,386.407,162.52z"/>
		<path style="&st4;" d="M349.307,190.453c2.101,0.9,5.967,2.5,10.067,1.4c5.255-1.41,33.8-8.8,36.5-9.6     c2.7-0.801,3.1-3.098,3.1-4.7c0-1.7-0.61-10.21-0.8-12.101c-0.267-2.666-3.667-4.933-6.367-4.333"/>
		<path style="&st4;" d="M354.007,190.753c0,0,0-4.067,0-4.967c0-0.9,0.7-4.634,4.4-5.733c3.7-1.101,17.267-4.567,20.467-5.367     s4.2-2.2,5-3.7s1.533-4.643,3.866-5.466c1.325-0.468,4.877-1.496,6.4-1.801c1.333-0.266,2.533,0.4,3.199,1.534"/>
		<path style="&st4;" d="M395.707,206.653c2.4-0.899,3.4-2.7,3.4-4.899c0-2.2-1.634-20.167-1.634-20.167"/>
		<path style="&st17;" d="M338.273,166.253c33.066-5.867,94.133-22.934,119.2-33.6"/>
		<path style="&st17;" d="M400.54,206.386c0.4,2.2,1.267,15.066,1.267,16.066"/>
		<path style="&st17;" d="M376.807,86.653c2.601,1.4,6.601,4.4,7.4,9.6c0.8,5.2,10.2,57.067,11,63.867"/>
		<path style="&st17;" d="M386.407,162.52c0,0,27.464-7.34,31.066-8.667c5.066-1.867,9.467,3.067,14,1.6     c2.97-0.961,18.082-6.124,20.533-7.067c5.2-2,6.533,3.2,6.533,5.2s0.267,24.934,0.267,26.667c0,1.732-1.333,5.467-6.133,7.199     c-4.8,1.733-94.2,31.801-95.934,32.2c-1.733,0.4-5.6-0.399-6.133-5.6s-1.4-24.067-1.4-26.467c0-5.467,3.2-8.4,6-9.467     s18.044-4.802,21.467-6C382.007,170.252,380.74,164.386,386.407,162.52z"/>
		<path style="&st17;" d="M349.307,190.453c2.101,0.9,5.967,2.5,10.067,1.4c5.255-1.41,33.8-8.8,36.5-9.6     c2.7-0.801,3.1-3.098,3.1-4.7c0-1.7-0.61-10.21-0.8-12.101c-0.267-2.666-3.667-4.933-6.367-4.333"/>
		<path style="&st17;" d="M354.007,190.753c0,0,0-4.067,0-4.967c0-0.9,0.7-4.634,4.4-5.733c3.7-1.101,17.267-4.567,20.467-5.367     s4.2-2.2,5-3.7s1.533-4.643,3.866-5.466c1.325-0.468,4.877-1.496,6.4-1.801c1.333-0.266,2.533,0.4,3.199,1.534"/>
		<path style="&st17;" d="M395.707,206.653c2.4-0.899,3.4-2.7,3.4-4.899c0-2.2-1.634-20.167-1.634-20.167"/>
	</g>
	<path style="&st7;" d="M382.02,80.384c-1.228-0.557-3.933-1.232-5.02-1.561c-11.848-3.584-116.743-29.4-133.75-32.801    c-1.033-0.207-2.066-0.413-2.891-0.413c-0.827,0-1.652,0.206-2.48,0.619"/>
	<path style="&st7;" d="M360.157,84.512c-1.228-0.558-4.38-1.674-5.467-2.009c-15.565-4.785-113.673-27.587-131.062-32.555    c-1.446-0.415-2.48-0.826-3.513-0.621c-1.032,0.206-2.272,0.414-3.512,0.827"/>
	<path style="&st7;" d="M339.855,88.973c-1.452-0.668-5.064-2.118-6.691-2.563c-11.379-3.124-103.229-25.761-127.557-32.261    c-1.81-0.483-3.05-0.483-4.289-0.483c-1.239,0-2.893,0.414-4.338,1.034"/>
	<path style="&st1;" d="M382.02,80.384c-1.228-0.557-3.933-1.232-5.02-1.561c-11.848-3.584-116.743-29.4-133.75-32.801    c-1.033-0.207-2.066-0.413-2.891-0.413c-0.827,0-1.652,0.206-2.48,0.619"/>
	<path style="&st1;" d="M360.157,84.512c-1.228-0.558-4.38-1.674-5.467-2.009c-15.565-4.785-113.673-27.587-131.062-32.555    c-1.446-0.415-2.48-0.826-3.513-0.621c-1.032,0.206-2.272,0.414-3.512,0.827"/>
	<path style="&st1;" d="M339.855,88.973c-1.452-0.668-5.064-2.118-6.691-2.563c-11.379-3.124-103.229-25.761-127.557-32.261    c-1.81-0.483-3.05-0.483-4.289-0.483c-1.239,0-2.893,0.414-4.338,1.034"/>
</g>
<g id="キャプション">
	<text transform="matrix(1 0 0 1 331.29 302.7104)"><tspan x="0" y="0" style="&st14; &st16;">Amplifier Antenna Assembly</tspan></text>
	<path style="&st6;" d="M393.817,289.71v-16.5l37.771-171.841"/>
	<path style="&st5;" d="M393.817,289.71v-16.5l37.771-171.841"/>
	<text transform="matrix(1 0 0 1 320.876 17.9395)"><tspan x="0" y="0" style="&st14; &st16;">Antenna Cord Sub-Assembly</tspan></text>
	<path style="&st6;" d="M385.354,23.71v16.5l-37.026,22.495"/>
	<path style="&st5;" d="M385.354,23.71v16.5l-37.026,22.495"/>
	<path style="&st6;" d="M153.016,23.71v16.5l17.311,39.662"/>
	<path style="&st5;" d="M153.016,23.71v16.5l17.311,39.662"/>
	<text transform="matrix(1 0 0 1 88.5386 17.9395)"><tspan x="0" y="0" style="&st14; &st16;">Antenna Cord Sub-Assembly</tspan></text>
</g>
</svg>